
Block: 1
======================================
100.330231786
95.6550651789
97.7696281672
100.367401838
95.4650849104
100.22698164
96.712346673
98.6493194103
96.6793066263
100.280671716
96.0185056925
98.9797198772
96.4191162586
98.5460692644
98.5832393169
97.2327274084
97.7159380913
97.8563582897
95.4609549046
98.8392996788
95.0851243734
100.747362375
93.2142317295
99.4133704901
94.0980529785

Block: 2
======================================
100.313711762
94.5812636614
96.5058463812
94.3706333637
97.3359775543
93.3009618521
98.5501992702
95.2048945427
97.7159380913
94.7010338306
100.280671716
94.7010338306
100.350881815
95.551815033
99.9172312021
97.2492474318
97.7159380913
100.334361792
95.9648156166
99.0127599239
97.6787680387
97.2451174259
98.1330686808
98.1495887041
98.1330686808

Block: 3
======================================
100.297191739
94.5275735855
99.9172312021
94.4243234396
98.7732195854
93.5570222139
100.297191739
96.2250059843
97.3029375076
96.0680657625
98.7566995621
95.6881052256
98.0793786049
98.1289386749
97.6994180679
97.2492474318
99.5001006126
97.2492474318
97.7159380913
98.5625892878
96.7825567722
98.6162793636
96.7990767956
99.5001006126
96.7825567722

Block: 4
======================================
100.334361792
95.5146449804
98.479989171
96.6090965271
98.3395689726
95.828525424
97.369017601
96.9023269415
96.9890570641
97.2492474318
98.8558197021
95.9111255407
98.8269096613
95.5642050505
98.4634691477
99.0705800056
95.8450454473
100.383921862
97.1790373325
99.5001006126
96.3654261827
99.4835805893
95.9152555466
100.367401838
95.4650849104

Block: 5
======================================
99.8470211029
94.7340738773
100.730842352
94.3912833929
100.334361792
95.324664712
99.4835805893
95.3618347645
98.0298185349
96.6751766205
97.2162073851
95.828525424
96.9023269415
97.0055770874
97.3359775543
97.8935283422
96.5223664045
101.164492965
95.5311650038
99.0003699064
97.2822874784
97.6663780212
97.7159380913
97.9224383831
97.9059183598

Block: 6
======================================
100.317841768
96.0887157917
99.2936003208
96.1217558384
98.3932590485
97.2162073851
97.6292079687
98.6204093695
96.3489061594
98.3395689726
95.3948748112
99.3803304434
94.0980529785
99.8098510504
95.1016443968
100.693672299
95.4113948345
99.8841911554
94.110442996
99.4298905134
95.5352950096
99.0334099531
96.8321168423
99.0168899298
95.9482955933

Block: 7
======================================
100.313711762
95.0314342976
98.9631998539
96.208485961
98.6864894629
96.9890570641
100.747362375
95.0314342976
99.4670605659
97.6126879454
97.7159380913
96.4191162586
97.2822874784
96.5884464979
96.1919659376
96.8692868948
97.4557477236
95.5848550797
99.1903501749
95.2379345894
98.9466798306
97.6126879454
97.369017601
98.909509778
96.9188469648

Block: 8
======================================
100.330231786
94.5812636614
99.9007111788
95.1512044668
99.3803304434
96.6793066263
98.1330686808
97.1790373325
98.6699694395
96.6793066263
99.5331406593
97.6292079687
97.3524975777
97.2822874784
96.3984662294
101.214053035
93.6272323132
99.8635411263
94.8744940758
98.9962399006
95.8120054007
97.7159380913
95.5848550797
100.730842352
96.0019856691

Block: 9
======================================
100.317841768
94.2178231478
99.8139810562
95.2751046419
100.367401838
94.4243234396
99.9337512255
95.4816049337
99.0334099531
96.3654261827
98.5997593403
98.0793786049
97.2988075018
98.5460692644
97.3029375076
98.5625892878
97.1625173092
97.0757871866
97.1955573559
98.0091685057
96.8321168423
98.0463385582
96.3117361069
97.6498579979
95.8615654707

Block: 10
======================================
99.8470211029
95.4113948345
98.6534494162
97.2988075018
97.2492474318
97.1459972858
98.1330686808
98.9631998539
95.9317755699
98.9466798306
97.7696281672
97.6498579979
99.0664499998
96.3654261827
98.909509778
98.5997593403
97.2285974026
98.1000286341
98.0793786049
95.3081446886
98.5997593403
95.3081446886
98.1867587566
95.7417953014
98.2363188267
