
Block: 1
======================================
99.8841911554
91.8761098385
97.3153275251
93.8172125816
97.8191882372
92.8177511692
99.4629305601
94.3045532703
99.4835805893
93.226621747

Average distance is : 96.001 cm
Average deviation is : 3.104 cm
Block: 2
======================================
100.313711762
94.9281841516
99.4670605659
95.6715852022
101.181012988
93.6602723598
99.4298905134
95.9524255991
99.8800611496
95.8450454473

Average distance is : 97.633 cm
Average deviation is : 2.675 cm
Block: 3
======================================
100.768012404
92.5534307957
98.4428191185
94.4408434629
98.1991487741
94.8786240816
98.2900089025
95.5848550797
98.2900089025
94.9777442217

Average distance is : 96.643 cm
Average deviation is : 2.510 cm
Block: 4
======================================
99.8470211029
95.0644743443
99.8965811729
95.2751046419
100.330231786
93.9576327801
99.9337512255
95.4113948345
99.0168899298
96.6751766205

Average distance is : 97.541 cm
Average deviation is : 2.493 cm
Block: 5
======================================
100.784532428
92.0000100136
99.4835805893
93.4000819921
100.730842352
91.6200494766
99.8470211029
93.6974424124
101.181012988
90.3686577082

Average distance is : 96.311 cm
Average deviation is : 4.435 cm
Block: 6
======================================
100.330231786
94.5977836847
99.3968504667
96.6256165504
98.3932590485
95.8946055174
99.3803304434
98.20327878
97.5053077936
97.8191882372

Average distance is : 97.815 cm
Average deviation is : 1.742 cm
Block: 7
======================================
100.330231786
92.8466612101
97.7531081438
94.1806530952
97.4392277002
94.1310930252
98.0793786049
94.667993784
98.6534494162
92.8466612101

Average distance is : 96.093 cm
Average deviation is : 2.659 cm
Block: 8
======================================
99.8635411263
94.944704175
98.5667192936
96.9560170174
97.1253472567
98.0628585815
97.6126879454
98.6864894629
100.210461617
95.9978556633

Average distance is : 97.803 cm
Average deviation is : 1.637 cm
Block: 9
======================================
99.8800611496
92.7434110641
97.2285974026
94.5771336555
98.3230489492
92.293240428
98.1495887041
97.4227076769
96.9560170174
97.4061876535

Average distance is : 96.498 cm
Average deviation is : 2.481 cm
Block: 10
======================================
101.214053035
91.4796292782
98.5997593403
95.6220251322
97.5755178928
94.7877639532
98.5997593403
95.6881052256
98.632799387
94.0443629026

Average distance is : 96.624 cm
Average deviation is : 2.832 cm
Average distance for 10x10 is : 96.896 cm
Average deviation for 10x10 is : 2.657 cm
 Percentage of values that failed: 0.000