
Block: 1
======================================
400.280280638
400.349017024
400.721002173
400.231760836
400.280280638
400.737175441
400.280280638
400.26410737
400.284323955
400.349017024

Average distance is : 400.378 cm
Average deviation is : 0.189 cm
Block: 2
======================================
400.26410737
400.316670489
400.721002173
400.312627172
400.688655639
400.332843757
400.280280638
400.704828906
400.704828906
401.145550442

Average distance is : 400.547 cm
Average deviation is : 0.291 cm
Block: 3
======================================
400.721002173
400.721002173
400.72504549
400.721002173
401.145550442
400.704828906
400.72504549
400.704828906
400.721002173
400.773565292

Average distance is : 400.766 cm
Average deviation is : 0.135 cm
Block: 4
======================================
400.688655639
400.721002173
400.78973856
400.26410737
400.280280638
400.300497222
400.247934103
401.145550442
400.280280638
400.260064054

Average distance is : 400.498 cm
Average deviation is : 0.316 cm
Block: 5
======================================
400.688655639
400.72504549
400.296453905
401.994646978
400.672482371
400.737175441
400.316670489
400.688655639
400.688655639
400.688655639

Average distance is : 400.750 cm
Average deviation is : 0.467 cm
Block: 6
======================================
400.704828906
400.704828906
400.721002173
400.704828906
401.129377174
400.757392025
400.280280638
401.145550442
401.586271977
400.72504549

Average distance is : 400.846 cm
Average deviation is : 0.355 cm
Block: 7
======================================
401.129377174
401.586271977
401.586271977
400.704828906
401.113203907
401.161723709
400.721002173
401.161723709
400.672482371
400.704828906

Average distance is : 401.054 cm
Average deviation is : 0.349 cm
Block: 8
======================================
400.26410737
401.145550442
401.553925443
400.280280638
400.737175441
401.10916059
400.72504549
400.704828906
400.280280638
401.145550442

Average distance is : 400.795 cm
Average deviation is : 0.441 cm
Block: 9
======================================
400.280280638
401.145550442
401.57009871
401.145550442
400.78973856
400.26410737
401.129377174
400.757392025
400.684612322
401.129377174

Average distance is : 400.890 cm
Average deviation is : 0.414 cm
Block: 10
======================================
401.149593759
400.704828906
400.688655639
401.129377174
400.704828906
401.145550442
402.536451435
400.741218758
401.149593759
400.704828906

Average distance is : 401.065 cm
Average deviation is : 0.560 cm