
Block: 1
======================================
401.129377174
400.672482371
400.704828906
401.994646978
401.57009871
401.129377174
401.214286828
401.553925443
401.57009871
401.590315294
401.198113561
400.688655639
401.553925443
401.09703064
401.129377174
401.113203907
401.553925443
400.684612322
401.566055393
401.566055393
401.553925443
401.129377174
401.198113561
401.177896976
400.688655639

Average distance is : 401.241 cm
Average deviation is : 0.361 cm
Block: 2
======================================
400.688655639
401.113203907
401.113203907
400.704828906
401.210243511
401.10916059
401.57009871
401.214286828
400.688655639
401.586271977
401.194070244
400.684612322
401.194070244
400.668439054
401.214286828
401.57009871
401.129377174
401.113203907
401.57009871
401.549882126
401.10916059
401.10916059
400.721002173
400.668439054
401.181940293

Average distance is : 401.107 cm
Average deviation is : 0.313 cm
Block: 3
======================================
400.227717519
401.177896976
400.26410737
401.09703064
400.668439054
400.672482371
400.688655639
400.231760836
400.704828906
400.704828906
400.773565292
400.668439054
400.672482371
400.668439054
400.211544251
400.684612322
400.243890786
400.708872223
400.247934103
400.668439054
400.668439054
400.227717519
400.26410737
400.668439054
400.704828906

Average distance is : 400.581 cm
Average deviation is : 0.269 cm
Block: 4
======================================
401.145550442
401.129377174
400.284323955
400.26410737
400.247934103
400.26410737
401.553925443
400.688655639
400.672482371
400.26410737
400.672482371
401.129377174
400.227717519
400.231760836
400.227717519
400.247934103
401.129377174
400.672482371
401.129377174
401.553925443
400.688655639
400.688655639
400.668439054
400.672482371
401.181940293

Average distance is : 400.705 cm
Average deviation is : 0.430 cm
Block: 5
======================================
401.129377174
400.231760836
400.26410737
400.688655639
400.668439054
400.672482371
400.688655639
400.688655639
400.672482371
400.688655639
400.704828906
400.668439054
400.668439054
400.688655639
400.688655639
400.688655639
400.688655639
401.537752175
401.129377174
400.26410737
401.177896976
400.26410737
400.704828906
401.161723709
401.230460095

Average distance is : 400.746 cm
Average deviation is : 0.325 cm
Block: 6
======================================
400.721002173
400.704828906
400.72504549
400.737175441
400.26410737
400.72504549
401.586271977
400.773565292
401.230460095
400.721002173
400.280280638
400.280280638
400.704828906
400.72504549
400.737175441
400.721002173
400.26410737
400.26410737
400.300497222
400.72504549
400.704828906
400.296453905
400.349017024
400.741218758
400.280280638

Average distance is : 400.623 cm
Average deviation is : 0.321 cm
Block: 7
======================================
400.296453905
400.316670489
401.194070244
400.280280638
400.296453905
401.198113561
400.32880044
400.316670489
400.296453905
400.316670489
400.365190291
400.316670489
400.296453905
400.349017024
400.369233608
400.32880044
400.365190291
400.349017024
400.296453905
400.296453905
400.741218758
400.312627172
400.300497222
400.721002173
400.349017024

Average distance is : 400.424 cm
Average deviation is : 0.260 cm
Block: 8
======================================
400.704828906
400.704828906
400.741218758
400.737175441
400.280280638
400.332843757
400.280280638
400.280280638
400.300497222
400.284323955
400.26410737
401.161723709
401.602445245
400.349017024
401.214286828
400.688655639
400.704828906
400.721002173
400.704828906
400.704828906
400.26410737
400.688655639
400.704828906
401.129377174
400.26410737

Average distance is : 400.633 cm
Average deviation is : 0.357 cm
Block: 9
======================================
400.769521976
400.688655639
400.737175441
400.704828906
401.57009871
400.704828906
400.260064054
401.586271977
400.721002173
400.721002173
401.145550442
401.145550442
400.769521976
401.194070244
401.57009871
400.72504549
400.704828906
400.280280638
400.688655639
401.145550442
400.753348708
400.72504549
400.704828906
400.704828906
400.769521976

Average distance is : 400.860 cm
Average deviation is : 0.347 cm
Block: 10
======================================
400.704828906
400.32880044
401.129377174
400.668439054
400.704828906
400.26410737
401.194070244
400.684612322
400.26410737
400.260064054
400.684612322
400.757392025
400.247934103
400.26410737
400.247934103
400.26410737
400.721002173
400.704828906
401.113203907
401.145550442
400.247934103
400.688655639
400.704828906
400.684612322
400.672482371

Average distance is : 400.614 cm
Average deviation is : 0.311 cm