
Block: 1
======================================
401.145550442
400.688655639
401.145550442
400.688655639
401.214286828
400.704828906
400.704828906
400.704828906
401.638835096
400.721002173
401.214286828
401.145550442
401.618618512
400.704828906
400.704828906
400.78973856
400.721002173
401.145550442
401.129377174
400.78973856
401.57009871
400.721002173
400.757392025
400.704828906
400.704828906
400.704828906
400.688655639
400.721002173
400.704828906
400.704828906
401.194070244
400.684612322
401.655008364
400.684612322
401.638835096
400.757392025
400.704828906
400.704828906
401.57009871
401.129377174
400.704828906
400.704828906
400.704828906
400.704828906
401.145550442
401.113203907
401.129377174
400.668439054
400.684612322
401.129377174
400.704828906
401.129377174
400.688655639
400.78973856
401.586271977
401.181940293
401.145550442
401.113203907
401.125333858
400.652265787
401.125333858
401.994646978
400.652265787
401.962300444
401.129377174
401.125333858
401.145550442
401.129377174
401.165767026
401.113203907
400.668439054
401.10916059
401.10916059
401.145550442
401.57009871
400.672482371
402.010820246
400.688655639
401.129377174
400.668439054
401.549882126
401.129377174
401.129377174
400.672482371
401.974430394
401.129377174
401.638835096
400.773565292
400.688655639
400.78973856
401.145550442
401.129377174
400.688655639
400.688655639
401.622661829
400.704828906
401.214286828
401.129377174
400.773565292
400.684612322

Block: 2
======================================
400.688655639
400.78973856
401.129377174
402.435368514
401.198113561
400.769521976
400.684612322
400.704828906
401.586271977
400.78973856
400.231760836
400.704828906
400.704828906
400.247934103
401.145550442
401.145550442
401.145550442
400.721002173
401.618618512
401.145550442
400.78973856
400.26410737
401.161723709
401.553925443
400.773565292
400.773565292
401.149593759
400.26410737
400.26410737
400.769521976
400.773565292
401.590315294
400.26410737
400.721002173
400.769521976
400.280280638
400.26410737
400.704828906
400.26410737
400.26410737
400.280280638
401.161723709
400.26410737
400.72504549
400.721002173
402.026993513
400.280280638
400.247934103
400.721002173
400.26410737
400.260064054
400.26410737
400.243890786
400.284323955
400.26410737
401.161723709
400.247934103
400.26410737
400.78973856
400.72504549
400.26410737
400.26410737
400.231760836
400.721002173
400.300497222
400.316670489
400.26410737
400.26410737
400.247934103
400.688655639
400.247934103
400.247934103
400.704828906
400.72504549
400.704828906
400.704828906
400.247934103
400.280280638
400.704828906
400.247934103
400.704828906
400.757392025
400.721002173
400.704828906
400.247934103
400.332843757
400.688655639
400.26410737
400.227717519
400.243890786
401.586271977
400.721002173
400.704828906
400.708872223
400.704828906
400.312627172
400.243890786
400.243890786
400.26410737
400.26410737

Block: 3
======================================
400.672482371
400.243890786
400.243890786
401.161723709
400.684612322
400.247934103
400.688655639
401.214286828
401.145550442
400.26410737
400.260064054
401.125333858
400.684612322
400.684612322
400.704828906
400.26410737
400.757392025
401.129377174
400.688655639
400.688655639
400.247934103
400.26410737
400.26410737
400.227717519
400.704828906
401.57009871
400.247934103
400.688655639
400.247934103
400.78973856
400.231760836
400.26410737
400.247934103
401.129377174
400.26410737
400.72504549
400.284323955
400.332843757
400.243890786
401.145550442
401.161723709
400.688655639
401.165767026
400.332843757
400.280280638
401.165767026
400.721002173
400.296453905
400.349017024
400.280280638
400.300497222
401.161723709
400.704828906
400.721002173
401.586271977
400.721002173
400.284323955
400.296453905
400.280280638
400.332843757
400.332843757
400.280280638
400.704828906
400.280280638
400.296453905
400.296453905
400.704828906
400.704828906
400.721002173
400.737175441
400.704828906
400.284323955
400.349017024
400.349017024
400.369233608
400.737175441
400.344973707
400.280280638
400.349017024
400.365190291
400.349017024
400.737175441
400.332843757
400.72504549
400.296453905
400.26410737
400.300497222
400.296453905
400.365190291
400.280280638
400.365190291
400.300497222
400.365190291
400.312627172
400.284323955
400.296453905
400.300497222
400.296453905
400.280280638
400.300497222

Block: 4
======================================
401.161723709
400.349017024
401.194070244
400.280280638
400.26410737
400.332843757
400.26410737
401.145550442
400.247934103
400.704828906
401.161723709
401.145550442
400.300497222
400.704828906
400.332843757
401.177896976
400.704828906
400.708872223
400.721002173
400.349017024
400.721002173
400.349017024
401.177896976
401.145550442
400.688655639
400.704828906
400.704828906
400.721002173
400.280280638
400.284323955
400.737175441
400.704828906
400.296453905
400.26410737
400.26410737
400.227717519
400.300497222
400.72504549
400.704828906
400.26410737
401.165767026
401.230460095
400.737175441
400.369233608
400.741218758
400.78973856
400.769521976
400.805911827
400.296453905
400.721002173
400.704828906
400.332843757
400.332843757
401.586271977
401.165767026
400.721002173
400.312627172
400.26410737
400.721002173
400.349017024
400.280280638
400.280280638
401.177896976
400.349017024
400.737175441
400.721002173
400.247934103
400.349017024
400.78973856
401.602445245
400.769521976
400.26410737
400.72504549
400.809955144
400.26410737
400.26410737
400.721002173
400.26410737
400.72504549
400.280280638
400.280280638
400.721002173
400.769521976
400.753348708
400.32880044
400.26410737
400.280280638
400.260064054
400.72504549
400.26410737
401.145550442
400.721002173
400.704828906
400.704828906
400.721002173
400.688655639
400.704828906
400.769521976
400.757392025
400.721002173

Block: 5
======================================
400.672482371
400.652265787
400.72504549
400.704828906
400.704828906
400.688655639
400.668439054
400.688655639
400.757392025
400.773565292
400.842301679
401.129377174
402.010820246
400.757392025
400.753348708
401.113203907
400.757392025
400.672482371
400.688655639
400.672482371
400.26410737
400.688655639
400.672482371
401.994646978
400.688655639
401.10916059
401.129377174
400.656309104
402.010820246
400.757392025
401.978473711
400.704828906
400.757392025
400.773565292
401.145550442
401.181940293
401.10916059
401.125333858
401.113203907
401.129377174
400.757392025
401.113203907
400.721002173
401.10916059
401.113203907
401.161723709
400.672482371
400.668439054
400.704828906
401.10916059
401.113203907
401.129377174
401.194070244
400.672482371
400.668439054
400.668439054
401.113203907
401.974430394
401.092987323
401.113203907
401.129377174
401.113203907
401.113203907
401.57009871
401.113203907
401.113203907
401.092987323
401.113203907
401.129377174
401.214286828
400.688655639
400.672482371
400.672482371
400.684612322
401.198113561
401.602445245
401.129377174
401.113203907
401.10916059
401.553925443
400.753348708
400.656309104
400.652265787
400.652265787
400.656309104
400.688655639
400.684612322
401.113203907
400.737175441
401.113203907
400.688655639
401.092987323
401.57009871
401.57009871
401.129377174
401.533708858
400.656309104
401.125333858
401.129377174
401.533708858

Block: 6
======================================
401.553925443
400.688655639
401.129377174
401.10916059
401.622661829
401.10916059
401.113203907
401.129377174
401.113203907
401.533708858
401.113203907
401.533708858
400.652265787
400.672482371
400.672482371
401.125333858
401.113203907
401.113203907
401.10916059
401.113203907
401.129377174
402.398978662
400.704828906
400.688655639
401.129377174
401.177896976
401.113203907
400.652265787
401.129377174
400.652265787
400.688655639
400.688655639
400.672482371
400.688655639
400.688655639
401.145550442
400.672482371
401.129377174
401.113203907
400.656309104
401.10916059
401.129377174
401.129377174
401.10916059
401.10916059
400.672482371
401.113203907
400.769521976
401.978473711
400.672482371
400.688655639
400.737175441
400.672482371
401.113203907
400.688655639
400.688655639
400.741218758
400.721002173
400.757392025
401.113203907
400.721002173
400.684612322
400.26410737
400.688655639
401.553925443
400.688655639
401.145550442
400.26410737
401.129377174
400.704828906
400.227717519
400.704828906
400.231760836
401.553925443
400.243890786
400.231760836
400.227717519
400.741218758
400.243890786
400.704828906
400.26410737
400.672482371
400.688655639
400.247934103
401.113203907
400.26410737
400.721002173
400.231760836
400.688655639
400.672482371
400.672482371
401.129377174
400.247934103
400.688655639
401.198113561
400.668439054
400.316670489
401.129377174
401.113203907
400.688655639

Block: 7
======================================
400.211544251
400.243890786
400.753348708
400.26410737
400.231760836
401.194070244
400.688655639
400.672482371
401.177896976
400.231760836
400.227717519
400.737175441
400.247934103
400.211544251
400.029594994
400.247934103
401.549882126
401.161723709
400.684612322
401.145550442
400.672482371
400.672482371
400.688655639
402.419195247
400.215587568
402.403021979
400.211544251
400.704828906
400.688655639
400.652265787
400.652265787
400.72504549
401.113203907
400.652265787
400.672482371
400.672482371
400.741218758
400.668439054
400.668439054
400.231760836
400.211544251
401.521578908
400.688655639
400.231760836
400.668439054
400.668439054
400.741218758
400.684612322
400.668439054
400.211544251
400.231760836
401.521578908
401.129377174
401.181940293
401.10916059
400.243890786
400.247934103
400.300497222
400.769521976
401.129377174
400.247934103
400.26410737
400.688655639
400.312627172
400.684612322
400.227717519
400.247934103
400.247934103
400.684612322
400.211544251
400.26410737
400.757392025
400.247934103
400.231760836
400.26410737
400.332843757
400.688655639
401.549882126
400.312627172
400.316670489
400.247934103
400.247934103
400.688655639
400.668439054
400.684612322
400.684612322
400.668439054
400.753348708
400.704828906
400.721002173
400.231760836
400.757392025
400.78973856
400.26410737
400.231760836
400.26410737
400.26410737
400.247934103
400.312627172
401.194070244

Block: 8
======================================
401.145550442
400.668439054
400.300497222
400.26410737
401.129377174
400.26410737
400.688655639
400.688655639
400.247934103
401.177896976
400.704828906
400.704828906
400.316670489
401.129377174
400.247934103
400.247934103
400.247934103
400.231760836
400.231760836
401.177896976
400.247934103
401.145550442
400.296453905
400.773565292
400.26410737
401.145550442
400.247934103
400.231760836
400.280280638
400.688655639
400.247934103
401.113203907
401.129377174
401.994646978
400.26410737
400.704828906
400.684612322
400.247934103
400.753348708
400.773565292
400.247934103
400.247934103
400.721002173
400.688655639
400.684612322
400.688655639
400.688655639
401.553925443
400.231760836
400.247934103
400.757392025
400.247934103
400.688655639
401.194070244
400.284323955
400.668439054
400.684612322
401.10916059
401.125333858
401.129377174
401.129377174
400.688655639
401.145550442
400.741218758
401.994646978
401.113203907
401.129377174
401.10916059
401.63479178
401.113203907
401.129377174
400.688655639
401.113203907
401.145550442
400.757392025
400.704828906
400.688655639
401.129377174
400.247934103
400.757392025
400.773565292
400.721002173
400.704828906
400.688655639
400.684612322
400.684612322
400.704828906
401.129377174
401.113203907
400.704828906
400.773565292
400.773565292
401.129377174
401.214286828
400.773565292
400.72504549
400.753348708
400.704828906
400.78973856
400.26410737

Block: 9
======================================
400.704828906
401.517535591
400.757392025
400.26410737
401.586271977
400.280280638
401.145550442
401.161723709
401.230460095
400.721002173
400.704828906
400.704828906
401.161723709
400.704828906
401.161723709
400.721002173
400.78973856
400.923168015
400.721002173
400.247934103
400.704828906
400.773565292
400.704828906
400.721002173
401.194070244
400.704828906
400.704828906
401.149593759
401.586271977
400.757392025
400.737175441
400.688655639
400.704828906
400.721002173
400.704828906
400.704828906
401.602445245
401.113203907
400.688655639
401.586271977
401.161723709
400.704828906
400.704828906
400.704828906
400.684612322
400.688655639
400.688655639
400.721002173
400.773565292
400.704828906
400.688655639
400.704828906
401.214286828
400.704828906
400.704828906
401.63479178
401.990603662
401.125333858
400.753348708
401.129377174
401.145550442
400.672482371
401.198113561
401.129377174
401.57009871
401.194070244
401.113203907
400.688655639
401.165767026
400.684612322
401.129377174
401.10916059
400.688655639
401.57009871
400.704828906
401.129377174
400.688655639
401.57009871
401.57009871
401.125333858
401.129377174
400.668439054
401.974430394
401.125333858
401.145550442
401.161723709
400.656309104
401.129377174
401.129377174
401.129377174
401.994646978
401.129377174
400.721002173
401.618618512
401.129377174
401.994646978
401.586271977
401.129377174
400.688655639
400.757392025

Block: 10
======================================
401.586271977
400.672482371
400.737175441
400.757392025
400.704828906
400.704828906
400.737175441
400.704828906
400.26410737
401.129377174
400.704828906
400.688655639
400.757392025
400.26410737
400.688655639
400.672482371
400.688655639
401.994646978
400.737175441
401.125333858
400.757392025
400.688655639
400.704828906
400.688655639
400.688655639
401.145550442
401.113203907
400.741218758
401.129377174
400.704828906
400.757392025
400.757392025
400.737175441
400.672482371
400.672482371
401.129377174
400.688655639
402.435368514
400.684612322
400.704828906
400.26410737
400.684612322
400.704828906
401.602445245
400.757392025
401.10916059
401.638835096
400.688655639
400.753348708
400.757392025
401.113203907
400.757392025
400.652265787
400.672482371
401.113203907
400.704828906
400.757392025
400.704828906
400.688655639
401.129377174
401.129377174
401.10916059
401.092987323
400.741218758
401.177896976
401.092987323
401.092987323
401.129377174
401.113203907
400.688655639
400.688655639
400.753348708
400.656309104
400.688655639
400.668439054
400.668439054
400.688655639
400.668439054
400.668439054
400.672482371
400.672482371
401.113203907
401.113203907
400.684612322
400.672482371
400.656309104
401.553925443
400.668439054
401.113203907
400.656309104
400.668439054
400.652265787
401.09703064
401.125333858
401.092987323
400.688655639
401.092987323
400.672482371
401.10916059
400.672482371
