
Block: 1
======================================
299.63441081
299.256366825
176.005897617
298.898647785
177.266044235
298.38645916
179.806662416
298.849867916
180.217226315
298.845802927

Block: 2
======================================
299.207586956
299.666930723
180.200966358
298.83360796
179.619672918
296.801113415
299.699450636
178.599360657
298.83360796
179.347318649

Block: 3
======================================
299.666930723
178.461151028
299.276691771
180.196901369
298.898647785
180.164381456
297.605981255
183.217188263
295.455602026
181.80257206

Block: 4
======================================
299.715710592
175.375824308
300.061234665
177.778232861
298.406784105
179.688777733
298.134429836
182.278175783
296.394614506
181.424528074

Block: 5
======================================
299.715710592
179.908287144
298.748243189
181.631842518
298.301094389
175.969312716
298.817348003
178.989599609
297.195417356
179.294473791

Block: 6
======================================
299.68319068
177.965222359
299.76855545
178.034327173
299.32547164
183.131823492
295.118207932
184.822858953
293.410912514
185.843171215

Block: 7
======================================
299.715710592
178.392046213
297.553136396
177.383928919
298.780763102
299.703515625
178.083107042
299.272626781
180.233486271
261.57798295

Block: 8
======================================
299.223846912
179.688777733
299.292951727
181.034289122
297.264522171
299.650670767
176.075002432
299.244171858
177.33514905
299.191327

Block: 9
======================================
299.670995712
180.1481215
298.914907742
179.737557602
299.32547164
179.737557602
298.902712774
179.347318649
298.882387829
180.079016685

Block: 10
======================================
299.699450636
176.684750795
299.154742098
179.042444468
297.927115393
180.270071173
297.569396353
182.331020641
296.341769648
299.687255669
