
Block: 1
======================================
299.666930723
299.650670767
299.68319068
299.666930723
299.276691771
299.276691771
299.666930723
299.703515625
299.68319068
299.272626781
299.256366825
299.650670767
299.244171858
299.244171858
299.699450636
299.240106869
299.276691771
299.292951727
299.256366825
299.666930723
299.260431814
299.223846912
299.650670767
299.207586956
299.666930723
299.703515625
299.650670767
299.666930723
299.276691771
299.223846912
299.240106869
299.68319068
299.650670767
299.650670767
299.244171858
299.63441081
299.666930723
299.68319068
299.240106869
299.666930723
299.650670767
299.260431814
299.703515625
299.666930723
299.666930723
299.223846912
299.223846912
299.223846912
299.687255669
299.223846912

Average distance is : 299.476 cm
Average deviation is : 0.213 cm
Block: 2
======================================
299.650670767
299.666930723
299.63441081
299.666930723
299.650670767
299.650670767
299.63441081
299.63441081
299.630345821
299.68319068
299.68319068
299.240106869
299.703515625
299.240106869
299.68319068
299.68319068
299.68319068
299.68319068
299.699450636
299.666930723
299.68319068
299.223846912
299.666930723
299.666930723
299.240106869
299.650670767
299.650670767
299.646605778
299.666930723
299.68319068
299.699450636
299.68319068
299.207586956
299.223846912
299.666930723
299.63441081
299.666930723
299.223846912
299.666930723
299.256366825
299.207586956
299.63441081
299.687255669
299.699450636
299.240106869
299.68319068
299.666930723
299.240106869
299.687255669
299.666930723

Average distance is : 299.572 cm
Average deviation is : 0.184 cm
Block: 3
======================================
299.256366825
299.68319068
299.666930723
299.666930723
299.63441081
299.650670767
299.650670767
299.244171858
299.687255669
299.223846912
299.650670767
299.63441081
299.666930723
299.666930723
299.666930723
299.207586956
299.63441081
299.630345821
299.240106869
299.650670767
299.666930723
299.244171858
299.272626781
299.240106869
299.666930723
299.276691771
299.223846912
299.240106869
299.650670767
299.223846912
299.666930723
299.650670767
299.703515625
299.650670767
299.260431814
299.68319068
299.223846912
299.687255669
299.223846912
299.687255669
299.687255669
299.666930723
299.223846912
299.260431814
299.630345821
299.63441081
299.666930723
299.666930723
299.650670767
299.256366825

Average distance is : 299.510 cm
Average deviation is : 0.205 cm
Block: 4
======================================
299.670995712
299.63441081
299.223846912
299.666930723
299.666930723
299.240106869
299.666930723
299.272626781
299.292951727
299.687255669
299.223846912
299.699450636
299.272626781
299.703515625
299.666930723
299.68319068
299.666930723
299.240106869
299.699450636
299.666930723
299.703515625
299.244171858
299.646605778
299.703515625
299.244171858
299.68319068
299.68319068
299.666930723
299.687255669
299.68319068
299.223846912
299.223846912
299.650670767
299.227911901
299.666930723
299.666930723
299.223846912
299.650670767
299.666930723
299.646605778
299.240106869
299.244171858
299.68319068
299.240106869
299.650670767
299.223846912
299.223846912
299.63441081
299.260431814
299.699450636

Average distance is : 299.509 cm
Average deviation is : 0.212 cm
Block: 5
======================================
299.666930723
299.666930723
299.666930723
299.687255669
299.223846912
299.646605778
299.68319068
299.63441081
299.646605778
299.666930723
299.256366825
299.68319068
299.650670767
299.666930723
299.272626781
299.223846912
299.666930723
299.719775581
299.719775581
299.666930723
299.223846912
299.223846912
299.699450636
299.68319068
299.699450636
299.68319068
299.666930723
299.666930723
299.68319068
299.68319068
299.240106869
299.207586956
299.240106869
299.687255669
299.256366825
299.240106869
299.666930723
299.227911901
299.687255669
299.703515625
299.223846912
299.68319068
299.699450636
299.666930723
299.703515625
299.666930723
299.650670767
299.203521967
299.207586956
299.68319068

Average distance is : 299.544 cm
Average deviation is : 0.207 cm
Block: 6
======================================
299.666930723
299.703515625
299.68319068
299.223846912
299.187262011
299.223846912
299.666930723
299.227911901
299.736035538
299.63441081
299.223846912
299.650670767
299.687255669
299.68319068
299.666930723
299.223846912
299.687255669
299.68319068
299.207586956
299.646605778
299.666930723
299.240106869
299.650670767
299.260431814
299.687255669
299.63441081
299.666930723
299.666930723
299.650670767
299.207586956
299.223846912
299.260431814
299.223846912
299.666930723
299.223846912
299.666930723
299.68319068
299.650670767
299.207586956
299.650670767
299.666930723
299.650670767
299.223846912
299.63441081
299.703515625
299.687255669
299.670995712
299.223846912
299.630345821
299.666930723

Average distance is : 299.517 cm
Average deviation is : 0.213 cm
Block: 7
======================================
299.256366825
299.276691771
299.650670767
299.191327
299.650670767
299.256366825
299.68319068
299.670995712
299.63441081
299.687255669
299.670995712
299.256366825
299.256366825
299.666930723
299.260431814
299.63441081
299.670995712
299.670995712
299.63441081
299.650670767
299.614085865
299.207586956
299.666930723
299.650670767
299.618150854
299.650670767
299.650670767
299.63441081
299.207586956
299.703515625
299.670995712
299.207586956
299.191327
299.666930723
299.614085865
299.68319068
299.207586956
299.687255669
299.187262011
299.240106869
299.175067043
299.63441081
299.703515625
299.650670767
299.650670767
299.223846912
299.63441081
299.630345821
299.68319068
299.223846912

Average distance is : 299.510 cm
Average deviation is : 0.208 cm
Block: 8
======================================
299.63441081
299.670995712
299.650670767
299.666930723
299.666930723
299.630345821
299.650670767
299.650670767
299.223846912
299.630345821
299.207586956
299.670995712
299.670995712
299.650670767
299.630345821
299.207586956
299.650670767
299.618150854
299.650670767
299.191327
299.666930723
299.666930723
299.666930723
299.187262011
299.666930723
299.666930723
299.666930723
299.171002054
299.68319068
299.703515625
299.670995712
299.68319068
299.699450636
299.666930723
299.670995712
299.650670767
299.240106869
299.207586956
299.650670767
299.630345821
299.650670767
299.666930723
299.666930723
299.223846912
299.207586956
299.650670767
299.68319068
299.63441081
299.650670767
299.670995712

Average distance is : 299.569 cm
Average deviation is : 0.184 cm
Block: 9
======================================
299.240106869
299.272626781
299.666930723
299.666930723
299.68319068
299.223846912
299.68319068
299.63441081
299.666930723
299.650670767
299.256366825
299.244171858
299.68319068
299.244171858
299.666930723
299.256366825
299.703515625
299.68319068
299.699450636
299.699450636
299.666930723
299.666930723
299.223846912
299.670995712
299.240106869
299.699450636
299.68319068
299.650670767
299.256366825
299.288886738
299.68319068
299.666930723
299.666930723
299.687255669
299.703515625
299.650670767
299.240106869
299.244171858
299.703515625
299.670995712
299.260431814
299.256366825
299.703515625
299.687255669
299.292951727
299.207586956
299.276691771
299.260431814
299.719775581
299.240106869

Average distance is : 299.508 cm
Average deviation is : 0.213 cm
Block: 10
======================================
299.68319068
299.240106869
299.687255669
299.666930723
299.703515625
299.699450636
299.68319068
299.68319068
299.68319068
299.630345821
299.240106869
299.260431814
299.666930723
299.687255669
299.244171858
299.240106869
299.699450636
299.703515625
299.666930723
299.68319068
299.68319068
299.666930723
299.719775581
299.703515625
299.703515625
299.666930723
299.240106869
299.68319068
299.715710592
299.68319068
299.260431814
299.223846912
299.223846912
299.719775581
299.223846912
299.240106869
299.68319068
299.719775581
299.68319068
299.650670767
299.256366825
299.699450636
299.699450636
299.68319068
299.68319068
299.68319068
299.650670767
299.699450636
299.666930723
299.736035538

Average distance is : 299.580 cm
Average deviation is : 0.193 cm