
Block: 1
======================================
50.4402748108
50.8682928085
50.9423728466
50.8682928085
50.4567370415
50.4567370415
50.4567370415
50.4402748108
50.4402748108
50.8682928085
50.4402748108
50.4361592531
50.4526214838
50.4567370415
50.4567370415
50.4526214838
50.4567370415
50.4567370415
50.4361592531
50.4567370415
50.8847550392
50.4402748108
50.4402748108
50.4238125801
50.4032347918

Average distance is : 50.533 cm
Average deviation is : 0.181 cm
Block: 2
======================================
50.4567370415
50.4402748108
50.4196970224
50.4402748108
50.8189061165
50.8353683472
50.8353683472
50.8189061165
50.7983283281
50.8394839048
50.8394839048
50.8559461355
50.8847550392
50.8189061165
50.8353683472
50.8024438858
50.8888705969
50.8024438858
50.8189061165
50.7859816551
50.8189061165
50.8888705969
50.8024438858
50.8353683472
50.8518305779

Average distance is : 50.769 cm
Average deviation is : 0.150 cm
Block: 3
======================================
50.4032347918
50.4402748108
50.4032347918
50.3867725611
50.4402748108
50.4196970224
50.4073503494
50.3867725611
50.4238125801
50.3703103304
50.4032347918
50.4032347918
50.4073503494
50.4402748108
50.4238125801
50.8518305779
50.4361592531
50.7983283281
50.3867725611
50.8189061165
50.8518305779
50.8189061165
50.8353683472
50.4402748108
50.8353683472

Average distance is : 50.529 cm
Average deviation is : 0.193 cm
Block: 4
======================================
50.4402748108
50.4567370415
50.4032347918
50.4731992722
50.3703103304
50.4196970224
50.8189061165
50.4196970224
50.4238125801
50.8559461355
50.8024438858
50.8353683472
50.8518305779
50.8189061165
50.4073503494
50.8353683472
50.4238125801
50.8189061165
50.8518305779
50.8724083662
50.8559461355
50.8724083662
50.8189061165
50.8189061165
50.8353683472

Average distance is : 50.672 cm
Average deviation is : 0.208 cm
Block: 5
======================================
50.8518305779
50.8518305779
50.8024438858
50.8682928085
50.4238125801
50.8353683472
50.8394839048
50.8024438858
50.4032347918
50.8394839048
50.7859816551
50.4402748108
50.8189061165
50.8353683472
50.8189061165
50.8394839048
50.4196970224
50.8353683472
50.4238125801
50.3867725611
50.4196970224
50.4567370415
50.4402748108
50.4032347918
50.4196970224

Average distance is : 50.650 cm
Average deviation is : 0.208 cm
Block: 6
======================================
50.4402748108
50.4073503494
50.4402748108
50.3867725611
50.4238125801
50.4073503494
50.4032347918
50.8888705969
50.4032347918
50.4032347918
50.4032347918
50.8189061165
50.8024438858
50.4238125801
50.8394839048
50.9053328276
50.8189061165
50.8518305779
50.8353683472
50.3908881187
50.8189061165
50.8724083662
50.8353683472
50.8353683472
50.8024438858

Average distance is : 50.634 cm
Average deviation is : 0.220 cm
Block: 7
======================================
50.8394839048
50.4032347918
50.8394839048
50.8189061165
50.4032347918
50.8353683472
50.8682928085
50.8847550392
50.9053328276
50.8888705969
50.8353683472
50.8189061165
50.8189061165
50.8888705969
50.8724083662
50.8353683472
50.8353683472
50.8189061165
50.8353683472
50.8559461355
50.8559461355
50.8189061165
50.8559461355
50.8189061165
50.8394839048

Average distance is : 50.812 cm
Average deviation is : 0.125 cm
Block: 8
======================================
50.4196970224
50.4032347918
50.4526214838
50.4073503494
50.4361592531
50.4196970224
50.8189061165
50.8518305779
50.8024438858
50.8353683472
50.9382572889
50.8518305779
50.8189061165
50.8189061165
50.8189061165
50.8394839048
50.8353683472
50.8189061165
50.8559461355
50.8189061165
50.8518305779
50.8394839048
50.8353683472
50.8024438858
50.4238125801

Average distance is : 50.721 cm
Average deviation is : 0.191 cm
Block: 9
======================================
50.8189061165
50.4402748108
50.8353683472
50.4238125801
50.4196970224
50.8353683472
51.8724888802
50.8353683472
50.8518305779
50.8724083662
50.8353683472
50.8230216742
50.8353683472
50.8353683472
50.8559461355
50.8024438858
50.8024438858
50.8559461355
50.8189061165
50.8518305779
50.8024438858
50.8724083662
50.8724083662
50.8888705969
50.4196970224

Average distance is : 50.815 cm
Average deviation is : 0.270 cm
Block: 10
======================================
50.4567370415
50.4402748108
49.4566565275
50.4238125801
50.4567370415
50.4073503494
50.4402748108
50.4032347918
50.4073503494
50.4402748108
50.4238125801
50.4032347918
50.4238125801
50.4238125801
50.3867725611
50.4361592531
50.4196970224
50.4238125801
50.4073503494
50.4032347918
50.4567370415
50.4238125801
50.4032347918
50.3867725611
50.4402748108

Average distance is : 50.384 cm
Average deviation is : 0.194 cm