
Block: 1
======================================
100.400441885
101.234703064
100.796922445
100.416961908
100.780402422
100.801052451
100.768012404
101.251223087
100.400441885
100.383921862

Block: 2
======================================
100.383921862
100.763882399
100.57390213
101.181012988
100.834092498
100.780402422
100.763882399
101.234703064
101.230573058
101.234703064

Block: 3
======================================
100.796922445
100.801052451
100.763882399
100.416961908
100.747362375
100.784532428
101.251223087
101.197533011
101.214053035
101.251223087

Block: 4
======================================
100.763882399
101.668353677
100.796922445
100.383921862
100.763882399
100.780402422
101.214053035
101.651833653
100.751492381
100.747362375

Block: 5
======================================
100.817572474
101.214053035
100.726712346
100.383921862
100.747362375
100.747362375
101.230573058
100.367401838
100.400441885
100.383921862

Block: 6
======================================
100.817572474
100.383921862
100.784532428
100.383921862
100.817572474
100.730842352
100.400441885
100.747362375
101.218183041
101.251223087

Block: 7
======================================
100.796922445
101.647703648
100.763882399
100.421091914
101.631183624
100.801052451
100.747362375
100.763882399
101.234703064
101.668353677

Block: 8
======================================
100.747362375
101.614663601
100.763882399
100.350881815
100.801052451
100.747362375
100.763882399
101.214053035
101.214053035
101.214053035

Block: 9
======================================
100.383921862
100.400441885
100.747362375
100.383921862
100.747362375
100.784532428
101.197533011
101.214053035
100.383921862
100.383921862

Block: 10
======================================
100.747362375
101.664223671
100.763882399
100.400441885
100.763882399
100.747362375
101.251223087
101.214053035
100.400441885
101.251223087
