
Block: 1
======================================
300.605943203
299.752295494
299.752295494
300.162859392
299.715710592

Block: 2
======================================
299.752295494
300.179119349
300.146599436
300.622203159
299.719775581

Block: 3
======================================
299.715710592
300.179119349
299.736035538
299.736035538
300.195379305

Block: 4
======================================
300.179119349
300.654723072
300.199444294
299.731970549
300.622203159

Block: 5
======================================
301.06528697
300.231964207
300.654723072
300.142534447
300.658788061

Block: 6
======================================
300.179119349
301.06528697
300.162859392
300.195379305
300.199444294

Block: 7
======================================
300.675048018
300.179119349
299.76855545
300.179119349
300.199444294

Block: 8
======================================
300.195379305
300.654723072
301.06528697
300.211639261
300.658788061

Block: 9
======================================
300.195379305
301.528695726
299.752295494
301.081546926
299.736035538

Block: 10
======================================
300.195379305
301.524630737
300.195379305
300.195379305
300.195379305
