
Block: 1
======================================
301.097806883
300.227899218
300.248224163
301.097806883
299.752295494
300.195379305
300.199444294
300.211639261
299.731970549
300.195379305
300.21570425
300.195379305
300.21570425
300.21570425
300.195379305
301.085611916
300.211639261
299.752295494
300.195379305
300.179119349
300.211639261
300.211639261
300.179119349
299.77262044
300.622203159
299.752295494
301.134391785
300.195379305
300.211639261
300.654723072
300.195379305
299.752295494
300.21570425
300.211639261
300.231964207
300.21570425
300.195379305
300.21570425
300.21570425
300.21570425
300.227899218
299.76855545
300.638463116
299.736035538
300.211639261
300.179119349
300.195379305
300.227899218
300.622203159
300.638463116
300.211639261
300.195379305
300.199444294
299.76855545
300.195379305
300.211639261
299.752295494
300.195379305
300.195379305
299.752295494
300.638463116
300.211639261
300.211639261
300.195379305
300.195379305
300.195379305
300.179119349
300.638463116
300.195379305
300.179119349
300.675048018
300.199444294
300.638463116
300.654723072
299.752295494
300.622203159
300.179119349
299.752295494
300.211639261
301.492110825
300.622203159
299.736035538
301.085611916
299.719775581
300.211639261
299.752295494
299.752295494
300.195379305
300.638463116
299.731970549
300.195379305
299.715710592
300.638463116
300.622203159
300.622203159
300.195379305
300.179119349
300.195379305
300.654723072
299.736035538

Average distance is : 300.244 cm
Average deviation is : 0.361 cm
Block: 2
======================================
301.081546926
300.227899218
301.540890694
300.654723072
299.756360483
300.638463116
300.195379305
300.622203159
300.642528105
300.642528105
300.658788061
299.752295494
300.622203159
299.736035538
300.162859392
301.06528697
300.61813817
300.195379305
300.638463116
300.179119349
299.736035538
300.179119349
299.715710592
300.638463116
300.158794403
300.162859392
299.76855545
299.736035538
300.195379305
300.195379305
301.081546926
301.097806883
300.211639261
300.622203159
301.081546926
300.179119349
301.097806883
300.622203159
301.06528697
301.085611916
299.736035538
300.622203159
301.081546926
300.622203159
300.199444294
299.736035538
300.605943203
300.146599436
300.654723072
300.195379305
300.910817385
301.049027014
300.179119349
301.492110825
300.195379305
300.211639261
301.06528697
300.195379305
300.179119349
300.179119349
300.61813817
302.36201849
301.06528697
299.719775581
300.622203159
301.06528697
301.06528697
300.162859392
300.638463116
300.195379305
301.049027014
300.605943203
300.622203159
300.146599436
300.622203159
299.715710592
300.146599436
301.085611916
300.605943203
301.06528697
301.06528697
301.044962025
300.605943203
301.081546926
301.049027014
299.719775581
300.162859392
301.06528697
300.158794403
300.605943203
301.06528697
300.179119349
301.081546926
300.142534447
300.162859392
300.622203159
300.179119349
300.142534447
300.179119349
300.146599436

Average distance is : 300.512 cm
Average deviation is : 0.498 cm
Block: 3
======================================
300.162859392
300.158794403
300.142534447
300.162859392
300.142534447
300.142534447
300.605943203
301.492110825
300.61813817
300.622203159
300.162859392
300.146599436
301.06528697
300.162859392
300.146599436
301.06528697
301.06528697
300.146599436
300.179119349
301.935194635
301.049027014
300.162859392
300.142534447
301.935194635
300.142534447
301.492110825
301.028702068
301.049027014
301.06528697
301.049027014
301.049027014
300.605943203
300.605943203
301.06528697
300.158794403
301.508370781
300.162859392
301.06528697
300.622203159
300.622203159
301.06528697
301.06528697
300.605943203
300.142534447
300.179119349
300.179119349
301.049027014
300.179119349
301.06528697
301.081546926
300.638463116
299.736035538
300.622203159
300.638463116
299.736035538
301.06528697
300.158794403
300.162859392
300.142534447
300.622203159
300.162859392
301.06528697
300.605943203
301.06528697
299.731970549
301.06528697
300.162859392
300.179119349
300.605943203
300.605943203
300.179119349
300.175054359
300.179119349
300.162859392
300.158794403
300.179119349
300.146599436
300.622203159
300.146599436
300.162859392
300.199444294
300.622203159
301.06528697
300.605943203
300.158794403
300.211639261
301.06528697
301.085611916
301.475850868
300.211639261
301.508370781
301.081546926
299.731970549
301.081546926
300.605943203
301.06528697
300.622203159
300.195379305
300.211639261
300.605943203

Average distance is : 300.578 cm
Average deviation is : 0.493 cm
Block: 4
======================================
300.622203159
300.638463116
300.162859392
300.162859392
300.622203159
300.175054359
300.179119349
300.179119349
300.638463116
300.179119349
300.61813817
300.179119349
300.179119349
301.508370781
300.179119349
300.162859392
300.622203159
300.195379305
300.605943203
300.605943203
300.61813817
300.622203159
300.622203159
301.085611916
300.162859392
300.162859392
300.175054359
300.605943203
300.622203159
300.638463116
300.162859392
300.162859392
300.642528105
300.622203159
301.097806883
300.638463116
301.085611916
301.049027014
299.736035538
300.195379305
300.638463116
300.195379305
300.638463116
300.61813817
299.719775581
300.195379305
300.158794403
300.638463116
300.622203159
300.622203159
300.61813817
300.179119349
299.719775581
300.622203159
301.06528697
299.699450636
299.736035538
300.195379305
301.06528697
300.179119349
300.195379305
301.081546926
300.195379305
300.622203159
299.752295494
301.081546926
300.622203159
300.642528105
300.195379305
300.158794403
301.081546926
299.736035538
300.622203159
300.179119349
300.175054359
300.158794403
300.638463116
300.638463116
300.179119349
300.162859392
301.06528697
300.162859392
300.195379305
300.162859392
300.179119349
300.162859392
300.158794403
300.622203159
300.162859392
300.622203159
300.195379305
300.622203159
300.179119349
300.622203159
300.622203159
300.142534447
300.162859392
300.162859392
300.195379305
300.146599436

Average distance is : 300.409 cm
Average deviation is : 0.364 cm
Block: 5
======================================
300.179119349
300.179119349
300.162859392
300.179119349
300.605943203
300.162859392
300.162859392
300.142534447
300.179119349
300.601878214
301.085611916
300.622203159
300.622203159
301.06528697
301.06528697
300.585618258
300.162859392
301.085611916
300.158794403
299.736035538
300.179119349
301.492110825
301.06528697
300.195379305
300.605943203
301.06528697
301.081546926
300.622203159
301.081546926
300.146599436
301.06528697
300.622203159
301.081546926
300.622203159
300.601878214
300.195379305
301.06528697
300.199444294
300.199444294
300.179119349
301.081546926
299.719775581
299.715710592
301.06528697
300.605943203
300.162859392
302.36201849
300.605943203
300.179119349
300.179119349
300.638463116
300.162859392
300.638463116
300.605943203
300.601878214
301.06528697
300.179119349
300.61813817
300.158794403
300.601878214
299.736035538
300.162859392
299.731970549
302.36201849
299.752295494
300.622203159
300.162859392
301.085611916
300.638463116
300.195379305
300.195379305
300.179119349
301.492110825
300.638463116
300.195379305
301.081546926
300.21570425
300.179119349
300.622203159
300.654723072
301.081546926
301.097806883
300.21570425
300.195379305
300.622203159
300.622203159
301.492110825
299.736035538
300.179119349
299.736035538
301.081546926
300.195379305
299.715710592
300.179119349
300.162859392
300.179119349
301.06528697
300.21570425
301.081546926
301.06528697

Average distance is : 300.529 cm
Average deviation is : 0.520 cm
Block: 6
======================================
300.605943203
300.605943203
300.162859392
300.622203159
301.081546926
299.736035538
300.195379305
300.654723072
300.622203159
300.622203159
302.378278446
300.195379305
300.162859392
300.622203159
300.211639261
300.195379305
300.195379305
301.101871872
300.622203159
300.675048018
300.179119349
300.195379305
300.638463116
301.06528697
300.622203159
299.752295494
300.622203159
301.118131828
300.195379305
300.179119349
300.654723072
300.179119349
300.21570425
300.21570425
299.736035538
300.162859392
300.179119349
300.195379305
301.081546926
300.211639261
300.179119349
300.195379305
300.211639261
300.195379305
300.195379305
300.179119349
300.179119349
300.622203159
300.195379305
301.097806883
300.691307974
301.06528697
300.179119349
300.195379305
300.638463116
300.21570425
300.638463116
301.097806883
300.622203159
301.081546926
300.179119349
300.195379305
299.736035538
300.179119349
300.211639261
300.195379305
300.211639261
300.162859392
299.752295494
300.638463116
300.638463116
300.162859392
299.752295494
299.752295494
300.638463116
300.195379305
300.211639261
301.114066839
300.195379305
300.195379305
300.195379305
300.675048018
300.195379305
299.756360483
300.211639261
299.77262044
301.097806883
299.752295494
300.227899218
299.752295494
299.752295494
300.231964207
299.76855545
300.179119349
299.752295494
299.756360483
301.101871872
299.76855545
301.097806883
300.654723072

Average distance is : 300.364 cm
Average deviation is : 0.450 cm
Block: 7
======================================
301.081546926
300.211639261
300.195379305
300.195379305
299.76855545
300.638463116
300.638463116
301.097806883
300.654723072
299.752295494
300.211639261
300.642528105
301.097806883
301.118131828
300.231964207
301.097806883
300.231964207
300.199444294
299.784815407
300.21570425
300.227899218
300.687242985
300.211639261
299.752295494
301.114066839
300.654723072
300.195379305
301.101871872
300.654723072
300.675048018
300.658788061
300.21570425
300.195379305
299.76855545
300.211639261
299.752295494
299.77262044
299.76855545
300.654723072
301.114066839
300.658788061
300.211639261
300.195379305
301.097806883
299.76855545
300.654723072
299.76855545
299.76855545
300.195379305
299.788880396
299.752295494
299.788880396
300.211639261
300.179119349
301.081546926
299.77262044
300.21570425
300.211639261
299.736035538
299.752295494
299.752295494
300.211639261
300.21570425
300.195379305
299.736035538
301.081546926
300.658788061
300.658788061
300.654723072
299.736035538
300.211639261
299.752295494
300.211639261
300.195379305
300.638463116
299.736035538
299.752295494
300.211639261
300.231964207
299.756360483
299.752295494
301.524630737
300.658788061
300.195379305
299.76855545
299.77262044
299.752295494
299.719775581
299.715710592
299.752295494
300.622203159
299.752295494
300.654723072
300.179119349
300.654723072
299.736035538
300.195379305
299.736035538
299.752295494
299.752295494

Average distance is : 300.245 cm
Average deviation is : 0.468 cm
Block: 8
======================================
300.231964207
300.231964207
300.195379305
300.654723072
300.638463116
300.21570425
299.76855545
300.231964207
300.195379305
300.211639261
300.21570425
299.752295494
299.752295494
300.211639261
300.231964207
300.195379305
299.76855545
300.654723072
299.736035538
300.211639261
300.211639261
300.195379305
300.231964207
300.195379305
299.731970549
299.736035538
299.715710592
300.638463116
300.195379305
300.654723072
300.179119349
300.21570425
300.195379305
300.638463116
300.195379305
300.195379305
300.211639261
300.638463116
300.654723072
299.752295494
300.675048018
300.638463116
300.231964207
300.638463116
300.654723072
299.736035538
299.76855545
300.227899218
300.21570425
299.77262044
300.21570425
299.736035538
300.658788061
299.752295494
299.736035538
300.231964207
300.179119349
300.211639261
300.687242985
300.179119349
300.654723072
300.658788061
300.675048018
300.211639261
300.211639261
300.638463116
300.658788061
300.211639261
300.654723072
300.21570425
300.675048018
301.524630737
301.101871872
300.21570425
300.675048018
300.248224163
300.195379305
300.231964207
300.654723072
300.654723072
299.752295494
301.540890694
300.658788061
300.658788061
300.638463116
300.231964207
299.76855545
300.175054359
300.21570425
300.211639261
300.211639261
299.752295494
300.211639261
299.752295494
300.195379305
300.691307974
299.736035538
300.195379305
299.76855545
301.508370781

Average distance is : 300.287 cm
Average deviation is : 0.395 cm
Block: 9
======================================
300.231964207
299.76855545
300.638463116
300.195379305
300.195379305
300.195379305
300.211639261
300.227899218
300.687242985
299.752295494
301.540890694
300.675048018
299.76855545
300.670983028
300.227899218
300.231964207
299.736035538
299.756360483
300.227899218
300.21570425
299.76855545
300.638463116
300.654723072
300.658788061
300.21570425
300.642528105
299.752295494
300.195379305
300.211639261
299.736035538
300.211639261
300.675048018
300.638463116
300.638463116
299.736035538
300.195379305
300.195379305
300.211639261
300.195379305
300.654723072
301.081546926
299.752295494
301.097806883
300.638463116
300.642528105
301.118131828
299.76855545
300.195379305
300.675048018
300.195379305
300.211639261
299.76855545
299.76855545
300.195379305
300.195379305
301.101871872
300.179119349
300.195379305
300.199444294
299.77262044
300.195379305
300.195379305
300.654723072
299.752295494
300.199444294
300.179119349
300.231964207
301.085611916
301.118131828
300.654723072
300.179119349
300.654723072
300.654723072
299.752295494
300.642528105
299.736035538
300.638463116
300.195379305
300.195379305
300.179119349
300.195379305
300.654723072
299.788880396
300.231964207
300.195379305
300.211639261
300.211639261
300.654723072
300.199444294
299.752295494
299.752295494
299.77262044
300.211639261
300.195379305
300.195379305
300.638463116
300.21570425
299.715710592
300.654723072
300.195379305

Average distance is : 300.285 cm
Average deviation is : 0.395 cm
Block: 10
======================================
300.21570425
299.76855545
301.114066839
299.76855545
300.654723072
301.081546926
300.654723072
300.195379305
300.670983028
300.195379305
299.736035538
300.21570425
300.199444294
300.195379305
300.654723072
300.654723072
300.638463116
299.77262044
300.658788061
300.211639261
299.76855545
300.179119349
300.654723072
300.211639261
299.76855545
299.752295494
300.21570425
300.622203159
300.642528105
299.715710592
300.195379305
299.736035538
300.199444294
300.179119349
299.752295494
300.654723072
300.21570425
299.719775581
300.227899218
300.179119349
300.179119349
301.101871872
301.081546926
300.642528105
300.638463116
300.195379305
300.179119349
300.179119349
300.211639261
300.179119349
299.731970549
300.195379305
300.654723072
300.622203159
300.642528105
299.719775581
300.195379305
300.21570425
300.670983028
301.101871872
301.101871872
300.195379305
300.195379305
300.622203159
299.752295494
299.752295494
299.736035538
300.21570425
300.199444294
300.211639261
300.179119349
300.179119349
299.736035538
300.195379305
300.179119349
300.622203159
299.731970549
300.211639261
301.118131828
300.227899218
300.179119349
300.195379305
299.752295494
301.081546926
300.654723072
300.638463116
300.195379305
300.195379305
300.654723072
301.101871872
299.719775581
300.605943203
300.211639261
300.21570425
300.658788061
300.211639261
300.211639261
299.752295494
299.736035538
301.118131828

Average distance is : 300.296 cm
Average deviation is : 0.409 cm