
Block: 1
======================================
299.736035538
299.76855545
300.146599436
299.736035538
300.622203159
301.081546926
300.195379305
299.736035538
300.195379305
300.162859392
300.179119349
301.081546926
301.508370781
300.638463116
300.195379305
299.719775581
300.195379305
300.179119349
300.605943203
300.211639261
300.195379305
300.605943203
300.179119349
300.211639261
300.179119349

Average distance is : 300.291 cm
Average deviation is : 0.449 cm
Block: 2
======================================
299.736035538
300.658788061
300.622203159
300.622203159
300.638463116
300.195379305
299.736035538
300.622203159
300.605943203
301.06528697
300.622203159
300.638463116
301.51243577
299.736035538
299.736035538
300.162859392
300.605943203
300.12627449
300.158794403
300.179119349
300.158794403
300.21570425
300.622203159
300.146599436
300.638463116

Average distance is : 300.390 cm
Average deviation is : 0.430 cm
Block: 3
======================================
300.589683247
300.146599436
300.142534447
300.605943203
302.36201849
300.162859392
300.142534447
300.605943203
300.605943203
301.06528697
301.049027014
301.028702068
300.622203159
300.162859392
300.622203159
300.146599436
300.162859392
300.622203159
301.032767057
300.585618258
301.032767057
300.195379305
301.032767057
301.032767057
301.049027014

Average distance is : 300.672 cm
Average deviation is : 0.504 cm
Block: 4
======================================
300.146599436
300.195379305
301.455525923
301.471785879
300.12627449
300.162859392
300.142534447
300.179119349
300.146599436
300.179119349
300.162859392
300.142534447
300.642528105
300.162859392
300.162859392
301.049027014
300.605943203
300.162859392
301.044962025
300.142534447
300.146599436
300.589683247
300.142534447
299.715710592
299.699450636

Average distance is : 300.351 cm
Average deviation is : 0.461 cm
Block: 5
======================================
301.049027014
300.622203159
300.569358301
299.666930723
299.699450636
300.605943203
300.142534447
300.142534447
300.589683247
300.638463116
299.703515625
299.699450636
300.162859392
299.687255669
300.179119349
299.699450636
300.605943203
301.06528697
299.703515625
299.703515625
300.162859392
301.049027014
300.162859392
299.703515625
299.736035538

Average distance is : 300.190 cm
Average deviation is : 0.487 cm
Block: 6
======================================
299.699450636
300.585618258
299.699450636
300.605943203
300.585618258
300.605943203
300.162859392
300.162859392
300.605943203
299.719775581
300.158794403
300.622203159
299.719775581
299.703515625
300.175054359
300.179119349
300.622203159
300.162859392
301.06528697
301.508370781
300.162859392
300.158794403
300.638463116
300.162859392
300.622203159

Average distance is : 300.324 cm
Average deviation is : 0.448 cm
Block: 7
======================================
300.179119349
300.179119349
299.715710592
300.179119349
300.638463116
300.179119349
300.175054359
300.195379305
299.736035538
299.719775581
299.736035538
301.06528697
300.179119349
300.622203159
301.081546926
300.622203159
300.622203159
301.06528697
300.642528105
300.622203159
300.622203159
299.736035538
300.162859392
300.179119349
301.081546926

Average distance is : 300.357 cm
Average deviation is : 0.448 cm
Block: 8
======================================
300.231964207
300.179119349
300.179119349
300.809192657
300.658788061
300.654723072
300.175054359
299.752295494
300.179119349
300.179119349
301.085611916
301.081546926
300.195379305
300.622203159
300.622203159
301.101871872
300.622203159
301.51243577
300.179119349
299.736035538
300.162859392
300.658788061
300.622203159
300.179119349
300.162859392

Average distance is : 300.462 cm
Average deviation is : 0.434 cm
Block: 9
======================================
300.211639261
300.658788061
300.199444294
301.097806883
300.199444294
300.211639261
300.199444294
300.654723072
300.638463116
300.195379305
300.179119349
300.195379305
299.752295494
300.21570425
300.179119349
299.756360483
300.195379305
300.195379305
300.195379305
300.21570425
299.76855545
299.752295494
300.21570425
301.06528697
299.752295494

Average distance is : 300.236 cm
Average deviation is : 0.360 cm
Block: 10
======================================
300.500253487
301.492110825
300.211639261
300.195379305
300.654723072
299.76855545
300.638463116
301.081546926
301.101871872
300.175054359
300.195379305
300.21570425
300.658788061
300.211639261
300.211639261
300.195379305
300.211639261
300.195379305
300.195379305
300.654723072
299.784815407
301.101871872
300.658788061
300.21570425
300.195379305

Average distance is : 300.429 cm
Average deviation is : 0.420 cm