
Block: 1
======================================
300.162859392
300.199444294
300.162859392
300.162859392
300.601878214
300.605943203
300.179119349
300.179119349
300.179119349
300.179119349
300.162859392
301.508370781
300.179119349
300.638463116
300.179119349
300.622203159
300.146599436
300.142534447
300.638463116
300.195379305
300.605943203
299.715710592
300.638463116
300.179119349
300.179119349
300.162859392
300.622203159
299.736035538
300.21570425
300.179119349
299.736035538
299.731970549
299.736035538
300.179119349
300.195379305
300.199444294
301.097806883
299.715710592
300.622203159
300.162859392
300.658788061
300.175054359
300.195379305
301.06528697
301.081546926
300.638463116
299.736035538
301.06528697
301.06528697
300.622203159
300.179119349
300.642528105
300.622203159
301.081546926
300.162859392
300.162859392
301.081546926
300.162859392
300.195379305
300.179119349
299.752295494
300.638463116
300.179119349
299.736035538
300.211639261
300.162859392
300.195379305
300.638463116
300.179119349
300.638463116
299.736035538
300.622203159
301.06528697
299.736035538
299.731970549

Average distance is : 300.328 cm
Average deviation is : 0.412 cm
Block: 2
======================================
300.638463116
299.736035538
300.211639261
299.719775581
300.195379305
299.752295494
299.731970549
300.642528105
300.175054359
299.699450636
300.638463116
300.179119349
300.654723072
300.179119349
299.715710592
300.195379305
299.736035538
300.21570425
300.642528105
300.195379305
299.699450636
299.77262044
300.195379305
300.211639261
299.719775581
299.715710592
300.175054359
300.211639261
300.638463116
300.179119349
300.638463116
300.195379305
300.158794403
300.195379305
300.179119349
300.179119349
300.179119349
299.719775581
300.195379305
300.195379305
300.179119349
300.179119349
300.179119349
300.199444294
300.622203159
299.719775581
300.622203159
300.179119349
300.162859392
300.195379305
300.211639261
300.638463116
300.162859392
301.06528697
300.195379305
301.081546926
300.638463116
300.179119349
300.622203159
300.638463116
300.179119349
300.179119349
299.719775581
300.195379305
300.195379305
300.179119349
299.736035538
300.622203159
299.731970549
300.179119349
300.195379305
300.638463116
300.195379305
301.06528697
300.654723072

Average distance is : 300.221 cm
Average deviation is : 0.347 cm
Block: 3
======================================
300.622203159
300.179119349
299.752295494
301.044962025
300.162859392
299.736035538
299.715710592
300.622203159
300.654723072
301.081546926
301.101871872
300.162859392
300.199444294
300.179119349
300.638463116
300.622203159
300.175054359
300.179119349
300.179119349
300.658788061
300.622203159
300.622203159
300.622203159
300.195379305
301.06528697
301.06528697
301.085611916
300.195379305
300.162859392
300.658788061
300.638463116
301.492110825
300.622203159
299.736035538
300.638463116
300.211639261
301.06528697
300.211639261
300.231964207
301.06528697
301.06528697
300.638463116
300.195379305
300.21570425
300.622203159
300.638463116
300.195379305
300.162859392
301.097806883
301.097806883
300.638463116
300.654723072
300.195379305
300.179119349
300.179119349
300.658788061
300.638463116
300.195379305
300.638463116
300.658788061
299.719775581
299.736035538
300.195379305
300.175054359
300.654723072
300.195379305
300.195379305
300.622203159
299.752295494
300.638463116
301.06528697
299.752295494
301.081546926
300.638463116
300.195379305

Average distance is : 300.467 cm
Average deviation is : 0.419 cm
Block: 4
======================================
300.158794403
300.179119349
300.642528105
300.179119349
300.195379305
299.736035538
301.06528697
299.76855545
300.638463116
299.752295494
299.736035538
299.756360483
300.179119349
300.195379305
300.638463116
300.199444294
299.736035538
299.736035538
301.085611916
301.081546926
301.06528697
300.179119349
301.081546926
300.638463116
300.638463116
300.195379305
300.162859392
300.158794403
300.605943203
300.199444294
299.736035538
301.085611916
299.76855545
301.085611916
300.179119349
301.06528697
299.719775581
300.179119349
301.081546926
299.752295494
299.736035538
300.162859392
300.179119349
299.752295494
300.162859392
300.605943203
300.162859392
300.605943203
299.752295494
299.736035538
299.752295494
300.622203159
300.622203159
301.492110825
300.622203159
299.736035538
299.736035538
300.622203159
300.638463116
300.179119349
299.736035538
300.162859392
300.638463116
300.638463116
300.179119349
301.081546926
301.06528697
299.719775581
300.622203159
301.06528697
300.195379305
300.179119349
300.158794403
300.158794403
300.622203159

Average distance is : 300.325 cm
Average deviation is : 0.480 cm
Block: 5
======================================
300.179119349
300.162859392
300.158794403
300.642528105
300.605943203
300.601878214
301.528695726
300.142534447
300.622203159
300.175054359
300.158794403
300.638463116
299.736035538
300.622203159
300.622203159
300.162859392
300.601878214
300.601878214
300.158794403
300.142534447
300.162859392
300.622203159
300.61813817
301.508370781
301.044962025
301.032767057
300.585618258
299.719775581
301.471785879
300.622203159
301.508370781
300.162859392
300.179119349
300.654723072
300.162859392
300.585618258
300.162859392
300.162859392
300.622203159
300.179119349
299.719775581
301.06528697
301.06528697
301.049027014
300.601878214
301.06528697
301.06528697
299.736035538
301.06528697
300.12627449
300.12627449
300.195379305
301.06528697
301.081546926
300.162859392
301.06528697
300.162859392
300.179119349
300.179119349
299.715710592
300.589683247
300.179119349
300.605943203
301.032767057
300.605943203
300.142534447
300.162859392
300.130339479
300.142534447
300.605943203
300.638463116
300.179119349
300.179119349
301.06528697
300.622203159

Average distance is : 300.499 cm
Average deviation is : 0.448 cm
Block: 6
======================================
300.195379305
301.081546926
301.049027014
300.605943203
300.175054359
300.195379305
300.622203159
300.162859392
300.146599436
300.622203159
301.06528697
299.736035538
301.085611916
301.06528697
301.081546926
301.081546926
300.175054359
300.162859392
300.162859392
300.179119349
300.179119349
301.081546926
300.199444294
300.622203159
300.179119349
300.179119349
300.195379305
301.081546926
300.110014534
300.179119349
301.049027014
300.622203159
300.179119349
300.195379305
300.179119349
300.195379305
300.601878214
300.195379305
301.049027014
300.179119349
301.085611916
300.589683247
300.179119349
300.622203159
299.715710592
300.605943203
301.06528697
300.179119349
300.638463116
300.605943203
300.158794403
300.179119349
300.142534447
299.752295494
300.162859392
302.345758533
301.06528697
300.162859392
301.06528697
300.162859392
300.162859392
300.195379305
300.179119349
300.179119349
300.195379305
300.179119349
300.195379305
300.179119349
300.195379305
300.175054359
301.524630737
300.146599436
300.211639261
300.199444294
301.085611916

Average distance is : 300.461 cm
Average deviation is : 0.464 cm
Block: 7
======================================
300.024649763
300.158794403
300.589683247
301.06528697
300.195379305
300.199444294
300.195379305
300.638463116
300.179119349
301.081546926
299.752295494
299.719775581
300.638463116
299.752295494
300.195379305
301.097806883
301.097806883
300.211639261
299.752295494
301.081546926
300.211639261
301.081546926
299.756360483
300.70756793
300.179119349
300.638463116
300.195379305
301.101871872
299.736035538
300.211639261
300.622203159
300.195379305
301.081546926
301.06528697
300.622203159
299.76855545
300.211639261
300.162859392
300.179119349
300.622203159
300.622203159
299.756360483
301.101871872
300.638463116
300.211639261
300.114079523
301.114066839
300.195379305
300.622203159
300.211639261
300.638463116
299.752295494
299.752295494
300.638463116
301.101871872
300.638463116
300.638463116
300.638463116
301.097806883
301.101871872
300.638463116
299.76855545
299.752295494
299.805140352
300.211639261
301.101871872
299.736035538
300.195379305
300.179119349
300.658788061
301.097806883
299.76855545
300.195379305
300.195379305
300.195379305

Average distance is : 300.401 cm
Average deviation is : 0.467 cm
Block: 8
======================================
300.179119349
300.195379305
299.76855545
299.76855545
299.736035538
300.658788061
300.638463116
301.508370781
300.654723072
300.195379305
300.175054359
300.195379305
300.195379305
300.670983028
300.195379305
301.097806883
299.752295494
299.731970549
300.195379305
300.642528105
300.638463116
300.211639261
301.118131828
300.21570425
300.211639261
300.211639261
300.21570425
300.231964207
299.77262044
301.118131828
299.756360483
301.097806883
300.211639261
299.76855545
300.21570425
301.118131828
300.654723072
301.118131828
300.26041913
300.227899218
300.231964207
299.76855545
300.227899218
300.654723072
300.248224163
300.227899218
300.658788061
300.211639261
300.227899218
300.638463116
299.752295494
300.654723072
300.211639261
300.195379305
300.670983028
299.752295494
300.195379305
301.508370781
300.195379305
300.675048018
300.675048018
300.670983028
300.227899218
300.227899218
299.784815407
301.540890694
300.195379305
301.118131828
299.736035538
300.211639261
300.195379305
300.231964207
299.76855545
301.118131828
299.752295494

Average distance is : 300.359 cm
Average deviation is : 0.466 cm
Block: 9
======================================
300.179119349
300.195379305
300.179119349
300.195379305
300.654723072
300.211639261
300.195379305
300.195379305
300.195379305
300.638463116
300.195379305
300.211639261
300.195379305
300.658788061
300.658788061
300.195379305
300.211639261
301.097806883
300.211639261
301.118131828
300.21570425
301.097806883
300.195379305
300.691307974
300.691307974
300.231964207
300.195379305
300.231964207
300.195379305
300.211639261
300.21570425
300.199444294
300.654723072
300.195379305
300.195379305
300.199444294
300.195379305
300.195379305
300.658788061
300.638463116
300.638463116
300.211639261
300.195379305
300.642528105
299.76855545
299.752295494
300.654723072
301.081546926
300.227899218
300.211639261
299.784815407
300.211639261
300.195379305
300.195379305
300.195379305
300.195379305
300.675048018
300.654723072
300.654723072
299.77262044
300.231964207
300.231964207
300.195379305
300.195379305
300.195379305
299.752295494
299.77262044
300.231964207
300.195379305
299.752295494
299.784815407
300.211639261
300.227899218
300.658788061
301.118131828

Average distance is : 300.314 cm
Average deviation is : 0.328 cm
Block: 10
======================================
299.77262044
300.244159174
299.76855545
300.654723072
299.76855545
300.654723072
300.231964207
299.784815407
300.670983028
299.752295494
300.195379305
300.691307974
300.654723072
301.114066839
300.658788061
299.784815407
300.195379305
301.114066839
300.654723072
300.675048018
301.114066839
300.654723072
299.752295494
299.76855545
300.248224163
300.21570425
300.211639261
299.77262044
300.195379305
301.097806883
300.687242985
300.227899218
299.76855545
301.101871872
299.752295494
300.21570425
299.752295494
299.77262044
299.76855545
300.211639261
300.211639261
299.76855545
300.211639261
300.231964207
300.231964207
300.658788061
300.231964207
300.248224163
300.654723072
300.211639261
300.638463116
300.211639261
300.21570425
300.654723072
300.211639261
299.752295494
299.76855545
300.211639261
300.638463116
300.638463116
300.195379305
300.195379305
300.658788061
300.195379305
299.76855545
299.736035538
301.081546926
300.638463116
299.736035538
300.654723072
300.675048018
300.211639261
300.658788061
299.752295494
299.752295494

Average distance is : 300.278 cm
Average deviation is : 0.421 cm