
Block: 1
======================================
99.9007111788
99.9007111788
99.9337512255
99.8965811729
55.1397079229

Block: 2
======================================
99.9337512255
54.7886574268
68.4589767456
70.1564091444
54.2889267206

Block: 3
======================================
99.9172312021
99.5001006126
54.3384867907
69.3221479654
67.1745449305

Block: 4
======================================
99.9172312021
99.9502712488
100.280671716
100.334361792
99.9172312021

Block: 5
======================================
99.9337512255
100.334361792
99.9337512255
100.367401838
99.8635411263

Block: 6
======================================
100.313711762
52.8682047129
68.372246623
67.8353458643
53.2812052965

Block: 7
======================================
99.8470211029
99.5001006126
100.313711762
52.6245343685
67.9385960102

Block: 8
======================================
99.8800611496
52.8021246195
66.6211241484
66.757414341
84.0290987492

Block: 9
======================================
99.9131011963
99.9131011963
100.383921862
100.317841768
99.8800611496

Block: 10
======================================
99.8470211029
100.363271832
99.4670605659
54.0122163296
67.1415048838
