
Block: 1
======================================
99.9172312021
99.8635411263
99.9007111788
100.334361792
100.330231786
100.330231786
100.313711762
100.367401838
100.313711762
100.330231786
99.8470211029
55.6559586525
97.7159380913
56.6595500708
66.984564662
70.1192390919
57.2171008587
68.7356871367
67.3521351814
57.8200817108
69.2188978195
67.211714983
56.122649312
68.8595873117
68.8389372826

Block: 2
======================================
99.9172312021
55.8831089735
67.6784056425
70.1398891211
57.84073174
64.4404810667
71.4532309771
58.9145332575
63.4699296951
70.8337301016
59.9346446991
64.0770405531
69.3097579479
61.4627468586
62.2020179033
70.1233690977
62.0161676407
58.9351832867
68.8595873117
64.2670208216
58.5304427147
68.1120562553
64.5106911659
59.4183939695
66.1048734188

Block: 3
======================================
99.8965811729
55.3296881914
96.6916966438
58.4313225746
94.2178231478
60.4219853878
92.5038707256
100.313711762
54.4954270124
97.0592671633
58.9104032516
93.9948028326
60.3517752886
92.140430212
62.0657277107
90.6660181284
63.6103498936
89.2783361673
63.6970800161
89.3485462666
66.6748142242
86.2675619125
67.5421154499
85.9867215157
67.3645251989

Block: 4
======================================
99.8965811729
99.8470211029
52.6080143452
97.5259578228
54.532597065
95.3577047586
56.3126295805
94.4449734688
57.2501409054
92.9333913326
99.8965811729
53.318375349
96.8816769123
56.1267793179
96.2250059843
58.1339621544
94.8042839766
59.8313945532
63.3295094967
70.7635200024
61.1653864384
64.1266006231
68.6489570141
62.0698577166
64.4239610434

Block: 5
======================================
99.8841911554
55.5898785591
97.7159380913
56.9238704443
96.1382758617
58.497402668
94.3747633696
59.9016046524
92.7434110641
60.5582755804
92.3799705505
61.1323463917
91.7935097218
61.5825170279
90.9427285194
62.5324183702
62.3961281776
66.8482744694
61.9624775648
62.2391879559
67.1084648371
61.8385773897
62.7100086212
65.9107631445
62.5861084461

Block: 6
======================================
99.8800611496
56.2961095572
96.1424058676
59.5381641388
93.3670419455
100.317841768
55.6600886583
97.4020576477
58.1339621544
94.7382038832
60.3682953119
92.7434110641
60.6119656563
91.7067795992
61.578387022
91.0459786654
62.363088131
90.0754272938
62.8628188372
90.2158474922
64.9071717262
88.0352044106
66.2411636114
86.8540227413
66.9680446386

Block: 7
======================================
99.8841911554
99.9337512255
100.297191739
100.297191739
52.2445738316
97.5755178928
54.5160770416
95.8120054007
56.7504101992
93.5239821672
57.564021349
95.4609549046
60.0585448742
92.8673112392
99.8676711321
100.317841768
99.8470211029
55.465978384
97.4227076769
99.9007111788
55.2223080397
97.823318243
99.9007111788
56.1267793179
96.8155968189

Block: 8
======================================
99.9502712488
55.465978384
97.0592671633
99.9007111788
54.0824264288
98.4428191185
100.350881815
54.8423475027
98.1124186516
56.2465494871
96.7495167255
57.9976719618
94.9116641283
58.774113059
92.1032601595
99.8965811729
54.078296423
68.322686553
67.7981758118
54.4623869658
66.7243742943
69.132167697
56.9032204151
63.8333702087
69.6195083857

Block: 9
======================================
99.9667912722
100.383921862
54.7390973568
98.3560889959
99.9007111788
54.7390973568
98.6204093695
55.7592087984
66.5013539791
71.5234410763
57.2831809521
94.944704175
59.7116243839
63.0362790823
70.7635200024
60.8680260181
61.4462268353
71.1641305685
62.0863777399
59.8313945532
71.1434805393
62.8462988138
58.6006528139
64.9236917496
70.7800400257

Block: 10
======================================
99.970921278
99.970921278
100.363271832
99.9007111788
52.7277845144
66.5343940258
69.8962187767
81.0183244944
69.9292588234
81.2909048796
40.0486665964
68.1987863779
79.6678125858
71.9942617416
78.854201436
74.0344846249
79.3704521656
74.1542547941
79.2672020197
74.1542547941
79.5645624399
42.1962696314
71.6101711988
79.3043720722
74.0881747007
