
Block: 1
======================================
100.367401838
100.313711762
100.330231786
100.317841768
100.313711762
100.334361792
100.330231786
100.313711762
100.313711762
100.363271832
100.297191739
100.350881815
100.313711762
100.330231786
100.297191739
99.8965811729
100.313711762
100.297191739
100.297191739
100.297191739
100.313711762
100.280671716
100.297191739
100.714322329
99.970921278
100.317841768
100.297191739
99.8965811729
100.313711762
100.297191739
100.297191739
100.297191739
100.334361792
100.330231786
100.330231786
100.330231786
100.334361792
100.317841768
100.280671716
100.313711762
100.27654171
100.297191739
100.313711762
100.297191739
100.313711762
100.350881815
100.313711762
100.350881815
100.297191739
99.9172312021
100.313711762
100.313711762
100.297191739
100.763882399
101.176882982
100.313711762
100.313711762
100.346751809
100.313711762
100.330231786
100.313711762
100.313711762
100.313711762
100.297191739
100.313711762
100.313711762
100.27654171
100.297191739
100.297191739
100.280671716
100.313711762
100.346751809
100.346751809
100.313711762
100.280671716

Block: 2
======================================
100.280671716
99.8800611496
101.181012988
100.313711762
100.297191739
100.317841768
100.144381523
100.297191739
100.346751809
100.330231786
100.297191739
100.313711762
100.334361792
100.280671716
100.317841768
99.9172312021
100.330231786
100.297191739
100.313711762
100.334361792
100.297191739
100.297191739
100.313711762
100.313711762
100.313711762
100.313711762
100.334361792
100.350881815
100.350881815
100.313711762
100.330231786
100.313711762
100.330231786
100.280671716
100.297191739
100.313711762
100.313711762
100.313711762
100.313711762
100.313711762
100.313711762
100.313711762
100.714322329
100.297191739
100.317841768
100.710192323
100.313711762
100.297191739
100.714322329
100.313711762
100.330231786
100.334361792
100.330231786
100.346751809
100.313711762
100.350881815
100.313711762
100.317841768
100.350881815
100.317841768
100.313711762
100.313711762
100.313711762
100.330231786
100.297191739
101.164492965
100.297191739
100.297191739
100.313711762
100.297191739
100.334361792
100.313711762
100.280671716
100.280671716
100.313711762

Block: 3
======================================
100.297191739
99.9172312021
100.297191739
99.9007111788
100.313711762
100.280671716
100.297191739
100.334361792
100.297191739
100.313711762
100.334361792
100.317841768
100.334361792
100.350881815
100.297191739
100.313711762
100.313711762
100.301321745
100.297191739
100.313711762
100.313711762
100.346751809
100.330231786
100.280671716
100.297191739
100.297191739
100.27654171
100.280671716
100.297191739
100.297191739
100.313711762
100.313711762
100.313711762
99.9337512255
99.9337512255
100.317841768
100.313711762
100.297191739
99.9007111788
100.297191739
100.313711762
100.297191739
100.330231786
100.297191739
100.313711762
100.330231786
100.297191739
100.330231786
100.350881815
100.297191739
100.334361792
100.52434206
100.313711762
100.297191739
100.313711762
100.313711762
100.317841768
100.313711762
100.317841768
100.334361792
100.313711762
100.313711762
100.317841768
100.317841768
100.330231786
100.330231786
100.313711762
99.9172312021
100.334361792
100.280671716
100.280671716
100.313711762
100.313711762
100.330231786
100.280671716

Block: 4
======================================
99.9172312021
100.330231786
100.27654171
99.9337512255
100.346751809
100.470651984
100.297191739
100.280671716
100.297191739
100.313711762
100.330231786
100.330231786
100.313711762
100.313711762
100.297191739
100.768012404
100.768012404
101.160362959
100.747362375
100.313711762
100.313711762
100.313711762
100.313711762
100.317841768
99.8965811729
100.330231786
100.317841768
100.334361792
100.317841768
100.27654171
100.317841768
100.313711762
100.313711762
100.313711762
100.297191739
100.317841768
100.297191739
100.297191739
100.297191739
100.297191739
100.330231786
100.714322329
100.297191739
100.330231786
100.313711762
100.334361792
100.334361792
100.334361792
100.317841768
100.330231786
100.346751809
100.313711762
100.330231786
100.330231786
100.297191739
100.350881815
100.350881815
100.350881815
100.297191739
100.297191739
100.297191739
100.297191739
100.297191739
100.330231786
100.334361792
100.313711762
100.334361792
100.317841768
100.714322329
100.317841768
100.317841768
100.313711762
100.297191739
100.330231786
100.330231786

Block: 5
======================================
99.8965811729
100.297191739
100.280671716
100.346751809
100.297191739
100.330231786
100.350881815
100.313711762
100.330231786
100.346751809
99.9502712488
100.313711762
99.8965811729
100.297191739
100.334361792
100.317841768
100.317841768
100.297191739
100.330231786
100.346751809
100.350881815
100.330231786
100.317841768
100.297191739
100.313711762
100.330231786
100.313711762
100.280671716
100.313711762
100.313711762
100.297191739
100.27654171
100.317841768
100.313711762
100.313711762
100.297191739
99.8800611496
100.317841768
100.297191739
100.313711762
100.313711762
100.334361792
99.8965811729
100.313711762
100.330231786
100.297191739
100.317841768
100.763882399
99.9172312021
100.280671716
100.297191739
100.313711762
100.313711762
101.160362959
100.334361792
100.297191739
100.297191739
100.330231786
100.313711762
100.350881815
100.297191739
100.330231786
100.297191739
100.330231786
100.346751809
100.334361792
100.297191739
100.313711762
100.317841768
100.313711762
100.297191739
100.301321745
100.334361792
100.297191739
100.297191739

Block: 6
======================================
100.334361792
100.297191739
99.9502712488
100.297191739
100.350881815
100.313711762
100.313711762
100.297191739
100.280671716
100.334361792
100.280671716
100.330231786
100.313711762
99.9131011963
100.313711762
100.313711762
100.297191739
100.330231786
100.330231786
100.334361792
100.297191739
100.317841768
100.27654171
100.297191739
100.280671716
100.317841768
100.313711762
100.280671716
100.334361792
99.9337512255
100.317841768
100.334361792
100.297191739
100.297191739
100.297191739
100.330231786
100.313711762
100.317841768
100.334361792
100.317841768
100.297191739
100.317841768
100.313711762
99.9007111788
100.330231786
100.297191739
100.297191739
100.297191739
100.313711762
100.330231786
100.297191739
100.313711762
100.280671716
100.297191739
100.297191739
100.334361792
100.330231786
100.313711762
100.330231786
100.260021687
100.367401838
100.313711762
100.297191739
100.297191739
100.297191739
100.330231786
100.313711762
100.334361792
100.297191739
100.330231786
100.297191739
100.297191739
100.297191739
100.346751809
100.313711762

Block: 7
======================================
100.346751809
100.330231786
101.181012988
100.334361792
100.297191739
100.090691447
100.297191739
100.313711762
100.280671716
100.297191739
100.280671716
100.297191739
100.297191739
100.297191739
100.317841768
100.330231786
100.297191739
100.297191739
100.297191739
100.313711762
100.330231786
100.297191739
100.330231786
100.350881815
100.697802305
100.297191739
100.297191739
100.297191739
100.313711762
100.313711762
100.317841768
100.297191739
100.313711762
100.297191739
101.181012988
100.280671716
100.313711762
101.176882982
100.280671716
100.280671716
100.297191739
100.313711762
100.697802305
100.280671716
100.317841768
100.317841768
100.330231786
100.317841768
100.313711762
100.350881815
99.9172312021
100.330231786
100.317841768
100.313711762
100.317841768
100.313711762
100.313711762
100.330231786
100.297191739
100.297191739
100.730842352
100.297191739
100.313711762
100.346751809
100.330231786
99.8965811729
100.313711762
100.346751809
100.313711762
100.334361792
99.9172312021
99.9502712488
100.313711762
100.297191739
100.350881815

Block: 8
======================================
100.346751809
100.313711762
99.9172312021
100.334361792
100.27654171
100.313711762
101.143842936
99.9172312021
100.768012404
100.714322329
100.280671716
100.317841768
100.313711762
100.280671716
100.297191739
101.197533011
100.27654171
100.280671716
100.317841768
100.313711762
101.181012988
100.710192323
101.164492965
99.9337512255
100.297191739
100.297191739
100.27654171
100.297191739
100.334361792
100.280671716
100.313711762
100.301321745
100.330231786
100.297191739
100.763882399
100.297191739
99.9172312021
100.730842352
101.181012988
100.747362375
100.297191739
101.181012988
100.297191739
100.297191739
100.317841768
100.334361792
100.297191739
100.297191739
100.297191739
100.313711762
100.297191739
101.197533011
100.297191739
100.313711762
100.297191739
100.346751809
100.297191739
100.297191739
101.143842936
101.197533011
100.297191739
101.181012988
101.181012988
100.313711762
100.297191739
100.313711762
100.297191739
100.313711762
100.313711762
100.313711762
100.330231786
100.313711762
100.330231786
100.297191739
100.334361792

Block: 9
======================================
100.313711762
100.330231786
100.780402422
100.297191739
100.313711762
101.181012988
100.297191739
100.313711762
100.297191739
100.280671716
100.350881815
100.313711762
100.313711762
100.330231786
100.730842352
100.27654171
100.697802305
100.297191739
100.313711762
100.297191739
100.313711762
100.313711762
100.334361792
100.714322329
100.313711762
100.280671716
100.313711762
100.313711762
100.330231786
100.297191739
100.297191739
100.313711762
100.260021687
100.280671716
100.317841768
100.313711762
100.297191739
100.730842352
100.334361792
99.8965811729
101.160362959
100.297191739
100.313711762
100.280671716
100.313711762
100.313711762
100.334361792
100.350881815
100.313711762
100.330231786
99.9172312021
99.9131011963
99.8841911554
100.313711762
100.350881815
100.317841768
99.8800611496
100.297191739
100.313711762
100.313711762
100.313711762
100.350881815
100.313711762
100.714322329
100.317841768
100.317841768
100.280671716
100.313711762
100.334361792
100.334361792
100.313711762
100.313711762
100.330231786
100.730842352
100.313711762

Block: 10
======================================
99.9337512255
99.9172312021
100.313711762
100.334361792
100.297191739
100.313711762
100.330231786
100.313711762
100.313711762
100.334361792
100.334361792
100.334361792
100.313711762
100.297191739
100.297191739
101.181012988
100.313711762
100.280671716
100.313711762
100.280671716
100.313711762
100.313711762
100.317841768
100.297191739
100.317841768
100.330231786
100.330231786
100.346751809
100.346751809
99.9337512255
100.400441885
100.313711762
100.330231786
100.317841768
99.9172312021
99.9007111788
100.313711762
100.350881815
100.313711762
100.334361792
100.297191739
100.313711762
100.313711762
100.297191739
100.297191739
100.317841768
100.297191739
100.334361792
100.346751809
100.313711762
100.334361792
100.330231786
100.317841768
99.9007111788
99.9007111788
99.9172312021
100.330231786
100.313711762
100.297191739
100.313711762
100.313711762
100.313711762
100.313711762
100.334361792
100.313711762
100.313711762
100.334361792
100.297191739
100.763882399
100.747362375
100.730842352
100.330231786
100.334361792
99.9007111788
100.27654171
