
Block: 1
======================================
101.234703064
100.817572474
100.416961908
100.780402422
100.367401838
100.416961908
100.433481932
100.383921862
100.801052451
100.801052451
100.817572474
100.817572474
100.796922445
100.801052451
100.817572474
100.801052451
100.796922445
100.801052451
100.784532428
100.817572474
100.817572474
100.834092498
100.796922445
100.817572474
100.400441885
100.834092498
100.817572474
100.780402422
100.817572474
100.796922445
100.801052451
100.780402422
100.817572474
100.780402422
100.801052451
100.801052451
100.796922445
100.796922445
100.817572474
100.784532428
100.801052451
100.801052451
100.383921862
100.817572474
100.817572474
100.796922445
100.817572474
100.801052451
100.796922445
100.801052451
100.796922445
100.817572474
100.834092498
100.784532428
100.796922445
100.796922445
100.801052451
100.801052451
100.796922445
100.801052451
100.780402422
100.383921862
100.813442469
100.817572474
100.834092498
100.400441885
100.780402422
100.817572474
100.796922445
100.784532428
100.817572474
100.801052451
100.817572474
100.801052451
100.834092498

Block: 2
======================================
100.416961908
100.037001371
101.251223087
100.383921862
101.214053035
101.197533011
101.284263134
100.801052451
100.796922445
100.813442469
100.834092498
100.817572474
100.404571891
100.817572474
100.404571891
100.834092498
100.817572474
100.784532428
100.404571891
100.817572474
100.834092498
100.400441885
100.801052451
100.383921862
100.801052451
100.801052451
100.796922445
100.400441885
100.416961908
100.813442469
100.834092498
100.834092498
100.796922445
100.796922445
100.817572474
100.801052451
100.817572474
100.400441885
100.400441885
100.817572474
100.817572474
100.400441885
100.383921862
100.383921862
100.421091914
100.400441885
100.817572474
100.400441885
100.801052451
100.801052451
100.400441885
100.817572474
100.400441885
100.801052451
100.854742527
100.383921862
100.817572474
100.416961908
100.834092498
100.796922445
100.421091914
100.383921862
100.400441885
100.383921862
100.400441885
100.400441885
100.796922445
100.383921862
100.437611938
100.817572474
100.383921862
100.404571891
100.817572474
100.400441885
100.834092498

Block: 3
======================================
100.747362375
100.834092498
100.421091914
100.404571891
101.251223087
101.214053035
100.383921862
100.400441885
100.796922445
100.404571891
100.834092498
100.367401838
100.834092498
100.383921862
100.400441885
100.383921862
100.796922445
100.400441885
100.834092498
100.416961908
100.383921862
100.796922445
100.817572474
100.813442469
100.817572474
100.421091914
100.801052451
100.433481932
100.383921862
100.400441885
100.817572474
100.400441885
100.416961908
100.400441885
100.801052451
100.383921862
100.834092498
100.801052451
100.400441885
101.007552743
100.416961908
100.817572474
100.400441885
100.421091914
100.416961908
100.416961908
100.400441885
100.400441885
100.421091914
100.416961908
100.801052451
100.404571891
100.421091914
100.817572474
100.796922445
100.817572474
100.801052451
100.801052451
100.780402422
100.834092498
100.416961908
100.404571891
100.421091914
100.383921862
100.817572474
100.817572474
100.801052451
100.796922445
100.817572474
100.817572474
100.817572474
100.383921862
100.421091914
100.383921862
100.416961908

Block: 4
======================================
100.801052451
100.421091914
100.450001955
100.421091914
101.230573058
101.284263134
100.383921862
100.367401838
100.421091914
100.416961908
100.400441885
100.400441885
100.383921862
100.421091914
100.416961908
100.421091914
100.400441885
100.817572474
100.813442469
100.817572474
100.817572474
100.383921862
100.813442469
100.400441885
100.400441885
100.400441885
100.796922445
100.383921862
100.416961908
100.801052451
100.838222504
100.796922445
100.367401838
100.817572474
100.784532428
100.400441885
100.780402422
100.416961908
100.383921862
100.421091914
100.416961908
100.400441885
100.817572474
100.400441885
100.383921862
100.784532428
100.801052451
100.780402422
100.796922445
100.796922445
100.416961908
100.421091914
100.421091914
100.421091914
100.834092498
100.801052451
100.801052451
100.416961908
100.416961908
100.817572474
100.383921862
100.383921862
100.383921862
100.421091914
100.437611938
100.817572474
100.421091914
100.817572474
100.383921862
100.801052451
100.796922445
100.400441885
100.383921862
100.400441885
100.400441885

Block: 5
======================================
101.247093081
100.400441885
101.234703064
100.817572474
100.383921862
100.400441885
100.416961908
101.234703064
101.230573058
100.416961908
100.834092498
100.400441885
100.400441885
100.400441885
100.400441885
100.801052451
100.796922445
100.817572474
100.817572474
100.817572474
100.801052451
100.796922445
100.383921862
100.383921862
100.817572474
100.834092498
100.801052451
100.801052451
100.801052451
100.796922445
100.801052451
99.9337512255
100.817572474
100.400441885
100.817572474
100.383921862
100.817572474
100.416961908
100.383921862
100.796922445
100.817572474
100.801052451
100.801052451
100.801052451
100.400441885
100.817572474
100.817572474
100.817572474
100.813442469
100.817572474
100.817572474
100.796922445
100.383921862
100.383921862
100.780402422
100.383921862
100.834092498
100.400441885
100.416961908
100.400441885
100.817572474
100.801052451
100.817572474
100.400441885
100.834092498
100.834092498
100.817572474
100.801052451
100.437611938
100.817572474
100.817572474
100.817572474
100.817572474
100.817572474
100.801052451

Block: 6
======================================
101.234703064
100.780402422
101.061242819
100.796922445
100.834092498
100.416961908
100.367401838
100.801052451
100.817572474
100.416961908
100.404571891
100.817572474
100.834092498
100.433481932
100.367401838
100.400441885
100.817572474
100.421091914
100.400441885
100.400441885
100.416961908
100.416961908
100.404571891
100.834092498
100.801052451
100.400441885
100.416961908
100.834092498
100.400441885
100.383921862
100.363271832
100.817572474
100.400441885
100.404571891
100.383921862
100.817572474
100.817572474
100.421091914
100.801052451
100.400441885
100.383921862
101.143842936
100.400441885
100.400441885
100.400441885
100.801052451
100.817572474
100.813442469
100.801052451
100.400441885
100.801052451
100.813442469
100.400441885
100.400441885
100.383921862
100.817572474
100.421091914
100.421091914
100.801052451
100.834092498
100.834092498
100.817572474
100.817572474
100.383921862
100.400441885
100.383921862
100.834092498
100.400441885
100.817572474
100.813442469
100.400441885
100.834092498
100.801052451
100.796922445
100.817572474

Block: 7
======================================
101.094282866
100.383921862
100.383921862
100.383921862
100.421091914
100.416961908
100.400441885
100.400441885
100.801052451
100.416961908
100.416961908
100.416961908
101.077762842
100.383921862
100.817572474
100.416961908
100.817572474
100.416961908
100.817572474
100.817572474
100.817572474
100.801052451
100.817572474
100.400441885
100.813442469
100.416961908
100.400441885
100.817572474
100.817572474
100.383921862
100.383921862
100.817572474
100.796922445
100.780402422
100.784532428
100.400441885
100.834092498
100.817572474
100.367401838
100.404571891
100.400441885
100.400441885
100.813442469
100.784532428
100.383921862
100.817572474
100.801052451
100.813442469
100.367401838
100.817572474
100.421091914
100.801052451
100.834092498
100.834092498
100.817572474
100.801052451
100.813442469
100.801052451
100.817572474
100.784532428
100.796922445
100.796922445
100.817572474
100.784532428
100.817572474
100.796922445
100.763882399
100.801052451
100.801052451
100.817572474
100.850612521
100.796922445
100.400441885
100.416961908
100.433481932

Block: 8
======================================
101.234703064
100.437611938
101.267743111
100.780402422
100.416961908
100.416961908
100.400441885
100.416961908
100.834092498
100.383921862
100.383921862
100.400441885
100.421091914
100.801052451
100.796922445
100.416961908
100.796922445
100.400441885
100.817572474
100.383921862
100.367401838
100.801052451
100.400441885
100.400441885
100.404571891
100.834092498
100.416961908
100.400441885
100.400441885
100.400441885
100.383921862
100.003961325
100.383921862
100.421091914
100.400441885
100.400441885
100.400441885
100.850612521
100.487172008
100.421091914
100.834092498
100.416961908
100.416961908
100.400441885
100.383921862
100.421091914
100.817572474
100.416961908
100.813442469
100.817572474
100.400441885
100.796922445
100.404571891
100.817572474
100.796922445
100.834092498
100.854742527
100.416961908
100.834092498
100.834092498
100.421091914
100.838222504
100.796922445
100.801052451
100.850612521
100.817572474
100.834092498
100.416961908
100.801052451
100.834092498
100.383921862
100.383921862
100.817572474
100.404571891
100.817572474

Block: 9
======================================
100.433481932
100.817572474
100.363271832
100.834092498
100.350881815
100.801052451
100.400441885
100.416961908
100.383921862
100.383921862
100.801052451
100.796922445
100.796922445
100.801052451
100.796922445
100.784532428
100.780402422
100.780402422
100.817572474
101.680743694
101.701393723
101.267743111
100.801052451
100.796922445
100.400441885
100.817572474
100.780402422
100.838222504
100.801052451
100.383921862
100.433481932
100.813442469
100.784532428
100.850612521
100.796922445
100.834092498
100.801052451
100.817572474
100.817572474
100.421091914
100.817572474
100.834092498
100.801052451
100.367401838
100.813442469
100.817572474
100.796922445
100.817572474
100.801052451
100.817572474
100.801052451
100.834092498
100.817572474
100.801052451
100.801052451
100.801052451
100.817572474
100.817572474
100.801052451
100.801052451
100.801052451
100.813442469
100.817572474
100.817572474
100.796922445
100.817572474
100.817572474
100.801052451
100.813442469
100.834092498
100.801052451
100.817572474
100.817572474
100.817572474
100.801052451

Block: 10
======================================
100.801052451
100.404571891
100.784532428
100.850612521
100.400441885
100.433481932
100.367401838
100.817572474
100.784532428
100.367401838
100.400441885
100.834092498
100.813442469
100.834092498
100.817572474
100.801052451
100.784532428
100.817572474
100.817572474
100.817572474
100.813442469
100.817572474
100.801052451
100.817572474
100.834092498
100.817572474
100.400441885
100.780402422
100.817572474
100.400441885
100.817572474
100.796922445
100.801052451
100.801052451
100.801052451
100.834092498
100.817572474
100.817572474
100.817572474
100.817572474
100.801052451
100.780402422
100.834092498
100.801052451
100.817572474
100.801052451
100.817572474
100.817572474
100.557382107
100.400441885
100.801052451
100.834092498
100.801052451
100.801052451
100.796922445
100.838222504
100.801052451
100.383921862
100.817572474
100.838222504
100.817572474
100.801052451
100.834092498
100.400441885
100.400441885
100.400441885
100.817572474
100.784532428
100.801052451
100.834092498
100.801052451
100.834092498
100.817572474
100.817572474
100.817572474
