
Block: 1
======================================
101.251223087
100.350881815
101.247093081
100.350881815
101.263613105
100.363271832
100.400441885
100.400441885
100.437611938
100.383921862
100.383921862
100.801052451
100.400441885
100.400441885
100.834092498
100.796922445
100.801052451
100.400441885
100.383921862
100.400441885
100.801052451
100.383921862
100.796922445
100.400441885
100.801052451
100.801052451
100.780402422
100.801052451
100.801052451
100.813442469
100.784532428
100.817572474
100.796922445
100.801052451
100.383921862
100.383921862
100.400441885
100.400441885
100.801052451
100.817572474
100.801052451
100.834092498
100.784532428
100.834092498
100.801052451
100.780402422
100.817572474
100.813442469
100.780402422
100.817572474

Average distance is : 100.674 cm
Average deviation is : 0.249 cm
Block: 2
======================================
100.416961908
100.780402422
100.817572474
100.780402422
100.780402422
100.850612521
100.817572474
100.780402422
100.817572474
100.400441885
100.813442469
100.363271832
100.367401838
100.367401838
100.801052451
100.796922445
100.817572474
100.796922445
100.400441885
100.796922445
100.796922445
100.400441885
100.834092498
100.817572474
100.796922445
100.383921862
100.400441885
100.383921862
100.404571891
100.817572474
100.400441885
100.784532428
100.817572474
100.801052451
100.801052451
100.796922445
100.801052451
100.801052451
100.367401838
100.801052451
100.817572474
100.817572474
100.363271832
100.801052451
100.834092498
100.834092498
100.813442469
100.817572474
100.416961908
100.780402422

Average distance is : 100.681 cm
Average deviation is : 0.194 cm
Block: 3
======================================
101.267743111
100.747362375
100.817572474
100.801052451
100.416961908
100.796922445
100.400441885
100.400441885
100.801052451
100.763882399
100.784532428
100.817572474
100.367401838
100.383921862
100.400441885
100.801052451
100.784532428
100.383921862
100.400441885
100.801052451
100.817572474
100.784532428
100.784532428
100.817572474
100.383921862
100.817572474
100.817572474
100.383921862
100.796922445
100.817572474
100.784532428
100.784532428
100.780402422
100.780402422
100.780402422
100.784532428
100.813442469
100.817572474
100.780402422
100.813442469
100.796922445
100.796922445
100.801052451
100.801052451
100.817572474
100.801052451
100.813442469
100.383921862
100.780402422
100.780402422

Average distance is : 100.717 cm
Average deviation is : 0.188 cm
Block: 4
======================================
100.400441885
100.367401838
100.400441885
100.400441885
100.400441885
100.421091914
100.367401838
100.834092498
100.801052451
100.383921862
100.367401838
100.383921862
100.801052451
100.801052451
100.367401838
100.404571891
100.801052451
100.801052451
100.780402422
100.796922445
100.367401838
100.834092498
100.796922445
100.796922445
100.834092498
100.817572474
100.796922445
100.383921862
100.834092498
100.834092498
100.801052451
100.813442469
100.796922445
100.796922445
100.817572474
100.801052451
100.383921862
100.817572474
100.400441885
100.817572474
100.817572474
100.796922445
100.801052451
100.400441885
100.780402422
100.801052451
100.801052451
100.383921862
100.817572474
100.801052451

Average distance is : 100.657 cm
Average deviation is : 0.204 cm
Block: 5
======================================
101.218183041
100.437611938
100.421091914
100.784532428
100.454131961
100.817572474
100.421091914
101.267743111
101.267743111
100.400441885
100.780402422
100.780402422
100.784532428
100.796922445
100.780402422
100.784532428
100.801052451
100.780402422
100.784532428
100.780402422
100.796922445
100.784532428
100.817572474
100.784532428
100.780402422
100.801052451
100.421091914
100.817572474
100.801052451
100.796922445
100.834092498
100.796922445
100.817572474
100.801052451
100.834092498
100.780402422
100.834092498
100.801052451
100.817572474
100.780402422
100.801052451
100.834092498
100.817572474
100.367401838
100.817572474
100.796922445
100.784532428
100.801052451
100.383921862
100.801052451

Average distance is : 100.765 cm
Average deviation is : 0.190 cm
Block: 6
======================================
100.433481932
100.834092498
100.400441885
100.780402422
100.437611938
100.416961908
100.400441885
100.817572474
100.801052451
100.817572474
100.801052451
100.801052451
100.817572474
100.400441885
100.796922445
100.801052451
100.817572474
100.383921862
100.796922445
100.817572474
100.817572474
100.834092498
100.801052451
100.801052451
100.780402422
100.780402422
100.780402422
100.780402422
100.813442469
100.817572474
100.796922445
100.801052451
100.817572474
100.817572474
100.801052451
100.383921862
100.817572474
100.796922445
100.813442469
100.834092498
100.784532428
100.801052451
100.801052451
100.817572474
100.801052451
100.796922445
100.817572474
100.784532428
100.801052451
100.817572474

Average distance is : 100.742 cm
Average deviation is : 0.148 cm
Block: 7
======================================
101.247093081
100.796922445
100.383921862
100.801052451
100.383921862
100.421091914
100.363271832
100.416961908
100.817572474
100.801052451
100.768012404
100.801052451
100.784532428
100.817572474
100.784532428
100.763882399
101.651833653
101.251223087
100.416961908
100.817572474
100.784532428
100.784532428
100.801052451
100.817572474
100.796922445
100.801052451
100.784532428
100.784532428
100.780402422
100.454131961
100.367401838
100.801052451
100.796922445
100.817572474
100.834092498
100.400441885
100.817572474
100.813442469
100.780402422
100.784532428
100.784532428
100.801052451
100.780402422
100.780402422
100.801052451
100.796922445
100.817572474
100.817572474
100.834092498
100.801052451

Average distance is : 100.762 cm
Average deviation is : 0.226 cm
Block: 8
======================================
100.363271832
100.433481932
100.400441885
100.838222504
100.383921862
100.834092498
100.404571891
100.801052451
100.801052451
100.817572474
100.801052451
100.400441885
100.801052451
100.801052451
100.796922445
100.817572474
100.801052451
100.834092498
100.817572474
100.404571891
100.801052451
100.817572474
100.834092498
100.796922445
100.834092498
100.796922445
100.817572474
100.801052451
100.801052451
100.834092498
100.801052451
100.817572474
100.437611938
100.801052451
100.784532428
100.817572474
100.784532428
100.817572474
100.367401838
100.383921862
100.383921862
100.383921862
100.817572474
100.817572474
100.784532428
100.817572474
100.784532428
100.817572474
100.817572474
100.801052451

Average distance is : 100.711 cm
Average deviation is : 0.180 cm
Block: 9
======================================
100.416961908
100.383921862
100.404571891
100.768012404
100.801052451
100.416961908
100.801052451
100.801052451
100.801052451
100.780402422
100.817572474
100.796922445
100.801052451
100.784532428
100.796922445
100.363271832
100.784532428
100.780402422
100.784532428
100.780402422
101.251223087
101.267743111
100.784532428
101.647703648
100.801052451
100.801052451
100.817572474
100.817572474
100.780402422
100.817572474
101.214053035
100.817572474
100.817572474
100.817572474
100.801052451
100.796922445
100.796922445
100.801052451
100.768012404
100.817572474
100.801052451
100.400441885
100.796922445
100.817572474
100.796922445
100.780402422
100.796922445
100.817572474
100.784532428
100.780402422

Average distance is : 100.793 cm
Average deviation is : 0.216 cm
Block: 10
======================================
100.400441885
100.817572474
100.367401838
100.801052451
100.400441885
100.416961908
100.416961908
100.421091914
100.400441885
100.801052451
100.834092498
100.784532428
100.817572474
100.801052451
100.801052451
100.796922445
100.780402422
100.416961908
100.801052451
100.780402422
100.817572474
100.813442469
100.817572474
100.817572474
100.763882399
100.801052451
100.400441885
100.383921862
100.780402422
100.784532428
100.801052451
100.400441885
100.367401838
100.383921862
100.784532428
100.400441885
100.784532428
100.801052451
100.801052451
100.817572474
100.784532428
100.780402422
100.817572474
100.817572474
100.801052451
100.801052451
100.801052451
100.801052451
100.817572474
100.801052451

Average distance is : 100.688 cm
Average deviation is : 0.183 cm
Average distance for 10x50 is : 100.719 cm
Average deviation for 10x50 is : 0.198 cm
 Percentage of values that failed: 0.000