
Block: 1
======================================
100.404571891
100.383921862
101.251223087
100.367401838
101.251223087
101.284263134
100.433481932
100.834092498
100.400441885
100.817572474
100.780402422
100.817572474
100.834092498
100.817572474
100.817572474
100.817572474
100.834092498
100.400441885
100.400441885
100.367401838
100.813442469
100.817572474
100.801052451
100.813442469
100.817572474
100.817572474
100.834092498
100.780402422
100.817572474
100.834092498
100.400441885
100.400441885
100.834092498
100.796922445
100.817572474
100.817572474
100.400441885
100.400441885
100.817572474
100.817572474
100.383921862
100.383921862
100.801052451
100.817572474
100.801052451
100.834092498
100.813442469
100.813442469
100.834092498
100.796922445
100.834092498
100.400441885
100.400441885
100.400441885
100.784532428
100.850612521
100.834092498
100.796922445
100.796922445
100.801052451
100.834092498
100.801052451
100.834092498
100.796922445
100.400441885
100.400441885
100.817572474
100.400441885
100.801052451
100.817572474
100.801052451
100.813442469
100.834092498
100.834092498
100.834092498
100.404571891
100.801052451
100.813442469
100.813442469
100.801052451
100.801052451
100.801052451
100.817572474
100.796922445
100.817572474
100.817572474
100.817572474
100.801052451
100.817572474
100.801052451
100.796922445
100.796922445
100.801052451
100.796922445
100.817572474
100.801052451
100.817572474
100.817572474
100.813442469
100.796922445

Block: 2
======================================
100.416961908
100.763882399
100.367401838
100.801052451
100.400441885
100.817572474
100.416961908
100.383921862
100.801052451
100.796922445
100.801052451
100.784532428
101.267743111
101.284263134
100.421091914
101.251223087
101.267743111
100.780402422
100.813442469
100.780402422
100.817572474
100.817572474
100.784532428
100.780402422
100.817572474
100.817572474
100.817572474
100.801052451
100.817572474
100.817572474
100.780402422
100.796922445
100.834092498
100.801052451
100.400441885
100.796922445
100.780402422
100.780402422
100.801052451
100.957992673
100.801052451
100.796922445
100.801052451
100.817572474
100.801052451
100.796922445
100.813442469
100.801052451
100.796922445
100.817572474
100.817572474
100.817572474
100.400441885
100.834092498
100.796922445
100.813442469
100.834092498
100.801052451
100.801052451
100.817572474
100.784532428
100.784532428
100.817572474
100.780402422
100.801052451
100.763882399
100.817572474
100.801052451
100.834092498
100.801052451
100.813442469
100.796922445
100.817572474
100.404571891
100.801052451
100.817572474
100.817572474
100.834092498
100.817572474
100.817572474
100.801052451
100.796922445
100.801052451
100.801052451
100.801052451
100.817572474
100.796922445
100.817572474
100.801052451
100.796922445
100.780402422
100.834092498
100.801052451
100.801052451
100.801052451
100.813442469
100.817572474
100.801052451
100.801052451
100.801052451

Block: 3
======================================
100.400441885
100.421091914
100.367401838
100.780402422
100.416961908
100.416961908
100.421091914
100.784532428
100.784532428
100.796922445
100.813442469
100.780402422
100.796922445
100.834092498
100.817572474
100.801052451
100.817572474
100.400441885
100.817572474
100.834092498
100.817572474
100.834092498
100.817572474
100.796922445
100.796922445
100.780402422
100.796922445
100.817572474
100.784532428
100.817572474
100.817572474
100.801052451
100.817572474
100.834092498
100.834092498
100.780402422
100.780402422
100.817572474
100.796922445
100.801052451
100.817572474
100.813442469
100.817572474
100.817572474
100.763882399
100.813442469
100.817572474
100.801052451
100.801052451
100.421091914
101.251223087
101.267743111
101.6848737
101.263613105
100.801052451
100.801052451
100.780402422
100.801052451
100.817572474
100.817572474
100.784532428
100.817572474
100.817572474
100.801052451
100.801052451
100.834092498
100.801052451
100.796922445
100.780402422
100.801052451
100.801052451
100.817572474
100.796922445
100.796922445
100.817572474
100.813442469
100.801052451
100.813442469
100.796922445
100.796922445
100.817572474
100.817572474
100.834092498
100.780402422
100.400441885
100.813442469
100.817572474
100.801052451
100.817572474
100.817572474
100.817572474
100.834092498
100.817572474
100.817572474
100.801052451
100.817572474
100.796922445
100.834092498
100.400441885
100.817572474

Block: 4
======================================
100.400441885
100.433481932
100.796922445
100.780402422
100.400441885
100.400441885
100.817572474
100.817572474
100.813442469
100.400441885
100.801052451
100.796922445
100.817572474
100.796922445
100.817572474
100.817572474
100.801052451
100.817572474
100.801052451
100.796922445
100.817572474
100.817572474
100.801052451
100.817572474
100.813442469
100.801052451
100.817572474
100.801052451
100.796922445
100.780402422
100.813442469
100.817572474
100.834092498
100.801052451
100.834092498
100.817572474
100.400441885
100.801052451
100.834092498
100.817572474
100.801052451
100.801052451
100.817572474
100.763882399
100.796922445
100.780402422
100.817572474
100.817572474
100.834092498
100.796922445
100.834092498
100.817572474
100.383921862
100.813442469
100.780402422
100.817572474
100.784532428
100.817572474
100.796922445
100.780402422
100.817572474
100.796922445
100.780402422
100.813442469
100.817572474
100.796922445
100.796922445
100.796922445
100.834092498
100.801052451
100.817572474
100.801052451
100.784532428
100.817572474
100.801052451
100.817572474
100.796922445
100.801052451
100.784532428
100.817572474
100.801052451
100.801052451
100.780402422
100.817572474
100.817572474
100.801052451
100.400441885
101.664223671
101.263613105
101.251223087
100.416961908
100.801052451
100.780402422
100.796922445
100.780402422
100.796922445
100.817572474
100.780402422
100.780402422
100.817572474

Block: 5
======================================
100.454131961
100.383921862
100.404571891
100.817572474
100.400441885
100.383921862
100.416961908
100.780402422
100.817572474
100.404571891
100.796922445
100.817572474
100.801052451
100.383921862
100.817572474
100.801052451
100.817572474
100.784532428
100.383921862
100.784532428
100.801052451
100.817572474
100.796922445
100.801052451
100.817572474
100.817572474
100.400441885
100.801052451
100.801052451
100.801052451
100.801052451
100.796922445
100.817572474
100.834092498
100.801052451
100.784532428
100.813442469
100.796922445
100.780402422
100.817572474
100.817572474
100.780402422
100.400441885
100.801052451
100.834092498
100.780402422
100.801052451
100.801052451
100.817572474
100.801052451
100.817572474
100.817572474
100.817572474
100.801052451
100.383921862
100.817572474
100.801052451
100.817572474
100.801052451
100.780402422
100.784532428
100.784532428
100.817572474
100.817572474
100.796922445
100.780402422
100.817572474
100.780402422
100.796922445
100.817572474
100.817572474
100.796922445
100.801052451
100.817572474
100.834092498
100.813442469
100.817572474
100.834092498
100.834092498
100.817572474
100.801052451
100.784532428
100.817572474
100.834092498
100.813442469
100.817572474
100.817572474
100.383921862
100.801052451
100.817572474
100.796922445
100.834092498
100.813442469
100.834092498
100.817572474
100.801052451
100.780402422
100.796922445
100.817572474
100.817572474

Block: 6
======================================
100.383921862
100.94147265
100.437611938
100.801052451
100.416961908
100.801052451
100.383921862
100.421091914
100.400441885
100.363271832
100.780402422
100.817572474
100.834092498
100.801052451
100.796922445
100.817572474
100.801052451
100.780402422
100.796922445
100.801052451
100.780402422
100.817572474
100.784532428
100.796922445
100.817572474
100.813442469
100.817572474
100.813442469
100.817572474
100.817572474
100.817572474
100.813442469
100.780402422
100.813442469
100.813442469
100.817572474
100.796922445
100.796922445
100.796922445
100.796922445
100.817572474
100.796922445
100.817572474
100.784532428
100.784532428
100.801052451
100.817572474
100.801052451
100.817572474
100.780402422
100.801052451
100.801052451
100.784532428
100.784532428
100.784532428
100.801052451
100.784532428
100.813442469
100.780402422
100.780402422
100.780402422
100.796922445
100.796922445
100.780402422
100.813442469
100.796922445
100.780402422
100.780402422
100.780402422
100.763882399
100.780402422
100.817572474
100.784532428
100.817572474
100.784532428
100.780402422
100.780402422
100.780402422
100.801052451
100.817572474
100.796922445
100.784532428
100.817572474
100.817572474
100.817572474
100.784532428
100.801052451
100.817572474
100.784532428
100.780402422
100.780402422
100.784532428
100.768012404
100.801052451
100.780402422
100.817572474
100.817572474
100.801052451
100.801052451
100.817572474

Block: 7
======================================
100.437611938
100.834092498
100.404571891
100.801052451
100.421091914
100.834092498
100.784532428
100.817572474
100.796922445
100.801052451
100.801052451
100.834092498
100.817572474
100.817572474
100.817572474
100.801052451
100.813442469
100.796922445
100.817572474
100.801052451
100.780402422
100.801052451
100.817572474
100.780402422
100.817572474
100.817572474
100.796922445
100.817572474
100.801052451
101.267743111
100.437611938
101.267743111
101.251223087
100.400441885
100.801052451
100.780402422
100.796922445
100.834092498
100.796922445
100.813442469
100.780402422
100.801052451
100.801052451
100.801052451
100.796922445
100.817572474
100.817572474
100.813442469
100.780402422
100.796922445
100.796922445
100.817572474
100.801052451
100.796922445
100.780402422
100.780402422
100.817572474
100.817572474
100.796922445
100.801052451
100.784532428
100.817572474
100.817572474
100.801052451
100.817572474
100.801052451
100.801052451
100.796922445
100.813442469
100.763882399
100.834092498
100.796922445
100.817572474
100.780402422
100.801052451
100.780402422
100.784532428
100.796922445
100.801052451
101.061242819
100.796922445
100.763882399
100.817572474
100.796922445
100.834092498
100.817572474
100.801052451
100.768012404
100.801052451
100.801052451
100.813442469
100.796922445
101.697263718
100.383921862
100.801052451
100.416961908
99.9502712488
100.801052451
100.780402422
100.813442469

Block: 8
======================================
100.383921862
100.763882399
100.383921862
100.784532428
100.367401838
100.850612521
100.404571891
100.817572474
100.383921862
100.780402422
100.801052451
100.834092498
100.817572474
100.780402422
100.817572474
100.834092498
100.817572474
100.796922445
100.817572474
100.400441885
100.367401838
100.801052451
100.817572474
100.796922445
100.801052451
100.817572474
100.796922445
100.400441885
100.813442469
100.801052451
100.817572474
100.817572474
100.784532428
100.801052451
100.784532428
100.801052451
100.801052451
100.817572474
100.834092498
100.801052451
100.817572474
100.813442469
100.780402422
100.801052451
100.383921862
100.801052451
100.817572474
100.834092498
100.416961908
100.801052451
100.801052451
100.834092498
100.784532428
100.801052451
100.817572474
100.801052451
100.817572474
100.801052451
100.801052451
100.801052451
100.400441885
100.834092498
100.801052451
100.801052451
100.801052451
100.834092498
101.664223671
101.664223671
100.801052451
100.780402422
100.784532428
100.817572474
100.801052451
100.817572474
100.817572474
100.813442469
100.834092498
100.784532428
100.801052451
100.801052451
100.801052451
100.834092498
100.801052451
100.801052451
100.834092498
100.801052451
100.780402422
100.780402422
100.796922445
100.813442469
100.838222504
100.834092498
100.801052451
100.801052451
100.817572474
100.801052451
100.763882399
100.817572474
100.834092498
100.780402422

Block: 9
======================================
100.437611938
100.416961908
100.400441885
100.801052451
100.817572474
100.801052451
100.784532428
100.796922445
100.784532428
100.784532428
100.780402422
100.801052451
100.817572474
100.817572474
100.796922445
100.817572474
100.780402422
100.801052451
100.796922445
100.801052451
100.817572474
100.796922445
100.813442469
100.813442469
100.817572474
100.801052451
100.801052451
100.801052451
100.801052451
100.796922445
100.813442469
100.817572474
100.796922445
100.796922445
100.817572474
100.817572474
100.817572474
100.817572474
100.796922445
100.780402422
100.784532428
100.801052451
100.813442469
100.796922445
100.796922445
100.817572474
100.796922445
100.796922445
100.801052451
100.817572474
100.801052451
100.801052451
100.817572474
101.701393723
100.817572474
100.801052451
100.383921862
100.817572474
100.801052451
100.784532428
100.817572474
100.796922445
100.383921862
100.817572474
100.813442469
100.817572474
100.834092498
100.813442469
100.801052451
100.817572474
100.817572474
100.801052451
100.796922445
100.801052451
100.796922445
100.796922445
100.780402422
100.780402422
100.400441885
100.784532428
100.796922445
100.801052451
100.817572474
100.817572474
100.796922445
100.817572474
100.817572474
100.817572474
100.817572474
100.780402422
100.817572474
100.801052451
100.813442469
100.801052451
100.817572474
100.784532428
100.801052451
100.817572474
100.817572474
100.801052451

Block: 10
======================================
100.437611938
100.383921862
100.854742527
100.834092498
100.437611938
100.400441885
100.817572474
100.784532428
100.813442469
100.801052451
100.801052451
100.834092498
100.817572474
100.383921862
100.404571891
100.780402422
100.801052451
100.813442469
100.796922445
100.383921862
100.817572474
100.796922445
100.796922445
100.400441885
100.400441885
100.801052451
100.421091914
100.817572474
100.838222504
100.796922445
100.801052451
100.817572474
100.784532428
100.796922445
100.801052451
100.813442469
100.813442469
100.796922445
100.834092498
100.817572474
100.404571891
100.817572474
100.801052451
100.400441885
100.400441885
100.813442469
100.383921862
100.817572474
100.416961908
100.404571891
100.780402422
100.400441885
100.400441885
100.796922445
100.801052451
100.801052451
100.817572474
100.404571891
100.817572474
100.817572474
100.817572474
100.383921862
100.801052451
100.834092498
100.817572474
100.796922445
100.801052451
100.813442469
100.780402422
100.801052451
100.801052451
100.801052451
100.780402422
100.834092498
100.801052451
100.400441885
100.796922445
100.817572474
100.796922445
100.400441885
100.838222504
100.817572474
100.383921862
100.817572474
100.400441885
100.421091914
100.400441885
100.421091914
100.383921862
100.404571891
100.416961908
100.400441885
100.400441885
100.400441885
100.780402422
100.400441885
100.817572474
100.817572474
100.796922445
100.817572474
