
Block: 1
======================================
99.516620636
99.0829700232
99.1201400757
99.1201400757
99.5001006126
99.516620636
99.1201400757
99.1903501749
99.5496606827
99.5001006126
99.5207506418
99.087100029
99.1531801224
99.136660099
99.6735608578
99.5537906885
99.1201400757
99.1201400757
99.136660099
99.1036200523
99.1201400757
99.1531801224
99.1201400757
99.5207506418
99.136660099
99.516620636
99.1036200523
99.1036200523
99.1201400757
99.1738301516
99.1201400757
99.136660099
99.1201400757
99.1036200523
99.5207506418
99.136660099
99.136660099
99.136660099
99.1201400757
99.5537906885
99.136660099
99.516620636
99.136660099
99.5372706652
99.5001006126
99.5331406593
99.5537906885
99.5537906885
99.5537906885
99.516620636
99.1201400757
99.516620636
99.136660099
99.136660099
99.136660099
99.1036200523
99.1531801224
99.1201400757
99.1201400757
99.5703107119
99.5537906885
99.1160100698
99.5537906885
99.5703107119
99.5496606827
99.516620636
99.136660099
99.1201400757
99.0994900465
99.5537906885
99.5537906885
99.1201400757
99.1531801224
99.136660099
99.1201400757
99.136660099
99.136660099
99.1036200523
99.136660099
99.1201400757
99.136660099
99.5372706652
99.5868307352
99.1036200523
99.1531801224
99.1201400757
99.136660099
99.136660099
99.136660099
99.5496606827
99.1036200523
99.136660099
99.1201400757
99.136660099
99.0829700232
99.1531801224
99.136660099
99.0994900465
99.5537906885
99.5703107119

Block: 2
======================================
99.136660099
99.136660099
99.1201400757
99.1036200523
99.136660099
99.1201400757
99.136660099
99.1036200523
99.1201400757
99.0994900465
99.1201400757
99.5537906885
99.1531801224
99.5331406593
99.1201400757
99.1160100698
99.516620636
99.1160100698
99.1531801224
99.1201400757
99.087100029
99.5331406593
99.5331406593
99.5496606827
99.1160100698
99.5331406593
99.1201400757
99.1201400757
99.1036200523
99.516620636
99.2068701982
99.0994900465
99.087100029
99.1036200523
99.1531801224
99.1160100698
99.136660099
99.5331406593
99.5537906885
99.0994900465
99.5001006126
99.1201400757
99.136660099
99.5372706652
99.5001006126
99.087100029
99.5496606827
99.516620636
99.136660099
99.5372706652
99.1531801224
99.516620636
99.516620636
99.516620636
99.136660099
99.5001006126
99.5331406593
99.1201400757
99.516620636
100.070041418
99.136660099
99.136660099
99.1036200523
99.5331406593
99.136660099
99.136660099
99.0829700232
99.5331406593
99.087100029
99.5537906885
99.1201400757
99.5537906885
99.1201400757
99.516620636
99.5207506418
99.1531801224
99.1201400757
99.136660099
99.1036200523
99.1201400757
99.1201400757
99.1862201691
99.0829700232
99.516620636
99.1201400757
99.5537906885
99.1201400757
99.136660099
99.5372706652
99.1160100698
99.516620636
99.5372706652
99.5537906885
99.136660099
99.1201400757
99.136660099
99.1036200523
99.1531801224
99.1201400757
99.1201400757

Block: 3
======================================
99.1201400757
99.1531801224
99.5703107119
99.0994900465
99.1036200523
99.1697001457
99.2068701982
99.1697001457
99.5331406593
99.1201400757
99.1201400757
99.1201400757
99.5372706652
99.1697001457
99.5537906885
99.5496606827
99.1201400757
99.1903501749
99.1697001457
99.1903501749
99.1531801224
99.5537906885
99.5207506418
99.1738301516
99.1201400757
99.136660099
99.1531801224
99.087100029
99.1697001457
99.5537906885
99.136660099
99.5372706652
99.516620636
99.5537906885
99.516620636
99.1160100698
99.5496606827
99.1201400757
99.136660099
99.5496606827
99.136660099
99.5496606827
99.0994900465
99.1160100698
99.1201400757
99.1036200523
100.107211471
99.1201400757
99.136660099
99.5207506418
99.1036200523
99.136660099
99.136660099
99.136660099
99.136660099
99.1160100698
99.1531801224
99.1531801224
99.1201400757
99.1531801224
99.1531801224
99.136660099
99.1036200523
99.0994900465
99.5372706652
99.5537906885
99.5537906885
99.1573101282
99.1201400757
99.1201400757
99.5001006126
99.1036200523
99.1036200523
99.5331406593
99.5496606827
99.0829700232
99.5703107119
99.5372706652
99.5372706652
99.1531801224
99.087100029
99.136660099
99.1036200523
99.1036200523
99.136660099
99.5331406593
99.5331406593
99.087100029
99.5537906885
99.0829700232
99.5537906885
99.136660099
99.1201400757
99.136660099
99.1201400757
99.516620636
99.1201400757
99.1201400757
99.5537906885
99.5537906885

Block: 4
======================================
99.1201400757
99.1036200523
99.5207506418
99.1531801224
99.5537906885
99.5537906885
99.5496606827
99.0994900465
99.1160100698
99.516620636
99.5331406593
99.516620636
99.1201400757
99.5703107119
99.136660099
99.1036200523
99.1036200523
99.5372706652
99.5207506418
99.1201400757
99.1036200523
99.136660099
99.5372706652
99.1201400757
99.1160100698
99.1036200523
99.1201400757
99.1036200523
99.5331406593
99.1036200523
99.1201400757
99.136660099
99.1903501749
99.5331406593
99.1697001457
99.0994900465
99.1201400757
99.1036200523
99.5496606827
99.136660099
99.1201400757
99.1573101282
99.0829700232
99.136660099
99.136660099
99.1903501749
99.516620636
99.136660099
99.1573101282
99.136660099
99.1160100698
99.516620636
99.1201400757
99.5372706652
99.5331406593
99.5496606827
99.5001006126
99.136660099
99.5372706652
99.566180706
99.5372706652
99.516620636
99.136660099
99.1573101282
99.0829700232
99.5372706652
99.5331406593
99.1160100698
99.1036200523
99.5331406593
99.1573101282
99.1036200523
99.5537906885
99.5001006126
99.5496606827
99.1903501749
99.5331406593
99.5537906885
99.5703107119
99.5537906885
99.1697001457
99.1036200523
99.0994900465
99.1201400757
99.1201400757
99.1531801224
99.5372706652
99.5537906885
99.5372706652
99.136660099
99.5331406593
99.5372706652
99.0994900465
99.5001006126
99.566180706
99.5372706652
99.1160100698
99.5331406593
99.5537906885
99.1531801224

Block: 5
======================================
99.1697001457
99.1201400757
99.1697001457
99.1160100698
99.1160100698
99.1531801224
99.1201400757
99.136660099
99.0994900465
99.1201400757
99.5703107119
99.5372706652
99.1903501749
99.1697001457
99.5001006126
99.0994900465
99.5331406593
99.136660099
99.5372706652
99.1160100698
99.1407901049
99.5331406593
99.1160100698
99.5372706652
99.5496606827
99.136660099
99.5496606827
99.1738301516
99.516620636
99.1697001457
99.136660099
99.5331406593
99.087100029
99.136660099
99.136660099
99.1903501749
99.1201400757
99.5331406593
99.516620636
99.5372706652
99.5372706652
99.5537906885
99.5331406593
99.5372706652
99.5331406593
99.136660099
99.1160100698
99.516620636
99.1531801224
99.5207506418
99.1160100698
99.5537906885
99.136660099
99.5537906885
99.136660099
99.1201400757
99.136660099
99.516620636
99.5207506418
99.516620636
99.1160100698
99.1201400757
99.136660099
99.1036200523
99.1201400757
99.136660099
99.1201400757
99.5703107119
99.1201400757
99.516620636
99.1531801224
99.1201400757
99.5372706652
99.136660099
99.5207506418
99.1862201691
99.1201400757
99.1697001457
99.6033507586
99.5703107119
99.5703107119
99.5496606827
99.136660099
99.5331406593
99.5537906885
99.136660099
99.5372706652
99.5496606827
99.1201400757
99.0829700232
99.1036200523
99.1531801224
99.1697001457
99.5207506418
99.516620636
99.5331406593
99.5207506418
99.1201400757
99.1036200523
99.087100029

Block: 6
======================================
99.1201400757
99.1036200523
99.1036200523
99.1201400757
99.1036200523
99.0994900465
99.5331406593
99.5537906885
99.1697001457
99.516620636
99.1160100698
99.1531801224
99.1201400757
99.5372706652
99.5331406593
99.136660099
99.1531801224
99.5703107119
99.1201400757
99.1862201691
99.5207506418
99.5372706652
99.1201400757
99.516620636
99.1160100698
99.1573101282
99.1201400757
99.5537906885
99.1201400757
99.136660099
99.5331406593
99.1036200523
99.5372706652
99.1160100698
99.0994900465
99.5537906885
99.1697001457
99.5331406593
99.1531801224
99.1903501749
99.136660099
99.5372706652
99.1160100698
99.136660099
99.5372706652
99.1531801224
99.5496606827
99.1160100698
99.1862201691
99.1160100698
99.5703107119
99.516620636
99.1862201691
99.5331406593
99.5372706652
99.136660099
99.0994900465
99.5331406593
99.1201400757
99.5372706652
99.5496606827
99.5537906885
99.5331406593
99.5703107119
99.5537906885
99.0994900465
99.5001006126
99.136660099
99.1201400757
99.1160100698
99.1201400757
99.5496606827
99.5868307352
99.1697001457
99.1738301516
99.1531801224
99.1697001457
99.5496606827
99.087100029
99.516620636
99.1036200523
99.0829700232
99.5372706652
99.1201400757
99.5207506418
99.136660099
99.136660099
99.5331406593
99.516620636
99.136660099
99.1160100698
99.1738301516
99.136660099
99.1201400757
99.1531801224
99.1036200523
99.1160100698
99.5372706652
99.5496606827
99.5372706652

Block: 7
======================================
99.1738301516
99.0829700232
99.1160100698
99.516620636
99.5868307352
99.1697001457
99.5372706652
99.1201400757
99.5496606827
99.5372706652
99.6074807644
99.1531801224
99.0994900465
99.5537906885
99.1160100698
99.5537906885
99.136660099
99.5372706652
99.5868307352
99.5331406593
99.516620636
99.7602909803
99.5372706652
99.5331406593
99.1201400757
99.5372706652
99.5001006126
99.5331406593
99.5868307352
99.1531801224
99.1862201691
99.1201400757
99.1036200523
99.5537906885
99.5331406593
99.5537906885
99.516620636
99.5331406593
99.1201400757
99.5331406593
99.136660099
99.136660099
99.1201400757
99.1201400757
99.1201400757
99.516620636
99.516620636
99.5331406593
99.516620636
99.1201400757
99.5703107119
99.516620636
99.5372706652
99.0994900465
99.5537906885
99.516620636
99.5001006126
99.1201400757
99.5331406593
99.516620636
99.5537906885
99.5331406593
99.5001006126
99.516620636
99.1862201691
99.516620636
99.516620636
99.5537906885
99.516620636
99.5537906885
99.516620636
99.6033507586
99.5537906885
99.5001006126
99.0994900465
99.5331406593
99.1201400757
99.1201400757
99.136660099
99.1531801224
99.136660099
99.136660099
99.1903501749
99.1201400757
99.5372706652
99.5537906885
99.0829700232
99.1201400757
99.1036200523
99.1531801224
99.5372706652
99.5331406593
99.5537906885
99.087100029
99.516620636
99.5496606827
99.1201400757
99.1201400757
99.1201400757
99.1201400757

Block: 8
======================================
99.516620636
99.0994900465
99.136660099
99.1697001457
99.516620636
99.5331406593
99.566180706
99.5331406593
99.1201400757
99.5331406593
99.1201400757
99.1201400757
99.1201400757
99.5372706652
99.136660099
99.5372706652
99.516620636
99.5372706652
99.5372706652
99.5331406593
99.5372706652
99.1201400757
99.1036200523
99.1036200523
99.1201400757
99.1531801224
99.0994900465
99.136660099
99.1531801224
99.136660099
99.1201400757
99.1201400757
99.136660099
99.1531801224
99.1160100698
99.516620636
99.5703107119
99.5537906885
99.1201400757
99.136660099
99.136660099
99.5537906885
99.1531801224
99.0829700232
99.5703107119
99.1531801224
99.1903501749
99.1201400757
99.5331406593
99.1036200523
99.1201400757
99.5207506418
99.5372706652
99.1201400757
99.0994900465
99.5001006126
99.1201400757
99.1201400757
99.1201400757
99.5537906885
99.1201400757
99.1201400757
99.136660099
99.5331406593
99.1573101282
99.0829700232
99.136660099
99.136660099
99.136660099
99.5331406593
99.1160100698
99.1201400757
99.1201400757
99.1903501749
99.5331406593
99.5372706652
99.136660099
99.136660099
99.1201400757
99.1738301516
99.136660099
99.136660099
99.1862201691
99.136660099
99.136660099
99.5372706652
99.1201400757
99.1201400757
99.5331406593
99.1531801224
99.1531801224
99.5331406593
99.5703107119
99.1201400757
99.1201400757
99.5703107119
99.136660099
99.5537906885
99.136660099
99.1036200523

Block: 9
======================================
99.1036200523
99.136660099
99.5496606827
99.5331406593
99.516620636
99.1862201691
99.136660099
99.1697001457
99.136660099
99.1036200523
99.1697001457
99.136660099
99.1738301516
99.136660099
99.1201400757
99.1160100698
99.1697001457
99.0994900465
99.1036200523
99.1531801224
99.0994900465
99.5207506418
99.0994900465
99.0829700232
99.136660099
99.5372706652
99.1201400757
99.136660099
99.5496606827
99.1531801224
99.5331406593
99.1036200523
99.5496606827
99.1201400757
99.136660099
99.136660099
99.1201400757
99.136660099
99.5331406593
99.1531801224
99.1036200523
99.5372706652
99.5001006126
99.5207506418
99.1036200523
99.136660099
99.0994900465
99.5537906885
99.5372706652
99.5331406593
99.5496606827
99.5331406593
99.6900808811
99.516620636
99.1201400757
99.1201400757
99.1036200523
99.5496606827
99.0994900465
99.1160100698
99.1036200523
99.136660099
99.1160100698
99.1036200523
99.516620636
99.0994900465
99.1160100698
99.5372706652
99.1531801224
99.1201400757
99.1201400757
99.5331406593
99.0994900465
99.1738301516
99.516620636
99.5372706652
99.1201400757
99.5372706652
99.5537906885
99.0994900465
99.5372706652
99.5331406593
99.5496606827
99.136660099
99.5537906885
99.5331406593
99.1036200523
99.5331406593
99.1531801224
99.1201400757
99.1201400757
99.136660099
99.516620636
99.1573101282
99.1036200523
99.516620636
99.5331406593
99.5496606827
99.0994900465
99.516620636

Block: 10
======================================
99.5042306185
99.1201400757
99.5372706652
99.516620636
99.4835805893
99.1738301516
99.136660099
99.1903501749
99.5207506418
99.136660099
99.1862201691
99.1697001457
99.1903501749
99.1697001457
99.1697001457
99.1531801224
99.136660099
99.1738301516
99.136660099
99.5537906885
99.1201400757
99.1531801224
99.1201400757
99.2068701982
99.1697001457
99.1036200523
99.1903501749
99.1036200523
99.5703107119
99.5372706652
99.136660099
99.1531801224
99.1036200523
99.1697001457
99.1201400757
99.1531801224
99.1531801224
99.1160100698
99.5372706652
99.1201400757
99.5703107119
99.136660099
99.0994900465
99.2027401924
99.1201400757
99.1036200523
99.5537906885
99.1201400757
99.0994900465
99.1201400757
99.5372706652
99.136660099
99.1697001457
99.5372706652
99.1573101282
99.136660099
99.136660099
99.1160100698
99.1201400757
99.1160100698
99.1036200523
99.1201400757
99.1201400757
99.5496606827
99.136660099
99.1036200523
99.136660099
99.136660099
99.1160100698
99.1160100698
99.5703107119
99.1201400757
99.1036200523
99.1531801224
99.136660099
99.1201400757
99.1036200523
99.1201400757
99.136660099
99.136660099
99.1036200523
99.0994900465
99.1531801224
99.1201400757
99.1160100698
99.5331406593
99.1160100698
99.1531801224
99.136660099
99.5001006126
99.5372706652
99.5331406593
99.136660099
99.136660099
99.1201400757
99.1738301516
99.0994900465
99.1862201691
99.1036200523
99.1036200523
