
Block: 1
======================================
199.680972934
199.733911705
200.605365324
199.717622852
201.032947707

Average distance is : 200.154 cm
Average deviation is : 0.626 cm
Block: 2
======================================
199.733911705
201.016658854
199.701334
199.701334
199.701334

Average distance is : 199.971 cm
Average deviation is : 0.585 cm
Block: 3
======================================
199.750200558
200.128916383
200.145205235
199.701334
200.621654177

Average distance is : 200.069 cm
Average deviation is : 0.371 cm
Block: 4
======================================
200.181855154
200.637943029
199.685045147
199.701334
200.161494088

Average distance is : 200.074 cm
Average deviation is : 0.396 cm
Block: 5
======================================
199.717622852
199.273751616
199.733911705
199.717622852
199.754272771

Average distance is : 199.639 cm
Average deviation is : 0.205 cm
Block: 6
======================================
200.605365324
200.637943029
199.697261786
200.128916383
199.273751616

Average distance is : 200.069 cm
Average deviation is : 0.589 cm
Block: 7
======================================
200.605365324
200.161494088
199.326690388
199.701334
199.717622852

Average distance is : 199.903 cm
Average deviation is : 0.492 cm
Block: 8
======================================
199.680972934
200.62572639
199.76648941
199.290040469
201.476818943

Average distance is : 200.168 cm
Average deviation is : 0.879 cm
Block: 9
======================================
199.717622852
199.770561624
199.257462764
200.145205235
199.717622852

Average distance is : 199.722 cm
Average deviation is : 0.315 cm
Block: 10
======================================
199.697261786
199.664684081
199.697261786
199.701334
200.161494088

Average distance is : 199.784 cm
Average deviation is : 0.211 cm