
Block: 1
======================================
100.334361792
100.784532428
99.8305010796
99.8470211029
99.8470211029
99.8800611496
100.280671716
99.8635411263
99.8841911554
99.8676711321
99.8841911554
99.8800611496
100.751492381
99.8676711321
100.747362375
99.8635411263
99.8470211029
99.8635411263
99.8841911554
99.8470211029
99.8800611496
99.8635411263
99.8841911554
99.8470211029
99.8800611496
99.8470211029
99.8800611496
99.8800611496
99.8635411263
99.8635411263
99.8635411263
99.8676711321
99.8676711321
99.8965811729
99.8841911554
99.8841911554
99.8470211029
99.8635411263
100.780402422
99.8635411263
99.8676711321
100.763882399
99.8470211029
99.8800611496
99.8635411263
99.8635411263
100.747362375
99.8470211029
100.747362375
99.8965811729
99.8635411263
99.8635411263
99.8800611496
100.730842352
99.8635411263
99.8676711321
100.747362375
100.747362375
99.8470211029
100.297191739
99.8635411263
99.8635411263
100.780402422
99.8470211029
101.214053035
99.8965811729
100.763882399
100.780402422
99.8635411263
100.784532428
99.8800611496
100.747362375
99.8841911554
101.197533011
99.8470211029
99.8635411263
99.8635411263
99.8470211029
99.8305010796
99.8470211029
99.8635411263
99.8635411263
99.8470211029
100.747362375
99.8635411263
99.8470211029
100.330231786
99.8470211029
99.8635411263
99.8470211029
99.8305010796
99.8676711321
100.334361792
99.8635411263
99.8635411263
99.8676711321
99.8635411263
99.8635411263
100.763882399
99.8470211029

Average distance is : 100.065 cm
Average deviation is : 0.379 cm
Block: 2
======================================
100.297191739
100.763882399
100.313711762
99.8098510504
100.297191739
100.297191739
100.747362375
100.747362375
99.8428910971
99.8470211029
99.8635411263
100.730842352
99.9007111788
99.8800611496
100.763882399
100.763882399
99.8841911554
99.8635411263
99.8635411263
99.8470211029
100.330231786
100.747362375
100.763882399
99.8635411263
99.8676711321
99.8470211029
99.8965811729
99.8635411263
100.280671716
99.8635411263
99.8635411263
99.8635411263
99.8470211029
99.8470211029
99.8800611496
99.8800611496
100.747362375
100.747362375
100.763882399
99.8470211029
100.350881815
99.8635411263
100.350881815
99.8635411263
99.8470211029
99.8635411263
99.8841911554
99.8676711321
99.8470211029
99.8800611496
99.8470211029
99.8635411263
99.8635411263
99.8676711321
99.8800611496
99.8841911554
99.8635411263
99.9007111788
99.8635411263
100.747362375
99.8841911554
100.763882399
100.747362375
100.763882399
100.768012404
99.8800611496
100.763882399
99.8470211029
99.8841911554
99.8470211029
100.297191739
100.784532428
100.768012404
99.8428910971
99.9007111788
100.751492381
99.8800611496
100.801052451
99.8635411263
99.8965811729
100.763882399
100.768012404
99.8635411263
100.763882399
99.8635411263
99.8841911554
100.763882399
100.350881815
100.763882399
99.8470211029
100.350881815
100.313711762
100.27654171
100.763882399
100.747362375
100.763882399
99.8800611496
99.8635411263
99.8841911554
100.747362375

Average distance is : 100.193 cm
Average deviation is : 0.401 cm
Block: 3
======================================
100.313711762
99.8800611496
100.350881815
99.4340205193
100.280671716
101.181012988
99.8635411263
99.8470211029
99.8635411263
99.8800611496
99.8470211029
99.8841911554
100.763882399
100.747362375
100.747362375
99.8635411263
99.8841911554
99.8800611496
99.9007111788
99.8470211029
99.8800611496
99.8470211029
100.747362375
99.8635411263
99.8676711321
99.8635411263
99.8800611496
99.8635411263
99.8841911554
99.8470211029
99.8635411263
100.763882399
99.8635411263
99.8965811729
99.8470211029
99.8635411263
99.8470211029
99.8635411263
99.8635411263
100.313711762
99.8470211029
99.8635411263
100.367401838
99.8800611496
99.8470211029
100.751492381
99.8800611496
100.763882399
99.8800611496
99.8635411263
99.8470211029
99.8635411263
100.730842352
100.317841768
99.8470211029
99.8800611496
99.8470211029
100.747362375
100.763882399
100.730842352
99.9007111788
99.8841911554
99.8635411263
100.768012404
99.8676711321
100.780402422
99.8676711321
100.780402422
99.8800611496
100.801052451
100.747362375
100.763882399
99.8841911554
100.784532428
99.8965811729
100.747362375
100.763882399
99.8635411263
99.8635411263
100.747362375
100.730842352
100.768012404
100.763882399
100.780402422
99.8800611496
99.9007111788
100.330231786
100.763882399
99.8470211029
99.8800611496
100.780402422
100.763882399
100.784532428
99.8635411263
86.0445415974
100.27654171
100.763882399
100.313711762
99.8800611496
100.784532428

Average distance is : 100.057 cm
Average deviation is : 1.477 cm
Block: 4
======================================
99.8305010796
99.8676711321
99.8470211029
99.8470211029
99.8470211029
100.297191739
100.297191739
100.313711762
100.334361792
100.334361792
99.8305010796
100.297191739
100.747362375
99.8841911554
100.747362375
100.297191739
100.801052451
100.763882399
99.8635411263
99.8470211029
99.8841911554
99.8428910971
100.330231786
100.801052451
100.280671716
100.27654171
100.780402422
100.280671716
99.8635411263
100.768012404
100.747362375
99.8841911554
99.8635411263
99.8635411263
100.297191739
100.780402422
100.297191739
100.280671716
100.280671716
100.297191739
100.784532428
99.8800611496
100.313711762
100.280671716
99.3968504667
99.8800611496
100.768012404
100.747362375
100.297191739
100.280671716
100.780402422
100.280671716
100.768012404
100.297191739
100.334361792
100.747362375
100.297191739
100.747362375
100.313711762
100.313711762
100.313711762
100.27654171
100.747362375
100.784532428
99.8965811729
100.317841768
100.768012404
99.8635411263
99.3968504667
100.763882399
100.297191739
100.801052451
100.747362375
100.747362375
99.8635411263
100.763882399
99.8470211029
100.280671716
100.780402422
99.9007111788
100.763882399
100.297191739
100.763882399
100.784532428
100.313711762
99.8800611496
99.8635411263
100.747362375
100.763882399
99.8635411263
99.9007111788
99.8470211029
100.747362375
100.280671716
100.801052451
100.780402422
100.730842352
101.181012988
100.297191739
100.796922445

Average distance is : 100.337 cm
Average deviation is : 0.390 cm
Block: 5
======================================
99.8139810562
99.8965811729
100.317841768
100.313711762
100.334361792
99.4340205193
100.763882399
99.8841911554
99.8635411263
100.747362375
99.8470211029
100.747362375
100.747362375
99.8635411263
99.8635411263
99.8470211029
100.763882399
100.763882399
99.8676711321
99.8841911554
100.763882399
100.801052451
99.8470211029
99.8841911554
100.747362375
100.747362375
100.747362375
100.763882399
100.330231786
100.751492381
99.8470211029
100.763882399
100.747362375
100.784532428
100.768012404
99.8635411263
100.768012404
99.8635411263
99.8635411263
100.747362375
99.8635411263
100.768012404
99.8635411263
99.8800611496
100.763882399
100.297191739
100.763882399
100.747362375
100.780402422
99.8305010796
100.763882399
99.8800611496
100.801052451
100.768012404
99.8470211029
99.8635411263
99.8635411263
99.8676711321
100.747362375
99.8676711321
100.747362375
100.784532428
99.8635411263
99.8841911554
99.8800611496
100.313711762
99.8800611496
100.747362375
100.780402422
100.763882399
100.297191739
100.768012404
101.197533011
100.297191739
100.313711762
100.27654171
99.8470211029
100.747362375
99.8635411263
100.297191739
100.297191739
100.763882399
100.297191739
99.8635411263
100.768012404
100.780402422
100.313711762
101.201663017
100.297191739
100.780402422
100.768012404
100.763882399
100.313711762
100.210461617
100.747362375
100.768012404
99.8635411263
100.747362375
100.780402422
99.8841911554

Average distance is : 100.366 cm
Average deviation is : 0.430 cm
Block: 6
======================================
99.8800611496
100.297191739
100.747362375
100.763882399
100.780402422
99.8635411263
99.8800611496
99.8635411263
100.297191739
100.768012404
99.8841911554
100.784532428
99.4133704901
100.763882399
100.747362375
100.768012404
100.747362375
99.8676711321
99.8635411263
100.297191739
100.763882399
99.8635411263
99.8635411263
100.297191739
100.730842352
101.197533011
100.297191739
100.297191739
100.784532428
100.780402422
100.313711762
99.4133704901
100.747362375
100.784532428
100.264151692
99.4133704901
100.297191739
100.27654171
100.768012404
100.280671716
99.8635411263
99.8635411263
99.3968504667
100.747362375
100.768012404
100.763882399
100.763882399
100.763882399
100.784532428
99.8800611496
100.784532428
100.780402422
100.768012404
100.796922445
100.763882399
100.763882399
99.8841911554
99.8965811729
100.747362375
99.8470211029
100.313711762
99.8635411263
99.8635411263
100.747362375
99.8635411263
99.8635411263
99.8841911554
100.297191739
100.763882399
100.763882399
100.784532428
100.780402422
100.763882399
100.780402422
100.768012404
99.8800611496
100.280671716
99.8800611496
99.8635411263
100.763882399
99.8676711321
100.747362375
100.768012404
99.8800611496
100.297191739
100.780402422
100.747362375
100.768012404
100.053521395
99.9007111788
100.297191739
100.730842352
99.8635411263
99.8635411263
99.8635411263
99.8800611496
100.280671716
99.8841911554
100.780402422
100.784532428

Average distance is : 100.352 cm
Average deviation is : 0.444 cm
Block: 7
======================================
99.8470211029
99.8800611496
100.313711762
99.8305010796
100.334361792
100.313711762
99.8305010796
100.747362375
99.8800611496
99.8965811729
100.763882399
100.297191739
100.297191739
100.747362375
99.8800611496
100.784532428
100.763882399
101.181012988
100.796922445
99.8470211029
99.8841911554
100.264151692
100.763882399
100.747362375
100.780402422
99.8841911554
100.763882399
100.297191739
100.780402422
100.780402422
100.768012404
99.8635411263
99.8800611496
99.8635411263
99.8800611496
100.784532428
100.763882399
99.8635411263
100.763882399
99.8470211029
99.8635411263
99.3968504667
99.8635411263
100.763882399
99.8841911554
100.350881815
100.730842352
99.8800611496
100.747362375
99.8635411263
99.8800611496
99.8676711321
100.747362375
100.763882399
100.763882399
100.747362375
100.747362375
99.8470211029
100.763882399
100.747362375
100.313711762
100.747362375
100.780402422
100.768012404
100.6234622
100.763882399
99.8676711321
99.8635411263
99.8635411263
100.768012404
100.763882399
100.020481348
99.8800611496
100.763882399
99.8635411263
99.8800611496
99.9007111788
99.8800611496
100.768012404
99.8800611496
100.763882399
99.8800611496
100.763882399
99.8635411263
99.8800611496
100.763882399
99.8800611496
99.8470211029
99.8635411263
100.747362375
99.8635411263
100.784532428
100.747362375
99.8841911554
99.8800611496
100.747362375
100.784532428
100.747362375
99.8841911554
100.763882399

Average distance is : 100.320 cm
Average deviation is : 0.440 cm
Block: 8
======================================
99.8470211029
102.391104698
99.8841911554
101.197533011
100.730842352
100.784532428
100.747362375
100.280671716
101.181012988
99.9007111788
99.8470211029
99.8635411263
100.763882399
100.768012404
99.8841911554
99.8841911554
99.8800611496
99.8965811729
100.747362375
99.8676711321
99.8635411263
100.780402422
99.8800611496
99.9007111788
100.747362375
99.8635411263
99.8635411263
99.8841911554
99.8676711321
100.784532428
100.763882399
100.747362375
99.8800611496
100.763882399
99.8676711321
99.8635411263
99.8800611496
100.367401838
100.780402422
100.350881815
100.330231786
99.8965811729
99.8841911554
99.8635411263
99.8635411263
99.8800611496
100.730842352
99.8635411263
99.8635411263
99.8800611496
100.784532428
99.8800611496
99.8635411263
99.8800611496
99.8635411263
99.8635411263
99.8470211029
99.8800611496
100.747362375
99.8635411263
99.8800611496
99.9007111788
100.751492381
100.763882399
99.8635411263
99.8635411263
99.8800611496
99.8800611496
99.8841911554
99.8841911554
99.8800611496
99.8800611496
100.763882399
99.8800611496
99.8635411263
99.9007111788
99.9007111788
99.8800611496
100.763882399
100.763882399
99.8470211029
100.780402422
100.768012404
100.346751809
99.8635411263
99.8965811729
100.768012404
100.747362375
99.8635411263
99.8635411263
100.747362375
99.8800611496
99.8841911554
99.8965811729
99.8676711321
99.8800611496
99.8635411263
99.8800611496
100.350881815
99.8800611496

Average distance is : 100.185 cm
Average deviation is : 0.470 cm
Block: 9
======================================
100.313711762
99.8470211029
99.8098510504
100.313711762
100.297191739
100.297191739
101.474243402
99.8470211029
99.8800611496
99.8800611496
99.8635411263
99.8470211029
99.8635411263
99.8800611496
99.8635411263
100.363271832
99.8800611496
99.8676711321
99.8635411263
99.8635411263
99.8800611496
99.8635411263
100.763882399
100.784532428
99.8800611496
99.8635411263
99.8676711321
99.8841911554
99.8841911554
99.8635411263
99.8635411263
99.8841911554
99.8635411263
100.747362375
99.8800611496
99.8635411263
99.8635411263
100.334361792
100.334361792
99.8305010796
99.8800611496
99.9007111788
99.8635411263
99.8635411263
99.8965811729
99.8841911554
99.8800611496
100.768012404
99.8635411263
99.8676711321
99.8841911554
99.8635411263
99.8841911554
99.8800611496
99.8635411263
99.8800611496
100.784532428
100.747362375
99.8635411263
99.8841911554
100.747362375
99.8800611496
100.367401838
100.768012404
99.8635411263
100.768012404
99.8635411263
100.763882399
100.350881815
99.8800611496
99.8676711321
100.003961325
99.8800611496
100.784532428
99.8841911554
99.9007111788
99.8800611496
100.763882399
100.297191739
100.747362375
100.763882399
99.8800611496
100.747362375
99.9007111788
100.763882399
100.763882399
99.8470211029
99.9172312021
99.8800611496
99.8800611496
99.9007111788
99.8635411263
99.8800611496
99.8676711321
100.747362375
100.747362375
99.8635411263
100.784532428
100.801052451
100.747362375

Average distance is : 100.131 cm
Average deviation is : 0.395 cm
Block: 10
======================================
100.313711762
99.8263710737
100.334361792
99.4464105368
100.317841768
100.313711762
100.350881815
100.768012404
99.8800611496
100.330231786
99.8800611496
100.780402422
99.8635411263
99.8965811729
99.9007111788
99.8800611496
99.8965811729
99.8470211029
100.747362375
100.801052451
99.8635411263
99.8841911554
99.8635411263
100.763882399
99.9007111788
99.9007111788
99.8635411263
99.8800611496
100.784532428
99.8635411263
99.8635411263
99.8965811729
100.780402422
99.9007111788
99.8841911554
100.350881815
99.8635411263
99.8635411263
99.8635411263
99.8800611496
99.8635411263
99.8635411263
100.763882399
100.763882399
99.8800611496
100.780402422
100.747362375
99.8800611496
100.784532428
99.8676711321
99.8800611496
100.796922445
99.9007111788
99.9007111788
99.8965811729
99.8841911554
99.8635411263
99.8965811729
99.8635411263
100.780402422
99.8635411263
99.8965811729
100.330231786
99.8841911554
99.8676711321
99.8800611496
99.8800611496
99.8800611496
99.8800611496
99.8841911554
99.8635411263
99.8800611496
99.8635411263
99.8470211029
99.8470211029
99.8635411263
99.8470211029
99.8800611496
99.8800611496
99.8841911554
100.763882399
99.8635411263
100.313711762
100.763882399
99.8800611496
99.8676711321
99.8800611496
99.9007111788
99.8800611496
99.8470211029
99.8635411263
99.4133704901
99.8841911554
99.8470211029
99.8676711321
99.8800611496
99.8635411263
100.784532428
99.9172312021
99.8965811729

Average distance is : 100.060 cm
Average deviation is : 0.356 cm
Average distance for 10x100 is : 100.207 cm
Average deviation for 10x100 is : 0.518 cm
 Percentage of values that failed: 0.000