
Block: 1
======================================
100.317841768
99.9172312021
99.8800611496
100.280671716
100.350881815
100.280671716
100.350881815
100.780402422
99.9007111788
100.763882399
99.9007111788
99.8800611496
100.747362375
99.8841911554
99.8800611496
99.8800611496
99.8635411263
100.768012404
100.784532428
99.9007111788
99.9007111788
99.8800611496
100.784532428
100.763882399
100.763882399
99.8635411263
99.8676711321
99.8635411263
99.9007111788
100.768012404
99.8800611496
99.8800611496
100.763882399
99.8841911554
99.8800611496
100.784532428
99.8965811729
99.8841911554
99.9007111788
99.8800611496
99.8800611496
100.784532428
100.763882399
99.8800611496
100.747362375
100.763882399
100.780402422
99.8800611496
100.763882399
99.8841911554
99.8800611496
99.8841911554
100.784532428
100.763882399
99.8965811729
100.784532428
99.8841911554
100.350881815
99.9007111788
99.8800611496
99.9007111788
99.8470211029
100.747362375
100.763882399
99.8800611496
100.747362375
99.8470211029
99.8635411263
100.330231786
99.8635411263
100.763882399
99.9007111788
100.763882399
100.763882399
100.763882399

Block: 2
======================================
100.768012404
100.747362375
99.8470211029
100.313711762
99.8305010796
99.8841911554
100.780402422
99.9007111788
99.8635411263
100.763882399
100.747362375
100.747362375
100.763882399
99.3968504667
99.8635411263
99.8965811729
100.763882399
99.8841911554
100.763882399
99.8470211029
100.763882399
99.8841911554
99.8676711321
99.8800611496
99.8800611496
100.747362375
99.4175004959
100.297191739
99.9007111788
100.784532428
100.763882399
100.763882399
100.768012404
100.763882399
100.747362375
99.8470211029
100.784532428
99.8841911554
99.8470211029
99.8841911554
100.330231786
99.8635411263
100.768012404
99.8965811729
100.334361792
99.8676711321
99.8635411263
100.350881815
99.8470211029
99.8635411263
99.8635411263
99.8635411263
100.747362375
100.334361792
100.747362375
100.350881815
99.8470211029
99.8965811729
99.9007111788
99.8841911554
99.8635411263
100.747362375
99.8676711321
100.784532428
99.8800611496
99.9007111788
99.8635411263
99.8841911554
100.763882399
100.763882399
99.8676711321
99.8800611496
100.763882399
99.8800611496
100.780402422

Block: 3
======================================
100.330231786
99.8841911554
100.297191739
99.8305010796
99.4340205193
99.8470211029
100.726712346
99.8800611496
99.8800611496
99.8470211029
99.8965811729
99.8470211029
99.8841911554
99.8800611496
99.8800611496
99.8676711321
100.346751809
100.763882399
99.8635411263
99.8676711321
99.8800611496
99.8470211029
100.747362375
99.8800611496
99.8635411263
99.8635411263
99.8841911554
100.330231786
99.8470211029
99.8800611496
99.8841911554
100.784532428
99.8470211029
100.346751809
99.8676711321
99.8635411263
100.747362375
99.8470211029
99.8676711321
99.8800611496
99.8800611496
99.8635411263
100.763882399
99.8841911554
99.8800611496
99.8965811729
99.8676711321
100.763882399
100.784532428
99.8635411263
100.350881815
99.8635411263
99.8800611496
99.8635411263
99.8800611496
99.8841911554
99.8635411263
99.8635411263
100.747362375
99.8635411263
100.784532428
99.8800611496
100.747362375
99.8635411263
99.8635411263
100.763882399
99.8635411263
100.784532428
100.763882399
100.763882399
100.784532428
100.780402422
99.9007111788
99.8965811729
100.763882399

Block: 4
======================================
100.280671716
99.8800611496
99.8305010796
99.8263710737
99.8965811729
99.8841911554
100.784532428
100.313711762
100.313711762
100.768012404
100.763882399
99.8800611496
99.8470211029
99.8841911554
99.8800611496
99.9007111788
99.8635411263
99.8470211029
99.8676711321
99.8635411263
99.8635411263
99.8800611496
99.8635411263
99.8635411263
100.747362375
100.768012404
99.8635411263
99.8841911554
100.763882399
99.8800611496
100.763882399
99.8635411263
100.763882399
100.780402422
99.8676711321
100.763882399
100.763882399
99.8800611496
99.8470211029
100.768012404
100.780402422
99.8965811729
100.784532428
99.8676711321
99.9172312021
100.801052451
99.8635411263
99.8965811729
100.784532428
99.8470211029
100.763882399
100.330231786
99.8635411263
100.768012404
99.8635411263
99.8965811729
100.763882399
100.350881815
100.763882399
100.768012404
99.8841911554
99.8841911554
99.8965811729
99.8965811729
99.8841911554
100.763882399
99.8800611496
100.780402422
100.780402422
100.768012404
100.780402422
99.8965811729
99.9007111788
99.8800611496
99.8676711321

Block: 5
======================================
100.297191739
99.8635411263
100.280671716
100.297191739
99.8139810562
100.763882399
100.747362375
100.350881815
99.8470211029
100.334361792
99.8635411263
99.8800611496
99.2564302683
99.8841911554
99.8841911554
99.8470211029
99.8635411263
99.8841911554
99.8841911554
100.297191739
99.8635411263
100.747362375
99.8800611496
99.8470211029
99.8635411263
99.8800611496
99.8676711321
99.9007111788
99.8841911554
99.8841911554
99.8841911554
100.780402422
100.768012404
99.8800611496
99.8470211029
99.8841911554
100.784532428
100.313711762
99.8800611496
100.313711762
99.8470211029
100.317841768
99.8635411263
99.8635411263
99.8635411263
99.8635411263
99.8470211029
99.8841911554
99.8841911554
99.8635411263
99.8635411263
99.8470211029
99.8841911554
100.730842352
100.763882399
99.8800611496
99.8635411263
99.8800611496
99.8470211029
100.726712346
99.8635411263
100.747362375
100.747362375
99.8800611496
99.8841911554
99.8676711321
100.763882399
99.8635411263
100.768012404
100.763882399
99.8470211029
100.763882399
99.8965811729
100.297191739
99.8800611496

Block: 6
======================================
100.313711762
100.801052451
99.3803304434
99.8470211029
100.763882399
100.780402422
99.8470211029
99.8635411263
99.8841911554
99.8800611496
99.8635411263
100.784532428
99.8676711321
100.350881815
99.8635411263
99.8841911554
99.8841911554
99.8800611496
99.8635411263
99.8635411263
99.8635411263
99.8470211029
100.330231786
99.8635411263
99.9007111788
99.8635411263
100.334361792
99.8800611496
99.8800611496
99.8800611496
99.8676711321
99.8635411263
100.730842352
99.8470211029
99.8635411263
99.8635411263
99.8470211029
99.8635411263
99.8841911554
100.763882399
99.8470211029
100.763882399
100.784532428
99.8635411263
100.346751809
99.8800611496
99.8635411263
99.8841911554
99.8800611496
100.747362375
99.8676711321
99.8841911554
99.8139810562
100.330231786
99.8800611496
100.768012404
100.780402422
100.313711762
100.350881815
99.8635411263
99.8470211029
99.8470211029
99.8635411263
99.8635411263
99.8635411263
99.8676711321
99.8635411263
99.8470211029
99.8800611496
99.8635411263
99.8635411263
99.5207506418
99.8470211029
100.313711762
100.763882399

Block: 7
======================================
100.280671716
100.768012404
99.8800611496
100.747362375
100.747362375
100.817572474
100.747362375
100.297191739
100.763882399
100.763882399
99.8800611496
99.8800611496
99.8841911554
99.8635411263
99.8800611496
99.9007111788
99.8635411263
99.8470211029
99.8676711321
99.8635411263
99.8635411263
99.8841911554
100.747362375
99.8800611496
99.8635411263
100.747362375
99.8800611496
99.8841911554
99.8470211029
99.8635411263
99.8635411263
99.8800611496
100.768012404
100.763882399
99.8635411263
99.9007111788
99.8635411263
100.751492381
99.8800611496
100.763882399
99.8841911554
100.763882399
100.763882399
99.8635411263
100.763882399
99.8800611496
99.8800611496
99.9007111788
100.768012404
99.8470211029
99.8470211029
100.747362375
99.8841911554
100.768012404
100.763882399
100.747362375
99.8635411263
100.763882399
100.763882399
100.801052451
99.8841911554
99.8800611496
100.768012404
100.297191739
99.8800611496
99.8800611496
99.8841911554
99.8800611496
99.8635411263
100.350881815
100.780402422
99.8635411263
100.747362375
100.763882399
99.8800611496

Block: 8
======================================
99.8470211029
100.763882399
100.780402422
100.334361792
100.27654171
100.350881815
100.313711762
100.334361792
100.763882399
100.763882399
99.8841911554
99.8800611496
100.763882399
100.747362375
100.763882399
100.297191739
100.784532428
100.313711762
99.8800611496
99.8635411263
100.280671716
99.8305010796
99.8841911554
100.297191739
100.780402422
99.8841911554
99.8841911554
99.8635411263
100.763882399
99.8470211029
99.8305010796
99.8635411263
100.747362375
100.768012404
100.730842352
99.8635411263
99.8800611496
99.8635411263
99.8676711321
99.8263710737
99.8800611496
99.8800611496
100.780402422
99.8470211029
99.8470211029
99.8800611496
99.8676711321
99.8841911554
99.9007111788
99.8635411263
99.8635411263
99.8635411263
99.8800611496
99.8800611496
99.8470211029
100.297191739
100.313711762
99.8635411263
100.313711762
100.317841768
100.747362375
99.8470211029
99.8841911554
99.8635411263
99.8635411263
99.8470211029
99.8635411263
99.8841911554
99.8676711321
99.8635411263
99.8635411263
99.8676711321
99.8841911554
99.8635411263
100.334361792

Block: 9
======================================
100.313711762
100.763882399
100.317841768
101.160362959
100.763882399
100.784532428
100.780402422
100.780402422
100.768012404
100.780402422
100.363271832
100.350881815
99.8800611496
99.8635411263
100.334361792
99.8635411263
99.8635411263
99.8635411263
99.8635411263
99.8635411263
99.8470211029
99.8635411263
99.8635411263
100.763882399
99.8635411263
100.763882399
99.8635411263
99.8635411263
100.334361792
99.8635411263
99.8635411263
99.8470211029
99.8676711321
99.8841911554
99.8470211029
99.8635411263
99.8635411263
99.8800611496
100.784532428
99.8800611496
99.8800611496
99.8800611496
99.8800611496
100.313711762
99.8800611496
99.8800611496
99.8635411263
99.8841911554
99.8470211029
99.8635411263
99.8635411263
100.210461617
99.8676711321
99.8800611496
101.007552743
99.8841911554
99.8635411263
100.297191739
99.8470211029
99.8470211029
99.8800611496
99.8800611496
99.8470211029
100.763882399
99.8635411263
100.768012404
99.8800611496
99.8635411263
99.8800611496
99.9007111788
100.747362375
100.780402422
100.297191739
99.8635411263
100.297191739

Block: 10
======================================
100.317841768
99.8800611496
100.297191739
100.297191739
99.8841911554
99.9172312021
100.350881815
99.8470211029
99.8635411263
99.8841911554
99.8635411263
99.8635411263
99.8635411263
100.330231786
99.8305010796
99.8470211029
99.8470211029
99.8635411263
99.8470211029
100.768012404
99.8635411263
99.8800611496
99.8635411263
99.8470211029
99.8635411263
100.784532428
99.8470211029
99.8841911554
99.8470211029
99.8635411263
99.8800611496
99.8428910971
99.8470211029
99.8635411263
99.8965811729
99.8635411263
100.768012404
99.8800611496
99.8470211029
100.297191739
100.780402422
99.8676711321
99.8635411263
100.747362375
99.8800611496
99.8635411263
100.784532428
99.8800611496
100.747362375
99.8676711321
100.747362375
99.8800611496
100.747362375
99.8841911554
99.8965811729
100.730842352
100.747362375
99.8800611496
100.747362375
99.8635411263
99.8965811729
99.8635411263
99.8635411263
99.8635411263
100.784532428
99.8635411263
100.763882399
99.8635411263
100.763882399
99.8841911554
100.780402422
99.8841911554
100.763882399
99.8470211029
100.747362375
