
Block: 1
======================================
49.9737697601
50.4174697876
49.9203614235
49.9902030945
49.9860947609
49.9573364258
50.4010364532
49.9696614265
49.9696614265
49.9696614265
50.0066364288
49.9367947578
49.9573364258
49.9902030945
49.9902030945
49.9737697601
49.9696614265
42.4966026306
50.0066364288
50.3681697845
40.2000441551
50.3681697845
50.3681697845
40.9231108665
50.3681697845
49.9902030945
40.5656858444
50.3846031189
50.3681697845
40.8902441978
50.3681697845
50.3846031189
40.7669941902
50.4051447868
50.4051447868
40.5985525131
50.3681697845
50.3681697845
40.4917358398
50.4051447868
50.4051447868
40.2205858231
50.3846031189
50.3681697845
41.1860442162
50.3517364502
50.4380114555
40.0809024811
50.3846031189
49.9902030945

Block: 2
======================================
22.0042346954
50.3846031189
50.3681697845
37.9774356842
50.3846031189
50.3846031189
37.5830356598
50.4010364532
50.4010364532
35.8739688873
50.3846031189
50.3887114525
39.9412191391
50.3887114525
50.3681697845
40.1137691498
49.9737697601
49.9573364258
41.4613025665
50.3846031189
49.9737697601
41.2887525558
49.9532280922
49.9573364258
40.9970608711
49.9860947609
49.9860947609
41.7529942513
50.4010364532
49.9532280922
41.1326358795
49.9860947609
49.9737697601
40.9929525375
49.9902030945
49.9860947609
41.8022942543
49.9696614265
50.0066364288
40.8902441978
50.3846031189
49.9737697601
41.5475775719
49.9532280922
50.0066364288
41.2353442192
49.9860947609
49.9573364258
41.6174192429
49.9902030945

Block: 3
======================================
49.9532280922
20.3321429253
50.3681697845
50.3846031189
38.1335523605
50.4010364532
49.9532280922
37.8911606789
49.9737697601
49.9696614265
38.9593274117
49.9737697601
50.3846031189
49.9737697601
49.9696614265
49.9696614265
50.4215781212
50.4051447868
49.9860947609
50.4010364532
49.9573364258
49.9367947578
49.9367947578
49.9860947609
50.4174697876
50.3517364502
46.3009195328
50.3681697845
50.3846031189
40.4424358368
50.3846031189
50.0066364288
40.6355275154
50.0025280952
50.4174697876
41.4777359009
50.3846031189
49.9737697601
40.9107858658
50.0066364288
49.9532280922
41.4941692352
50.0066364288
50.4010364532
40.6314191818
49.9367947578
49.9696614265
41.4941692352
49.9737697601
50.4174697876

Block: 4
======================================
21.2483013153
50.4339031219
50.3846031189
37.0653856277
50.3681697845
49.9532280922
37.5296273232
50.364061451
49.9902030945
38.9963024139
49.9696614265
49.9696614265
40.2698858261
49.9367947578
49.9532280922
41.0258192062
49.9367947578
49.9737697601
41.1655025482
50.4010364532
50.4010364532
40.0973358154
50.3846031189
49.9737697601
40.1137691498
50.3476281166
50.4215781212
40.3561608315
50.3887114525
50.4051447868
40.1671774864
49.9902030945
50.0066364288
40.8532691956
49.9902030945
50.3846031189
40.5081691742
49.9902030945
50.4174697876
40.4588691711
49.9696614265
50.3681697845
40.2698858261
49.9696614265
50.3846031189
40.8039691925
50.4051447868
50.3846031189
40.3356191635
49.9737697601

Block: 5
======================================
50.4051447868
22.2794930458
49.9573364258
50.3681697845
37.6159023285
49.9573364258
50.4051447868
38.3225357056
50.3846031189
49.9573364258
39.891919136
49.9573364258
49.9532280922
41.4941692352
50.4215781212
50.364061451
40.9600858688
50.4380114555
50.3681697845
40.8738108635
50.3846031189
50.3846031189
40.5615775108
50.4215781212
49.9532280922
41.0299275398
50.4010364532
50.3681697845
39.891919136
50.3681697845
49.9737697601
41.3051858902
50.3846031189
50.4215781212
40.5122775078
50.4010364532
50.4010364532
40.7341275215
49.9860947609
50.3846031189
41.0463608742
50.4010364532
50.3681697845
40.4753025055
50.3517364502
50.3846031189
40.8573775291
50.3681697845
50.4010364532
40.3027524948

Block: 6
======================================
50.3681697845
50.3846031189
16.7989760399
50.4174697876
50.3846031189
39.9247858047
50.3846031189
50.4010364532
36.375185585
50.3681697845
50.4051447868
39.5673607826
50.3681697845
49.9532280922
41.0833358765
50.3846031189
50.3681697845
40.4588691711
50.3517364502
50.3681697845
40.1836108208
49.9902030945
49.9902030945
40.5615775108
49.9696614265
49.9532280922
41.7529942513
50.3846031189
50.4215781212
40.4794108391
50.3846031189
50.4215781212
40.6149858475
50.3681697845
50.4215781212
40.5451441765
50.3846031189
50.4215781212
40.5122775078
50.3846031189
50.3681697845
40.4260025024
50.3681697845
50.3681697845
40.5122775078
50.4051447868
50.3681697845
40.6848275185
49.9737697601
50.3887114525

Block: 7
======================================
20.3485762596
50.4010364532
49.9902030945
38.0144106865
50.0066364288
50.3846031189
38.6183357239
50.3681697845
50.4174697876
38.8401857376
49.9696614265
50.4051447868
40.7546691895
50.0066364288
49.9532280922
41.7694275856
50.3846031189
49.9860947609
40.7875358582
50.3846031189
50.4010364532
40.2534524918
50.3681697845
50.4010364532
40.4753025055
50.3846031189
50.0066364288
40.7341275215
49.9367947578
49.9573364258
41.8515942574
49.9696614265
50.3517364502
40.5821191788
50.3846031189
50.3517364502
40.6848275185
50.4010364532
50.3846031189
50.4010364532
50.3846031189
49.9532280922
49.9737697601
49.9367947578
50.4051447868
50.4010364532
50.4051447868
49.9902030945
49.9203614235
50.4380114555

Block: 8
======================================
49.9696614265
50.3846031189
19.7282178879
49.9737697601
49.9737697601
39.8590524673
49.9409030914
49.9902030945
41.5270359039
50.3681697845
50.3846031189
7.82637548447
49.9573364258
50.3681697845
45.5449861526
50.3846031189
49.9737697601
40.5985525131
49.9860947609
50.3846031189
40.6149858475
49.9532280922
50.3681697845
40.6848275185
49.9367947578
49.9696614265
41.1162025452
50.0066364288
49.9367947578
41.4037858963
50.0066364288
49.9696614265
40.6848275185
49.9532280922
50.3846031189
41.2846442223
49.9532280922
49.9696614265
41.1819358826
49.9737697601
50.364061451
41.0093858719
50.3681697845
50.3846031189
40.2164774895
50.4010364532
50.3846031189
40.4095691681
50.3681697845
49.9532280922

Block: 9
======================================
20.6115096092
50.3846031189
50.4010364532
37.8747273445
50.4051447868
49.9902030945
38.1006856918
50.3517364502
50.4215781212
35.7383938789
50.3681697845
50.3476281166
40.3561608315
49.9532280922
50.4051447868
40.5821191788
49.9902030945
50.3681697845
41.3544858932
50.3681697845
50.3517364502
40.3561608315
50.3846031189
49.9902030945
41.2024775505
50.3681697845
50.3846031189
40.2164774895
50.4051447868
50.4215781212
40.5122775078
50.3681697845
50.3846031189
40.6149858475
50.3846031189
50.0025280952
41.1285275459
49.9902030945
49.9902030945
41.5106025696
50.3517364502
50.3846031189
41.1326358795
49.9532280922
49.9532280922
41.4941692352
50.3846031189
49.9860947609
40.5985525131
49.9532280922

Block: 10
======================================
50.3846031189
21.1455929756
50.3887114525
49.9696614265
38.1335523605
50.4051447868
50.3517364502
37.7720190048
50.4051447868
49.9902030945
38.3718357086
50.3517364502
50.3846031189
40.0973358154
50.3681697845
50.3846031189
40.5615775108
50.3887114525
50.3846031189
40.6519608498
50.364061451
50.3517364502
40.2000441551
49.9737697601
50.3681697845
41.0299275398
50.3517364502
49.9902030945
41.4078942299
50.3681697845
50.4051447868
40.6519608498
50.3476281166
50.3846031189
40.3767024994
50.3846031189
50.3846031189
40.2863191605
50.4051447868
49.9902030945
41.5804442406
50.3681697845
50.3846031189
40.1836108208
50.3846031189
50.3517364502
40.5985525131
49.9367947578
50.3846031189
41.3544858932
