
Block: 1
======================================
48.8310917616
48.7981673002
48.7817050695
48.8352073193
48.7858206272
48.7611272812
48.8022828579
48.7652428389
48.7981673002
48.8146295309
48.7981673002
48.7817050695
48.8352073193
48.7981673002
48.8146295309
48.7817050695
48.8187450886
48.7981673002
48.7817050695
48.7981673002
48.7817050695
48.8022828579
48.8146295309
48.7981673002
48.7981673002

Block: 2
======================================
48.7817050695
48.7817050695
48.8187450886
48.8187450886
48.8310917616
48.7981673002
48.7817050695
48.7817050695
48.7981673002
48.7652428389
48.7817050695
48.7817050695
48.7817050695
48.7858206272
48.7817050695
48.7817050695
49.1932608366
48.7817050695
48.8187450886
48.8352073193
48.7817050695
48.7858206272
48.8022828579
48.7981673002
48.8022828579

Block: 3
======================================
48.8187450886
48.7858206272
48.8022828579
48.8022828579
48.7981673002
49.2303008556
48.8187450886
49.1603363752
48.7981673002
48.8146295309
48.7817050695
49.2303008556
49.2467630863
48.7817050695
49.2303008556
49.1603363752
49.1973763943
48.7858206272
49.1809141636
48.7117405891
49.1603363752
49.213838625
49.1438741446
48.7158561468
49.1438741446

Block: 4
======================================
49.1438741446
48.7158561468
48.7323183775
49.1438741446
48.7117405891
49.1767986059
48.7487806082
49.1438741446
48.7487806082
48.7158561468
48.7282028198
48.6747005701
49.1644519329
48.7282028198
48.7158561468
49.1767986059
49.1603363752
48.7487806082
48.7487806082
48.7117405891
48.7282028198
48.7323183775
48.7158561468
49.1603363752
49.1973763943

Block: 5
======================================
49.1438741446
49.1438741446
49.1438741446
49.1644519329
49.1603363752
48.7282028198
49.1232963562
49.1274119139
49.1438741446
49.1644519329
49.1438741446
49.1479897022
48.7652428389
49.1274119139
49.1438741446
49.1274119139
48.7282028198
49.1973763943
49.1274119139
48.7652428389
48.7487806082
49.1932608366
49.1274119139
49.1603363752
49.1603363752

Block: 6
======================================
49.1603363752
48.8310917616
49.1973763943
48.8022828579
48.7817050695
48.8187450886
49.1274119139
48.7858206272
48.7817050695
48.8146295309
48.8146295309
48.7817050695
49.1479897022
49.1932608366
48.7981673002
48.7487806082
49.213838625
48.7981673002
48.8187450886
48.7981673002
48.8187450886
48.7817050695
48.8022828579
48.8187450886
48.7817050695

Block: 7
======================================
48.8352073193
48.7817050695
48.7652428389
48.7817050695
48.7858206272
48.7652428389
48.8022828579
48.7817050695
48.3001848221
48.7981673002
48.8022828579
48.7611272812
48.7817050695
48.7817050695
48.7981673002
48.7652428389
48.7981673002
48.7652428389
49.213838625
49.2303008556
49.2303008556
49.1973763943
49.213838625
49.2303008556
48.7858206272

Block: 8
======================================
48.7858206272
48.8146295309
48.8146295309
48.7487806082
48.8187450886
48.7817050695
48.7981673002
48.8022828579
48.7817050695
48.7817050695
48.7981673002
48.7817050695
48.8310917616
48.8310917616
48.8187450886
48.7817050695
48.7817050695
48.7652428389
48.7981673002
48.7652428389
48.7817050695
48.7652428389
48.7817050695
48.7817050695
48.8146295309

Block: 9
======================================
48.7817050695
48.7981673002
48.7817050695
48.8310917616
48.8022828579
48.7817050695
48.7981673002
48.7817050695
48.8187450886
48.7981673002
48.7817050695
48.7817050695
48.8187450886
48.8022828579
48.7817050695
48.7858206272
48.7817050695
48.7817050695
48.8187450886
48.7981673002
49.2303008556
48.7817050695
48.7981673002
49.1809141636
49.1973763943

Block: 10
======================================
49.1767986059
49.1973763943
49.2344164133
49.1932608366
49.213838625
49.213838625
49.1932608366
49.213838625
49.213838625
49.1973763943
49.1973763943
49.2303008556
49.2303008556
49.213838625
49.213838625
48.7652428389
48.7981673002
48.7817050695
49.1767986059
48.8146295309
48.7981673002
48.7981673002
48.7858206272
48.7817050695
48.7981673002
