
Block: 1
======================================
48.8681317806
48.8310917616
48.8681317806
48.8516695499
48.8516695499
48.8352073193
48.8516695499
48.8516695499
48.8310917616
48.8475539923
48.8352073193
48.8475539923
48.8352073193
48.8352073193
48.8516695499
48.8681317806
48.8187450886
48.8516695499
48.8681317806
48.8352073193
48.8516695499
48.8516695499
48.8187450886
48.8187450886
48.8516695499
48.8310917616
48.8681317806
48.888709569
48.8516695499
48.8516695499
48.8352073193
48.8352073193
48.8845940113
48.8681317806
48.8681317806
48.8681317806
48.8681317806
48.8845940113
48.8681317806
48.8681317806
48.8352073193
48.8146295309
48.8681317806
48.8475539923
48.8516695499
48.8681317806
48.8352073193
48.8516695499
48.8722473383
48.8352073193

Block: 2
======================================
48.8146295309
48.8516695499
48.8845940113
48.8516695499
48.8516695499
48.8516695499
48.8146295309
48.8310917616
48.8681317806
48.8845940113
48.8516695499
48.8352073193
48.8516695499
48.8516695499
48.8310917616
48.8310917616
48.8681317806
48.8516695499
48.8681317806
48.8516695499
48.8352073193
48.8845940113
48.8681317806
48.8352073193
48.8516695499
48.8475539923
48.8516695499
48.8845940113
48.8516695499
48.8516695499
48.8475539923
48.8187450886
48.8516695499
48.8352073193
48.8352073193
48.8516695499
48.8146295309
48.888709569
48.8516695499
48.8681317806
48.8352073193
48.8352073193
48.8681317806
48.8681317806
48.8516695499
48.8146295309
48.8516695499
48.8352073193
48.8187450886
48.7981673002

Block: 3
======================================
48.8352073193
48.8352073193
48.8187450886
48.8352073193
48.8516695499
48.8475539923
48.8845940113
48.8352073193
48.8310917616
48.8681317806
48.8516695499
48.8146295309
48.8681317806
48.8681317806
48.8681317806
48.8516695499
48.8352073193
48.8310917616
48.8516695499
48.8516695499
48.8516695499
48.8352073193
48.8352073193
48.888709569
48.8352073193
48.8681317806
48.8516695499
48.8352073193
48.8146295309
48.8516695499
48.8516695499
48.8681317806
48.8352073193
48.8352073193
48.8146295309
48.8845940113
48.8845940113
48.8516695499
48.8681317806
48.8352073193
48.8516695499
48.8352073193
48.8681317806
48.8352073193
48.8352073193
48.8681317806
48.8681317806
48.8516695499
48.8845940113
48.8146295309

Block: 4
======================================
48.8310917616
48.8352073193
48.8352073193
48.8516695499
48.8845940113
48.8352073193
48.8475539923
48.8845940113
48.8516695499
48.8845940113
48.8516695499
48.888709569
48.8352073193
48.8516695499
48.8475539923
48.8310917616
48.8845940113
48.8310917616
48.8516695499
48.8516695499
48.8352073193
48.8475539923
48.8352073193
48.8516695499
48.8681317806
48.8310917616
48.8516695499
48.8310917616
48.888709569
48.8516695499
48.8681317806
48.8310917616
48.8310917616
48.8681317806
48.8681317806
48.8681317806
48.8310917616
48.8146295309
48.8681317806
48.8146295309
48.8475539923
48.8722473383
48.8516695499
48.8516695499
48.8310917616
48.8310917616
48.8516695499
48.8352073193
48.8681317806
48.8187450886

Block: 5
======================================
48.8681317806
48.8681317806
48.8516695499
48.8516695499
48.8845940113
48.8475539923
48.8845940113
48.8681317806
48.888709569
48.8352073193
48.8722473383
48.8352073193
48.8845940113
48.8352073193
48.8475539923
48.8352073193
48.8516695499
48.8352073193
48.8352073193
48.8516695499
48.8516695499
48.8516695499
48.8845940113
48.8352073193
48.8146295309
48.8845940113
48.8516695499
48.8681317806
48.8187450886
48.8845940113
48.8516695499
48.8681317806
48.8516695499
48.8516695499
48.8681317806
48.8681317806
48.8352073193
48.8352073193
48.8146295309
48.7981673002
48.8187450886
48.8516695499
48.8475539923
48.8681317806
48.8516695499
48.8681317806
48.7981673002
48.8516695499
48.8516695499
48.8310917616

Block: 6
======================================
48.8516695499
48.8516695499
48.8681317806
48.8516695499
48.8146295309
48.8475539923
48.8352073193
48.8722473383
48.8722473383
48.8187450886
48.8681317806
48.8352073193
48.8352073193
48.7981673002
48.8516695499
48.8352073193
48.888709569
48.8516695499
48.8146295309
48.8845940113
48.888709569
48.8310917616
48.8516695499
48.8681317806
48.8187450886
48.8681317806
48.8516695499
48.8310917616
48.8516695499
48.8516695499
48.8681317806
48.8352073193
48.8681317806
48.8352073193
48.8681317806
48.8516695499
48.8475539923
48.8516695499
48.8516695499
48.8681317806
48.8681317806
48.8516695499
48.8475539923
48.8681317806
48.8352073193
48.901056242
48.8352073193
48.8681317806
48.8681317806
48.8681317806

Block: 7
======================================
48.8516695499
48.8187450886
48.8146295309
48.8352073193
48.8681317806
48.8516695499
48.8516695499
48.8516695499
48.8845940113
48.8516695499
48.888709569
48.8516695499
48.8516695499
48.8310917616
48.8516695499
48.8516695499
48.8187450886
48.8681317806
48.8352073193
48.8681317806
48.8352073193
48.8516695499
48.8352073193
48.8352073193
48.8352073193
48.7981673002
48.8352073193
48.8352073193
48.8310917616
48.8681317806
48.8516695499
48.8681317806
48.8352073193
48.8516695499
48.8516695499
48.8681317806
48.8516695499
48.8352073193
48.8516695499
48.8146295309
48.888709569
48.8845940113
48.8845940113
48.8516695499
48.8681317806
48.8681317806
48.8310917616
48.8310917616
48.8681317806
48.8310917616

Block: 8
======================================
48.8681317806
48.8310917616
48.8681317806
48.888709569
48.8352073193
48.8681317806
48.8352073193
48.8352073193
48.8681317806
48.8516695499
48.8681317806
48.8681317806
48.8146295309
48.8845940113
48.8722473383
48.8516695499
48.8475539923
48.8187450886
48.8681317806
48.8681317806
48.8681317806
48.8681317806
48.8516695499
48.8475539923
48.8310917616
48.8681317806
48.888709569
48.8681317806
48.8352073193
48.8681317806
48.8516695499
48.8681317806
48.8146295309
48.8352073193
48.8352073193
48.888709569
48.8516695499
48.8681317806
48.8681317806
48.8310917616
48.8310917616
48.8516695499
48.8722473383
48.8516695499
48.8516695499
48.8516695499
48.8516695499
48.8681317806
48.8310917616
48.8475539923

Block: 9
======================================
48.8310917616
48.8681317806
48.8516695499
48.888709569
48.8146295309
48.8352073193
48.8352073193
48.8681317806
48.8352073193
48.8310917616
48.8310917616
48.8516695499
48.8187450886
48.8352073193
48.8310917616
48.8516695499
48.8681317806
48.8022828579
48.8681317806
48.8146295309
48.8475539923
48.8475539923
48.8516695499
48.8681317806
48.8516695499
48.8516695499
48.8516695499
48.8352073193
48.8352073193
48.8516695499
48.8187450886
48.8845940113
48.8681317806
48.8310917616
48.8352073193
48.8516695499
48.8352073193
48.8516695499
48.8516695499
48.8352073193
48.8681317806
48.8352073193
48.8310917616
48.8516695499
48.8352073193
48.8352073193
48.8187450886
48.8681317806
48.8516695499
48.8310917616

Block: 10
======================================
48.901056242
48.8516695499
48.8352073193
48.8516695499
48.8845940113
48.8352073193
48.8352073193
48.8681317806
48.8681317806
48.888709569
48.8722473383
48.8681317806
48.8352073193
48.8681317806
48.8516695499
48.8352073193
48.8681317806
48.8310917616
48.8352073193
48.8681317806
48.8722473383
48.8516695499
48.8681317806
48.8146295309
48.8352073193
48.8681317806
48.8475539923
48.8681317806
48.8475539923
48.8352073193
48.8310917616
48.8352073193
48.8516695499
48.8352073193
48.8516695499
48.8681317806
48.8475539923
48.8352073193
48.8475539923
48.8310917616
48.8681317806
48.8310917616
48.8516695499
48.8352073193
48.8681317806
48.8516695499
48.8352073193
48.8516695499
48.8681317806
48.8516695499
