
Block: 1
======================================
48.8187450886
48.7817050695
48.7817050695
48.7652428389
48.7817050695
48.7817050695
48.7817050695
48.7981673002
48.8146295309
48.8352073193
48.7817050695
48.7817050695
48.7981673002
48.7981673002
48.7817050695
48.7652428389
48.7981673002
48.8310917616
48.7652428389
48.7817050695
48.8146295309
48.7981673002
48.8146295309
48.7858206272
48.7817050695
48.8022828579
48.8352073193
48.8187450886
48.7652428389
48.7652428389
48.7817050695
48.7981673002
48.7817050695
48.7981673002
48.8022828579
48.7817050695
48.7817050695
48.8352073193
48.7652428389
49.213838625
49.2344164133
48.7817050695
48.7817050695
49.1932608366
49.1973763943
49.2303008556
49.2303008556
49.213838625
49.2303008556
49.1932608366

Average distance is : 48.869 cm
Average deviation is : 0.165 cm
Block: 2
======================================
49.2467630863
49.213838625
49.2344164133
49.1809141636
49.1973763943
49.1932608366
48.7981673002
48.7981673002
48.8187450886
48.7817050695
48.8187450886
48.8146295309
48.7817050695
48.8146295309
48.7981673002
48.7817050695
48.7817050695
48.8146295309
48.7817050695
48.7981673002
48.7981673002
48.7981673002
48.7981673002
48.8146295309
48.8352073193
48.7817050695
48.7817050695
48.7981673002
48.7981673002
48.7981673002
48.7981673002
48.7981673002
48.8352073193
48.7981673002
48.8146295309
48.7981673002
48.8146295309
48.7981673002
48.8187450886
48.8022828579
48.7652428389
48.7858206272
48.7817050695
48.8187450886
48.7817050695
48.7817050695
48.7652428389
48.7981673002
48.7652428389
48.8146295309

Average distance is : 48.848 cm
Average deviation is : 0.137 cm
Block: 3
======================================
48.8146295309
48.7981673002
48.7981673002
48.7817050695
48.8187450886
48.7981673002
48.7817050695
48.8187450886
48.8187450886
48.7858206272
48.7611272812
48.7652428389
48.8352073193
48.7981673002
48.8022828579
48.7817050695
48.8022828579
48.7981673002
48.8187450886
49.213838625
48.8022828579
48.7446650505
48.7817050695
48.7981673002
48.7981673002
48.7652428389
48.7981673002
48.7652428389
48.7981673002
48.8187450886
48.8022828579
48.7817050695
49.1973763943
48.8187450886
48.8187450886
48.7652428389
48.8187450886
48.7652428389
48.8146295309
48.7981673002
48.8146295309
48.7817050695
48.7817050695
48.7652428389
48.8187450886
48.8352073193
48.7652428389
48.7817050695
48.7817050695
48.8022828579

Average distance is : 48.811 cm
Average deviation is : 0.084 cm
Block: 4
======================================
48.7981673002
48.7652428389
48.7981673002
48.8146295309
48.5430027246
48.7858206272
48.7817050695
48.7981673002
48.8352073193
48.8187450886
48.7858206272
48.7817050695
48.7652428389
48.8022828579
48.7817050695
48.8022828579
48.7817050695
48.8187450886
48.7817050695
48.7282028198
48.7981673002
48.7817050695
48.7652428389
48.7981673002
48.7652428389
48.7981673002
48.7817050695
48.7817050695
48.7652428389
49.263225317
49.213838625
49.213838625
49.1973763943
49.213838625
49.1973763943
49.213838625
49.1973763943
49.213838625
49.2344164133
49.2467630863
49.1767986059
49.2303008556
49.2303008556
49.2303008556
49.2303008556
49.1973763943
49.1973763943
49.1973763943
49.250878644
49.1809141636

Average distance is : 48.963 cm
Average deviation is : 0.221 cm
Block: 5
======================================
49.2838031054
48.7817050695
48.7981673002
48.7981673002
48.8022828579
48.8022828579
48.7652428389
48.8187450886
48.8187450886
48.8187450886
48.7817050695
48.8146295309
48.8022828579
48.7981673002
48.7981673002
48.7981673002
48.7652428389
48.7817050695
48.7652428389
48.8022828579
48.8187450886
48.7858206272
48.7981673002
49.2303008556
48.7981673002
49.213838625
48.8146295309
49.213838625
49.1809141636
49.1274119139
49.1767986059
49.1809141636
49.2344164133
49.1644519329
49.250878644
49.1767986059
49.1644519329
49.2303008556
49.1932608366
49.1932608366
48.7817050695
48.8022828579
48.7817050695
48.6088516474
48.7817050695
48.7652428389
48.7981673002
48.7817050695
48.7981673002
48.7817050695

Average distance is : 48.920 cm
Average deviation is : 0.198 cm
Block: 6
======================================
49.1809141636
49.1603363752
49.1809141636
49.250878644
49.213838625
49.213838625
49.213838625
49.2467630863
49.1973763943
49.213838625
49.1932608366
49.250878644
49.213838625
49.213838625
49.2303008556
49.1973763943
49.213838625
49.1973763943
49.2303008556
49.2303008556
49.213838625
49.1932608366
49.250878644
49.1932608366
48.7981673002
48.7817050695
48.8022828579
48.8187450886
48.7981673002
48.7981673002
48.7652428389
48.8022828579
48.7652428389
48.7817050695
48.7817050695
48.7817050695
48.8022828579
48.7652428389
48.7981673002
48.7817050695
48.7652428389
48.7981673002
48.8022828579
48.7487806082
49.2303008556
48.8310917616
49.2303008556
48.7981673002
48.7652428389
48.7981673002

Average distance is : 49.010 cm
Average deviation is : 0.216 cm
Block: 7
======================================
48.7652428389
48.7652428389
48.7817050695
48.8022828579
48.8187450886
48.7981673002
48.7652428389
48.7981673002
48.7817050695
48.8146295309
48.7817050695
48.7487806082
48.7652428389
48.7817050695
48.7817050695
48.8187450886
48.7858206272
48.7817050695
48.8187450886
48.7981673002
48.8022828579
48.7981673002
48.8187450886
48.7817050695
48.7817050695
48.7981673002
49.250878644
49.213838625
49.1973763943
49.1809141636
49.1973763943
49.2303008556
49.2303008556
49.213838625
49.2303008556
49.250878644
49.2303008556
49.213838625
49.213838625
49.2303008556
49.213838625
49.1932608366
49.1973763943
49.2467630863
49.1973763943
49.2467630863
49.1973763943
49.1973763943
49.213838625
49.2303008556

Average distance is : 48.995 cm
Average deviation is : 0.217 cm
Block: 8
======================================
48.8022828579
48.7652428389
48.7981673002
48.8146295309
48.7817050695
48.7817050695
48.7981673002
48.7817050695
48.7981673002
48.7981673002
48.7652428389
48.7652428389
48.7817050695
48.8187450886
48.8310917616
48.8146295309
48.7652428389
48.7981673002
48.7817050695
48.7817050695
48.8022828579
48.7817050695
49.213838625
49.2303008556
49.213838625
48.7981673002
49.2467630863
48.7981673002
49.2303008556
48.7981673002
48.7981673002
48.7817050695
48.7817050695
48.8187450886
48.7817050695
48.8022828579
48.7817050695
48.7817050695
48.7858206272
48.7817050695
48.7817050695
48.7652428389
48.8146295309
48.7817050695
48.7652428389
48.8146295309
48.7817050695
48.7652428389
48.7652428389
48.8352073193

Average distance is : 48.834 cm
Average deviation is : 0.134 cm
Block: 9
======================================
49.213838625
49.1973763943
49.213838625
49.2344164133
49.2303008556
49.2467630863
49.2303008556
49.2303008556
49.213838625
49.2303008556
49.213838625
49.2344164133
49.1973763943
49.213838625
48.7817050695
49.213838625
48.7817050695
49.250878644
48.7817050695
48.8352073193
48.7817050695
48.7981673002
48.7487806082
48.7981673002
48.8146295309
48.7817050695
48.7817050695
48.7817050695
48.7817050695
48.8022828579
48.8187450886
48.7817050695
48.7981673002
48.7817050695
48.7652428389
47.9915179968
48.7981673002
48.7652428389
48.7981673002
48.8146295309
48.8187450886
48.8187450886
48.7487806082
48.8187450886
48.7981673002
48.7817050695
48.8352073193
48.7981673002
48.8146295309
48.8146295309

Average distance is : 48.916 cm
Average deviation is : 0.242 cm
Block: 10
======================================
48.7817050695
48.8022828579
48.7981673002
48.7817050695
48.7652428389
48.7981673002
48.7817050695
48.8146295309
48.7817050695
48.8310917616
48.7981673002
48.8022828579
48.8146295309
48.7652428389
48.8187450886
48.8146295309
49.213838625
49.213838625
49.213838625
49.2303008556
49.2303008556
49.2467630863
49.2467630863
49.213838625
49.2344164133
49.213838625
49.2303008556
49.1809141636
49.2303008556
49.1973763943
49.213838625
49.6089321613
49.1932608366
49.2467630863
48.8022828579
49.2303008556
49.213838625
49.1973763943
49.2303008556
49.3866920471
49.2303008556
48.7981673002
48.7858206272
49.2344164133
48.7817050695
48.7652428389
49.213838625
48.7981673002
48.7652428389
48.8146295309

Average distance is : 49.027 cm
Average deviation is : 0.234 cm