
Block: 1
======================================
48.8845940113
48.8845940113
48.901056242
48.5059627056
48.4895004749
48.4730382442
48.4853849173
48.4730382442
48.4524604559
48.4689226866

Average distance is : 48.602 cm
Average deviation is : 0.199 cm
Block: 2
======================================
48.4689226866
48.4730382442
48.4730382442
48.4730382442
48.4730382442
48.4895004749
48.4730382442
48.4895004749
48.4730382442
48.4895004749

Average distance is : 48.478 cm
Average deviation is : 0.008 cm
Block: 3
======================================
48.4689226866
48.4689226866
48.4565760136
48.4730382442
48.4565760136
48.4895004749
48.4689226866
48.4895004749
48.4524604559
48.4853849173

Average distance is : 48.471 cm
Average deviation is : 0.014 cm
Block: 4
======================================
48.5059627056
48.4524604559
48.4565760136
48.4524604559
48.4689226866
48.4565760136
48.4730382442
48.4359982252
48.4730382442
48.4730382442

Average distance is : 48.465 cm
Average deviation is : 0.019 cm
Block: 5
======================================
48.4895004749
48.4730382442
48.4853849173
48.4895004749
48.901056242
48.901056242
48.4730382442
48.4730382442
48.4730382442
48.4689226866

Average distance is : 48.563 cm
Average deviation is : 0.178 cm
Block: 6
======================================
48.4895004749
48.4730382442
48.4524604559
48.4524604559
48.4730382442
48.4895004749
48.4895004749
47.814549017
48.4895004749
48.4524604559

Average distance is : 48.408 cm
Average deviation is : 0.209 cm
Block: 7
======================================
48.4565760136
48.4524604559
48.4853849173
48.4895004749
48.4730382442
48.4689226866
48.4524604559
48.4689226866
48.4689226866
48.4730382442

Average distance is : 48.469 cm
Average deviation is : 0.013 cm
Block: 8
======================================
48.4730382442
48.5224249363
48.4401137829
48.5059627056
48.5059627056
48.4895004749
48.4730382442
48.4689226866
48.4895004749
48.4730382442

Average distance is : 48.484 cm
Average deviation is : 0.024 cm
Block: 9
======================================
48.4689226866
48.901056242
48.8845940113
48.4730382442
48.4730382442
48.4730382442
48.4524604559
48.4730382442
48.4895004749
48.4853849173

Average distance is : 48.557 cm
Average deviation is : 0.177 cm
Block: 10
======================================
48.4730382442
48.4895004749
48.4730382442
48.4565760136
48.4195359945
48.4730382442
48.4359982252
48.4730382442
48.2466825724
48.5059627056

Average distance is : 48.445 cm
Average deviation is : 0.074 cm
Block: 1
======================================
48.8310917616
48.888709569
48.8352073193
48.8516695499
48.8187450886
48.8845940113
48.8187450886
48.8516695499
48.8681317806
48.8516695499

Average distance is : 48.850 cm
Average deviation is : 0.025 cm
Block: 2
======================================
48.8310917616
48.8516695499
48.8516695499
48.8352073193
48.8516695499
48.8516695499
48.8516695499
48.8352073193
48.8516695499
48.8352073193

Average distance is : 48.845 cm
Average deviation is : 0.009 cm
Block: 3
======================================
48.8516695499
48.901056242
48.8516695499
48.8516695499
48.8352073193
48.8516695499
48.8516695499
48.8516695499
48.8352073193
48.8681317806

Average distance is : 48.855 cm
Average deviation is : 0.019 cm
Block: 4
======================================
48.8352073193
48.8352073193
48.8352073193
48.8681317806
48.8352073193
48.8516695499
48.8681317806
48.8352073193
48.8475539923
48.8516695499

Average distance is : 48.846 cm
Average deviation is : 0.013 cm
Block: 5
======================================
48.8352073193
48.8146295309
48.8516695499
48.8681317806
48.8352073193
48.8352073193
48.8310917616
48.8352073193
48.8352073193
48.8516695499

Average distance is : 48.839 cm
Average deviation is : 0.015 cm
Block: 6
======================================
48.8516695499
48.8352073193

Block: 1
======================================
48.8352073193
48.7981673002
48.8146295309
48.8845940113
48.8681317806
48.8352073193
48.8310917616
48.8187450886
48.8187450886
48.8310917616

Average distance is : 48.834 cm
Average deviation is : 0.026 cm
Block: 2
======================================
48.8475539923
48.8516695499
48.8310917616
48.8352073193
48.8352073193
48.8310917616
48.8516695499
48.8516695499
48.8146295309
48.8352073193

Average distance is : 48.838 cm
Average deviation is : 0.012 cm
Block: 3
======================================
48.8352073193
48.8516695499
48.8352073193
48.8516695499
49.300265336
48.8681317806
48.8681317806
48.8352073193
48.8352073193
49.2796875477

Average distance is : 48.936 cm
Average deviation is : 0.187 cm
Block: 4
======================================
48.8681317806
48.8516695499
48.8352073193
48.8681317806
48.8681317806
48.8475539923
48.8681317806
48.8516695499
48.8352073193
48.8310917616

Average distance is : 48.852 cm
Average deviation is : 0.015 cm
Block: 5
======================================
48.8352073193
48.8516695499
48.8516695499
48.8845940113
48.8352073193
48.8516695499
48.8516695499
48.8310917616
48.8681317806
48.8681317806

Average distance is : 48.853 cm
Average deviation is : 0.017 cm
Block: 6
======================================
48.8845940113
48.8516695499
48.8146295309
48.8187450886
48.8516695499
48.8681317806
48.8352073193
48.8187450886
48.8352073193
48.8845940113

Average distance is : 48.846 cm
Average deviation is : 0.026 cm
Block: 7
======================================
48.8310917616
48.8516695499
48.8475539923
48.8352073193
48.8516695499
48.8516695499
48.8475539923
48.8681317806
48.8352073193
48.8352073193

Average distance is : 48.845 cm
Average deviation is : 0.011 cm
Block: 8
======================================
48.8845940113
48.8310917616
48.8681317806
48.8681317806
48.8516695499
48.8516695499
48.8516695499
48.8681317806
48.8352073193
48.8352073193

Average distance is : 48.855 cm
Average deviation is : 0.018 cm
Block: 9
======================================
48.8516695499
48.8310917616
48.8352073193
48.8516695499
48.8516695499
48.8516695499
48.8516695499
48.8681317806
48.8516695499
48.8516695499

Average distance is : 48.850 cm
Average deviation is : 0.010 cm
Block: 10
======================================
48.8146295309
48.8516695499
48.8722473383
48.8310917616
48.8516695499
48.8516695499
48.8352073193
48.8310917616
48.8187450886
48.8845940113

Average distance is : 48.844 cm
Average deviation is : 0.022 cm