
Block: 1
======================================
48.8187450886
48.7817050695
48.7817050695
48.8352073193
48.7981673002
48.8022828579
48.8187450886
48.8146295309
48.7652428389
48.7817050695
48.8310917616
48.7817050695
48.7981673002
48.7981673002
48.8022828579
48.7981673002
48.7817050695
48.8146295309
48.8187450886
48.7652428389
48.7652428389
48.7817050695
48.8187450886
48.7981673002
48.8022828579
48.7817050695
48.8146295309
48.8352073193
48.7652428389
48.7981673002
48.8022828579
48.8146295309
48.8352073193
48.7817050695
48.7817050695
48.8022828579
48.7817050695
48.7981673002
48.8022828579
48.8187450886
48.8022828579
49.2097230673
48.8146295309
48.8022828579
49.2303008556
49.2303008556
49.250878644
49.213838625
49.213838625
49.2303008556
49.213838625
49.1932608366
49.1973763943
49.1973763943
49.1932608366
49.250878644
49.1932608366
49.2467630863
49.1809141636
49.213838625
49.300265336
49.1932608366
49.213838625
49.2344164133
49.1809141636
49.263225317
49.300265336
49.1809141636
49.2467630863
49.1973763943
49.2303008556
49.1973763943
49.213838625
49.1932608366
49.213838625

Average distance is : 48.979 cm
Average deviation is : 0.210 cm
Block: 2
======================================
48.8022828579
48.7817050695
48.8310917616
48.8187450886
48.8146295309
48.7652428389
48.7817050695
48.7817050695
48.7981673002
48.7652428389
48.7981673002
48.8187450886
48.8022828579
48.7817050695
48.8187450886
48.7981673002
48.7817050695
48.6788161278
48.7817050695
48.7981673002
48.7981673002
48.7817050695
48.7981673002
48.7858206272
48.7817050695
48.7981673002
48.8146295309
48.7981673002
48.8352073193
48.7817050695
48.7817050695
48.8022828579
48.7817050695
48.7817050695
48.7981673002
48.7652428389
48.7652428389
48.7817050695
48.7652428389
49.1973763943
49.2303008556
49.2303008556
48.7981673002
48.8352073193
49.2097230673
49.1932608366
49.1973763943
49.2303008556
48.8845940113
48.8352073193
48.8352073193
48.8516695499
49.300265336
49.250878644
49.2303008556
49.2303008556
49.2467630863
49.1973763943
49.2303008556
49.2303008556
49.213838625
49.213838625
49.250878644
49.2344164133
49.1932608366
49.2838031054
49.2303008556
49.2467630863
49.2467630863
49.213838625
49.1973763943
48.7817050695
49.213838625
49.2303008556
49.213838625

Average distance is : 48.963 cm
Average deviation is : 0.213 cm
Block: 3
======================================
48.7981673002
48.7817050695
48.7817050695
48.8310917616
48.8146295309
48.7817050695
48.8187450886
48.7981673002
48.8187450886
48.7817050695
48.7981673002
48.7817050695
48.8187450886
48.7817050695
48.7981673002
48.8352073193
48.8022828579
48.7981673002
48.7981673002
48.7981673002
48.8187450886
48.8146295309
48.7981673002
48.7817050695
48.7981673002
48.8187450886
48.7817050695
48.7652428389
48.8146295309
48.8310917616
48.8187450886
48.7981673002
48.7652428389
48.7981673002
48.7652428389
48.7817050695
48.7817050695
48.7817050695
48.7817050695
48.7981673002
48.7611272812
48.7817050695
48.7981673002
48.7817050695
48.8022828579
48.7652428389
48.7981673002
48.7981673002
48.7981673002
49.2303008556
48.8187450886
48.7817050695
48.8146295309
49.2303008556
49.213838625
49.1973763943
49.1973763943
49.300265336
49.1973763943
49.2303008556
49.1973763943
49.2467630863
49.2467630863
49.2344164133
49.1973763943
49.250878644
49.1809141636
49.2673408747
49.1767986059
49.213838625
49.213838625
49.2303008556
49.300265336
49.213838625
49.1973763943

Average distance is : 48.928 cm
Average deviation is : 0.200 cm
Block: 4
======================================
48.7817050695
49.1973763943
48.8022828579
48.7817050695
49.1932608366
48.8022828579
48.7817050695
48.8187450886
48.7817050695
48.7652428389
48.7817050695
48.7652428389
48.8022828579
48.7487806082
48.8352073193
48.7981673002
48.7652428389
48.8146295309
48.7652428389
48.7817050695
48.8352073193
48.7652428389
48.7981673002
48.8352073193
48.8146295309
48.7817050695
48.7487806082
48.8187450886
48.7981673002
48.7817050695
48.7981673002
48.8022828579
48.8146295309
48.8022828579
48.7817050695
48.8146295309
48.7981673002
48.7652428389
48.7981673002
48.8146295309
48.7981673002
48.7817050695
48.8146295309
48.7981673002
48.8187450886
48.7817050695
48.8187450886
48.7611272812
48.8187450886
48.7611272812
48.8146295309
48.7611272812
48.7981673002
48.7817050695
49.2303008556
49.2303008556
49.213838625
49.213838625
49.1973763943
49.1973763943
49.2467630863
49.1973763943
49.2673408747
49.1767986059
49.1932608366
48.7981673002
49.2303008556
49.213838625
49.2303008556
49.2467630863
48.8516695499
49.2673408747
49.213838625
49.2467630863
49.300265336

Average distance is : 48.915 cm
Average deviation is : 0.196 cm
Block: 5
======================================
49.2673408747
49.213838625
49.1973763943
49.1932608366
49.213838625
49.1973763943
49.2467630863
48.8146295309
49.1809141636
48.7981673002
48.8146295309
48.8146295309
48.7652428389
48.8187450886
48.8187450886
48.7817050695
48.7652428389
48.8146295309
48.7981673002
48.7817050695
48.7981673002
48.8187450886
48.7817050695
48.7981673002
48.7652428389
48.7981673002
48.8146295309
48.7652428389
48.7611272812
48.8022828579
48.7981673002
48.7652428389
48.7611272812
48.8352073193
48.7817050695
48.7981673002
48.8187450886
48.7487806082
48.8146295309
48.8146295309
48.7817050695
48.8310917616
48.7981673002
48.7817050695
48.8187450886
48.7817050695
48.7817050695
48.8146295309
48.8022828579
48.8310917616
48.7981673002
48.7981673002
48.7652428389
48.7611272812
48.7652428389
48.7817050695
48.8187450886
48.7817050695
48.7981673002
48.8022828579
48.7817050695
48.7858206272
48.8187450886
48.8022828579
48.7981673002
48.8022828579
48.8146295309
48.7817050695
49.2303008556
49.1973763943
48.7981673002
49.213838625
49.1973763943
49.2303008556
49.213838625

Average distance is : 48.873 cm
Average deviation is : 0.166 cm
Block: 6
======================================
49.1973763943
49.2303008556
49.213838625
49.213838625
49.1809141636
49.2303008556
48.7981673002
49.213838625
49.1973763943
48.7817050695
49.1973763943
49.1932608366
48.7858206272
48.7817050695
48.8022828579
48.7817050695
48.7981673002
48.7652428389
48.7981673002
48.7858206272
48.8146295309
48.8022828579
48.7817050695
48.8187450886
48.7981673002
48.7981673002
48.7652428389
48.7652428389
48.7981673002
48.8187450886
48.8146295309
48.7652428389
48.8187450886
48.8022828579
48.7817050695
48.7817050695
48.8022828579
48.8146295309
48.7858206272
48.7817050695
48.7858206272
48.7817050695
48.8187450886
48.8187450886
48.7817050695
48.8187450886
48.7981673002
48.7817050695
48.8146295309
48.7817050695
48.8187450886
48.7652428389
48.8187450886
48.8187450886
48.8022828579
48.7981673002
48.7817050695
48.7981673002
48.7652428389
48.7981673002
48.8352073193
48.8310917616
48.7981673002
48.7981673002
48.7817050695
48.7858206272
48.7817050695
48.8022828579
48.7652428389
48.8022828579
48.8146295309
48.7981673002
48.7817050695
49.1973763943
48.7817050695

Average distance is : 48.855 cm
Average deviation is : 0.147 cm
Block: 7
======================================
49.213838625
49.2303008556
49.2303008556
49.2303008556
49.1973763943
49.1932608366
49.1973763943
49.213838625
49.213838625
49.2303008556
49.213838625
49.213838625
49.2303008556
49.213838625
48.8187450886
49.250878644
49.213838625
49.2344164133
48.8146295309
48.7487806082
48.7652428389
49.213838625
48.8146295309
48.8187450886
48.7981673002
48.8187450886
48.7981673002
48.7981673002
48.7652428389
48.7817050695
48.7817050695
48.8187450886
48.8146295309
48.7981673002
48.8146295309
48.3660337448
48.7817050695
48.7981673002
48.8146295309
48.8022828579
48.7817050695
48.7981673002
48.8146295309
48.7981673002
48.7652428389
48.7817050695
48.7858206272
48.7817050695
48.7487806082
48.7981673002
49.2467630863
48.8022828579
48.7981673002
48.7981673002
48.8352073193
48.7817050695
48.8146295309
48.7981673002
48.7817050695
48.8187450886
48.7981673002
48.7817050695
48.7817050695
48.8310917616
48.7652428389
49.1068341255
48.7817050695
48.8022828579
48.7652428389
48.7981673002
48.7817050695
48.7981673002
48.7981673002
48.7652428389
48.7981673002

Average distance is : 48.901 cm
Average deviation is : 0.198 cm
Block: 8
======================================
49.2467630863
49.1767986059
49.213838625
49.2303008556
49.2097230673
49.213838625
49.213838625
49.213838625
49.213838625
49.213838625
49.1809141636
49.213838625
49.1973763943
48.8022828579
49.213838625
49.213838625
48.7652428389
48.8187450886
48.8022828579
48.8187450886
48.7981673002
48.8352073193
48.8146295309
48.7817050695
48.7446650505
49.1973763943
48.8352073193
48.8187450886
48.8187450886
48.8022828579
48.7652428389
48.7652428389
48.8146295309
48.8146295309
48.8022828579
48.8187450886
48.7981673002
48.7817050695
48.7981673002
48.8187450886
48.7981673002
48.8187450886
48.8352073193
48.8022828579
48.8146295309
48.7817050695
48.7981673002
48.7858206272
48.7981673002
48.8146295309
48.7981673002
48.3701493025
48.7981673002
48.7817050695
48.8146295309
48.8022828579
48.8022828579
48.7817050695
48.8022828579
48.7611272812
48.7446650505
48.7981673002
48.7981673002
48.8146295309
48.8146295309
48.7981673002
48.8187450886
48.7981673002
48.8187450886
48.7981673002
48.7981673002
48.8022828579
48.8146295309
48.8146295309
48.7858206272

Average distance is : 48.882 cm
Average deviation is : 0.180 cm
Block: 9
======================================
48.8022828579
48.8352073193
48.7981673002
49.1973763943
48.7817050695
49.2303008556
49.2303008556
49.2303008556
49.2303008556
48.8146295309
49.213838625
49.2344164133
48.8146295309
48.7817050695
49.2303008556
48.8352073193
49.213838625
49.213838625
49.2467630863
49.2467630863
48.8022828579
49.2097230673
49.1973763943
49.2303008556
49.1767986059
49.250878644
49.2303008556
48.7981673002
48.7981673002
49.1973763943
48.7817050695
48.7817050695
48.7981673002
48.8187450886
48.7817050695
48.8146295309
48.8146295309
48.8352073193
48.8516695499
48.8187450886
48.8146295309
48.7981673002
48.7817050695
48.8146295309
48.8187450886
48.8187450886
48.7817050695
48.8516695499
48.7817050695
48.7981673002
48.8352073193
48.8187450886
48.8187450886
48.7981673002
48.8352073193
48.8146295309
48.8352073193
48.8022828579
48.7817050695
48.8187450886
48.7981673002
48.8146295309
48.7981673002
48.7981673002
48.7817050695
48.7817050695
48.8146295309
48.8310917616
48.7981673002
48.7817050695
48.8187450886
48.8352073193
48.8146295309
48.7817050695
48.8352073193

Average distance is : 48.913 cm
Average deviation is : 0.182 cm
Block: 10
======================================
48.7858206272
48.8146295309
48.7652428389
48.8022828579
49.1973763943
48.8146295309
49.2344164133
49.2467630863
49.2467630863
48.7858206272
49.2344164133
49.213838625
49.1767986059
49.213838625
49.1973763943
49.2303008556
49.1973763943
48.7981673002
49.213838625
49.2838031054
49.2303008556
49.2303008556
49.2303008556
49.2303008556
49.213838625
48.8475539923
49.1973763943
49.2344164133
49.2303008556
49.2303008556
49.2303008556
49.2344164133
48.7981673002
48.7817050695
48.7858206272
48.7817050695
49.2344164133
48.7817050695
48.8187450886
49.213838625
48.8187450886
48.7817050695
48.8187450886
48.8022828579
48.7817050695
48.7981673002
48.7981673002
48.7858206272
48.7981673002
48.7981673002
48.8310917616
48.8310917616
48.7817050695
48.8022828579
48.8310917616
48.7652428389
48.7817050695
48.8187450886
48.8187450886
48.7981673002
48.7817050695
48.7817050695
48.8352073193
48.7981673002
48.7817050695
48.8022828579
48.8022828579
48.7981673002
48.7652428389
48.8022828579
48.8352073193
48.8187450886
48.7981673002
48.7981673002
48.7981673002

Average distance is : 48.947 cm
Average deviation is : 0.204 cm