
Block: 1
======================================
48.8681317806
48.8352073193
48.8352073193
48.8722473383
49.300265336
49.300265336
49.2467630863
49.2673408747
48.8310917616
48.8352073193
48.8516695499
49.263225317
48.8681317806
48.8845940113
49.2673408747
49.250878644
48.8516695499
49.263225317
48.8516695499
48.8722473383
48.8352073193
48.8681317806
48.8310917616
48.8352073193
48.8681317806
48.8516695499
48.8681317806
48.8845940113
48.8352073193
48.8516695499
48.8352073193
48.8845940113
48.8352073193
48.8516695499
48.8681317806
48.8845940113
48.8352073193
48.8516695499
48.8187450886
48.8681317806
48.8187450886
48.8516695499
48.8681317806
48.8310917616
48.8681317806
48.8352073193
48.8516695499
48.8681317806
48.8516695499
48.8516695499
48.8187450886
48.8310917616
48.8516695499
48.8022828579
48.8681317806
48.8187450886
48.8310917616
48.8681317806
48.8516695499
48.8681317806
48.8352073193
48.8146295309
48.8516695499
48.8516695499
48.8516695499
48.8516695499
48.8516695499
48.8516695499
48.8352073193
48.8516695499
48.8681317806
48.8681317806
48.8352073193
48.8681317806
48.8681317806
48.8681317806
48.8475539923
48.8516695499
48.8146295309
48.8681317806
48.8681317806
48.8516695499
48.8845940113
48.8516695499
48.8352073193
48.8146295309
48.8516695499
48.8681317806
48.8681317806
48.8352073193
48.8516695499
49.0409852028
48.8146295309
48.8352073193
48.8681317806
48.8681317806
48.8681317806
48.8352073193
48.8310917616
48.8516695499

Average distance is : 48.886 cm
Average deviation is : 0.117 cm
Block: 2
======================================
49.2467630863
48.8845940113
49.2673408747
49.2838031054
49.300265336
49.2838031054
48.8146295309
48.8722473383
49.2838031054
49.2467630863
48.8681317806
48.8516695499
49.2838031054
48.8187450886
48.8475539923
48.8681317806
48.8681317806
48.8516695499
48.8516695499
48.8681317806
48.8681317806
49.2467630863
48.8352073193
49.2467630863
48.8722473383
48.8722473383
48.8681317806
48.8681317806
48.8516695499
48.8681317806
48.8352073193
48.8845940113
48.8516695499
48.8516695499
48.8352073193
48.8352073193
48.8516695499
48.8352073193
48.8516695499
48.8516695499
48.8845940113
48.8681317806
48.888709569
48.8146295309
48.8516695499
48.8681317806
48.8516695499
48.8310917616
48.8352073193
48.8681317806
48.8681317806
48.8516695499
48.8681317806
48.8681317806
48.8516695499
48.8516695499
48.8681317806
48.8516695499
48.8516695499
48.8845940113
48.8475539923
48.8681317806
48.8352073193
48.8681317806
48.8516695499
48.8352073193
48.8845940113
48.8187450886
48.901056242
48.8516695499
48.8516695499
48.8352073193
48.8310917616
48.8516695499
48.8681317806
48.8516695499
48.888709569
48.8845940113
48.8516695499
48.8516695499
48.8516695499
48.8681317806
48.8681317806
48.8681317806
48.8681317806
48.888709569
48.8845940113
48.8722473383
48.8516695499
48.8516695499
48.8681317806
48.8516695499
48.8681317806
48.8516695499
48.8516695499
48.8681317806
48.8681317806
48.8681317806
48.8146295309
48.8516695499

Average distance is : 48.899 cm
Average deviation is : 0.125 cm
Block: 3
======================================
48.8516695499
48.8475539923
48.901056242
48.8310917616
48.8681317806
48.8722473383
48.8681317806
48.8516695499
48.8352073193
48.8681317806
48.8310917616
48.8516695499
48.8516695499
48.8352073193
48.8475539923
48.8516695499
48.8681317806
48.8681317806
48.8310917616
48.8845940113
48.8845940113
48.888709569
48.8310917616
48.8516695499
48.8516695499
48.8516695499
48.8352073193
48.8516695499
48.8516695499
48.9051717997
48.8516695499
48.8310917616
48.8681317806
48.8516695499
48.8845940113
48.8516695499
48.8845940113
48.8681317806
48.8845940113
48.8681317806
48.8310917616
48.8681317806
48.8681317806
48.8516695499
48.8516695499
48.8516695499
48.8681317806
48.8681317806
48.888709569
48.8516695499
48.8475539923
48.8681317806
48.9051717997
48.8681317806
48.8722473383
48.8681317806
48.8516695499
48.8516695499
48.8516695499
48.9051717997
48.8681317806
48.8845940113
48.8681317806
48.8352073193
48.8845940113
48.8475539923
48.8516695499
48.8681317806
48.8352073193
48.8681317806
48.8516695499
48.8310917616
48.8681317806
48.888709569
48.8681317806
48.8681317806
48.8516695499
48.8516695499
48.8516695499
48.8845940113
48.8146295309
48.8681317806
48.8681317806
48.8352073193
48.8516695499
48.8187450886
48.8310917616
48.8352073193
48.8681317806
48.8681317806
48.8352073193
48.8187450886
48.8681317806
48.8516695499
48.8187450886
48.8516695499
48.8187450886
48.8187450886
49.300265336
49.2673408747

Average distance is : 48.866 cm
Average deviation is : 0.063 cm
Block: 4
======================================
49.2673408747
49.300265336
48.8516695499
48.8310917616
49.300265336
48.8516695499
49.2467630863
48.8352073193
48.8516695499
49.2673408747
48.8475539923
48.8845940113
49.2838031054
48.8516695499
48.8516695499
48.8681317806
48.8352073193
48.8681317806
48.8681317806
48.8681317806
48.8516695499
48.8516695499
48.8516695499
48.8352073193
48.8352073193
48.8681317806
48.8516695499
48.8681317806
48.8146295309
48.8516695499
48.8187450886
48.8681317806
48.8310917616
48.8310917616
48.888709569
48.8516695499
48.8352073193
48.8516695499
48.8310917616
48.8352073193
48.8681317806
48.8352073193
48.8516695499
48.8681317806
48.8681317806
48.8352073193
48.8681317806
48.8352073193
48.8352073193
48.8310917616
48.8681317806
48.8845940113
48.8845940113
48.8681317806
48.8516695499
48.8352073193
48.8310917616
48.8475539923
48.8516695499
48.8681317806
48.8516695499
48.8352073193
48.8681317806
48.8187450886
48.8310917616
48.8845940113
48.8516695499
48.8475539923
48.8352073193
48.8187450886
48.8681317806
48.8516695499
48.8516695499
48.8681317806
48.8681317806
48.8310917616
48.8681317806
48.8516695499
48.8845940113
48.8310917616
48.8516695499
48.8310917616
48.8516695499
48.8475539923
48.8352073193
48.8516695499
48.8352073193
48.8722473383
48.8352073193
48.8187450886
48.8681317806
48.8845940113
48.8516695499
48.8681317806
48.8310917616
48.8352073193
48.8475539923
48.8310917616
48.8310917616
48.8475539923

Average distance is : 48.876 cm
Average deviation is : 0.104 cm
Block: 5
======================================
49.300265336
48.8516695499
48.8146295309
48.8516695499
48.8516695499
48.9874829531
48.8516695499
48.8352073193
48.8187450886
48.8681317806
49.2673408747
48.888709569
48.8352073193
48.8352073193
48.8352073193
48.8516695499
48.8681317806
48.8681317806
48.8352073193
48.8516695499
48.8845940113
48.8516695499
48.8681317806
48.8516695499
48.8352073193
48.8516695499
48.8681317806
48.8310917616
48.8516695499
48.8146295309
48.8475539923
48.8516695499
48.8310917616
48.8352073193
48.8516695499
48.8187450886
48.8310917616
48.8146295309
48.8352073193
48.8352073193
48.8681317806
48.8516695499
48.888709569
48.8681317806
48.8681317806
48.8352073193
48.8187450886
48.8681317806
48.8022828579
48.8516695499
48.8516695499
48.8516695499
48.8516695499
48.8352073193
48.8681317806
48.8516695499
48.8516695499
48.8310917616
48.8722473383
48.8475539923
48.8681317806
48.8516695499
48.8681317806
48.8681317806
48.8516695499
48.8516695499
48.8516695499
48.8845940113
48.8352073193
48.8516695499
48.8845940113
48.8516695499
48.888709569
48.8516695499
48.8681317806
48.8475539923
48.8845940113
48.8516695499
48.8310917616
48.8681317806
48.8845940113
48.8681317806
48.8310917616
48.8516695499
48.8516695499
48.8516695499
48.8516695499
48.8516695499
48.8845940113
48.8681317806
48.8516695499
48.8187450886
48.8352073193
48.8681317806
48.8352073193
48.8681317806
48.8681317806
48.8722473383
48.8310917616
48.8187450886

Average distance is : 48.861 cm
Average deviation is : 0.065 cm
Block: 6
======================================
48.8681317806
48.8516695499
48.8845940113
48.8681317806
48.8516695499
48.8681317806
48.8516695499
48.8681317806
48.8681317806
48.888709569
48.8681317806
48.8681317806
48.8352073193
48.8681317806
48.8845940113
48.8845940113
48.8681317806
48.8681317806
48.8681317806
48.8310917616
48.8681317806
48.8475539923
48.8352073193
48.8352073193
48.8681317806
48.8516695499
48.8845940113
48.8681317806
48.8681317806
48.8352073193
48.9051717997
48.8516695499
48.8516695499
48.8681317806
48.8681317806
48.8352073193
48.8352073193
48.8681317806
48.8681317806
48.8681317806
48.8681317806
48.8845940113
48.8845940113
48.8352073193
48.8516695499
48.8681317806
48.5059627056
48.8681317806
48.8681317806
48.8845940113
48.8681317806
48.8845940113
48.8845940113
48.888709569
48.8187450886
48.888709569
48.8681317806
48.8722473383
48.8516695499
48.8352073193
48.8681317806
48.8516695499
48.8516695499
48.8681317806
48.8516695499
48.8310917616
48.8681317806
48.8516695499
48.8516695499
48.8681317806
48.8845940113
48.8681317806
48.8146295309
48.8310917616
48.8681317806
48.8845940113
48.8681317806
48.8352073193
48.8845940113
48.8187450886
48.8681317806
48.8681317806
48.8516695499
48.8516695499
48.8352073193
48.8475539923
48.8516695499
48.8681317806
48.8681317806
48.8681317806
48.8722473383
48.8681317806
48.8352073193
48.8681317806
48.8352073193
48.8146295309
48.8681317806
48.888709569
48.8516695499
48.8845940113

Average distance is : 48.858 cm
Average deviation is : 0.040 cm
Block: 7
======================================
48.8681317806
48.8352073193
48.8516695499
49.2673408747
48.8681317806
48.8310917616
48.8845940113
48.8352073193
48.8516695499
48.8516695499
48.8516695499
48.8516695499
48.8722473383
48.8681317806
48.8475539923
48.888709569
48.8352073193
48.8516695499
48.8146295309
48.8352073193
48.8146295309
48.8352073193
48.8187450886
48.8845940113
48.8845940113
48.8681317806
48.8516695499
48.8352073193
48.8516695499
48.8516695499
48.8146295309
48.8310917616
48.8681317806
48.8681317806
48.8352073193
48.8681317806
48.7981673002
48.8681317806
48.8681317806
48.8681317806
48.888709569
48.8310917616
48.8681317806
48.8681317806
48.8516695499
48.8516695499
48.888709569
48.8516695499
48.8516695499
48.8681317806
48.8516695499
48.8681317806
48.8146295309
48.8352073193
48.8681317806
48.8681317806
48.8516695499
48.8516695499
48.8187450886
48.8845940113
48.8475539923
48.8516695499
48.8681317806
48.8516695499
48.8516695499
48.8681317806
48.8681317806
48.8475539923
48.8516695499
48.8516695499
48.8681317806
48.8681317806
48.8516695499
48.8681317806
48.8475539923
48.8187450886
48.8516695499
48.8516695499
48.8681317806
48.7981673002
48.8352073193
48.8681317806
48.8681317806
48.8681317806
48.8516695499
48.8516695499
48.8516695499
48.8845940113
48.8681317806
48.8310917616
48.8681317806
48.8516695499
48.8681317806
48.8681317806
48.8681317806
48.8516695499
48.8722473383
48.8516695499
48.8516695499
48.8516695499

Average distance is : 48.858 cm
Average deviation is : 0.046 cm
Block: 8
======================================
48.8352073193
48.8352073193
48.8681317806
48.8310917616
48.8516695499
48.8352073193
48.8845940113
48.8516695499
48.8352073193
48.8352073193
48.8352073193
48.8722473383
48.8516695499
48.8516695499
48.8352073193
48.8681317806
48.8516695499
48.8845940113
48.888709569
48.8516695499
48.888709569
48.8681317806
48.8146295309
48.8516695499
48.8681317806
48.8516695499
48.8516695499
48.8310917616
48.8681317806
48.8352073193
48.8681317806
48.8681317806
48.8516695499
48.8845940113
48.8475539923
48.8722473383
48.8146295309
48.8352073193
48.8352073193
48.8310917616
48.8681317806
48.8516695499
48.8475539923
48.8352073193
48.8352073193
48.8516695499
48.8475539923
48.8516695499
48.8146295309
48.888709569
48.8681317806
49.2467630863
48.7817050695
48.8516695499
48.8681317806
48.8845940113
48.8310917616
48.8681317806
48.8722473383
49.263225317
49.300265336
49.2838031054
48.8475539923
49.300265336
49.300265336
49.300265336
48.7817050695
48.8352073193
48.8146295309
48.7817050695
48.8516695499
48.8516695499
49.2796875477
49.2303008556
48.888709569
49.213838625
49.213838625
48.8516695499
49.2344164133
48.8516695499
48.8146295309
48.8146295309
49.2673408747
49.1973763943
48.8310917616
48.8146295309
48.8310917616
48.8681317806
48.8146295309
48.8516695499
49.2838031054
48.8516695499
48.8516695499
48.8516695499
48.8681317806
48.8516695499
49.2673408747
48.8352073193
48.8516695499
48.8681317806

Average distance is : 48.914 cm
Average deviation is : 0.154 cm
Block: 9
======================================
48.8310917616
48.8516695499
48.8516695499
48.8516695499
48.8310917616
48.8722473383
48.8681317806
48.8146295309
48.8516695499
48.8681317806
48.8681317806
48.8516695499
49.2838031054
48.8681317806
48.8722473383
48.8516695499
48.8310917616
48.8352073193
48.8516695499
48.8516695499
48.8516695499
48.8310917616
48.8681317806
48.8352073193
48.8681317806
48.8310917616
48.888709569
48.8681317806
48.8516695499
48.8516695499
48.8352073193
48.8516695499
48.8681317806
48.8516695499
48.8310917616
48.8681317806
48.888709569
49.2673408747
48.8352073193
48.8681317806
49.2838031054
48.8681317806
49.300265336
48.8352073193
49.2303008556
48.8845940113
49.2303008556
48.8681317806
49.2303008556
48.8681317806
49.2467630863
48.8845940113
49.300265336
48.8146295309
48.8681317806
49.2303008556
49.2838031054
49.2303008556
49.1932608366
48.8146295309
49.2838031054
49.2838031054
49.213838625
48.7981673002
49.250878644
48.8187450886
48.7981673002
48.8187450886
48.8310917616
48.8187450886
49.263225317
48.8681317806
48.8146295309
49.213838625
49.1932608366
49.263225317
48.8516695499
49.300265336
49.213838625
48.8352073193
48.8187450886
48.8681317806
48.8681317806
48.8187450886
49.2673408747
49.263225317
49.2467630863
49.2303008556
48.8352073193
49.213838625
48.8352073193
49.213838625
49.213838625
49.2467630863
48.8352073193
48.8516695499
48.8681317806
49.263225317
48.7817050695
48.8681317806

Average distance is : 48.976 cm
Average deviation is : 0.190 cm
Block: 10
======================================
48.8187450886
49.0245229721
49.300265336
48.8722473383
48.8845940113
49.2467630863
48.8516695499
49.2838031054
49.2838031054
49.300265336
49.2838031054
49.2303008556
49.2838031054
49.2838031054
48.8352073193
49.300265336
49.2467630863
49.3167275667
48.8352073193
49.213838625
48.8681317806
48.8187450886
49.3167275667
49.213838625
48.8516695499
49.3167275667
49.2303008556
49.2673408747
49.2673408747
49.2796875477
49.2467630863
49.250878644
49.2303008556
48.8022828579
48.8146295309
48.8146295309
49.2303008556
48.8022828579
48.7981673002
49.2303008556
48.8352073193
49.1973763943
48.8146295309
48.8022828579
48.8146295309
48.8310917616
48.8022828579
48.8187450886
48.7981673002
48.8146295309
48.8022828579
48.8022828579
48.8187450886
48.7652428389
48.8022828579
48.8187450886
48.7817050695
48.8187450886
48.7981673002
48.7981673002
48.7817050695
48.7817050695
48.8187450886
48.7652428389
48.7981673002
48.8022828579
48.7487806082
48.8022828579
48.7652428389
48.8187450886
48.7817050695
48.8146295309
48.7817050695
48.8022828579
48.8022828579
48.7981673002
48.8146295309
48.7981673002
48.8352073193
48.7817050695
48.7817050695
48.7817050695
48.8187450886
48.7858206272
48.8146295309
48.8352073193
48.7817050695
48.8187450886
48.8146295309
48.7652428389
48.7981673002
48.8146295309
48.8146295309
48.8146295309
48.8022828579
48.8022828579
48.7981673002
48.7981673002
48.8352073193
48.7817050695

Average distance is : 48.928 cm
Average deviation is : 0.203 cm