
Block: 1
======================================
200.043399906
200.043399906
200.487271142
200.039327693
200.043399906
200.483198929
200.043399906
200.043399906
200.043399906
200.059688759
200.039327693
200.043399906
200.075977612
200.059688759
200.059688759
200.006749988
200.080049825
200.043399906
199.579167604
200.931142378
200.931142378
200.043399906
200.059688759
200.503559995
200.487271142
200.059688759
200.043399906
200.039327693
200.02303884
200.503559995
200.519848847
200.059688759
200.006749988
200.059688759
200.059688759
200.059688759
200.027111053
200.043399906
200.02303884
200.043399906
200.039327693
200.039327693
200.043399906
200.043399906
200.02303884
200.059688759
200.059688759
200.059688759
200.043399906
200.02303884
200.02303884
200.059688759
200.039327693
200.043399906
200.059688759
200.059688759
200.039327693
200.027111053
200.075977612
200.059688759
200.519848847
200.059688759
200.027111053
200.043399906
199.59952867
200.947431231
200.947431231
200.043399906
200.043399906
200.043399906
200.059688759
199.615817523
200.059688759
200.043399906
200.027111053
200.075977612
200.043399906
200.059688759
200.043399906
200.059688759
200.947431231
200.963720083
200.466910076
200.02303884
200.519848847
200.519848847
200.043399906
200.043399906
200.039327693
200.039327693
200.043399906
200.043399906
200.043399906
200.043399906
200.027111053
200.487271142
200.483198929
200.059688759
200.02303884
200.931142378

Block: 2
======================================
200.039327693
200.470982289
200.487271142
200.487271142
200.039327693
199.579167604
200.947431231
200.470982289
200.914853525
199.595456457
200.039327693
200.043399906
200.059688759
200.039327693
200.503559995
200.947431231
199.583239818
200.931142378
199.562878752
200.914853525
200.006749988
200.039327693
200.931142378
200.470982289
200.470982289
200.027111053
200.483198929
200.914853525
200.947431231
200.450621223
200.466910076
200.043399906
200.963720083
200.931142378
200.487271142
200.487271142
200.910781312
200.027111053
200.931142378
200.039327693
200.450621223
200.931142378
200.055616546
200.043399906
200.027111053
200.043399906
200.927070165
199.579167604
200.914853525
200.059688759
200.043399906
200.027111053
200.894492459
200.910781312
200.931142378
200.910781312
200.914853525
200.02303884
200.483198929
200.947431231
200.470982289
200.947431231
200.043399906
200.466910076
200.914853525
200.470982289
200.010822201
200.898564672
200.894492459
200.470982289
200.947431231
200.947431231
200.450621223
200.483198929
200.487271142
200.947431231
200.914853525
200.470982289
200.470982289
199.59952867
200.931142378
199.990461135
200.434332371
200.914853525
199.59952867
200.894492459
200.470982289
200.947431231
200.454693437
200.931142378
200.470982289
200.947431231
200.059688759
200.898564672
200.059688759
200.931142378
200.027111053
200.043399906
200.931142378
200.006749988

Block: 3
======================================
200.931142378
200.487271142
200.043399906
200.894492459
200.027111053
200.043399906
199.566950965
200.914853525
200.454693437
200.470982289
200.450621223
199.990461135
200.910781312
200.043399906
200.519848847
200.027111053
200.02303884
200.02303884
200.910781312
200.02303884
200.450621223
200.466910076
200.059688759
200.914853525
200.931142378
200.927070165
200.947431231
200.927070165
200.947431231
199.595456457
200.466910076
200.454693437
200.487271142
200.027111053
200.450621223
200.454693437
199.990461135
200.434332371
200.055616546
199.990461135
199.990461135
200.450621223
200.487271142
200.910781312
200.466910076
200.466910076
200.006749988
200.039327693
200.006749988
200.910781312
200.470982289
200.027111053
200.02303884
200.027111053
200.039327693
200.043399906
200.006749988
200.043399906
200.006749988
200.02303884
200.027111053
200.931142378
200.027111053
200.898564672
200.02303884
200.039327693
200.931142378
200.931142378
200.010822201
200.503559995
200.02303884
200.043399906
200.487271142
200.02303884
200.059688759
199.990461135
200.006749988
200.931142378
200.043399906
200.010822201
200.006749988
200.503559995
200.02303884
200.059688759
200.027111053
200.043399906
200.043399906
200.947431231
200.02303884
200.487271142
200.039327693
200.02303884
200.519848847
200.914853525
200.043399906
200.027111053
200.487271142
200.043399906
200.006749988
200.02303884

Block: 4
======================================
200.010822201
200.059688759
200.039327693
200.006749988
200.043399906
200.02303884
200.039327693
200.075977612
200.039327693
200.027111053
200.483198929
200.02303884
200.006749988
200.027111053
200.503559995
200.931142378
200.898564672
200.043399906
200.503559995
200.02303884
200.02303884
200.02303884
200.006749988
200.043399906
200.043399906
200.010822201
200.043399906
200.043399906
200.039327693
200.075977612
200.043399906
200.043399906
200.503559995
200.039327693
200.503559995
200.027111053
200.059688759
200.059688759
200.043399906
200.947431231
200.043399906
200.914853525
200.043399906
200.02303884
200.027111053
200.027111053
200.503559995
200.503559995
200.055616546
200.059688759
200.947431231
200.043399906
200.059688759
200.027111053
200.059688759
200.039327693
200.039327693
200.027111053
200.027111053
200.059688759
200.043399906
200.043399906
200.027111053
200.059688759
200.027111053
200.055616546
200.02303884
200.503559995
200.027111053
200.487271142
200.039327693
200.059688759
201.118464184
200.027111053
200.043399906
200.503559995
200.487271142
200.503559995
200.043399906
200.931142378
200.02303884
200.499487782
200.931142378
200.027111053
200.027111053
200.894492459
200.027111053
200.947431231
200.039327693
200.931142378
200.039327693
200.02303884
200.059688759
200.059688759
200.059688759
200.483198929
200.931142378
200.967792296
200.059688759
200.02303884

Block: 5
======================================
200.434332371
200.006749988
200.466910076
200.043399906
200.931142378
200.931142378
200.483198929
200.450621223
200.470982289
200.470982289
200.466910076
200.487271142
199.994533348
200.454693437
200.450621223
200.483198929
200.487271142
200.470982289
200.914853525
200.470982289
200.910781312
200.914853525
200.88227582
200.914853525
200.898564672
200.027111053
200.006749988
200.059688759
200.027111053
200.434332371
200.947431231
200.914853525
200.454693437
200.466910076
200.910781312
200.470982289
199.990461135
200.454693437
200.914853525
200.466910076
200.910781312
200.466910076
199.579167604
200.931142378
200.470982289
199.990461135
200.02303884
200.006749988
200.931142378
199.566950965
200.010822201
199.990461135
200.470982289
200.450621223
200.894492459
200.128916383
200.894492459
200.914853525
200.470982289
200.454693437
200.010822201
199.990461135
200.006749988
200.466910076
200.487271142
200.470982289
200.006749988
200.470982289
200.894492459
199.994533348
200.914853525
200.006749988
200.487271142
200.470982289
200.450621223
200.931142378
200.470982289
200.450621223
200.055616546
200.450621223
200.910781312
200.910781312
200.043399906
200.898564672
200.914853525
200.010822201
200.898564672
200.931142378
199.994533348
200.931142378
200.450621223
200.450621223
200.006749988
200.470982289
200.894492459
200.947431231
200.027111053
199.990461135
199.990461135
200.470982289

Block: 6
======================================
200.519848847
199.583239818
200.02303884
200.043399906
200.910781312
200.059688759
200.931142378
200.910781312
200.894492459
200.914853525
200.470982289
200.927070165
200.02303884
200.059688759
199.546589899
200.470982289
200.02303884
200.043399906
200.487271142
199.59952867
200.931142378
200.059688759
200.931142378
200.914853525
199.595456457
200.931142378
200.027111053
200.027111053
200.519848847
200.027111053
200.043399906
200.043399906
200.039327693
200.914853525
200.043399906
200.947431231
200.043399906
200.055616546
200.006749988
200.059688759
200.039327693
200.059688759
200.02303884
200.043399906
200.075977612
200.027111053
200.02303884
200.963720083
199.59952867
200.039327693
200.043399906
200.039327693
200.075977612
200.914853525
200.519848847
199.579167604
200.914853525
200.059688759
200.043399906
200.519848847
200.963720083
200.043399906
200.027111053
200.02303884
200.059688759
200.503559995
200.043399906
200.02303884
200.027111053
200.027111053
200.055616546
200.059688759
200.027111053
200.027111053
200.039327693
200.039327693
200.02303884
200.039327693
200.027111053
200.039327693
200.006749988
200.059688759
200.059688759
200.02303884
200.039327693
200.910781312
200.059688759
200.043399906
200.059688759
200.02303884
200.043399906
200.483198929
200.02303884
200.059688759
200.027111053
200.027111053
200.027111053
200.039327693
200.483198929
200.02303884

Block: 7
======================================
200.02303884
200.059688759
200.059688759
200.039327693
200.075977612
200.039327693
200.503559995
200.963720083
200.503559995
200.503559995
200.503559995
200.503559995
200.043399906
200.059688759
200.02303884
200.519848847
200.059688759
200.043399906
200.487271142
200.483198929
200.02303884
200.027111053
200.043399906
200.075977612
200.039327693
200.055616546
200.503559995
200.027111053
200.059688759
200.519848847
200.027111053
200.075977612
200.043399906
200.059688759
200.503559995
200.043399906
200.006749988
200.503559995
200.503559995
200.059688759
200.503559995
200.02303884
200.006749988
200.523921061
200.483198929
200.483198929
200.466910076
200.519848847
200.487271142
200.043399906
200.483198929
200.039327693
200.487271142
200.503559995
200.947431231
200.947431231
200.027111053
200.519848847
200.487271142
200.487271142
200.059688759
200.503559995
200.006749988
200.02303884
200.059688759
200.503559995
200.059688759
200.02303884
200.043399906
200.059688759
200.059688759
200.947431231
200.055616546
200.503559995
200.043399906
200.059688759
200.02303884
200.043399906
200.043399906
200.043399906
200.059688759
200.039327693
200.02303884
200.055616546
200.470982289
200.503559995
200.059688759
200.466910076
200.466910076
200.02303884
200.02303884
201.370941401
200.039327693
200.043399906
200.059688759
200.039327693
200.027111053
200.02303884
200.503559995
200.487271142

Block: 8
======================================
200.466910076
200.519848847
200.043399906
199.546589899
200.043399906
200.043399906
200.487271142
200.483198929
200.02303884
200.487271142
200.043399906
200.027111053
200.075977612
200.059688759
200.910781312
200.02303884
200.039327693
200.503559995
200.043399906
200.059688759
200.043399906
200.059688759
199.579167604
200.059688759
200.027111053
201.391302466
200.027111053
200.039327693
200.055616546
200.519848847
200.947431231
200.059688759
200.039327693
200.043399906
200.059688759
200.947431231
200.470982289
200.914853525
200.914853525
200.039327693
200.487271142
200.470982289
200.947431231
200.059688759
200.043399906
200.914853525
200.043399906
200.027111053
200.039327693
200.931142378
200.043399906
200.02303884
200.043399906
200.519848847
200.470982289
200.039327693
200.02303884
200.043399906
200.931142378
200.043399906
200.947431231
200.02303884
200.466910076
200.487271142
200.059688759
200.898564672
200.043399906
200.914853525
200.02303884
200.059688759
200.039327693
200.075977612
200.910781312
200.043399906
200.914853525
200.487271142
200.927070165
200.470982289
200.487271142
200.931142378
200.02303884
200.02303884
200.039327693
200.931142378
199.562878752
200.470982289
200.910781312
200.006749988
200.914853525
200.043399906
200.914853525
199.273751616
200.914853525
200.931142378
200.931142378
200.914853525
200.910781312
200.043399906
200.454693437
200.470982289

Block: 9
======================================
200.006749988
200.027111053
200.043399906
200.503559995
200.039327693
200.039327693
200.931142378
200.059688759
200.006749988
200.483198929
200.914853525
200.02303884
200.503559995
200.043399906
199.974172282
200.450621223
200.043399906
200.059688759
200.910781312
200.059688759
200.027111053
200.059688759
200.947431231
200.059688759
200.947431231
200.043399906
200.043399906
200.931142378
200.059688759
200.043399906
200.039327693
200.931142378
200.02303884
200.02303884
200.043399906
200.898564672
200.043399906
200.02303884
200.5361377
200.027111053
200.043399906
200.027111053
199.562878752
200.931142378
200.927070165
200.059688759
200.043399906
200.914853525
200.043399906
200.894492459
200.059688759
200.043399906
199.595456457
200.006749988
200.043399906
200.043399906
200.487271142
200.898564672
200.910781312
200.487271142
200.039327693
200.043399906
200.914853525
200.914853525
200.454693437
200.503559995
200.059688759
200.039327693
200.931142378
200.931142378
200.914853525
200.454693437
200.947431231
200.910781312
200.470982289
200.059688759
200.931142378
200.466910076
200.483198929
200.914853525
200.02303884
200.947431231
200.027111053
200.466910076
200.914853525
200.466910076
200.931142378
200.075977612
200.931142378
200.466910076
200.059688759
200.931142378
200.947431231
200.927070165
200.006749988
200.483198929
200.503559995
200.487271142
200.931142378
200.454693437

Block: 10
======================================
200.043399906
199.994533348
200.02303884
200.02303884
200.039327693
200.503559995
200.931142378
200.043399906
200.487271142
200.02303884
200.059688759
200.059688759
200.947431231
200.02303884
200.039327693
200.039327693
200.039327693
200.470982289
200.059688759
200.010822201
200.914853525
200.487271142
200.487271142
200.483198929
200.043399906
200.059688759
200.043399906
200.487271142
200.059688759
200.910781312
200.059688759
200.931142378
200.931142378
200.043399906
200.043399906
200.043399906
200.043399906
200.043399906
200.02303884
200.055616546
200.931142378
199.583239818
200.059688759
200.043399906
199.566950965
200.039327693
200.043399906
200.02303884
200.039327693
200.006749988
200.483198929
200.039327693
200.075977612
200.059688759
200.043399906
200.043399906
200.02303884
200.043399906
200.027111053
200.027111053
200.043399906
200.043399906
200.027111053
200.043399906
200.02303884
200.043399906
200.02303884
200.466910076
200.059688759
200.010822201
200.059688759
200.059688759
200.02303884
200.006749988
200.059688759
200.043399906
200.043399906
200.898564672
200.010822201
200.914853525
200.470982289
200.006749988
200.059688759
200.039327693
200.02303884
200.027111053
200.027111053
200.043399906
200.006749988
200.027111053
200.027111053
200.043399906
200.02303884
200.503559995
200.910781312
200.039327693
200.039327693
200.02303884
200.503559995
200.006749988
