
Block: 1
======================================
200.043399906
199.530301046
200.006749988
199.990461135
200.010822201
199.990461135
200.450621223
201.342435908
199.990461135
200.487271142
199.595456457
200.434332371
200.434332371
200.470982289
200.010822201
199.990461135
200.02303884
199.566950965
200.466910076
199.994533348
200.438404584
199.562878752
200.450621223
200.006749988
200.450621223
200.470982289
200.466910076
200.006749988
199.579167604
200.450621223
199.990461135
200.483198929
199.990461135
200.02303884
200.450621223
200.931142378
200.914853525
199.579167604
200.450621223
199.562878752
200.487271142
200.454693437
199.974172282
200.454693437
200.466910076
200.466910076
200.914853525
199.583239818
200.470982289
200.027111053

Block: 2
======================================
200.450621223
200.418043518
200.454693437
200.910781312
200.931142378
200.927070165
200.931142378
200.931142378
200.454693437
199.579167604
200.914853525
199.59952867
199.615817523
199.579167604
200.039327693
200.914853525
199.579167604
200.519848847
200.02303884
200.02303884
200.059688759
200.503559995
200.027111053
200.027111053
200.02303884
199.579167604
200.043399906
200.466910076
199.59952867
200.039327693
200.487271142
199.583239818
200.059688759
200.947431231
199.615817523
200.454693437
200.947431231
200.894492459
199.579167604
200.043399906
200.487271142
199.562878752
200.503559995
200.027111053
200.059688759
199.546589899
200.914853525
200.914853525
199.615817523
200.931142378

Block: 3
======================================
200.931142378
200.503559995
200.466910076
200.466910076
200.006749988
200.470982289
200.470982289
200.470982289
200.006749988
200.487271142
200.075977612
200.466910076
200.043399906
200.466910076
200.894492459
199.59952867
200.947431231
200.010822201
200.450621223
200.027111053
200.466910076
200.466910076
199.990461135
200.027111053
200.894492459
200.454693437
200.454693437
200.466910076
200.010822201
200.470982289
199.990461135
200.027111053
199.990461135
200.470982289
200.470982289
200.006749988
200.010822201
200.02303884
200.470982289
200.466910076
200.006749988
200.466910076
200.466910076
200.470982289
199.579167604
199.566950965
200.006749988
200.454693437
200.02303884
200.914853525

Block: 4
======================================
200.039327693
200.931142378
200.043399906
200.947431231
200.027111053
200.039327693
200.059688759
200.914853525
200.438404584
200.043399906
200.039327693
200.931142378
199.579167604
200.450621223
200.466910076
200.454693437
200.898564672
200.434332371
200.450621223
200.914853525
200.910781312
200.450621223
199.990461135
199.583239818
200.487271142
200.931142378
200.450621223
200.466910076
199.990461135
200.450621223
199.990461135
199.990461135
200.450621223
200.450621223
200.434332371
200.910781312
200.927070165
200.010822201
199.595456457
200.450621223
200.454693437
200.454693437
199.562878752
200.914853525
200.914853525
199.579167604
200.450621223
200.914853525
200.470982289
199.583239818

Block: 5
======================================
199.990461135
200.898564672
199.546589899
200.914853525
200.898564672
199.615817523
199.546589899
200.006749988
199.566950965
200.454693437
199.562878752
200.02303884
199.579167604
200.931142378
199.579167604
200.006749988
200.898564672
200.450621223
200.947431231
200.470982289
200.450621223
200.450621223
200.470982289
200.450621223
200.027111053
200.470982289
199.970100069
200.454693437
200.027111053
200.450621223
200.466910076
200.454693437
200.450621223
200.914853525
199.579167604
199.550662112
200.910781312
200.418043518
200.02303884
200.894492459
200.503559995
200.006749988
200.027111053
200.487271142
199.990461135
200.931142378
200.450621223
200.450621223
200.010822201
199.994533348

Block: 6
======================================
200.88227582
200.006749988
200.88227582
200.006749988
200.454693437
200.006749988
200.914853525
199.546589899
200.894492459
200.914853525
200.914853525
200.470982289
199.990461135
200.466910076
200.910781312
200.454693437
199.994533348
200.450621223
200.454693437
200.894492459
200.434332371
200.470982289
200.450621223
200.450621223
199.95788343
199.95788343
200.466910076
200.914853525
200.450621223
200.450621223
200.914853525
199.974172282
201.342435908
200.450621223
199.974172282
199.990461135
199.990461135
200.454693437
199.990461135
199.990461135
200.914853525
200.438404584
200.470982289
200.487271142
200.006749988
200.434332371
200.450621223
200.434332371
200.466910076
200.454693437

Block: 7
======================================
199.990461135
199.990461135
199.990461135
199.990461135
199.974172282
199.562878752
199.990461135
200.454693437
200.450621223
199.990461135
200.450621223
200.438404584
200.466910076
200.450621223
201.664140749
200.910781312
200.006749988
200.450621223
200.438404584
200.914853525
200.927070165
200.454693437
200.878203607
200.006749988
200.914853525
200.894492459
200.450621223
200.466910076
200.434332371
200.914853525
200.914853525
200.931142378
200.450621223
200.010822201
200.454693437
200.894492459
200.894492459
200.02303884
200.898564672
200.454693437
199.974172282
200.027111053
200.898564672
200.434332371
199.990461135
200.010822201
200.434332371
200.434332371
200.454693437
200.898564672

Block: 8
======================================
200.910781312
200.02303884
200.894492459
200.914853525
200.434332371
200.910781312
200.02303884
200.878203607
200.027111053
200.010822201
200.438404584
200.487271142
200.010822201
200.914853525
200.914853525
200.894492459
200.006749988
200.454693437
200.470982289
200.914853525
200.450621223
200.450621223
200.434332371
200.02303884
200.039327693
200.039327693
200.466910076
200.450621223
200.470982289
200.931142378
200.487271142
200.466910076
200.466910076
200.043399906
200.470982289
200.483198929
200.454693437
200.059688759
199.994533348
200.470982289
199.990461135
200.434332371
199.990461135
200.910781312
200.931142378
200.910781312
200.450621223
200.043399906
200.931142378
200.450621223

Block: 9
======================================
200.470982289
200.898564672
200.470982289
200.450621223
200.470982289
200.466910076
200.006749988
201.358724761
199.990461135
200.454693437
200.470982289
200.010822201
200.470982289
200.006749988
200.466910076
200.027111053
200.450621223
200.006749988
200.006749988
200.027111053
200.470982289
200.006749988
200.027111053
200.466910076
200.487271142
199.990461135
200.006749988
199.990461135
199.990461135
200.006749988
200.010822201
200.466910076
200.006749988
199.990461135
200.006749988
200.470982289
200.466910076
200.470982289
200.006749988
200.470982289
200.450621223
200.466910076
199.990461135
200.027111053
200.02303884
200.006749988
200.027111053
200.006749988
199.990461135
200.454693437

Block: 10
======================================
200.02303884
200.931142378
200.02303884
200.434332371
200.894492459
200.450621223
200.898564672
200.470982289
199.994533348
200.450621223
200.931142378
200.450621223
200.466910076
199.990461135
199.990461135
200.760109425
200.931142378
200.914853525
200.470982289
200.450621223
200.927070165
200.006749988
200.470982289
200.470982289
200.910781312
200.010822201
200.02303884
200.466910076
200.914853525
200.487271142
200.914853525
200.910781312
200.519848847
200.487271142
199.562878752
200.039327693
200.039327693
200.043399906
199.583239818
200.487271142
200.898564672
200.470982289
200.470982289
200.931142378
200.487271142
200.470982289
199.583239818
199.546589899
200.454693437
200.059688759
