
Block: 1
======================================
199.990461135
200.434332371
200.894492459
200.927070165
199.615817523
200.470982289
200.02303884
200.006749988
200.02303884
200.006749988
200.043399906
200.466910076
200.466910076
200.010822201
199.974172282
200.043399906
200.027111053
200.006749988
200.006749988
200.450621223
200.434332371
200.006749988
200.450621223
200.450621223
200.910781312
200.470982289
200.466910076
200.914853525
200.454693437
200.910781312
199.974172282
200.499487782
200.947431231
199.615817523
200.466910076
199.579167604
200.914853525
200.059688759
200.914853525
200.02303884
200.043399906
200.931142378
200.914853525
200.075977612
200.02303884
199.59952867
200.931142378
200.483198929
200.043399906
200.914853525
200.503559995
200.027111053
200.02303884
200.059688759
200.039327693
200.043399906
200.027111053
200.027111053
200.043399906
200.027111053
200.043399906
200.059688759
200.043399906
200.02303884
200.043399906
200.059688759
200.059688759
200.075977612
200.059688759
200.039327693
199.579167604
200.039327693
200.039327693
200.039327693
200.947431231

Block: 2
======================================
200.027111053
200.947431231
200.043399906
200.010822201
199.579167604
199.583239818
200.947431231
200.503559995
200.039327693
199.562878752
200.931142378
200.059688759
200.914853525
200.894492459
200.02303884
200.059688759
200.470982289
199.595456457
199.595456457
200.927070165
200.487271142
200.027111053
200.947431231
200.470982289
200.503559995
199.59952867
200.483198929
200.487271142
200.931142378
200.487271142
200.059688759
200.487271142
200.931142378
200.470982289
200.470982289
199.59952867
200.039327693
199.579167604
199.583239818
200.059688759
200.043399906
200.02303884
200.027111053
200.931142378
200.02303884
200.947431231
200.470982289
200.059688759
200.947431231
200.931142378
200.931142378
200.947431231
200.914853525
200.487271142
200.450621223
200.027111053
200.927070165
200.503559995
200.503559995
200.487271142
200.914853525
200.487271142
200.910781312
200.914853525
200.927070165
200.043399906
200.931142378
200.931142378
200.055616546
200.470982289
200.466910076
200.931142378
200.02303884
200.043399906
200.02303884

Block: 3
======================================
200.434332371
200.927070165
200.878203607
200.466910076
200.910781312
200.006749988
200.059688759
200.039327693
200.931142378
200.043399906
200.027111053
200.470982289
200.931142378
200.503559995
200.914853525
200.470982289
200.931142378
200.931142378
200.931142378
200.039327693
200.466910076
200.450621223
200.967792296
200.487271142
200.450621223
200.487271142
200.487271142
200.963720083
200.466910076
200.043399906
200.931142378
200.487271142
200.075977612
199.579167604
200.075977612
200.043399906
200.02303884
200.02303884
200.450621223
200.931142378
199.546589899
200.927070165
200.947431231
200.043399906
200.910781312
200.466910076
200.027111053
200.059688759
200.927070165
200.039327693
200.043399906
200.894492459
200.043399906
200.043399906
200.027111053
200.927070165
200.931142378
200.503559995
200.910781312
200.059688759
200.931142378
200.059688759
200.039327693
200.027111053
200.027111053
200.043399906
200.02303884
200.02303884
200.043399906
200.947431231
200.02303884
200.927070165
200.043399906
200.059688759
200.470982289

Block: 4
======================================
200.02303884
200.02303884
200.059688759
200.931142378
200.043399906
200.043399906
200.02303884
200.059688759
200.059688759
200.043399906
199.583239818
200.927070165
200.487271142
200.043399906
200.006749988
200.043399906
200.927070165
200.059688759
200.027111053
200.043399906
200.039327693
200.02303884
200.043399906
200.927070165
200.914853525
200.947431231
200.043399906
200.454693437
200.027111053
200.487271142
200.006749988
200.006749988
200.914853525
200.910781312
200.043399906
200.914853525
200.967792296
199.615817523
200.434332371
200.910781312
200.043399906
200.043399906
200.006749988
200.010822201
200.914853525
200.947431231
200.931142378
200.947431231
200.043399906
200.043399906
200.910781312
200.503559995
200.450621223
200.947431231
199.583239818
200.914853525
200.043399906
200.059688759
200.02303884
200.450621223
200.931142378
200.059688759
200.503559995
200.947431231
200.043399906
200.947431231
200.027111053
200.910781312
200.010822201
200.470982289
200.931142378
200.039327693
200.470982289
200.487271142
200.483198929

Block: 5
======================================
200.075977612
200.039327693
200.006749988
200.043399906
200.043399906
200.043399906
200.931142378
200.027111053
200.914853525
200.914853525
199.583239818
200.075977612
200.931142378
200.043399906
200.910781312
200.02303884
200.914853525
200.043399906
200.027111053
200.043399906
200.075977612
200.483198929
200.043399906
200.487271142
200.914853525
200.027111053
200.006749988
200.059688759
200.454693437
200.039327693
200.927070165
200.947431231
200.092266464
200.006749988
200.450621223
199.579167604
200.438404584
200.466910076
200.483198929
200.910781312
200.947431231
200.02303884
199.583239818
200.470982289
199.990461135
200.450621223
200.914853525
200.059688759
200.931142378
200.931142378
200.02303884
200.470982289
200.931142378
200.450621223
200.914853525
200.910781312
200.947431231
200.059688759
200.006749988
200.931142378
200.470982289
200.931142378
200.931142378
200.466910076
200.454693437
199.59952867
200.043399906
199.974172282
199.579167604
200.947431231
200.470982289
200.006749988
200.487271142
200.470982289
200.043399906

Block: 6
======================================
200.059688759
200.043399906
200.454693437
200.466910076
200.027111053
200.931142378
199.59952867
200.466910076
200.450621223
200.931142378
200.454693437
200.914853525
200.039327693
200.039327693
200.947431231
200.466910076
200.931142378
200.039327693
200.914853525
200.027111053
200.006749988
200.010822201
200.039327693
200.894492459
200.931142378
200.043399906
199.59952867
200.454693437
200.059688759
200.470982289
200.059688759
200.910781312
200.910781312
200.503559995
200.898564672
200.914853525
200.931142378
200.914853525
200.059688759
200.927070165
200.927070165
200.043399906
200.931142378
200.910781312
199.990461135
200.931142378
200.043399906
200.470982289
200.914853525
200.434332371
200.006749988
200.914853525
200.470982289
200.466910076
200.931142378
200.914853525
200.947431231
199.990461135
200.927070165
200.466910076
200.914853525
200.910781312
200.914853525
200.470982289
200.931142378
200.898564672
200.466910076
200.910781312
200.470982289
200.466910076
200.931142378
200.931142378
200.947431231
200.931142378
200.914853525

Block: 7
======================================
200.894492459
200.059688759
200.039327693
200.02303884
200.02303884
200.931142378
200.02303884
200.523921061
200.006749988
200.027111053
200.059688759
200.914853525
200.914853525
200.947431231
200.927070165
200.027111053
200.927070165
200.947431231
200.947431231
200.931142378
199.615817523
200.931142378
200.947431231
200.947431231
200.947431231
200.483198929
200.043399906
200.914853525
200.039327693
200.454693437
200.910781312
200.914853525
200.894492459
200.914853525
200.027111053
200.039327693
200.02303884
200.039327693
200.043399906
200.02303884
200.043399906
199.990461135
200.470982289
201.375013614
200.043399906
200.039327693
200.043399906
200.043399906
200.931142378
200.487271142
200.914853525
200.043399906
200.059688759
200.914853525
200.059688759
200.043399906
200.059688759
200.027111053
200.039327693
200.02303884
200.059688759
200.470982289
200.914853525
200.059688759
200.027111053
200.02303884
200.027111053
200.931142378
200.027111053
200.043399906
200.039327693
200.947431231
200.027111053
200.910781312
200.947431231

Block: 8
======================================
200.055616546
199.990461135
200.059688759
200.027111053
200.059688759
200.039327693
200.503559995
200.043399906
200.487271142
200.02303884
200.927070165
200.470982289
200.910781312
200.043399906
200.043399906
200.027111053
200.043399906
200.519848847
200.027111053
200.931142378
200.503559995
200.894492459
200.02303884
200.503559995
200.027111053
200.059688759
200.02303884
200.02303884
200.503559995
200.027111053
200.027111053
200.894492459
200.894492459
201.155114102
200.027111053
200.02303884
200.027111053
200.043399906
200.027111053
200.02303884
199.562878752
200.039327693
200.059688759
200.039327693
200.02303884
200.02303884
200.043399906
200.914853525
200.043399906
200.059688759
200.059688759
200.010822201
200.487271142
200.059688759
200.039327693
200.910781312
200.059688759
200.043399906
200.503559995
200.043399906
200.02303884
200.043399906
200.503559995
200.027111053
200.006749988
200.059688759
200.503559995
200.927070165
200.02303884
200.055616546
200.02303884
200.910781312
200.914853525
200.039327693
200.931142378

Block: 9
======================================
200.466910076
200.02303884
200.027111053
200.247010565
200.466910076
200.947431231
200.914853525
200.470982289
200.027111053
200.027111053
200.519848847
200.487271142
200.059688759
200.059688759
200.210360646
200.914853525
200.931142378
200.910781312
200.931142378
200.043399906
200.02303884
200.055616546
200.059688759
200.043399906
200.02303884
200.039327693
200.006749988
200.039327693
200.02303884
200.894492459
200.059688759
200.487271142
200.043399906
200.027111053
200.914853525
200.043399906
200.043399906
200.043399906
200.914853525
200.059688759
200.043399906
200.519848847
200.006749988
200.006749988
200.010822201
200.043399906
200.043399906
200.027111053
200.519848847
200.02303884
200.043399906
200.927070165
199.59952867
200.059688759
200.931142378
200.931142378
200.931142378
200.519848847
200.027111053
200.910781312
200.043399906
200.910781312
200.043399906
200.043399906
200.006749988
200.059688759
200.059688759
200.02303884
200.931142378
200.059688759
200.470982289
200.059688759
200.059688759
200.931142378
200.894492459

Block: 10
======================================
200.947431231
200.02303884
200.043399906
200.927070165
199.990461135
200.499487782
200.039327693
200.487271142
200.059688759
200.487271142
200.466910076
200.470982289
200.947431231
200.466910076
200.466910076
200.043399906
200.466910076
200.487271142
200.487271142
200.470982289
200.027111053
200.470982289
200.043399906
200.027111053
200.487271142
200.466910076
200.466910076
200.450621223
200.470982289
200.487271142
200.027111053
200.450621223
200.963720083
200.487271142
200.487271142
200.483198929
200.466910076
200.454693437
200.006749988
200.910781312
200.434332371
200.470982289
200.470982289
200.006749988
200.931142378
200.043399906
200.483198929
200.487271142
200.894492459
200.931142378
200.470982289
200.487271142
200.963720083
200.914853525
200.043399906
200.043399906
200.043399906
200.894492459
200.027111053
200.02303884
200.039327693
200.039327693
200.914853525
200.059688759
200.02303884
200.039327693
200.059688759
200.059688759
200.927070165
200.027111053
200.055616546
200.059688759
200.947431231
200.027111053
200.927070165
