
Block: 1
======================================
200.263299417
200.316238189
200.316238189
200.312165976
200.316238189
200.760109425
201.183619595
200.299949336
200.299949336
200.267371631
200.295877123
200.79268713
200.316238189
200.743820572
200.348815894
200.743820572
200.27958827
200.776398277
200.263299417
200.316238189
200.36917696
200.332527041
200.27958827
200.295877123
200.263299417
200.295877123
200.808975983
200.27958827
200.739748359
200.299949336
200.267371631
200.813048196
200.760109425
200.743820572
200.743820572
201.187691808
200.743820572
200.295877123
200.760109425
200.263299417
200.760109425
200.739748359
200.760109425
200.299949336
200.813048196
200.283660483
200.760109425
200.27958827
200.760109425
200.727531719
200.760109425
200.27958827
200.760109425
200.727531719
200.743820572
200.332527041
200.348815894
200.295877123
200.295877123
201.171402955
200.27958827
200.723459506
200.743820572
200.299949336
200.727531719
200.267371631
200.760109425
200.743820572
200.316238189
200.316238189
200.743820572
200.727531719
200.267371631
200.352888107
200.332527041
201.171402955
200.711242867
200.756037211
200.743820572
200.263299417
200.723459506
200.263299417
200.760109425
200.743820572
200.743820572
200.299949336
200.760109425
200.760109425
200.299949336
200.760109425
200.283660483
200.299949336
200.299949336
200.299949336
200.299949336
200.299949336
200.756037211
200.743820572
201.167330742
200.263299417

Block: 2
======================================
200.723459506
201.187691808
200.743820572
200.27958827
200.299949336
200.727531719
200.776398277
201.20398066
200.739748359
200.760109425
200.776398277
200.299949336
200.299949336
200.312165976
200.27958827
200.27958827
200.295877123
200.743820572
200.295877123
200.760109425
200.348815894
200.723459506
200.263299417
201.20398066
200.743820572
200.760109425
200.401754665
200.295877123
200.27958827
201.20398066
200.776398277
200.283660483
200.760109425
200.776398277
200.756037211
201.20398066
200.760109425
200.739748359
200.739748359
200.723459506
200.727531719
200.743820572
200.743820572
200.743820572
200.743820572
200.760109425
200.295877123
200.739748359
200.723459506
200.283660483
201.236558366
200.760109425
201.167330742
200.3813936
200.316238189
200.365104747
200.829337049
200.845625901
200.283660483
200.760109425
201.20398066
200.743820572
200.739748359
200.739748359
200.299949336
200.267371631
200.760109425
200.739748359
200.299949336
200.316238189
200.739748359
200.316238189
200.760109425
200.743820572
200.739748359
200.27958827
200.756037211
200.760109425
200.332527041
200.743820572
200.312165976
200.27958827
200.760109425
200.743820572
200.756037211
201.220269513
200.760109425
200.348815894
200.743820572
200.743820572
201.187691808
201.171402955
200.743820572
200.760109425
201.220269513
200.760109425
200.316238189
200.283660483
200.776398277
200.723459506

Block: 3
======================================
200.743820572
200.756037211
200.743820572
201.220269513
200.27958827
200.263299417
200.739748359
200.723459506
200.760109425
200.760109425
200.299949336
200.299949336
200.27958827
200.299949336
200.299949336
200.283660483
200.267371631
200.723459506
200.743820572
200.743820572
200.299949336
200.79268713
200.316238189
200.739748359
201.20398066
200.263299417
200.295877123
200.27958827
200.743820572
200.299949336
200.727531719
200.760109425
200.27958827
200.299949336
200.263299417
200.299949336
200.723459506
200.263299417
200.299949336
201.167330742
200.796759343
200.743820572
200.756037211
200.723459506
200.27958827
200.760109425
200.283660483
200.829337049
200.743820572
200.743820572
200.267371631
200.247010565
200.707170653
200.707170653
200.760109425
200.263299417
200.739748359
200.263299417
200.283660483
200.743820572
200.299949336
200.27958827
200.707170653
200.283660483
200.27958827
200.723459506
200.739748359
200.743820572
200.27958827
200.727531719
200.283660483
200.739748359
200.295877123
200.299949336
200.299949336
200.267371631
200.263299417
200.283660483
200.27958827
200.27958827
200.79268713
200.283660483
200.295877123
200.283660483
200.727531719
200.283660483
200.27958827
200.267371631
200.263299417
200.247010565
200.332527041
200.27958827
200.27958827
200.283660483
200.295877123
200.295877123
200.27958827
200.808975983
200.263299417
200.27958827

Block: 4
======================================
200.79268713
200.79268713
201.155114102
200.776398277
200.267371631
200.283660483
200.27958827
200.263299417
200.263299417
200.263299417
200.760109425
200.332527041
200.251082778
201.167330742
200.27958827
200.743820572
200.263299417
200.756037211
200.283660483
200.263299417
200.267371631
200.348815894
201.151041889
200.727531719
200.760109425
200.247010565
200.263299417
201.631563044
200.743820572
200.813048196
201.171402955
200.79268713
200.813048196
200.79268713
201.151041889
200.27958827
201.20398066
201.151041889
200.299949336
200.348815894
200.247010565
200.299949336
200.727531719
200.27958827
200.690881801
200.723459506
200.299949336
200.808975983
201.171402955
200.27958827
200.316238189
201.187691808
201.171402955
200.27958827
200.27958827
200.316238189
200.263299417
200.316238189
200.316238189
200.796759343
201.134753036
200.332527041
200.27958827
200.756037211
200.299949336
200.299949336
200.332527041
200.332527041
200.332527041
200.36917696
201.171402955
200.283660483
200.813048196
200.27958827
200.267371631
200.27958827
200.27958827
200.743820572
200.299949336
200.316238189
200.299949336
200.283660483
200.263299417
200.808975983
200.299949336
200.27958827
200.332527041
200.295877123
200.283660483
200.348815894
200.299949336
200.27958827
200.723459506
200.263299417
200.283660483
200.299949336
200.27958827
200.776398277
200.776398277
200.283660483

Block: 5
======================================
200.316238189
200.267371631
200.743820572
200.295877123
201.20398066
200.348815894
200.299949336
200.283660483
200.760109425
200.27958827
200.727531719
200.299949336
200.299949336
200.283660483
200.743820572
200.283660483
200.263299417
200.348815894
200.295877123
200.723459506
200.79268713
200.316238189
200.79268713
200.348815894
200.263299417
200.295877123
200.352888107
200.27958827
200.760109425
201.171402955
201.187691808
201.151041889
200.723459506
200.332527041
200.332527041
201.04923656
201.171402955
200.845625901
201.167330742
200.707170653
200.312165976
200.316238189
201.187691808
200.332527041
200.299949336
201.171402955
200.727531719
201.187691808
200.348815894
200.332527041
201.187691808
200.707170653
201.187691808
200.36917696
201.171402955
200.739748359
200.723459506
200.808975983
200.727531719
201.171402955
200.348815894
201.187691808
201.171402955
201.167330742
201.171402955
200.813048196
201.647851896
201.171402955
200.316238189
200.79268713
200.27958827
200.299949336
201.167330742
201.171402955
200.813048196
200.813048196
200.739748359
201.187691808
200.711242867
201.187691808
201.167330742
201.20398066
201.151041889
201.167330742
201.187691808
201.187691808
200.316238189
201.171402955
200.27958827
200.723459506
200.723459506
201.20398066
200.739748359
200.743820572
201.155114102
201.183619595
200.263299417
200.727531719
201.167330742
201.151041889

Block: 6
======================================
200.316238189
200.743820572
201.167330742
201.187691808
201.167330742
200.829337049
200.711242867
200.352888107
200.760109425
200.79268713
200.27958827
200.36917696
200.267371631
200.283660483
200.743820572
200.283660483
201.167330742
201.167330742
200.299949336
200.299949336
200.332527041
201.20398066
200.808975983
200.263299417
200.739748359
200.283660483
201.155114102
200.829337049
200.813048196
200.263299417
200.79268713
200.295877123
200.808975983
200.808975983
201.187691808
201.167330742
201.167330742
200.727531719
200.723459506
200.348815894
200.829337049
200.707170653
200.316238189
200.808975983
201.151041889
201.187691808
200.808975983
200.332527041
201.171402955
201.171402955
201.167330742
201.151041889
201.171402955
201.171402955
201.187691808
201.151041889
201.187691808
200.813048196
200.760109425
201.187691808
201.171402955
201.167330742
200.332527041
200.299949336
201.171402955
200.299949336
201.187691808
200.743820572
201.171402955
201.171402955
201.167330742
201.171402955
201.155114102
200.727531719
201.171402955
200.27958827
200.332527041
200.727531719
200.711242867
201.167330742
201.151041889
200.707170653
201.155114102
201.167330742
200.707170653
200.365104747
200.723459506
200.727531719
200.743820572
200.283660483
200.727531719
200.707170653
200.247010565
201.151041889
201.171402955
200.723459506
200.348815894
200.690881801
201.167330742
200.316238189

Block: 7
======================================
201.187691808
201.183619595
201.167330742
200.316238189
200.707170653
201.20398066
201.187691808
200.316238189
200.36917696
200.36917696
200.332527041
200.283660483
200.316238189
200.707170653
201.171402955
200.332527041
200.316238189
200.723459506
200.707170653
201.171402955
201.183619595
200.316238189
200.352888107
201.20398066
200.365104747
201.167330742
200.707170653
200.299949336
201.187691808
200.299949336
201.171402955
200.332527041
201.171402955
201.187691808
200.723459506
201.20398066
200.723459506
200.727531719
200.348815894
200.295877123
200.739748359
200.727531719
200.727531719
200.776398277
201.13882525
200.352888107
200.332527041
201.151041889
200.299949336
200.36917696
201.171402955
200.723459506
200.727531719
201.187691808
200.727531719
200.348815894
201.171402955
200.760109425
201.187691808
200.723459506
200.707170653
200.727531719
200.727531719
200.727531719
200.299949336
201.167330742
200.348815894
201.151041889
201.171402955
200.739748359
200.727531719
200.739748359
201.20398066
200.739748359
201.187691808
200.813048196
200.247010565
200.723459506
200.796759343
200.711242867
201.171402955
200.707170653
201.20398066
200.283660483
200.743820572
201.187691808
200.723459506
201.20398066
200.332527041
200.723459506
200.348815894
201.187691808
201.167330742
200.365104747
201.183619595
201.171402955
200.723459506
200.316238189
200.316238189
200.332527041

Block: 8
======================================
200.27958827
200.332527041
201.187691808
200.316238189
200.263299417
201.183619595
201.187691808
201.187691808
201.167330742
200.27958827
200.312165976
201.151041889
200.316238189
201.187691808
200.27958827
200.27958827
200.283660483
200.299949336
200.295877123
200.283660483
200.283660483
200.299949336
200.299949336
200.332527041
200.332527041
200.316238189
201.171402955
200.352888107
201.20398066
201.171402955
200.385465813
201.183619595
200.365104747
201.187691808
200.808975983
200.727531719
200.813048196
201.167330742
200.365104747
200.263299417
200.316238189
200.283660483
200.776398277
201.20398066
200.808975983
200.808975983
200.808975983
200.845625901
201.647851896
201.167330742
200.263299417
200.299949336
201.187691808
200.723459506
201.20398066
201.187691808
201.167330742
200.690881801
200.27958827
200.299949336
201.167330742
201.151041889
200.723459506
201.183619595
200.723459506
201.171402955
201.167330742
200.707170653
201.187691808
201.187691808
201.187691808
201.187691808
201.151041889
201.187691808
200.743820572
200.707170653
201.187691808
201.183619595
201.151041889
200.829337049
200.743820572
201.20398066
201.183619595
201.171402955
200.79268713
200.299949336
201.187691808
200.727531719
201.20398066
200.743820572
200.845625901
200.352888107
200.825264835
201.183619595
201.20398066
200.743820572
200.316238189
200.739748359
201.187691808
201.20398066

Block: 9
======================================
200.79268713
201.183619595
200.299949336
200.332527041
200.861914754
200.3813936
200.295877123
200.845625901
200.295877123
200.861914754
200.756037211
200.756037211
200.283660483
200.27958827
200.316238189
200.829337049
200.316238189
200.79268713
201.167330742
201.171402955
200.385465813
201.187691808
200.283660483
200.332527041
200.825264835
201.187691808
200.299949336
200.316238189
201.20398066
200.825264835
200.316238189
200.723459506
201.187691808
201.20398066
200.79268713
200.756037211
200.723459506
200.760109425
200.316238189
201.167330742
200.743820572
200.79268713
201.183619595
200.79268713
201.20398066
201.183619595
200.316238189
200.756037211
201.171402955
201.224341726
201.171402955
200.727531719
201.220269513
201.167330742
200.79268713
200.299949336
201.20398066
201.187691808
201.187691808
200.845625901
200.739748359
201.171402955
201.20398066
200.808975983
201.187691808
200.295877123
200.841553688
200.316238189
200.760109425
201.187691808
200.79268713
200.27958827
200.845625901
200.829337049
201.167330742
201.183619595
200.743820572
201.167330742
201.183619595
201.187691808
201.187691808
200.727531719
200.283660483
201.167330742
201.171402955
201.167330742
201.187691808
200.727531719
201.187691808
200.707170653
201.171402955
201.167330742
200.808975983
201.183619595
200.79268713
200.829337049
200.776398277
200.312165976
201.647851896
201.167330742

Block: 10
======================================
200.808975983
200.760109425
200.295877123
200.283660483
200.263299417
200.365104747
201.62749083
200.829337049
200.776398277
200.707170653
200.808975983
201.187691808
200.299949336
200.332527041
201.187691808
200.316238189
200.295877123
201.187691808
201.187691808
201.220269513
200.825264835
201.187691808
200.27958827
200.299949336
200.332527041
200.299949336
200.299949336
200.808975983
200.743820572
200.760109425
200.829337049
200.760109425
200.295877123
200.283660483
200.299949336
200.295877123
200.283660483
200.295877123
200.27958827
200.295877123
200.348815894
201.187691808
200.739748359
200.283660483
200.760109425
200.295877123
200.36917696
200.299949336
200.27958827
200.295877123
200.27958827
200.316238189
200.295877123
200.27958827
200.723459506
200.776398277
200.295877123
200.299949336
200.723459506
200.760109425
200.295877123
200.299949336
200.760109425
200.316238189
200.27958827
200.316238189
200.316238189
200.312165976
200.283660483
200.813048196
201.187691808
200.283660483
200.756037211
201.155114102
200.312165976
200.283660483
200.295877123
200.295877123
200.776398277
200.27958827
200.316238189
200.760109425
200.743820572
200.813048196
200.743820572
200.295877123
200.348815894
200.739748359
200.813048196
200.283660483
200.776398277
200.295877123
200.299949336
200.760109425
200.316238189
200.299949336
200.299949336
200.760109425
200.776398277
200.727531719
