
Block: 1
======================================
200.727531719
201.118464184
200.727531719
200.723459506
200.776398277
200.690881801
201.167330742
200.690881801
200.247010565
201.151041889
201.134753036
200.711242867
201.167330742
200.690881801
200.707170653
200.723459506
201.187691808
200.230721712
200.263299417
200.723459506
200.263299417
200.711242867
200.267371631
200.263299417
200.263299417
200.247010565
200.247010565
200.694954014
200.230721712
200.723459506
200.230721712
200.690881801
200.263299417
200.690881801
200.247010565
200.711242867
200.723459506
200.707170653
200.263299417
200.727531719
200.283660483
200.247010565
200.690881801
200.690881801
200.263299417
200.727531719
200.711242867
200.247010565
200.707170653
200.707170653
200.690881801
200.230721712
200.690881801
201.134753036
201.171402955
200.707170653
200.690881801
200.690881801
200.674592948
200.263299417
200.707170653
200.694954014
200.690881801
200.707170653
200.743820572
201.134753036
200.690881801
200.723459506
200.723459506
200.690881801
201.155114102
200.690881801
200.247010565
200.690881801
200.670520735

Block: 2
======================================
200.776398277
200.707170653
200.707170653
200.27958827
200.299949336
200.707170653
200.723459506
201.167330742
201.151041889
200.707170653
200.332527041
200.332527041
201.171402955
200.295877123
200.27958827
200.295877123
200.263299417
200.263299417
200.332527041
200.829337049
200.79268713
200.332527041
200.348815894
200.739748359
200.295877123
200.332527041
200.79268713
200.263299417
200.739748359
200.760109425
201.167330742
200.295877123
200.352888107
200.727531719
200.760109425
200.348815894
200.690881801
200.316238189
200.263299417
200.316238189
200.27958827
200.299949336
200.263299417
200.283660483
200.299949336
200.27958827
200.348815894
201.20398066
200.263299417
200.299949336
200.316238189
200.299949336
201.151041889
200.813048196
200.707170653
201.151041889
200.727531719
200.711242867
200.723459506
201.151041889
201.167330742
200.808975983
200.365104747
200.27958827
200.299949336
200.332527041
201.171402955
200.299949336
201.187691808
200.727531719
201.155114102
201.171402955
200.743820572
201.171402955
201.171402955

Block: 3
======================================
200.825264835
200.776398277
200.813048196
200.299949336
200.3813936
201.151041889
201.167330742
200.825264835
200.808975983
200.79268713
201.171402955
200.723459506
200.743820572
200.760109425
200.299949336
200.796759343
200.299949336
200.295877123
200.295877123
200.316238189
200.352888107
200.332527041
200.808975983
200.27958827
200.332527041
200.348815894
200.295877123
200.295877123
200.299949336
200.348815894
200.776398277
200.283660483
200.283660483
200.263299417
200.312165976
200.348815894
200.27958827
200.267371631
200.27958827
200.263299417
200.27958827
200.312165976
200.739748359
200.283660483
200.299949336
200.283660483
200.316238189
201.187691808
201.171402955
201.187691808
201.183619595
200.348815894
200.690881801
200.348815894
200.707170653
200.707170653
200.365104747
200.829337049
200.295877123
201.167330742
201.13882525
201.187691808
201.167330742
201.183619595
200.79268713
200.27958827
200.295877123
201.183619595
200.79268713
201.167330742
200.348815894
201.171402955
200.813048196
200.316238189
200.27958827

Block: 4
======================================
200.295877123
200.295877123
200.776398277
200.829337049
200.295877123
200.711242867
201.167330742
201.187691808
200.723459506
201.151041889
200.707170653
200.332527041
201.151041889
201.187691808
200.808975983
201.167330742
200.263299417
200.711242867
200.711242867
200.690881801
201.151041889
200.27958827
201.167330742
201.155114102
200.690881801
201.20398066
200.707170653
200.674592948
201.151041889
201.155114102
200.247010565
201.151041889
201.167330742
201.187691808
201.167330742
200.690881801
201.171402955
201.151041889
200.263299417
200.723459506
200.723459506
200.332527041
200.690881801
201.151041889
200.27958827
200.690881801
201.167330742
201.167330742
201.171402955
201.155114102
201.171402955
200.690881801
200.723459506
200.247010565
200.743820572
200.727531719
200.707170653
200.707170653
200.707170653
200.27958827
201.134753036
200.690881801
201.151041889
200.711242867
200.247010565
200.690881801
200.727531719
200.743820572
200.267371631
200.690881801
200.247010565
200.690881801
200.707170653
200.707170653
200.247010565

Block: 5
======================================
200.711242867
200.36917696
201.151041889
200.690881801
200.711242867
201.155114102
200.283660483
200.263299417
201.171402955
200.690881801
200.263299417
200.690881801
200.263299417
200.385465813
200.711242867
200.711242867
200.727531719
201.187691808
200.707170653
200.348815894
200.723459506
201.167330742
200.711242867
201.187691808
200.27958827
200.3813936
200.760109425
200.707170653
200.267371631
200.348815894
201.171402955
200.727531719
200.295877123
200.79268713
201.171402955
200.332527041
201.20398066
200.707170653
201.183619595
201.155114102
200.727531719
200.739748359
201.183619595
200.332527041
201.171402955
201.155114102
201.151041889
201.167330742
200.365104747
200.825264835
201.183619595
200.332527041
200.348815894
200.27958827
200.707170653
200.299949336
200.365104747
201.167330742
201.167330742
201.183619595
200.299949336
200.267371631
200.829337049
200.707170653
201.20398066
200.727531719
200.263299417
200.283660483
200.267371631
200.283660483
200.312165976
200.348815894
200.711242867
200.352888107
200.299949336

Block: 6
======================================
200.739748359
200.79268713
200.707170653
200.743820572
200.295877123
200.727531719
201.171402955
200.27958827
200.743820572
200.813048196
200.829337049
201.171402955
200.348815894
200.760109425
200.299949336
200.27958827
200.299949336
200.263299417
200.348815894
200.813048196
201.167330742
200.727531719
201.183619595
200.316238189
201.171402955
201.167330742
200.723459506
200.352888107
200.299949336
200.723459506
201.187691808
201.151041889
201.187691808
200.739748359
200.247010565
200.743820572
200.739748359
200.707170653
201.171402955
201.167330742
200.79268713
201.167330742
201.187691808
200.723459506
201.187691808
201.167330742
201.20398066
200.727531719
200.727531719
200.707170653
200.808975983
200.723459506
200.727531719
201.647851896
201.20398066
200.825264835
201.167330742
201.151041889
200.283660483
200.760109425
201.187691808
200.723459506
200.825264835
201.167330742
200.711242867
200.316238189
200.267371631
201.183619595
201.20398066
201.134753036
201.187691808
201.167330742
200.79268713
200.808975983
200.283660483

Block: 7
======================================
200.267371631
200.723459506
200.743820572
200.743820572
201.187691808
200.707170653
201.167330742
200.829337049
201.171402955
201.167330742
201.187691808
200.295877123
200.295877123
200.78047049
200.825264835
201.20398066
200.316238189
201.187691808
200.760109425
200.723459506
200.27958827
200.27958827
201.647851896
201.151041889
201.183619595
201.171402955
200.352888107
201.155114102
200.299949336
200.829337049
200.263299417
200.36917696
200.263299417
200.723459506
200.332527041
200.332527041
200.813048196
201.183619595
200.723459506
200.263299417
200.283660483
200.707170653
200.352888107
201.171402955
201.151041889
200.352888107
200.332527041
200.739748359
200.27958827
200.27958827
200.727531719
200.27958827
200.27958827
200.760109425
200.79268713
200.79268713
200.299949336
200.263299417
200.352888107
200.739748359
200.263299417
200.348815894
200.813048196
200.743820572
200.743820572
200.332527041
201.151041889
200.27958827
200.295877123
200.776398277
200.808975983
200.78047049
200.295877123
200.756037211
200.299949336

Block: 8
======================================
200.267371631
200.760109425
200.299949336
201.171402955
200.316238189
200.743820572
200.365104747
200.283660483
200.808975983
200.295877123
200.316238189
200.707170653
200.348815894
201.183619595
200.299949336
200.348815894
200.283660483
200.316238189
201.187691808
200.352888107
201.183619595
200.808975983
201.187691808
200.299949336
200.267371631
200.776398277
200.263299417
200.299949336
200.813048196
200.776398277
200.283660483
200.295877123
200.299949336
200.299949336
200.283660483
200.283660483
200.299949336
200.299949336
200.316238189
200.27958827
200.299949336
200.263299417
200.283660483
200.743820572
201.167330742
200.813048196
200.332527041
200.27958827
200.348815894
200.295877123
201.20398066
200.299949336
200.295877123
200.283660483
200.283660483
200.352888107
201.187691808
201.167330742
201.187691808
200.283660483
200.332527041
200.352888107
201.171402955
200.299949336
200.348815894
200.348815894
200.283660483
200.299949336
200.27958827
200.312165976
200.316238189
200.283660483
200.348815894
200.27958827
200.27958827

Block: 9
======================================
200.723459506
201.183619595
201.151041889
200.707170653
200.299949336
200.756037211
201.187691808
201.171402955
200.79268713
201.187691808
201.167330742
201.20398066
200.707170653
200.79268713
201.187691808
201.20398066
201.187691808
201.183619595
200.727531719
201.167330742
200.332527041
201.183619595
200.723459506
200.711242867
200.829337049
200.707170653
201.171402955
200.711242867
201.167330742
201.183619595
200.743820572
201.183619595
200.727531719
200.316238189
201.187691808
200.690881801
201.167330742
201.187691808
200.332527041
200.263299417
200.808975983
201.20398066
200.295877123
201.187691808
200.316238189
200.776398277
200.299949336
201.187691808
200.283660483
201.155114102
200.813048196
200.723459506
200.808975983
200.295877123
200.79268713
200.263299417
200.332527041
200.711242867
200.723459506
200.283660483
201.187691808
200.707170653
200.348815894
200.267371631
200.365104747
200.263299417
200.348815894
200.27958827
200.348815894
200.283660483
200.295877123
200.316238189
200.295877123
200.36917696
200.825264835

Block: 10
======================================
200.299949336
200.727531719
200.247010565
200.295877123
200.808975983
201.187691808
200.348815894
200.776398277
200.27958827
200.332527041
200.743820572
200.27958827
200.332527041
200.263299417
200.27958827
200.760109425
200.727531719
201.167330742
200.760109425
200.332527041
200.299949336
200.299949336
200.760109425
200.27958827
200.263299417
200.352888107
201.187691808
200.760109425
200.295877123
200.760109425
200.332527041
200.312165976
200.295877123
200.760109425
200.365104747
200.348815894
201.20398066
200.365104747
200.332527041
200.27958827
200.352888107
200.348815894
200.27958827
200.316238189
200.283660483
200.283660483
200.295877123
200.295877123
200.316238189
200.299949336
200.312165976
200.299949336
200.332527041
200.365104747
200.295877123
200.27958827
200.299949336
200.385465813
200.283660483
200.36917696
200.352888107
200.332527041
200.316238189
200.365104747
200.299949336
201.167330742
200.760109425
201.187691808
200.316238189
200.295877123
200.299949336
200.316238189
200.295877123
200.299949336
200.299949336
