
Block: 1
======================================
49.3866920471
49.3702298164
49.3167275667
49.3702298164
49.3866920471
49.3702298164
49.4031542778
49.3866920471
49.3702298164
49.3537675858
49.3702298164
49.4196165085
49.3702298164
49.3331897974
49.4031542778
49.3496520281
49.4031542778
49.4196165085
49.3866920471
49.3496520281
49.3866920471
49.3866920471
49.3496520281
49.3866920471
49.3866920471
49.4031542778
49.4031542778
49.3537675858
49.3661142588
49.3702298164
49.3167275667
49.3866920471
49.3496520281
49.3496520281
49.3702298164
49.3702298164
49.3537675858
49.4072698355
49.3866920471
49.4031542778
49.4237320662
49.3537675858
49.3702298164
49.3702298164
49.3702298164
49.3702298164
49.3866920471
49.3496520281
49.3661142588
49.3537675858

Block: 2
======================================
49.3331897974
49.3825764894
49.3866920471
49.3702298164
49.2838031054
49.3167275667
49.3331897974
49.3331897974
49.3866920471
49.3373053551
49.3661142588
49.300265336
49.3661142588
49.3661142588
49.3866920471
49.3702298164
49.3537675858
49.3373053551
49.3208431244
49.3331897974
49.3331897974
49.3702298164
49.3866920471
49.3496520281
49.3866920471
49.3866920471
49.3167275667
49.3537675858
49.3537675858
49.3331897974
49.3702298164
49.3331897974
49.3167275667
49.3167275667
49.3866920471
49.4072698355
49.3331897974
49.3167275667
49.3702298164
49.3702298164
49.3866920471
49.4031542778
49.4031542778
49.3702298164
49.3537675858
49.3496520281
49.3866920471
49.4031542778
49.3866920471
49.3866920471

Block: 3
======================================
49.3866920471
49.3537675858
49.3208431244
49.3866920471
49.3496520281
49.3702298164
49.3496520281
49.3661142588
49.3537675858
49.3866920471
49.3496520281
49.3702298164
49.3661142588
49.3537675858
49.300265336
49.3537675858
49.4031542778
49.3702298164
49.3496520281
49.4031542778
49.3496520281
49.3537675858
49.3208431244
49.3331897974
49.3331897974
49.3331897974
49.3866920471
49.3866920471
49.3537675858
49.3496520281
49.3331897974
49.4031542778
49.3866920471
49.3866920471
49.4031542778
49.3702298164
49.3167275667
49.3702298164
49.3373053551
49.8188256025
49.3702298164
49.3167275667
49.3373053551
49.3373053551
49.300265336
49.300265336
49.2796875477
49.8887900829
49.3167275667
49.3167275667

Block: 4
======================================
49.3373053551
49.3331897974
49.300265336
49.3331897974
49.4031542778
49.3331897974
49.3702298164
49.3537675858
49.3331897974
49.300265336
49.3167275667
49.3331897974
49.3496520281
49.3702298164
49.3866920471
49.3866920471
49.4031542778
49.3167275667
49.3373053551
49.3167275667
49.3702298164
49.4031542778
49.3702298164
49.3702298164
49.4196165085
49.3496520281
49.3537675858
49.3537675858
49.4031542778
49.3496520281
49.3496520281
49.4031542778
49.300265336
49.3661142588
49.3702298164
49.3661142588
49.3331897974
49.3167275667
49.3331897974
49.3537675858
49.3167275667
49.3537675858
49.3702298164
49.4196165085
49.3496520281
49.3866920471
49.3537675858
49.3331897974
49.4031542778
49.3373053551

Block: 5
======================================
49.3208431244
49.3331897974
49.3496520281
49.3866920471
49.3167275667
49.3331897974
49.3866920471
49.3866920471
49.3331897974
49.3331897974
49.3661142588
49.3702298164
49.3331897974
49.3866920471
49.3702298164
49.300265336
49.3496520281
49.3866920471
49.3496520281
49.3866920471
49.3537675858
49.4031542778
49.3537675858
49.2796875477
49.4031542778
49.3866920471
49.3167275667
49.3825764894
49.3373053551
49.3331897974
49.3331897974
49.3167275667
49.3661142588
49.3167275667
49.3537675858
49.2838031054
49.3373053551
49.3496520281
49.3167275667
49.3702298164
49.4031542778
49.3331897974
49.3866920471
49.3866920471
49.3866920471
49.3167275667
49.3537675858
49.3866920471
49.3866920471
49.3208431244

Block: 6
======================================
50.2468436003
49.3866920471
49.3702298164
49.3331897974
49.3331897974
49.4072698355
49.3702298164
49.3537675858
49.300265336
49.4031542778
49.3537675858
49.3331897974
49.300265336
49.3331897974
49.300265336
49.3702298164
49.3331897974
49.4031542778
49.3331897974
49.300265336
49.300265336
49.3661142588
49.3331897974
49.3373053551
49.300265336
49.3208431244
49.3331897974
49.3167275667
49.3331897974
49.4031542778
49.3373053551
49.2838031054
49.3167275667
49.3167275667
49.3537675858
49.3661142588
49.300265336
49.3331897974
49.3208431244
49.3537675858
49.3537675858
49.3331897974
49.2838031054
49.3331897974
49.3866920471
49.3866920471
49.3866920471
49.3373053551
49.3331897974
49.3208431244

Block: 7
======================================
49.3373053551
49.3167275667
49.3866920471
49.3373053551
49.3208431244
49.3537675858
49.300265336
49.3331897974
49.3866920471
49.3702298164
49.3373053551
49.3167275667
49.4031542778
49.3496520281
49.3866920471
49.3496520281
49.3537675858
49.3866920471
49.3661142588
49.4196165085
49.3825764894
49.3661142588
49.4031542778
49.3537675858
49.3661142588
49.3537675858
49.3702298164
49.3702298164
49.3537675858
49.3866920471
49.3373053551
49.3702298164
49.4031542778
49.3702298164
49.3496520281
49.3825764894
49.3496520281
49.3866920471
49.3496520281
50.3332703114
49.4031542778
49.3702298164
49.3866920471
49.3702298164
49.3866920471
49.3537675858
49.3167275667
49.3331897974
49.3866920471
49.3331897974

Block: 8
======================================
49.3702298164
49.4031542778
49.4031542778
49.3496520281
49.3866920471
49.3866920471
49.4031542778
49.3331897974
49.3331897974
49.3702298164
49.3496520281
49.3702298164
49.3331897974
49.3331897974
49.3373053551
49.3866920471
49.3167275667
49.3373053551
49.3702298164
49.3866920471
49.3866920471
49.4031542778
49.300265336
49.3702298164
49.3331897974
49.3373053551
49.3866920471
49.4031542778
49.3167275667
49.3661142588
49.4031542778
49.3702298164
49.3537675858
49.3661142588
49.3866920471
49.3866920471
49.4072698355
49.4031542778
49.3825764894
49.3537675858
49.3866920471
49.3866920471
49.4196165085
49.3661142588
49.3702298164
49.3866920471
49.3825764894
49.3866920471
49.3537675858
49.3496520281

Block: 9
======================================
49.4031542778
49.3537675858
49.3702298164
49.3661142588
49.3537675858
49.3702298164
49.3702298164
49.3661142588
49.3702298164
49.3661142588
49.4031542778
49.4072698355
49.3537675858
49.3496520281
49.3661142588
49.3496520281
49.3167275667
49.3496520281
49.4031542778
49.3866920471
49.3702298164
49.3866920471
49.3866920471
49.3661142588
49.3866920471
49.3866920471
49.3866920471
49.4031542778
49.3866920471
49.3496520281
49.3167275667
49.3661142588
49.3537675858
49.3866920471
49.3866920471
49.3866920471
49.3702298164
49.3866920471
49.3702298164
49.3702298164
49.3331897974
49.3537675858
49.3702298164
49.3866920471
49.3661142588
49.3866920471
49.3866920471
49.3866920471
49.3167275667
49.3866920471

Block: 10
======================================
49.3702298164
49.0245229721
49.3661142588
49.3866920471
49.3537675858
49.3866920471
49.3702298164
49.3702298164
49.3537675858
49.3496520281
49.4072698355
49.3537675858
49.3866920471
49.3537675858
49.3866920471
49.3866920471
49.3496520281
49.4237320662
49.3702298164
49.3496520281
49.4031542778
49.3661142588
49.3537675858
49.3537675858
49.3866920471
49.3537675858
49.3331897974
49.3537675858
49.4031542778
49.4031542778
49.3496520281
49.4072698355
49.3866920471
49.4031542778
49.4031542778
49.3537675858
49.4031542778
49.3866920471
49.3866920471
49.3702298164
49.3496520281
49.3866920471
49.3825764894
49.3373053551
49.3866920471
49.3866920471
49.4031542778
49.3661142588
49.3537675858
49.3866920471
