
Block: 1
======================================
200.27958827
200.263299417
200.316238189
200.312165976
200.332527041

Average distance is : 200.301 cm
Average deviation is : 0.028 cm
Block: 2
======================================
200.332527041
200.316238189
200.365104747
199.819428182
200.365104747

Average distance is : 200.240 cm
Average deviation is : 0.236 cm
Block: 3
======================================
200.316238189
199.819428182
199.86829474
200.348815894
200.316238189

Average distance is : 200.134 cm
Average deviation is : 0.266 cm
Block: 4
======================================
200.316238189
200.332527041
200.316238189
200.332527041
200.332527041

Average distance is : 200.326 cm
Average deviation is : 0.009 cm
Block: 5
======================================
200.348815894
200.295877123
199.835717034
200.316238189
200.263299417

Average distance is : 200.212 cm
Average deviation is : 0.213 cm
Block: 6
======================================
200.385465813
199.839789248
200.654231882
200.299949336
200.332527041

Average distance is : 200.302 cm
Average deviation is : 0.294 cm
Block: 7
======================================
200.348815894
200.263299417
200.295877123
200.263299417
200.247010565

Average distance is : 200.284 cm
Average deviation is : 0.041 cm
Block: 8
======================================
200.27958827
200.27958827
200.332527041
200.352888107
200.348815894

Average distance is : 200.319 cm
Average deviation is : 0.036 cm
Block: 9
======================================
200.312165976
200.295877123
200.348815894
200.332527041
200.332527041

Average distance is : 200.324 cm
Average deviation is : 0.021 cm
Block: 10
======================================
200.295877123
200.27958827
200.348815894
199.835717034
200.316238189

Average distance is : 200.215 cm
Average deviation is : 0.214 cm