
Block: 1
======================================
200.332527041
200.295877123
200.299949336
200.5361377
200.332527041
200.295877123
200.328454828
200.316238189
199.872366953
200.332527041
199.8560781
200.316238189
200.299949336
199.888655806
200.332527041
200.312165976
200.36917696
200.348815894
200.352888107
200.332527041
200.316238189
200.332527041
200.332527041
200.316238189
200.348815894
200.332527041
200.332527041
200.365104747
200.348815894
200.316238189
200.332527041
200.299949336
200.299949336
200.365104747
200.348815894
200.316238189
200.316238189
200.365104747
200.295877123
200.348815894
200.316238189
199.909016871
200.36917696
200.332527041
199.909016871
200.332527041
199.835717034
200.352888107
199.835717034
200.332527041
200.348815894
200.316238189
200.332527041
200.27958827
200.332527041
200.332527041
200.332527041
200.36917696
199.888655806
200.332527041
200.316238189
199.8560781
200.316238189
199.884583592
199.909016871
200.299949336
200.312165976
200.299949336
200.295877123
199.8560781
200.348815894
200.299949336
200.352888107
200.332527041
200.312165976

Average distance is : 200.258 cm
Average deviation is : 0.171 cm
Block: 2
======================================
200.332527041
200.312165976
200.295877123
200.352888107
200.348815894
200.247010565
200.299949336
200.332527041
199.888655806
200.283660483
200.299949336
200.332527041
200.332527041
200.332527041
200.328454828
200.316238189
200.690881801
200.332527041
200.267371631
200.332527041
200.316238189
200.283660483
200.385465813
200.299949336
199.852005887
200.348815894
200.299949336
200.348815894
200.348815894
200.332527041
200.312165976
200.316238189
200.316238189
200.295877123
200.299949336
200.365104747
200.299949336
200.316238189
200.295877123
200.316238189
200.332527041
200.352888107
200.312165976
200.299949336
200.299949336
200.332527041
200.27958827
200.332527041
200.332527041
200.332527041
200.365104747
200.312165976
200.316238189
200.316238189
200.332527041
200.332527041
200.283660483
200.332527041
200.316238189
200.332527041
200.328454828
200.352888107
200.332527041
200.267371631
200.316238189
200.295877123
200.316238189
200.316238189
200.299949336
200.27958827
200.316238189
200.348815894
200.332527041
200.348815894
200.760109425

Average distance is : 200.318 cm
Average deviation is : 0.103 cm
Block: 3
======================================
200.332527041
200.312165976
200.36917696
200.295877123
200.332527041
200.316238189
200.295877123
200.316238189
200.263299417
200.27958827
199.888655806
200.352888107
200.299949336
200.27958827
200.348815894
200.299949336
200.332527041
200.299949336
199.852005887
199.839789248
200.295877123
200.27958827
200.348815894
200.283660483
200.352888107
200.299949336
200.299949336
200.316238189
200.316238189
200.299949336
200.332527041
200.316238189
200.332527041
200.332527041
200.36917696
200.316238189
200.295877123
200.263299417
200.332527041
200.27958827
200.332527041
200.27958827
200.332527041
200.316238189
200.283660483
200.332527041
200.332527041
200.299949336
200.348815894
200.27958827
200.316238189
200.312165976
200.283660483
200.263299417
200.263299417
200.299949336
200.283660483
200.27958827
200.332527041
200.295877123
200.348815894
199.819428182
200.332527041
200.348815894
200.283660483
200.312165976
200.332527041
200.263299417
200.316238189
200.316238189
200.348815894
200.332527041
200.299949336
200.299949336
200.295877123

Average distance is : 200.287 cm
Average deviation is : 0.108 cm
Block: 4
======================================
200.332527041
200.283660483
200.365104747
199.8560781
200.27958827
200.316238189
200.348815894
199.872366953
200.312165976
200.332527041
200.36917696
200.283660483
200.332527041
200.332527041
200.348815894
200.332527041
200.36917696
200.316238189
200.316238189
200.332527041
200.332527041
200.352888107
200.295877123
200.283660483
200.332527041
200.332527041
200.365104747
200.352888107
200.299949336
200.27958827
200.295877123
200.316238189
200.312165976
200.316238189
199.819428182
200.299949336
200.332527041
200.27958827
200.316238189
200.316238189
200.295877123
200.348815894
200.332527041
200.295877123
200.316238189
200.312165976
200.295877123
199.839789248
200.316238189
200.27958827
200.27958827
200.299949336
200.263299417
200.283660483
200.283660483
200.312165976
199.872366953
200.316238189
200.348815894
199.872366953
200.332527041
200.332527041
200.348815894
200.332527041
200.332527041
199.872366953
200.348815894
200.283660483
200.299949336
200.299949336
200.299949336
200.352888107
200.316238189
200.332527041
199.888655806

Average distance is : 200.269 cm
Average deviation is : 0.144 cm
Block: 5
======================================
200.299949336
200.332527041
200.332527041
200.348815894
200.27958827
199.86829474
200.332527041
199.872366953
200.36917696
200.316238189
200.332527041
199.872366953
200.316238189
200.312165976
200.352888107
200.316238189
200.295877123
200.295877123
199.888655806
199.8560781
200.332527041
200.348815894
200.316238189
200.295877123
200.332527041
200.332527041
200.316238189
200.312165976
200.332527041
200.299949336
200.332527041
200.332527041
200.27958827
200.316238189
199.852005887
199.904944658
200.348815894
200.299949336
200.283660483
200.316238189
200.299949336
200.348815894
200.348815894
200.348815894
200.295877123
200.316238189
200.299949336
200.348815894
200.316238189
200.312165976
199.888655806
200.295877123
200.267371631
200.348815894
200.316238189
200.316238189
200.299949336
200.299949336
200.332527041
200.295877123
199.835717034
200.299949336
200.348815894
200.332527041
200.316238189
200.332527041
200.352888107
200.332527041
200.312165976
200.295877123
200.316238189
200.299949336
200.348815894
200.332527041
200.316238189

Average distance is : 200.266 cm
Average deviation is : 0.148 cm
Block: 6
======================================
200.332527041
200.332527041
200.365104747
199.835717034
200.352888107
200.283660483
200.299949336
200.312165976
200.283660483
200.332527041
200.348815894
200.332527041
200.295877123
200.316238189
200.312165976
200.316238189
200.316238189
200.332527041
200.312165976
200.332527041
200.312165976
200.299949336
200.312165976
200.332527041
200.299949336
200.316238189
200.27958827
200.299949336
200.332527041
200.348815894
200.348815894
200.316238189
200.332527041
200.352888107
200.283660483
200.332527041
200.332527041
200.348815894
199.872366953
200.295877123
200.332527041
200.316238189
200.332527041
200.27958827
200.27958827
200.332527041
200.348815894
200.332527041
200.332527041
200.332527041
199.872366953
200.332527041
199.819428182
200.295877123
200.332527041
200.352888107
200.299949336
200.316238189
200.332527041
200.316238189
200.385465813
200.316238189
200.332527041
200.295877123
200.316238189
200.332527041
200.312165976
199.8560781
200.316238189
200.332527041
200.332527041
200.295877123
200.316238189
200.299949336
200.316238189

Average distance is : 200.290 cm
Average deviation is : 0.120 cm
Block: 7
======================================
199.888655806
200.27958827
200.316238189
200.348815894
200.299949336
200.299949336
200.332527041
200.348815894
200.312165976
200.332527041
200.295877123
200.352888107
200.348815894
200.332527041
200.312165976
200.348815894
200.295877123
200.295877123
200.332527041
200.348815894
200.365104747
200.348815894
200.283660483
200.332527041
200.348815894
200.36917696
200.27958827
200.348815894
200.332527041
200.332527041
200.316238189
200.295877123
200.348815894
200.316238189
200.36917696
200.348815894
200.332527041
200.36917696
200.332527041
200.316238189
200.332527041
200.348815894
200.348815894
199.904944658
199.86829474
200.332527041
200.365104747
200.316238189
200.348815894
200.3813936
200.316238189
200.332527041
200.332527041
200.316238189
199.888655806
200.316238189
200.352888107
200.348815894
200.316238189
200.365104747
200.316238189
200.332527041
200.316238189
200.316238189
200.332527041
200.348815894
200.332527041
200.316238189
200.295877123
199.888655806
200.332527041
200.316238189
200.316238189
200.316238189
200.316238189

Average distance is : 200.300 cm
Average deviation is : 0.113 cm
Block: 8
======================================
200.316238189
200.316238189
200.299949336
200.283660483
200.263299417
200.332527041
200.312165976
200.283660483
200.27958827
200.332527041
199.872366953
200.312165976
200.27958827
200.332527041
200.316238189
200.332527041
200.348815894
200.299949336
200.316238189
200.332527041
200.27958827
200.263299417
200.316238189
200.332527041
200.348815894
200.316238189
200.27958827
200.332527041
200.299949336
200.263299417
200.295877123
200.27958827
200.299949336
200.295877123
200.316238189
200.283660483
200.27958827
199.819428182
200.316238189
200.332527041
200.332527041
200.316238189
200.316238189
199.835717034
200.332527041
200.283660483
200.295877123
199.888655806
200.27958827
200.27958827
200.283660483
200.332527041
200.316238189
200.348815894
200.316238189
200.365104747
200.27958827
200.348815894
199.852005887
199.8560781
200.348815894
200.332527041
200.312165976
199.852005887
200.332527041
200.312165976
200.332527041
200.267371631
200.316238189
200.348815894
200.316238189
200.332527041
200.36917696
200.27958827
200.332527041

Average distance is : 200.269 cm
Average deviation is : 0.137 cm
Block: 9
======================================
200.247010565
200.348815894
200.348815894
200.316238189
200.312165976
200.316238189
200.295877123
200.263299417
200.27958827
200.332527041
200.316238189
200.316238189
200.283660483
200.299949336
199.852005887
200.332527041
200.316238189
200.27958827
200.348815894
200.312165976
200.27958827
200.316238189
200.27958827
200.295877123
200.332527041
200.316238189
200.316238189
200.295877123
200.332527041
200.332527041
200.299949336
200.348815894
200.348815894
200.299949336
200.295877123
200.27958827
200.332527041
200.316238189
200.332527041
200.316238189
200.283660483
200.332527041
199.852005887
199.839789248
200.348815894
200.316238189
200.332527041
200.352888107
200.332527041
200.352888107
200.316238189
200.332527041
200.332527041
200.348815894
200.316238189
200.348815894
200.332527041
200.36917696
200.27958827
200.312165976
200.316238189
200.316238189
200.316238189
199.819428182
200.348815894
200.295877123
200.283660483
200.332527041
200.332527041
200.365104747
200.316238189
200.348815894
200.316238189
200.27958827
200.332527041

Average distance is : 200.293 cm
Average deviation is : 0.111 cm
Block: 10
======================================
200.295877123
200.299949336
200.365104747
200.27958827
200.283660483
200.332527041
200.332527041
199.872366953
200.332527041
200.316238189
200.348815894
200.316238189
200.316238189
200.263299417
200.316238189
199.819428182
199.904944658
200.27958827
200.332527041
200.27958827
200.316238189
200.299949336
200.283660483
199.839789248
200.27958827
200.332527041
200.332527041
200.348815894
199.86829474
200.348815894
200.27958827
200.316238189
200.27958827
200.299949336
200.332527041
200.316238189
200.316238189
200.348815894
199.823500395
200.295877123
200.316238189
200.332527041
200.295877123
200.295877123
199.888655806
200.295877123
200.27958827
200.332527041
200.299949336
200.348815894
199.852005887
200.348815894
200.283660483
200.295877123
200.332527041
200.316238189
200.332527041
200.295877123
200.267371631
200.316238189
200.316238189
200.295877123
200.316238189
200.283660483
200.332527041
200.299949336
200.316238189
200.299949336
199.888655806
200.348815894
199.835717034
200.352888107
200.332527041
200.299949336
200.295877123

Average distance is : 200.252 cm
Average deviation is : 0.157 cm