
Block: 1
======================================
100.421091914
100.817572474
100.817572474
100.404571891
100.850612521
100.817572474
100.801052451
100.817572474
100.784532428
101.024072766
100.801052451
100.801052451
100.784532428
100.813442469
101.267743111
100.400441885
100.383921862
100.421091914
100.801052451
100.400441885
100.834092498
100.416961908
100.383921862
100.367401838
100.796922445
100.784532428
101.680743694
100.801052451
100.801052451
101.197533011
100.813442469
100.780402422
101.6848737
100.763882399
100.817572474
100.350881815
100.346751809
100.796922445
100.801052451
100.416961908
100.404571891
100.817572474
100.801052451
100.817572474
100.437611938
101.267743111
100.796922445
100.817572474
100.367401838
100.400441885
100.400441885
100.780402422
100.817572474
100.433481932
100.437611938
100.796922445
101.6848737
100.801052451
101.267743111
100.801052451
101.701393723
100.796922445
100.416961908
100.383921862
100.817572474
100.383921862
100.784532428
100.801052451
100.813442469
100.801052451
100.817572474
100.813442469
100.437611938
100.383921862
100.780402422
101.333823204
100.416961908
100.780402422
100.784532428
100.834092498
100.763882399
101.218183041
100.780402422
100.784532428
100.801052451
100.834092498
100.400441885
100.400441885
100.801052451
100.813442469
100.817572474
100.817572474
100.400441885
100.834092498
100.817572474
100.400441885
101.267743111
101.267743111
100.796922445
100.801052451

Block: 2
======================================
100.784532428
100.801052451
101.284263134
100.400441885
100.763882399
100.784532428
101.247093081
100.801052451
100.801052451
100.780402422
100.801052451
101.263613105
100.796922445
101.680743694
101.668353677
100.400441885
100.834092498
100.801052451
100.817572474
100.421091914
100.437611938
100.421091914
100.400441885
100.784532428
100.383921862
100.367401838
100.367401838
100.400441885
100.363271832
100.784532428
100.801052451
100.780402422
100.801052451
100.817572474
100.400441885
100.383921862
100.367401838
100.780402422
101.680743694
100.813442469
101.267743111
100.801052451
100.817572474
101.647703648
101.197533011
100.780402422
100.780402422
100.780402422
100.416961908
100.817572474
100.817572474
100.400441885
101.267743111
100.780402422
101.267743111
100.780402422
100.801052451
101.181012988
100.817572474
100.784532428
101.230573058
100.780402422
100.796922445
100.367401838
100.367401838
100.817572474
100.817572474
100.763882399
100.817572474
100.817572474
100.817572474
101.251223087
100.437611938
101.230573058
101.668353677
101.680743694
100.383921862
100.817572474
100.784532428
100.796922445
100.768012404
100.796922445
100.796922445
100.834092498
100.763882399
100.817572474
100.421091914
101.247093081
101.247093081
101.214053035
100.784532428
100.817572474
100.780402422
100.817572474
100.801052451
100.780402422
100.801052451
100.784532428
101.251223087
101.214053035

Block: 3
======================================
100.416961908
100.817572474
101.234703064
100.813442469
100.817572474
101.230573058
101.251223087
100.404571891
100.437611938
100.784532428
100.416961908
100.801052451
101.247093081
101.251223087
100.780402422
100.383921862
100.817572474
100.784532428
100.834092498
101.251223087
101.251223087
100.780402422
100.784532428
100.416961908
100.383921862
100.400441885
100.421091914
100.817572474
100.813442469
100.817572474
100.801052451
100.780402422
100.768012404
100.780402422
100.784532428
100.763882399
100.780402422
100.801052451
101.251223087
100.437611938
101.230573058
101.267743111
100.850612521
100.416961908
100.437611938
101.230573058
100.834092498
100.784532428
100.801052451
101.234703064
100.796922445
100.763882399
101.267743111
100.421091914
100.421091914
101.664223671
100.801052451
100.416961908
100.817572474
100.379791856
100.801052451
100.780402422
100.817572474
100.780402422
100.817572474
100.763882399
100.763882399
101.668353677
101.284263134
101.267743111
100.784532428
100.780402422
100.817572474
100.834092498
100.383921862
100.784532428
101.267743111
100.400441885
101.251223087
101.6848737
100.801052451
100.400441885
100.404571891
101.234703064
100.780402422
100.400441885
100.817572474
100.834092498
100.817572474
101.354473233
101.197533011
100.796922445
100.801052451
101.247093081
100.400441885
100.801052451
100.817572474
100.801052451
100.780402422
100.834092498

Block: 4
======================================
100.796922445
100.834092498
101.697263718
100.780402422
100.784532428
101.230573058
101.251223087
100.416961908
100.400441885
100.763882399
100.416961908
100.784532428
101.267743111
100.416961908
100.801052451
100.383921862
100.784532428
100.383921862
100.784532428
100.796922445
100.801052451
100.796922445
100.817572474
100.763882399
100.796922445
100.780402422
100.416961908
100.421091914
101.267743111
101.284263134
101.267743111
100.437611938
101.267743111
100.780402422
100.801052451
100.801052451
100.383921862
100.383921862
101.251223087
101.230573058
101.263613105
100.416961908
101.234703064
100.400441885
100.367401838
100.817572474
100.834092498
101.197533011
100.801052451
100.974512696
100.400441885
100.454131961
100.817572474
100.780402422
101.251223087
101.701393723
100.838222504
100.400441885
100.796922445
100.801052451
100.817572474
100.780402422
100.817572474
101.6848737
101.6848737
101.28839314
101.251223087
101.267743111
100.801052451
101.697263718
100.367401838
100.784532428
100.796922445
100.801052451
100.784532428
100.801052451
101.251223087
101.267743111
100.421091914
101.284263134
100.763882399
100.784532428
100.834092498
100.780402422
100.817572474
100.801052451
100.780402422
101.234703064
100.817572474
101.247093081
100.421091914
100.416961908
100.416961908
101.214053035
100.817572474
100.796922445
100.801052451
100.796922445
101.247093081
100.416961908

Block: 5
======================================
100.834092498
100.796922445
101.267743111
100.801052451
100.763882399
100.763882399
100.796922445
100.784532428
100.801052451
100.817572474
100.817572474
100.416961908
100.801052451
100.817572474
100.834092498
100.817572474
100.817572474
101.251223087
101.234703064
100.437611938
100.416961908
100.416961908
100.437611938
100.421091914
101.251223087
100.421091914
100.813442469
100.817572474
100.784532428
100.801052451
100.763882399
101.267743111
101.717913747
100.763882399
100.834092498
100.850612521
100.383921862
100.801052451
101.247093081
100.437611938
101.247093081
100.784532428
100.763882399
100.780402422
100.817572474
100.834092498
100.796922445
100.780402422
100.817572474
100.801052451
101.234703064
100.400441885
100.400441885
100.421091914
100.433481932
100.796922445
100.817572474
100.801052451
100.817572474
101.247093081
100.383921862
101.647703648
100.454131961
101.234703064
101.664223671
100.416961908
101.267743111
100.801052451
100.801052451
100.784532428
100.834092498
100.817572474
100.383921862
100.784532428
100.801052451
101.6848737
100.416961908
101.251223087
100.780402422
100.433481932
100.421091914
100.437611938
100.780402422
100.834092498
100.796922445
100.801052451
100.834092498
101.267743111
101.230573058
100.813442469
101.218183041
100.796922445
100.817572474
100.780402422
100.780402422
100.801052451
100.796922445
100.817572474
100.834092498
100.796922445

Block: 6
======================================
100.796922445
100.763882399
101.197533011
100.834092498
100.363271832
100.817572474
100.801052451
100.796922445
100.400441885
100.784532428
100.784532428
100.801052451
100.834092498
100.763882399
100.801052451
101.284263134
101.234703064
100.416961908
100.416961908
100.416961908
100.817572474
100.834092498
100.404571891
100.834092498
100.796922445
100.367401838
100.363271832
100.817572474
100.780402422
100.801052451
101.251223087
101.214053035
101.181012988
101.251223087
100.421091914
100.416961908
100.421091914
100.780402422
100.780402422
101.267743111
101.061242819
100.801052451
100.801052451
100.801052451
100.780402422
100.780402422
100.817572474
100.801052451
101.218183041
101.664223671
101.197533011
100.763882399
101.197533011
100.796922445
100.796922445
100.801052451
100.768012404
100.780402422
101.284263134
101.251223087
101.251223087
101.214053035
100.801052451
100.801052451
100.817572474
100.784532428
100.834092498
100.796922445
100.801052451
100.784532428
100.796922445
100.817572474
100.768012404
100.817572474
100.801052451
101.214053035
100.796922445
101.218183041
100.817572474
100.801052451
100.367401838
100.780402422
100.400441885
100.817572474
100.801052451
100.796922445
101.267743111
100.780402422
100.796922445
100.801052451
100.801052451
100.817572474
100.383921862
100.383921862
100.834092498
100.367401838
100.817572474
100.416961908
100.817572474
100.801052451

Block: 7
======================================
100.801052451
100.817572474
101.094282866
100.801052451
100.780402422
101.284263134
100.796922445
100.784532428
101.197533011
100.801052451
101.230573058
101.6848737
101.680743694
100.780402422
100.817572474
100.383921862
100.780402422
101.197533011
100.801052451
101.697263718
101.251223087
101.247093081
101.234703064
101.251223087
100.817572474
100.796922445
100.796922445
100.796922445
100.801052451
100.780402422
100.796922445
100.784532428
101.680743694
101.263613105
100.796922445
100.383921862
100.801052451
100.801052451
100.763882399
100.768012404
100.763882399
100.834092498
100.784532428
100.421091914
100.801052451
100.834092498
100.801052451
100.838222504
101.267743111
100.421091914
100.834092498
101.284263134
100.780402422
100.817572474
100.817572474
100.817572474
100.834092498
101.267743111
100.416961908
100.437611938
101.247093081
101.668353677
101.251223087
100.801052451
100.780402422
101.247093081
100.801052451
100.784532428
100.780402422
100.780402422
100.817572474
100.768012404
101.664223671
101.267743111
101.247093081
100.644112229
100.763882399
100.817572474
100.383921862
100.784532428
100.801052451
100.834092498
100.780402422
100.796922445
100.801052451
100.801052451
101.6848737
100.780402422
101.251223087
100.784532428
100.801052451
100.813442469
100.834092498
100.817572474
100.817572474
100.817572474
100.850612521
100.801052451
100.763882399
100.801052451

Block: 8
======================================
100.817572474
100.817572474
100.421091914
100.801052451
100.796922445
100.801052451
100.801052451
100.437611938
100.801052451
100.416961908
100.416961908
100.416961908
100.433481932
101.234703064
100.817572474
100.834092498
101.251223087
100.817572474
100.801052451
100.784532428
100.813442469
100.801052451
100.780402422
101.251223087
101.234703064
101.284263134
100.433481932
101.267743111
101.267743111
101.263613105
101.218183041
100.813442469
100.834092498
100.834092498
100.400441885
100.817572474
100.400441885
100.817572474
100.817572474
100.780402422
100.784532428
100.780402422
100.834092498
100.400441885
100.801052451
100.400441885
100.817572474
100.383921862
100.801052451
100.421091914
100.383921862
100.421091914
100.850612521
101.251223087
100.400441885
100.421091914
100.416961908
100.400441885
100.801052451
100.784532428
100.817572474
100.780402422
100.801052451
100.883652568
100.421091914
100.433481932
101.6848737
100.383921862
100.801052451
100.796922445
100.801052451
100.784532428
100.768012404
100.367401838
100.834092498
100.796922445
100.801052451
100.796922445
101.251223087
100.416961908
101.267743111
101.267743111
100.383921862
100.817572474
100.834092498
100.801052451
100.813442469
100.363271832
100.780402422
100.383921862
100.780402422
100.801052451
101.230573058
100.404571891
100.813442469
100.784532428
100.796922445
100.801052451
100.780402422
100.801052451

Block: 9
======================================
100.416961908
100.801052451
101.247093081
100.400441885
100.817572474
101.267743111
101.251223087
100.416961908
101.214053035
100.416961908
101.267743111
101.234703064
101.214053035
101.251223087
100.784532428
100.383921862
100.780402422
100.834092498
100.780402422
100.780402422
100.784532428
100.801052451
100.400441885
100.350881815
100.780402422
100.801052451
101.251223087
100.780402422
100.801052451
101.664223671
101.267743111
100.780402422
101.6848737
100.817572474
100.780402422
100.838222504
100.784532428
100.763882399
100.801052451
100.817572474
100.801052451
100.817572474
100.796922445
100.796922445
100.404571891
101.284263134
101.197533011
101.680743694
100.780402422
101.251223087
100.796922445
101.664223671
100.817572474
100.801052451
100.416961908
100.454131961
101.247093081
101.267743111
100.383921862
100.363271832
100.383921862
100.367401838
100.796922445
100.421091914
100.400441885
101.6848737
101.701393723
101.284263134
101.218183041
100.780402422
100.801052451
100.350881815
100.763882399
100.780402422
100.784532428
100.813442469
101.267743111
100.433481932
101.267743111
101.267743111
101.717913747
101.284263134
101.664223671
101.680743694
100.817572474
101.6848737
100.796922445
101.218183041
101.230573058
101.267743111
100.813442469
100.383921862
101.251223087
100.801052451
100.801052451
101.230573058
100.437611938
100.801052451
100.780402422
101.267743111

Block: 10
======================================
100.801052451
100.817572474
101.251223087
100.784532428
100.834092498
100.433481932
100.801052451
100.433481932
101.251223087
101.251223087
100.813442469
100.796922445
100.834092498
100.801052451
100.801052451
100.801052451
100.801052451
101.214053035
100.780402422
100.400441885
101.680743694
100.784532428
100.801052451
100.784532428
100.383921862
100.400441885
100.383921862
100.834092498
100.780402422
100.796922445
100.784532428
100.796922445
100.834092498
100.400441885
101.230573058
101.267743111
100.784532428
100.400441885
101.230573058
101.267743111
101.251223087
101.267743111
101.267743111
100.817572474
100.817572474
100.834092498
100.834092498
100.850612521
101.6848737
101.267743111
100.801052451
100.796922445
101.267743111
100.801052451
101.267743111
100.817572474
101.664223671
100.801052451
100.400441885
101.214053035
101.263613105
100.801052451
101.251223087
101.234703064
101.697263718
100.813442469
101.267743111
101.267743111
101.267743111
101.647703648
101.267743111
100.416961908
101.6848737
101.267743111
101.267743111
101.234703064
100.817572474
100.780402422
100.383921862
100.801052451
100.796922445
100.763882399
100.437611938
100.416961908
100.437611938
101.267743111
100.437611938
100.450001955
101.668353677
101.251223087
101.267743111
101.267743111
100.801052451
100.784532428
101.284263134
100.801052451
100.383921862
100.404571891
100.801052451
100.834092498
