
Block: 1
======================================
200.299949336
203.101631999
200.760109425
200.760109425
201.647851896

Average distance is : 201.314 cm
Average deviation is : 1.112 cm
Block: 2
======================================
200.352888107
200.365104747
200.79268713
200.79268713
200.813048196

Average distance is : 200.623 cm
Average deviation is : 0.241 cm
Block: 3
======================================
201.220269513
200.760109425
201.252847219
200.776398277
200.845625901

Average distance is : 200.971 cm
Average deviation is : 0.245 cm
Block: 4
======================================
201.236558366
201.252847219
201.273208284
200.796759343
201.256919432

Average distance is : 201.163 cm
Average deviation is : 0.205 cm
Block: 5
======================================
200.365104747
201.269136071
200.845625901
200.845625901
200.348815894

Average distance is : 200.735 cm
Average deviation is : 0.386 cm
Block: 6
======================================
200.808975983
200.829337049
200.829337049
200.418043518
200.845625901

Average distance is : 200.746 cm
Average deviation is : 0.184 cm
Block: 7
======================================
200.385465813
200.401754665
200.401754665
200.3813936
200.79268713

Average distance is : 200.473 cm
Average deviation is : 0.179 cm
Block: 8
======================================
200.401754665
200.401754665
201.236558366
201.273208284
200.401754665

Average distance is : 200.743 cm
Average deviation is : 0.467 cm
Block: 9
======================================
201.273208284
200.760109425
200.776398277
201.220269513
200.825264835

Average distance is : 200.971 cm
Average deviation is : 0.253 cm
Block: 10
======================================
201.252847219
201.256919432
201.252847219
201.289497137
200.813048196

Average distance is : 201.173 cm
Average deviation is : 0.202 cm
Block: 1
======================================
199.786850476
199.803139329
199.823500395
199.819428182
200.690881801

Average distance is : 199.985 cm
Average deviation is : 0.395 cm
Block: 2
======================================
200.739748359
200.690881801
200.247010565
200.283660483
200.247010565

Average distance is : 200.442 cm
Average deviation is : 0.251 cm
Block: 3
======================================
200.674592948
200.674592948
200.690881801
200.707170653
199.835717034

Average distance is : 200.517 cm
Average deviation is : 0.381 cm
Block: 4
======================================
199.782778263
199.823500395
199.803139329
199.803139329
199.803139329

Average distance is : 199.803 cm
Average deviation is : 0.014 cm
Block: 5
======================================
199.803139329
199.839789248
199.786850476
199.786850476
199.819428182

Average distance is : 199.807 cm
Average deviation is : 0.023 cm
Block: 6
======================================
200.707170653
200.247010565
200.707170653
200.711242867
200.707170653

Average distance is : 200.616 cm
Average deviation is : 0.206 cm
Block: 7
======================================
200.707170653
201.118464184
200.707170653
199.819428182
200.727531719

Average distance is : 200.616 cm
Average deviation is : 0.479 cm
Block: 8
======================================
199.823500395
199.835717034
199.835717034
200.690881801
199.839789248

Average distance is : 200.005 cm
Average deviation is : 0.383 cm
Block: 9
======================================
199.819428182
199.803139329
200.263299417
199.819428182
199.819428182

Average distance is : 199.905 cm
Average deviation is : 0.200 cm
Block: 10
======================================
200.230721712
200.727531719
200.694954014
200.707170653
200.674592948

Average distance is : 200.607 cm
Average deviation is : 0.211 cm