
Block: 1
======================================
200.727531719
200.295877123
200.723459506
200.263299417
200.283660483
200.267371631
201.171402955
200.27958827
200.295877123
201.171402955

Block: 2
======================================
200.690881801
200.776398277
201.187691808
200.263299417
201.20398066
200.813048196
201.187691808
201.20398066
200.808975983
201.183619595

Block: 3
======================================
200.825264835
200.27958827
200.776398277
200.27958827
201.183619595
200.727531719
201.167330742
201.134753036
200.27958827
201.155114102

Block: 4
======================================
201.187691808
200.690881801
200.27958827
200.808975983
200.690881801
200.760109425
200.263299417
200.723459506
200.723459506
201.134753036

Block: 5
======================================
200.316238189
201.151041889
201.118464184
200.707170653
201.171402955
201.167330742
201.171402955
200.776398277
201.167330742
200.723459506

Block: 6
======================================
200.707170653
200.808975983
200.283660483
200.299949336
200.690881801
201.151041889
200.711242867
200.707170653
201.134753036
201.187691808

Block: 7
======================================
201.171402955
201.20398066
200.658304095
200.690881801
200.690881801
201.118464184
201.151041889
200.727531719
201.151041889
201.134753036

Block: 8
======================================
200.79268713
200.263299417
201.134753036
201.098103118
200.723459506
200.727531719
200.263299417
200.707170653
200.690881801
200.348815894

Block: 9
======================================
200.707170653
200.690881801
201.167330742
200.723459506
200.707170653
200.723459506
200.690881801
200.739748359
201.171402955
201.151041889

Block: 10
======================================
200.283660483
200.348815894
200.263299417
200.776398277
201.167330742
201.155114102
200.79268713
201.171402955
201.187691808
200.283660483
