
Block: 1
======================================
200.214432859
200.690881801
201.151041889
200.690881801
201.134753036
200.263299417
200.263299417
200.79268713
200.743820572
200.210360646
200.267371631
200.214432859
200.263299417
200.230721712
200.690881801
200.674592948
200.723459506
200.707170653
200.247010565
200.247010565
200.690881801
200.263299417
200.690881801
200.711242867
200.690881801
200.711242867
200.263299417
200.27958827
200.674592948
200.776398277
200.27958827
200.251082778
200.247010565
200.727531719
200.247010565
200.247010565
200.690881801
200.690881801
200.247010565
200.214432859
200.707170653
200.247010565
200.247010565
200.670520735
200.707170653
200.707170653
200.690881801
201.151041889
200.727531719
200.674592948
200.247010565
200.743820572
200.690881801
200.247010565
200.694954014
200.707170653
200.247010565
200.690881801
200.707170653
200.690881801
200.247010565
200.230721712
200.283660483
201.155114102
200.690881801
200.654231882
200.658304095
200.674592948
200.690881801
200.230721712
200.690881801
200.707170653
200.707170653
200.247010565
200.690881801
200.670520735
200.690881801
200.707170653
200.263299417
200.707170653
200.263299417
200.263299417
200.230721712
200.247010565
200.674592948
200.674592948
200.690881801
200.226649499
200.230721712
200.707170653
200.760109425
200.247010565
200.214432859
200.760109425
200.316238189
200.230721712
200.247010565
201.118464184
200.776398277
200.247010565

Average distance is : 200.529 cm
Average deviation is : 0.264 cm
Block: 2
======================================
200.226649499
200.230721712
200.230721712
200.263299417
200.312165976
200.316238189
201.118464184
200.263299417
200.247010565
200.299949336
201.118464184
200.230721712
201.102175331
200.743820572
200.743820572
201.114391971
200.226649499
201.118464184
200.283660483
200.230721712
200.711242867
200.674592948
200.230721712
200.247010565
200.210360646
200.210360646
200.230721712
200.214432859
200.247010565
200.210360646
200.247010565
200.230721712
200.299949336
200.214432859
200.226649499
200.230721712
200.247010565
200.230721712
200.214432859
200.776398277
201.134753036
200.295877123
200.27958827
200.214432859
200.198144007
200.263299417
200.760109425
200.299949336
201.118464184
201.118464184
200.247010565
200.214432859
200.247010565
201.098103118
200.267371631
200.299949336
200.711242867
201.118464184
200.263299417
200.230721712
200.723459506
201.118464184
201.102175331
200.690881801
200.670520735
200.654231882
200.776398277
201.098103118
201.13882525
200.658304095
200.230721712
200.654231882
200.210360646
201.114391971
200.674592948
201.102175331
200.230721712
200.27958827
201.102175331
200.654231882
200.210360646
200.658304095
201.151041889
200.230721712
200.743820572
200.743820572
200.230721712
200.27958827
201.118464184
201.118464184
201.098103118
201.118464184
200.776398277
201.102175331
201.134753036
200.690881801
201.118464184
200.670520735
201.13882525
201.118464184

Average distance is : 200.582 cm
Average deviation is : 0.375 cm
Block: 3
======================================
201.118464184
200.743820572
200.690881801
201.102175331
200.247010565
200.674592948
201.118464184
200.642015243
200.62572639
200.642015243
201.151041889
201.114391971
200.658304095
200.674592948
201.114391971
200.674592948
200.658304095
201.134753036
200.654231882
201.085886478
200.642015243
200.637943029
200.658304095
200.637943029
200.674592948
200.674592948
200.654231882
201.102175331
200.658304095
201.081814265
201.134753036
201.098103118
201.171402955
200.642015243
200.674592948
200.654231882
200.198144007
200.181855154
200.658304095
200.214432859
200.674592948
200.658304095
200.743820572
200.658304095
200.658304095
200.658304095
200.658304095
201.102175331
200.654231882
201.183619595
200.214432859
200.707170653
200.194071794
200.658304095
200.642015243
200.690881801
200.642015243
200.658304095
200.621654177
200.654231882
200.654231882
200.637943029
200.723459506
200.214432859
200.177782941
200.654231882
200.654231882
200.654231882
200.194071794
200.654231882
200.690881801
200.198144007
200.658304095
200.637943029
200.654231882
200.637943029
200.247010565
200.299949336
200.658304095
200.674592948
200.674592948
201.13882525
200.251082778
200.674592948
200.674592948
201.13882525
200.674592948
200.637943029
200.658304095
200.674592948
201.118464184
200.658304095
201.118464184
201.118464184
200.177782941
200.637943029
200.658304095
201.118464184
201.118464184
201.118464184

Average distance is : 200.705 cm
Average deviation is : 0.276 cm
Block: 4
======================================
201.102175331
200.739748359
201.134753036
200.743820572
200.194071794
200.658304095
200.642015243
200.694954014
200.654231882
200.210360646
200.674592948
200.654231882
200.214432859
201.098103118
201.134753036
200.194071794
201.102175331
200.642015243
201.118464184
200.263299417
200.194071794
200.198144007
200.654231882
200.226649499
200.654231882
200.658304095
201.118464184
200.263299417
200.690881801
201.118464184
201.118464184
200.283660483
200.247010565
200.760109425
201.118464184
201.134753036
200.654231882
200.637943029
200.658304095
201.151041889
200.658304095
200.658304095
201.118464184
200.658304095
200.642015243
201.118464184
200.226649499
200.743820572
200.743820572
201.134753036
200.796759343
201.118464184
200.760109425
200.690881801
200.247010565
200.723459506
200.674592948
200.247010565
200.723459506
200.230721712
200.674592948
200.776398277
200.760109425
201.102175331
200.690881801
200.247010565
200.263299417
200.776398277
200.230721712
200.210360646
200.743820572
200.210360646
200.711242867
200.214432859
200.739748359
200.214432859
200.214432859
201.118464184
201.118464184
200.743820572
201.118464184
201.085886478
201.085886478
200.210360646
200.230721712
200.230721712
200.210360646
200.658304095
200.707170653
200.760109425
200.267371631
200.226649499
200.711242867
200.760109425
200.727531719
200.214432859
200.760109425
201.102175331
201.134753036
201.102175331

Average distance is : 200.664 cm
Average deviation is : 0.333 cm
Block: 5
======================================
200.198144007
200.198144007
200.739748359
201.098103118
200.658304095
200.230721712
200.230721712
200.226649499
200.230721712
200.776398277
200.247010565
200.226649499
200.27958827
200.230721712
200.230721712
200.230721712
200.27958827
200.295877123
200.299949336
200.760109425
200.711242867
200.226649499
200.214432859
200.226649499
200.27958827
200.295877123
200.214432859
200.230721712
200.226649499
200.210360646
200.210360646
200.230721712
200.230721712
200.247010565
200.658304095
201.134753036
201.118464184
201.118464184
200.658304095
200.760109425
201.134753036
201.134753036
201.118464184
200.674592948
200.658304095
201.118464184
200.760109425
201.098103118
201.102175331
200.263299417
201.118464184
200.642015243
201.118464184
200.756037211
200.214432859
200.723459506
200.707170653
200.247010565
200.760109425
201.114391971
201.102175331
200.743820572
200.194071794
200.214432859
200.247010565
200.776398277
200.295877123
200.247010565
200.214432859
200.247010565
200.283660483
200.230721712
200.690881801
200.247010565
200.756037211
200.690881801
200.214432859
200.674592948
200.247010565
200.739748359
201.134753036
200.226649499
200.711242867
200.690881801
200.247010565
200.756037211
200.760109425
200.247010565
200.247010565
201.134753036
201.118464184
200.316238189
200.299949336
201.118464184
200.230721712
201.118464184
200.263299417
200.263299417
200.230721712
200.707170653

Average distance is : 200.542 cm
Average deviation is : 0.349 cm
Block: 6
======================================
201.081814265
200.230721712
200.247010565
200.674592948
200.743820572
201.134753036
200.230721712
200.674592948
200.230721712
201.134753036
200.247010565
200.739748359
200.654231882
200.230721712
200.247010565
200.194071794
200.690881801
200.214432859
200.711242867
200.214432859
200.247010565
201.134753036
200.210360646
201.114391971
200.27958827
200.247010565
201.134753036
201.134753036
200.727531719
200.247010565
200.299949336
200.727531719
201.118464184
200.711242867
201.102175331
200.674592948
201.118464184
201.118464184
200.230721712
200.263299417
200.247010565
201.102175331
200.263299417
200.776398277
200.247010565
200.210360646
201.151041889
201.134753036
200.230721712
200.247010565
200.263299417
200.776398277
200.247010565
200.267371631
200.230721712
200.263299417
200.210360646
200.263299417
200.27958827
200.247010565
200.283660483
200.316238189
200.299949336
201.134753036
201.118464184
200.27958827
200.247010565
200.247010565
200.316238189
200.247010565
200.247010565
201.134753036
200.267371631
200.27958827
200.247010565
200.247010565
200.690881801
201.118464184
200.247010565
200.230721712
200.674592948
201.134753036
200.230721712
200.723459506
200.283660483
200.743820572
201.081814265
200.226649499
201.098103118
200.247010565
200.316238189
200.658304095
200.674592948
200.760109425
201.118464184
200.776398277
200.210360646
200.230721712
201.102175331
200.756037211

Average distance is : 200.553 cm
Average deviation is : 0.364 cm
Block: 7
======================================
201.102175331
200.267371631
200.743820572
200.27958827
201.102175331
200.230721712
200.658304095
201.118464184
200.295877123
200.658304095
200.658304095
200.658304095
200.658304095
201.134753036
200.214432859
200.214432859
200.210360646
200.670520735
200.295877123
200.654231882
201.102175331
200.642015243
200.658304095
200.658304095
201.118464184
200.642015243
200.247010565
200.743820572
200.760109425
201.118464184
200.316238189
201.118464184
201.134753036
200.247010565
201.102175331
201.085886478
200.637943029
200.210360646
200.295877123
201.578624272
200.230721712
201.098103118
200.295877123
201.102175331
201.134753036
200.263299417
201.118464184
200.690881801
201.102175331
200.230721712
201.134753036
200.210360646
200.727531719
200.316238189
200.739748359
200.230721712
201.098103118
200.247010565
200.299949336
201.098103118
201.102175331
201.102175331
201.081814265
201.102175331
201.098103118
200.760109425
201.118464184
200.198144007
200.658304095
200.283660483
201.102175331
200.654231882
201.102175331
200.743820572
200.27958827
200.263299417
200.658304095
200.642015243
201.118464184
200.230721712
200.658304095
201.098103118
200.637943029
200.621654177
200.658304095
201.118464184
200.743820572
200.621654177
200.658304095
201.118464184
200.642015243
200.739748359
200.642015243
201.118464184
200.247010565
200.739748359
200.230721712
200.743820572
201.118464184
200.674592948

Average distance is : 200.707 cm
Average deviation is : 0.351 cm
Block: 8
======================================
200.247010565
200.230721712
200.27958827
200.214432859
200.210360646
200.230721712
200.739748359
200.247010565
200.230721712
200.299949336
200.283660483
200.230721712
200.267371631
200.316238189
201.085886478
200.760109425
200.316238189
201.118464184
200.283660483
201.134753036
200.743820572
200.230721712
200.283660483
200.283660483
200.658304095
201.102175331
200.739748359
200.247010565
200.214432859
200.247010565
200.690881801
200.230721712
200.214432859
200.674592948
201.134753036
200.263299417
201.102175331
200.247010565
201.134753036
201.13882525
200.674592948
200.230721712
200.230721712
200.299949336
201.118464184
200.332527041
200.674592948
201.118464184
200.760109425
201.102175331
200.263299417
200.743820572
201.118464184
201.102175331
201.118464184
200.658304095
201.118464184
201.118464184
200.267371631
200.760109425
200.263299417
200.247010565
200.214432859
200.230721712
200.723459506
201.098103118
200.230721712
200.743820572
200.230721712
200.247010565
200.247010565
200.226649499
201.236558366
200.690881801
200.194071794
200.214432859
200.247010565
200.739748359
200.743820572
200.316238189
200.295877123
200.226649499
200.210360646
200.226649499
200.194071794
200.299949336
200.247010565
200.247010565
200.230721712
200.263299417
201.118464184
200.247010565
200.230721712
200.247010565
200.690881801
200.214432859
200.247010565
200.230721712
200.247010565
200.316238189

Average distance is : 200.504 cm
Average deviation is : 0.351 cm
Block: 9
======================================
200.654231882
200.316238189
200.348815894
200.690881801
200.739748359
200.283660483
200.707170653
200.214432859
200.316238189
200.299949336
200.226649499
200.27958827
201.134753036
200.295877123
201.118464184
200.312165976
200.756037211
200.226649499
200.247010565
200.214432859
200.247010565
200.230721712
200.194071794
200.299949336
200.690881801
200.230721712
200.295877123
200.230721712
200.214432859
200.198144007
200.230721712
200.230721712
200.674592948
200.743820572
200.707170653
200.690881801
200.198144007
200.230721712
200.690881801
200.247010565
200.299949336
201.134753036
200.299949336
200.230721712
200.226649499
200.743820572
200.247010565
200.247010565
201.118464184
200.230721712
200.177782941
200.230721712
201.134753036
200.230721712
201.118464184
200.247010565
200.295877123
200.658304095
200.316238189
200.263299417
200.674592948
200.226649499
200.230721712
200.230721712
200.214432859
200.756037211
200.637943029
200.637943029
201.13882525
201.134753036
200.214432859
200.27958827
200.267371631
200.316238189
200.658304095
200.658304095
200.299949336
200.299949336
201.118464184
201.085886478
201.118464184
200.247010565
200.283660483
201.134753036
200.760109425
201.102175331
201.098103118
200.743820572
200.674592948
200.637943029
200.654231882
200.637943029
200.263299417
201.151041889
200.658304095
201.118464184
201.118464184
201.118464184
201.134753036
201.118464184

Average distance is : 200.542 cm
Average deviation is : 0.346 cm
Block: 10
======================================
200.690881801
200.760109425
200.247010565
200.230721712
200.27958827
200.230721712
200.674592948
201.114391971
201.134753036
201.151041889
201.118464184
200.674592948
200.658304095
200.658304095
201.102175331
201.134753036
201.102175331
201.098103118
201.134753036
200.674592948
200.756037211
201.102175331
200.198144007
201.081814265
200.247010565
201.118464184
201.118464184
200.214432859
200.658304095
201.134753036
201.118464184
201.118464184
201.081814265
200.247010565
201.118464184
200.230721712
200.743820572
200.230721712
200.295877123
200.27958827
201.098103118
200.27958827
200.247010565
200.27958827
200.760109425
200.637943029
201.118464184
200.654231882
201.134753036
200.674592948
201.118464184
201.102175331
201.118464184
201.102175331
201.118464184
200.642015243
200.642015243
201.13882525
201.085886478
200.674592948
200.658304095
201.102175331
200.674592948
200.658304095
200.642015243
201.118464184
201.118464184
200.263299417
200.27958827
201.118464184
201.118464184
201.102175331
201.13882525
201.134753036
200.230721712
201.118464184
200.247010565
200.283660483
200.637943029
201.102175331
200.214432859
200.642015243
202.39713912
200.198144007
200.674592948
200.637943029
200.642015243
201.134753036
201.118464184
200.181855154
200.177782941
200.654231882
200.161494088
201.118464184
200.210360646
200.283660483
200.707170653
201.085886478
200.654231882
200.670520735

Average distance is : 200.759 cm
Average deviation is : 0.397 cm