
Block: 1
======================================
302.191288948
302.175028992
302.191288948
303.044936657
302.191288948
302.614047813
302.618112803
302.634372759
302.683152628
302.191288948

Average distance is : 302.453 cm
Average deviation is : 0.306 cm
Block: 2
======================================
302.207548904
302.614047813
301.748205137
301.731945181
302.175028992
302.207548904
302.175028992
301.727880192
301.748205137
302.244133806

Average distance is : 302.058 cm
Average deviation is : 0.302 cm
Block: 3
======================================
301.731945181
302.170964003
302.601852846
303.093716526
302.175028992
301.731945181
302.244133806
301.731945181
302.260393763
301.764465094

Average distance is : 302.151 cm
Average deviation is : 0.446 cm
Block: 4
======================================
301.748205137
301.764465094
302.447383261
302.158769035
301.727880192
303.07745657
302.244133806
302.170964003
302.223808861
302.614047813

Average distance is : 302.218 cm
Average deviation is : 0.424 cm
Block: 5
======================================
302.597787857
302.158769035
302.687217617
302.634372759
302.175028992
302.13844409
302.170964003
302.207548904
302.618112803
302.175028992

Average distance is : 302.356 cm
Average deviation is : 0.241 cm
Block: 6
======================================
302.666892672
302.158769035
302.191288948
302.597787857
302.256328773
302.618112803
302.597787857
302.601852846
302.634372759
302.634372759

Average distance is : 302.496 cm
Average deviation is : 0.205 cm
Block: 7
======================================
302.244133806
301.715685225
302.240068817
302.240068817
302.240068817
302.634372759
302.158769035
302.565267944
302.618112803
302.618112803

Average distance is : 302.327 cm
Average deviation is : 0.289 cm
Block: 8
======================================
302.256328773
302.618112803
301.748205137
301.731945181
301.801049995
301.78072505
302.634372759
302.581527901
302.154704046
301.699425268

Average distance is : 302.101 cm
Average deviation is : 0.398 cm
Block: 9
======================================
302.549007988
301.662840366
302.512423086
302.549007988
302.532748032
302.13844409
302.105924177
302.154704046
302.105924177
302.158769035

Average distance is : 302.247 cm
Average deviation is : 0.287 cm
Block: 10
======================================
302.13844409
302.158769035
302.089664221
302.13844409
302.105924177
302.105924177
302.126249123
301.87015481
302.13844409
302.122184134

Average distance is : 302.099 cm
Average deviation is : 0.083 cm
Block: 1
======================================
301.049027014
300.622203159
301.032767057
300.553098345
301.540890694
300.605943203
301.06528697
300.57342329
300.605943203
300.585618258

Average distance is : 300.823 cm
Average deviation is : 0.333 cm
Block: 2
======================================
300.569358301
300.605943203
300.569358301
300.601878214
300.589683247
301.134391785
301.085611916
301.06528697
301.081546926
301.06528697

Average distance is : 300.837 cm
Average deviation is : 0.264 cm
Block: 3
======================================
301.508370781
301.134391785
300.589683247
301.06528697
300.589683247
301.049027014
301.471785879
301.049027014
300.622203159
301.508370781

Average distance is : 301.059 cm
Average deviation is : 0.367 cm
Block: 4
======================================
301.032767057
301.049027014
301.028702068
301.028702068
301.097806883
301.049027014
300.605943203
300.589683247
301.044962025
300.605943203

Average distance is : 300.913 cm
Average deviation is : 0.217 cm
Block: 5
======================================
301.049027014
301.06528697
301.032767057
300.589683247
300.589683247
301.028702068
301.032767057
301.012442112
300.553098345
301.032767057

Average distance is : 300.899 cm
Average deviation is : 0.222 cm
Block: 6
======================================
301.028702068
301.012442112
301.492110825
301.012442112
301.475850868
300.622203159
301.528695726
301.55715065
301.028702068
301.049027014

Average distance is : 301.181 cm
Average deviation is : 0.313 cm
Block: 7
======================================
301.028702068
301.032767057
301.028702068
301.016507101
300.569358301
301.032767057
301.049027014
301.012442112
301.492110825
301.118131828

Average distance is : 301.038 cm
Average deviation is : 0.220 cm
Block: 8
======================================
301.049027014
301.028702068
301.016507101
301.012442112
301.012442112
301.012442112
300.605943203
301.049027014
301.459590912
302.394538403

Average distance is : 301.164 cm
Average deviation is : 0.477 cm
Block: 9
======================================
301.049027014
300.605943203
300.638463116
300.622203159
300.605943203
300.654723072
300.622203159
300.638463116
301.049027014
300.601878214

Average distance is : 300.709 cm
Average deviation is : 0.180 cm
Block: 10
======================================
301.508370781
301.081546926
301.475850868
301.561215639
300.605943203
301.492110825
300.654723072
300.622203159
301.508370781
301.492110825

Average distance is : 301.200 cm
Average deviation is : 0.417 cm
Block: 1
======================================
300.48399353
300.451473618
300.979922199
300.451473618
301.337641239
300.435213661
300.48399353
300.435213661
300.467733574
301.374226141

Average distance is : 300.690 cm
Average deviation is : 0.387 cm
Block: 2
======================================
300.467733574
300.878297472
301.370161152
300.93114233
301.357966185
300.894557428
300.894557428
300.894557428
301.357966185
300.914882374

Average distance is : 300.996 cm
Average deviation is : 0.286 cm
Block: 3
======================================
300.878297472
300.874232483
301.353901196
300.874232483
301.406746054
300.894557428
300.431148672
300.435213661
300.435213661
300.894557428

Average distance is : 300.848 cm
Average deviation is : 0.348 cm
Block: 4
======================================
300.878297472
300.418953705
300.862037516
300.894557428
300.894557428
300.857972527
300.857972527
300.862037516
300.435213661
300.874232483

Average distance is : 300.784 cm
Average deviation is : 0.188 cm
Block: 5
======================================
300.418953705
301.764465094
300.878297472
300.435213661
300.451473618
300.451473618
300.414888716
300.862037516
300.435213661
300.431148672

Average distance is : 300.654 cm
Average deviation is : 0.430 cm
Block: 6
======================================
300.878297472
300.878297472
300.878297472
300.874232483
300.418953705
300.418953705
300.894557428
300.414888716
300.93114233
300.878297472

Average distance is : 300.747 cm
Average deviation is : 0.228 cm
Block: 7
======================================
300.414888716
300.414888716
300.402693748
300.418953705
300.398628759
300.398628759
300.414888716
300.927077341
301.305121326
301.28886137

Average distance is : 300.638 cm
Average deviation is : 0.383 cm
Block: 8
======================================
300.878297472
300.414888716
300.418953705
300.431148672
300.402693748
300.418953705
300.398628759
300.398628759
300.435213661
301.764465094

Average distance is : 300.596 cm
Average deviation is : 0.436 cm
Block: 9
======================================
301.317316294
300.402693748
301.321381283
301.305121326
300.414888716
301.305121326
300.435213661
300.414888716
300.857972527
301.321381283

Average distance is : 300.910 cm
Average deviation is : 0.446 cm
Block: 10
======================================
300.84171257
301.305121326
300.418953705
301.305121326
300.435213661
300.605943203
300.418953705
300.874232483
301.321381283
300.467733574

Average distance is : 300.799 cm
Average deviation is : 0.389 cm