
Block: 1
======================================
301.849829865
301.833569908
301.390486097
301.833569908
301.402681065
300.963662243
300.943337297
301.406746054
301.42300601
300.963662243
300.963662243
300.963662243
300.914882374
300.947402287
301.406746054
301.849829865
300.943337297
301.390486097
301.386421108
300.943337297
300.947402287
300.947402287
301.406746054
300.963662243
300.963662243
301.390486097
301.459590912
301.459590912
301.390486097
301.42300601
301.459590912
301.390486097
301.42300601
301.390486097
300.947402287
301.439265966
301.849829865
301.833569908
301.406746054
301.406746054
301.386421108
301.386421108
302.292913675
301.866089821
301.406746054
301.849829865
301.406746054
301.866089821
302.122184134
301.370161152
301.386421108
301.849829865
301.849829865
301.390486097
301.866089821
301.492110825
300.963662243
301.42300601
301.42300601
301.849829865
301.386421108
300.963662243
301.406746054
301.42300601
300.959597254
301.42300601
301.42300601
301.406746054
301.866089821
301.406746054
301.849829865
301.866089821
301.91486969
301.42300601
301.849829865

Average distance is : 301.435 cm
Average deviation is : 0.337 cm
Block: 2
======================================
301.012442112
301.439265966
301.427070999
301.370161152
301.849829865
301.475850868
300.93114233
300.947402287
301.390486097
301.42300601
301.406746054
301.849829865
301.849829865
300.979922199
301.87015481
301.833569908
301.849829865
301.386421108
301.386421108
301.406746054
301.406746054
301.390486097
301.386421108
301.91486969
301.406746054
301.455525923
301.817309952
301.443330956
301.42300601
301.459590912
300.947402287
301.42300601
300.93114233
301.390486097
301.406746054
301.374226141
301.406746054
301.406746054
301.406746054
300.947402287
300.93114233
301.390486097
301.475850868
301.406746054
300.947402287
300.947402287
300.927077341
301.455525923
301.390486097
301.406746054
301.439265966
301.386421108
300.943337297
301.386421108
301.390486097
301.406746054
301.390486097
301.439265966
301.390486097
300.93114233
301.833569908
301.390486097
300.963662243
301.42300601
300.963662243
301.427070999
301.406746054
302.292913675
301.390486097
301.402681065
301.406746054
301.459590912
301.390486097
301.455525923
301.390486097

Average distance is : 301.384 cm
Average deviation is : 0.278 cm
Block: 3
======================================
301.390486097
301.374226141
301.813244963
301.42300601
301.390486097
301.439265966
301.386421108
301.817309952
301.443330956
301.443330956
301.386421108
301.406746054
301.801049995
301.817309952
301.337641239
301.439265966
301.390486097
302.27258873
301.796985006
301.357966185
301.813244963
301.813244963
301.374226141
301.390486097
301.443330956
301.813244963
301.427070999
301.78072505
301.813244963
301.817309952
302.244133806
301.813244963
301.813244963
301.813244963
301.813244963
301.817309952
302.735997486
301.817309952
301.817309952
301.833569908
301.813244963
301.370161152
302.276653719
301.813244963
301.813244963
301.390486097
302.276653719
301.374226141
301.817309952
301.357966185
301.817309952
301.374226141
301.370161152
301.882349777
301.833569908
301.849829865
301.833569908
301.796985006
302.325433588
301.833569908
301.406746054
301.833569908
301.817309952
301.357966185
301.353901196
301.813244963
301.845764875
301.829504919
301.833569908
301.374226141
301.353901196
301.829504919
301.357966185
301.817309952
302.27258873

Average distance is : 301.697 cm
Average deviation is : 0.298 cm
Block: 4
======================================
301.439265966
301.801049995
301.849829865
302.276653719
301.390486097
301.390486097
301.813244963
301.833569908
301.796985006
301.833569908
301.455525923
301.817309952
301.796985006
301.849829865
301.849829865
301.813244963
301.370161152
301.390486097
301.374226141
301.833569908
301.374226141
301.817309952
300.947402287
302.260393763
301.459590912
301.817309952
301.390486097
301.833569908
301.390486097
301.390486097
301.390486097
301.390486097
301.833569908
300.93114233
301.390486097
301.406746054
301.370161152
300.943337297
301.374226141
302.276653719
302.276653719
301.882349777
301.390486097
300.947402287
301.370161152
301.390486097
300.947402287
301.370161152
301.406746054
301.374226141
301.390486097
301.390486097
301.386421108
301.475850868
301.439265966
301.386421108
301.386421108
301.406746054
302.703477573
301.406746054
301.406746054
300.947402287
301.406746054
301.386421108
301.390486097
301.390486097
301.406746054
301.386421108
301.886414766
301.390486097
301.370161152
301.353901196
301.390486097
301.406746054
301.390486097

Average distance is : 301.528 cm
Average deviation is : 0.332 cm
Block: 5
======================================
301.833569908
301.817309952
301.374226141
301.374226141
301.439265966
301.390486097
301.455525923
301.374226141
300.93114233
301.386421108
301.390486097
301.406746054
300.947402287
301.796985006
301.813244963
301.439265966
301.817309952
301.829504919
301.78072505
300.93114233
300.93114233
300.963662243
302.276653719
300.947402287
301.374226141
301.374226141
301.829504919
301.813244963
301.817309952
301.833569908
301.459590912
301.882349777
301.796985006
301.817309952
301.849829865
300.979922199
301.353901196
301.370161152
301.882349777
301.374226141
301.374226141
301.801049995
301.833569908
301.817309952
301.833569908
301.833569908
301.817309952
301.455525923
301.443330956
301.370161152
301.813244963
301.801049995
301.455525923
302.256328773
300.93114233
301.439265966
301.813244963
301.813244963
301.87015481
301.353901196
301.353901196
302.313238621
301.455525923
301.357966185
301.370161152
301.866089821
301.370161152
301.866089821
301.370161152
301.801049995
302.666892672
301.427070999
301.427070999
301.813244963
301.796985006

Average distance is : 301.585 cm
Average deviation is : 0.347 cm
Block: 6
======================================
301.817309952
301.813244963
301.817309952
300.943337297
301.817309952
301.813244963
301.902674723
301.42300601
301.817309952
301.796985006
301.813244963
301.817309952
301.764465094
301.817309952
301.886414766
301.813244963
301.817309952
301.337641239
301.817309952
301.357966185
301.817309952
301.439265966
300.947402287
301.833569908
301.374226141
301.370161152
301.817309952
301.353901196
302.683152628
301.796985006
301.866089821
301.817309952
301.833569908
301.849829865
301.833569908
301.817309952
301.337641239
301.353901196
301.357966185
301.374226141
301.370161152
301.357966185
301.406746054
301.866089821
301.796985006
301.817309952
301.374226141
301.370161152
301.337641239
301.341706228
301.370161152
301.801049995
301.374226141
301.353901196
301.374226141
301.374226141
301.370161152
301.353901196
301.353901196
301.370161152
301.370161152
301.370161152
301.353901196
301.370161152
301.353901196
301.374226141
301.813244963
301.353901196
301.817309952
301.796985006
301.817309952
301.370161152
301.796985006
301.353901196
301.801049995

Average distance is : 301.591 cm
Average deviation is : 0.279 cm
Block: 7
======================================
301.337641239
301.439265966
301.42300601
301.357966185
301.353901196
301.370161152
301.817309952
301.796985006
301.357966185
301.78072505
302.256328773
301.796985006
301.353901196
301.337641239
301.801049995
301.337641239
301.321381283
302.292913675
302.687217617
301.784790039
302.292913675
301.801049995
302.276653719
301.439265966
301.813244963
300.910817385
301.357966185
301.833569908
301.337641239
301.801049995
301.353901196
301.374226141
301.337641239
301.796985006
301.833569908
301.801049995
301.353901196
300.910817385
301.443330956
300.943337297
301.78072505
301.337641239
301.801049995
301.813244963
301.353901196
300.910817385
301.353901196
301.321381283
300.878297472
301.78072505
301.337641239
301.801049995
302.207548904
302.244133806
301.406746054
302.207548904
301.764465094
301.406746054
301.78072505
301.321381283
300.894557428
301.402681065
301.764465094
301.833569908
300.878297472
300.878297472
300.894557428
301.748205137
301.337641239
301.321381283
301.748205137
301.305121326
301.764465094
301.764465094
300.878297472

Average distance is : 301.550 cm
Average deviation is : 0.398 cm
Block: 8
======================================
301.321381283
301.337641239
301.301056337
301.337641239
301.764465094
303.488020468
301.337641239
301.321381283
301.748205137
301.748205137
301.748205137
302.207548904
301.337641239
300.894557428
300.878297472
301.764465094
302.223808861
300.862037516
301.764465094
301.301056337
302.223808861
300.894557428
301.801049995
301.353901196
301.353901196
301.305121326
301.28886137
300.845777559
300.84171257
300.84171257
301.715685225
301.711620235
300.878297472
301.337641239
300.829517603
301.252276468
301.764465094
301.78072505
301.406746054
301.374226141
301.406746054
301.049027014
300.979922199
301.459590912
301.032767057
301.528695726
301.06528697
301.032767057
302.00429945
301.492110825
301.134391785
301.508370781
301.902674723
301.439265966
301.886414766
301.337641239
301.711620235
301.748205137
301.28886137
301.305121326
301.813244963
301.744140148
301.748205137
301.764465094
301.817309952
301.748205137
301.305121326
301.390486097
301.374226141
300.862037516
301.748205137
301.748205137
301.764465094
301.764465094
301.406746054

Average distance is : 301.477 cm
Average deviation is : 0.428 cm
Block: 9
======================================
300.809192657
300.792932701
300.825452614
301.321381283
300.809192657
300.829517603
301.321381283
301.715685225
300.829517603
301.711620235
301.715685225
300.825452614
300.825452614
301.715685225
301.252276468
301.252276468
300.776672745
301.711620235
301.695360279
300.809192657
300.825452614
301.695360279
300.809192657
300.829517603
301.353901196
301.28886137
301.711620235
301.715685225
300.825452614
301.272601414
301.236016512
300.792932701
301.215691566
301.219756556
300.760412788
301.219756556
301.252276468
300.776672745
301.284796381
301.662840366
300.776672745
300.760412788
300.723827887
300.723827887
300.723827887
300.792932701
300.723827887
301.203496599
301.19943161
301.183171654
300.70756793
300.756347799
301.544955683
301.097806883
301.540890694
300.642528105
300.638463116
300.670983028
301.118131828
301.183171654
301.252276468
300.772607756
300.675048018
301.321381283
300.792932701
300.809192657
300.776672745
300.845777559
300.792932701
300.776672745
301.236016512
300.809192657
300.792932701
300.772607756
300.792932701

Average distance is : 301.056 cm
Average deviation is : 0.346 cm
Block: 10
======================================
300.301069021
300.313263988
300.760412788
300.776672745
300.317328978
300.772607756
300.301069021
300.297004032
300.792932701
300.776672745
300.313263988
300.760412788
300.317328978
300.313263988
300.776672745
301.219756556
300.829517603
301.19943161
300.317328978
301.187236643
300.301069021
300.740087843
300.723827887
300.297004032
300.301069021
300.317328978
300.366108847
301.183171654
300.740087843
300.34984889
300.333588934
301.187236643
300.70756793
300.317328978
300.740087843
300.297004032
300.313263988
300.345783901
300.297004032
300.34984889
300.313263988
300.34984889
300.744152832
300.280744076
300.744152832
301.183171654
300.366108847
300.792932701
300.313263988
300.301069021
300.297004032
300.333588934
299.837660265
300.317328978
300.366108847
300.382368803
301.187236643
300.317328978
300.382368803
300.34984889
300.297004032
300.297004032
300.317328978
300.723827887
300.366108847
301.170976686
300.723827887
300.280744076
300.264484119
300.301069021
300.211639261
300.670983028
300.670983028
300.21570425
300.654723072

Average distance is : 300.522 cm
Average deviation is : 0.309 cm
Block: 1
======================================
301.544955683
300.605943203
301.475850868
300.605943203
301.06528697
301.475850868
301.049027014
301.028702068
301.049027014
300.569358301
301.032767057
301.028702068
301.016507101
300.601878214
300.622203159
301.097806883
301.032767057
301.028702068
301.488045835
300.57342329
301.471785879
300.605943203
300.589683247
301.028702068
300.670983028
300.569358301
300.585618258
300.589683247
301.028702068
301.032767057
301.471785879
300.605943203
301.032767057
301.012442112
301.492110825
301.049027014
300.589683247
301.028702068
301.049027014
301.044962025
300.569358301
301.492110825
300.569358301
301.492110825
301.032767057
301.028702068
300.605943203
301.475850868
301.492110825
300.605943203
300.589683247
300.585618258
301.475850868
300.605943203
300.589683247
301.032767057
300.585618258
300.605943203
301.492110825
300.605943203
300.654723072
301.475850868
302.784777355
301.492110825
300.638463116
300.654723072
300.589683247
301.471785879
301.012442112
300.675048018
300.638463116
300.589683247
300.589683247
300.605943203
301.492110825

Average distance is : 300.966 cm
Average deviation is : 0.411 cm
Block: 2
======================================
301.049027014
300.585618258
301.032767057
300.605943203
300.658788061
301.012442112
301.012442112
300.605943203
300.605943203
300.589683247
300.605943203
300.569358301
301.032767057
301.028702068
301.032767057
301.492110825
300.605943203
300.638463116
300.658788061
301.134391785
301.097806883
300.605943203
300.589683247
301.475850868
300.654723072
300.654723072
301.492110825
301.471785879
300.589683247
300.638463116
300.589683247
301.475850868
300.605943203
300.654723072
300.589683247
301.097806883
300.654723072
300.585618258
301.049027014
300.589683247
300.585618258
301.475850868
300.585618258
300.589683247
300.589683247
300.589683247
301.016507101
300.585618258
301.118131828
301.455525923
301.508370781
300.601878214
300.605943203
300.585618258
301.081546926
300.654723072
301.028702068
301.459590912
301.012442112
301.492110825
301.081546926
301.012442112
301.475850868
301.101871872
300.569358301
301.012442112
301.524630737
301.012442112
301.032767057
301.032767057
300.553098345
300.569358301
301.016507101
301.492110825
301.492110825

Average distance is : 300.911 cm
Average deviation is : 0.340 cm
Block: 3
======================================
300.569358301
300.585618258
300.516513443
300.589683247
301.492110825
301.032767057
301.475850868
300.654723072
301.475850868
301.492110825
300.605943203
301.028702068
301.016507101
300.589683247
300.589683247
301.492110825
301.492110825
300.585618258
301.475850868
301.471785879
301.475850868
301.049027014
301.028702068
300.605943203
300.638463116
301.028702068
301.032767057
301.475850868
301.028702068
301.902674723
300.658788061
301.012442112
301.459590912
301.492110825
301.049027014
301.012442112
301.032767057
300.569358301
301.016507101
300.569358301
301.028702068
300.589683247
300.589683247
301.114066839
300.589683247
301.016507101
300.569358301
301.032767057
300.569358301
301.028702068
300.589683247
301.032767057
301.032767057
300.996182156
300.57342329
301.475850868
301.032767057
301.032767057
301.032767057
300.553098345
301.471785879
301.012442112
301.028702068
301.016507101
301.032767057
301.032767057
300.569358301
300.589683247
300.569358301
300.589683247
301.028702068
301.032767057
300.553098345
301.06528697
301.016507101

Average distance is : 300.966 cm
Average deviation is : 0.342 cm
Block: 4
======================================
300.605943203
300.979922199
301.492110825
300.605943203
301.032767057
301.016507101
301.028702068
300.638463116
301.016507101
301.475850868
301.471785879
301.459590912
300.638463116
300.675048018
301.012442112
300.654723072
301.524630737
301.016507101
301.028702068
301.492110825
300.553098345
300.57342329
301.016507101
301.012442112
301.032767057
301.459590912
301.101871872
301.459590912
301.012442112
301.459590912
301.032767057
301.012442112
301.016507101
300.57342329
300.622203159
300.589683247
300.569358301
300.638463116
301.028702068
300.622203159
300.569358301
300.57342329
301.459590912
301.471785879
301.012442112
301.032767057
300.569358301
300.585618258
301.016507101
301.028702068
301.049027014
301.032767057
301.012442112
301.540890694
301.049027014
300.638463116
300.605943203
300.585618258
300.996182156
300.658788061
301.459590912
300.557163334
301.012442112
301.475850868
300.569358301
300.57342329
300.57342329
301.475850868
300.622203159
301.91486969
301.459590912
301.459590912
301.032767057
300.638463116
300.654723072

Average distance is : 300.976 cm
Average deviation is : 0.354 cm
Block: 5
======================================
301.049027014
300.996182156
300.605943203
301.097806883
300.585618258
300.638463116
301.049027014
300.658788061
301.475850868
300.601878214
301.492110825
300.996182156
301.455525923
301.028702068
301.016507101
301.475850868
301.455525923
300.589683247
301.471785879
300.589683247
301.492110825
301.475850868
301.488045835
301.032767057
301.475850868
300.605943203
300.658788061
300.589683247
300.638463116
301.012442112
300.605943203
300.638463116
301.032767057
300.585618258
300.589683247
300.601878214
301.492110825
300.654723072
301.114066839
300.642528105
300.589683247
300.605943203
300.589683247
300.654723072
300.605943203
300.601878214
300.658788061
301.032767057
301.492110825
301.012442112
301.049027014
301.028702068
301.032767057
300.654723072
300.585618258
300.658788061
300.589683247
301.032767057
300.654723072
301.492110825
300.589683247
300.658788061
300.589683247
300.57342329
301.471785879
301.471785879
300.675048018
300.605943203
300.589683247
300.638463116
300.654723072
301.475850868
300.601878214
300.605943203
300.605943203

Average distance is : 300.896 cm
Average deviation is : 0.350 cm
Block: 6
======================================
300.605943203
300.569358301
300.536838388
301.032767057
301.475850868
301.475850868
301.492110825
300.605943203
300.658788061
300.589683247
301.475850868
301.492110825
301.028702068
301.475850868
300.670983028
300.658788061
301.544955683
300.553098345
301.475850868
301.475850868
300.658788061
301.475850868
301.475850868
301.012442112
301.016507101
301.012442112
301.016507101
300.569358301
301.097806883
301.032767057
301.016507101
301.028702068
300.654723072
301.016507101
301.524630737
301.028702068
301.032767057
301.032767057
301.028702068
300.57342329
300.585618258
300.589683247
300.569358301
301.012442112
300.589683247
300.638463116
300.553098345
300.57342329
300.569358301
300.589683247
300.569358301
300.57342329
300.996182156
300.996182156
301.016507101
300.996182156
301.492110825
301.492110825
300.996182156
301.540890694
300.654723072
301.471785879
300.589683247
301.471785879
300.569358301
301.492110825
301.016507101
301.016507101
301.475850868
301.012442112
300.589683247
301.475850868
300.638463116
302.788842344
301.000247145

Average distance is : 301.005 cm
Average deviation is : 0.415 cm
Block: 7
======================================
300.553098345
300.585618258
301.032767057
301.081546926
300.569358301
300.57342329
301.918934679
300.605943203
300.569358301
301.016507101
300.553098345
301.012442112
301.049027014
300.553098345
301.049027014
300.585618258
300.57342329
301.455525923
301.032767057
300.553098345
300.553098345
300.589683247
300.569358301
301.016507101
301.012442112
301.032767057
300.569358301
301.012442112
300.654723072
300.57342329
301.012442112
300.675048018
301.028702068
301.032767057
300.996182156
301.492110825
301.032767057
300.654723072
300.638463116
301.097806883
301.032767057
301.455525923
300.670983028
301.016507101
301.016507101
301.016507101
301.101871872
300.654723072
300.585618258
301.475850868
300.658788061
300.638463116
301.492110825
300.569358301
301.028702068
301.049027014
301.028702068
301.012442112
301.032767057
301.488045835
301.032767057
301.492110825
301.028702068
301.492110825
301.459590912
300.605943203
301.471785879
301.012442112
301.475850868
300.585618258
301.51243577
301.508370781
300.585618258
301.475850868
301.049027014

Average distance is : 300.960 cm
Average deviation is : 0.345 cm
Block: 8
======================================
301.524630737
301.508370781
300.70756793
300.622203159
300.675048018
300.638463116
300.670983028
300.675048018
300.622203159
300.605943203
301.508370781
300.654723072
300.622203159
300.622203159
300.622203159
300.605943203
300.642528105
300.61813817
300.638463116
301.134391785
301.049027014
301.492110825
300.691307974
301.488045835
300.605943203
300.605943203
301.508370781
301.049027014
301.049027014
300.605943203
300.605943203
301.134391785
300.670983028
300.622203159
301.508370781
301.06528697
300.622203159
301.049027014
300.654723072
300.675048018
300.670983028
300.622203159
301.508370781
300.585618258
301.51243577
300.622203159
300.601878214
300.622203159
300.638463116
300.589683247
300.605943203
301.475850868
300.605943203
300.61813817
301.118131828
300.585618258
300.638463116
301.488045835
301.06528697
300.658788061
300.654723072
301.488045835
300.622203159
300.691307974
301.134391785
301.951454592
301.134391785
300.622203159
301.492110825
301.028702068
300.589683247
300.605943203
301.081546926
301.508370781
301.06528697

Average distance is : 300.896 cm
Average deviation is : 0.368 cm
Block: 9
======================================
301.492110825
300.670983028
300.670983028
300.585618258
300.622203159
300.654723072
301.032767057
301.049027014
301.488045835
300.654723072
301.032767057
300.589683247
301.044962025
301.492110825
301.492110825
301.492110825
301.508370781
301.049027014
301.508370781
301.032767057
300.654723072
301.492110825
301.049027014
300.670983028
300.569358301
301.049027014
301.049027014
300.675048018
301.069351959
301.049027014
301.544955683
300.589683247
301.032767057
301.028702068
301.044962025
301.032767057
301.508370781
301.049027014
300.601878214
301.508370781
301.049027014
300.601878214
301.032767057
301.049027014
301.049027014
301.032767057
301.028702068
300.077494621
301.049027014
301.044962025
300.605943203
301.032767057
301.475850868
301.028702068
301.049027014
301.032767057
301.032767057
301.049027014
301.049027014
301.032767057
301.032767057
300.585618258
302.784777355
301.032767057
301.06528697
301.049027014
300.585618258
300.57342329
300.589683247
301.049027014
300.557163334
301.049027014
301.049027014
300.569358301
301.032767057

Average distance is : 301.006 cm
Average deviation is : 0.373 cm
Block: 10
======================================
301.028702068
301.114066839
300.585618258
301.492110825
301.471785879
301.032767057
301.012442112
300.57342329
301.012442112
301.049027014
301.028702068
301.032767057
300.589683247
301.118131828
301.471785879
300.585618258
300.585618258
300.589683247
300.57342329
300.585618258
301.101871872
300.585618258
301.049027014
301.049027014
300.553098345
301.016507101
301.459590912
301.475850868
301.032767057
300.601878214
300.589683247
301.101871872
301.044962025
300.57342329
301.028702068
301.016507101
301.012442112
301.016507101
301.032767057
301.471785879
301.016507101
301.012442112
300.996182156
301.012442112
301.032767057
301.032767057
301.028702068
300.553098345
301.012442112
300.553098345
301.016507101
301.097806883
300.589683247
301.028702068
300.589683247
300.569358301
301.475850868
301.028702068
301.032767057
301.06528697
301.032767057
301.06528697
300.585618258
302.341693544
300.553098345
300.557163334
300.553098345
300.996182156
300.569358301
301.012442112
301.016507101
301.016507101
300.996182156
300.553098345
301.443330956

Average distance is : 300.952 cm
Average deviation is : 0.325 cm
Block: 1
======================================
300.435213661
300.451473618
300.418953705
300.435213661
300.402693748
300.431148672
300.914882374
300.84171257
301.321381283
300.451473618
300.451473618
300.418953705
300.435213661
300.435213661
300.435213661
301.337641239
300.451473618
300.435213661
300.48399353
300.894557428
300.435213661
300.947402287
300.894557428
300.435213661
300.455538607
300.878297472
300.520578432
300.435213661
300.414888716
300.435213661
300.435213661
300.451473618
300.451473618
300.418953705
300.435213661
300.431148672
300.418953705
300.435213661
300.418953705
300.435213661
301.321381283
300.451473618
301.337641239
301.337641239
300.48399353
300.451473618
300.431148672
300.894557428
301.337641239
300.435213661
301.321381283
301.321381283
300.418953705
300.471798563
300.894557428
300.467733574
300.414888716
300.431148672
300.467733574
300.451473618
301.321381283
300.418953705
300.418953705
300.963662243
300.398628759
300.467733574
300.435213661
300.451473618
301.305121326
300.451473618
300.435213661
300.418953705
300.504318476
300.435213661
301.764465094

Average distance is : 300.632 cm
Average deviation is : 0.345 cm
Block: 2
======================================
300.878297472
300.878297472
300.914882374
300.48399353
300.894557428
300.414888716
301.321381283
300.435213661
300.435213661
300.435213661
300.878297472
300.435213661
300.435213661
300.435213661
300.874232483
300.894557428
300.435213661
300.894557428
300.878297472
300.435213661
300.500253487
300.435213661
300.48399353
300.894557428
300.418953705
300.435213661
300.878297472
300.874232483
300.431148672
300.451473618
300.894557428
300.431148672
300.878297472
300.435213661
300.418953705
300.451473618
300.418953705
301.748205137
300.435213661
300.878297472
300.943337297
300.894557428
300.431148672
300.894557428
300.435213661
300.894557428
300.520578432
300.435213661
300.894557428
300.500253487
300.418953705
300.414888716
300.418953705
300.451473618
300.418953705
300.947402287
300.435213661
300.431148672
300.418953705
301.305121326
300.451473618
300.435213661
300.435213661
300.504318476
300.48399353
300.435213661
300.48399353
300.435213661
300.418953705
300.488058519
301.321381283
300.451473618
300.435213661
300.435213661
300.402693748

Average distance is : 300.621 cm
Average deviation is : 0.282 cm
Block: 3
======================================
301.321381283
300.862037516
301.337641239
300.451473618
300.435213661
301.390486097
300.862037516
300.500253487
300.488058519
300.467733574
300.520578432
300.894557428
300.878297472
300.878297472
300.398628759
300.878297472
300.862037516
300.451473618
301.341706228
300.878297472
301.337641239
301.337641239
300.418953705
300.504318476
300.418953705
301.337641239
300.878297472
300.862037516
301.321381283
300.414888716
301.764465094
300.418953705
300.878297472
300.894557428
300.878297472
300.878297472
300.418953705
300.878297472
301.321381283
300.874232483
300.898622417
300.857972527
300.894557428
300.418953705
300.418953705
300.894557428
300.878297472
300.878297472
300.910817385
301.337641239
300.414888716
300.471798563
300.435213661
300.520578432
301.337641239
300.878297472
300.435213661
300.878297472
300.878297472
300.516513443
300.418953705
300.894557428
300.451473618
300.874232483
300.894557428
300.435213661
300.451473618
300.878297472
300.862037516
300.418953705
300.878297472
300.418953705
300.894557428
300.418953705
300.93114233

Average distance is : 300.792 cm
Average deviation is : 0.329 cm
Block: 4
======================================
300.878297472
300.414888716
300.878297472
300.947402287
300.435213661
300.894557428
300.467733574
300.414888716
300.878297472
301.341706228
300.451473618
301.337641239
300.520578432
300.878297472
300.435213661
300.520578432
300.878297472
300.536838388
300.488058519
300.414888716
301.321381283
301.321381283
300.504318476
300.878297472
300.894557428
300.418953705
301.337641239
300.894557428
300.435213661
300.435213661
301.374226141
300.878297472
300.878297472
300.418953705
300.398628759
300.878297472
300.878297472
300.435213661
300.500253487
300.878297472
300.418953705
300.414888716
300.418953705
300.431148672
300.414888716
300.862037516
300.504318476
300.894557428
300.500253487
300.878297472
300.878297472
300.878297472
300.435213661
300.862037516
300.857972527
300.435213661
300.418953705
300.435213661
300.862037516
300.418953705
300.878297472
301.301056337
300.878297472
300.878297472
300.431148672
301.305121326
300.418953705
301.321381283
300.878297472
301.321381283
300.451473618
300.435213661
300.451473618
300.435213661
300.418953705

Average distance is : 300.720 cm
Average deviation is : 0.314 cm
Block: 5
======================================
300.878297472
300.894557428
300.435213661
300.862037516
301.321381283
300.878297472
301.337641239
300.451473618
300.488058519
300.516513443
301.341706228
301.321381283
301.370161152
300.451473618
300.435213661
300.894557428
301.321381283
300.536838388
301.337641239
301.353901196
300.894557428
301.337641239
300.504318476
300.451473618
300.451473618
300.878297472
301.357966185
300.898622417
300.451473618
301.337641239
300.536838388
300.996182156
300.471798563
300.878297472
301.337641239
300.467733574
300.467733574
300.467733574
300.93114233
300.979922199
300.467733574
301.353901196
300.93114233
300.979922199
301.337641239
300.471798563
301.406746054
301.353901196
301.374226141
300.959597254
300.520578432
300.520578432
300.488058519
301.353901196
300.520578432
300.488058519
300.996182156
300.451473618
301.337641239
300.878297472
300.471798563
301.78072505
300.451473618
301.353901196
300.467733574
301.337641239
300.488058519
300.910817385
300.451473618
300.467733574
300.910817385
300.467733574
300.48399353
301.337641239
300.910817385

Average distance is : 300.867 cm
Average deviation is : 0.383 cm
Block: 6
======================================
300.467733574
300.467733574
300.48399353
300.431148672
300.57342329
301.370161152
300.451473618
300.451473618
300.467733574
300.467733574
300.467733574
300.455538607
300.435213661
300.471798563
300.467733574
300.471798563
300.471798563
300.471798563
300.471798563
300.894557428
300.93114233
300.910817385
300.451473618
300.874232483
300.914882374
300.93114233
300.979922199
300.943337297
300.467733574
300.435213661
300.894557428
300.914882374
300.467733574
300.451473618
300.979922199
300.467733574
300.451473618
300.451473618
300.451473618
300.467733574
300.451473618
300.93114233
300.93114233
300.93114233
301.357966185
300.894557428
300.451473618
300.910817385
300.467733574
300.927077341
300.520578432
300.894557428
300.467733574
300.451473618
300.467733574
300.467733574
300.963662243
301.357966185
300.874232483
300.894557428
300.894557428
300.451473618
300.451473618
300.488058519
300.451473618
300.451473618
300.467733574
300.894557428
300.894557428
300.451473618
300.431148672
300.553098345
300.516513443
301.357966185
300.471798563

Average distance is : 300.659 cm
Average deviation is : 0.269 cm
Block: 7
======================================
301.337641239
300.471798563
300.435213661
301.341706228
300.874232483
300.878297472
300.914882374
300.471798563
300.862037516
300.431148672
300.451473618
300.451473618
300.451473618
300.874232483
301.796985006
300.947402287
300.451473618
300.414888716
301.032767057
300.414888716
300.878297472
300.435213661
301.390486097
300.878297472
300.898622417
300.435213661
300.418953705
300.418953705
300.878297472
300.435213661
301.337641239
300.878297472
300.516513443
300.451473618
301.357966185
301.337641239
301.353901196
300.910817385
300.520578432
300.878297472
301.337641239
301.321381283
301.337641239
301.341706228
300.467733574
301.337641239
301.321381283
301.337641239
300.963662243
300.878297472
301.337641239
300.451473618
300.500253487
300.504318476
301.341706228
300.451473618
300.451473618
300.471798563
301.341706228
300.878297472
300.467733574
300.451473618
300.451473618
300.471798563
300.516513443
300.878297472
300.520578432
300.467733574
300.467733574
300.894557428
300.914882374
300.431148672
300.914882374
300.914882374
300.894557428

Average distance is : 300.813 cm
Average deviation is : 0.372 cm
Block: 8
======================================
300.878297472
300.878297472
300.451473618
300.48399353
300.894557428
300.894557428
300.878297472
300.894557428
300.435213661
300.451473618
300.451473618
300.862037516
301.386421108
300.878297472
300.504318476
300.878297472
301.406746054
300.878297472
301.337641239
300.947402287
300.878297472
301.341706228
300.857972527
300.898622417
301.764465094
300.414888716
300.874232483
300.878297472
301.321381283
300.435213661
300.878297472
300.947402287
300.894557428
300.878297472
300.435213661
300.435213661
300.894557428
300.435213661
300.894557428
300.878297472
301.321381283
301.337641239
301.353901196
300.878297472
301.321381283
300.878297472
300.894557428
300.894557428
300.894557428
300.874232483
300.894557428
300.894557428
300.894557428
300.398628759
301.337641239
300.878297472
300.435213661
300.874232483
300.862037516
301.390486097
300.874232483
301.321381283
300.878297472
301.321381283
300.414888716
300.894557428
301.301056337
300.894557428
300.878297472
300.414888716
300.435213661
302.618112803
300.878297472
300.451473618
300.418953705

Average distance is : 300.899 cm
Average deviation is : 0.373 cm
Block: 9
======================================
301.337641239
300.467733574
300.435213661
300.451473618
300.211639261
300.862037516
300.414888716
300.431148672
300.504318476
301.305121326
300.418953705
300.418953705
302.601852846
300.878297472
300.927077341
300.878297472
300.878297472
300.947402287
300.894557428
300.418953705
300.878297472
300.418953705
300.894557428
300.878297472
300.418953705
300.414888716
300.414888716
300.435213661
300.418953705
300.894557428
300.93114233
300.894557428
300.894557428
300.878297472
300.862037516
300.947402287
300.862037516
300.874232483
300.435213661
300.894557428
300.414888716
300.435213661
300.878297472
300.857972527
300.398628759
300.862037516
300.435213661
300.435213661
300.878297472
300.894557428
300.418953705
300.894557428
300.878297472
300.414888716
300.894557428
300.878297472
301.305121326
300.874232483
300.878297472
301.357966185
300.874232483
300.862037516
300.862037516
300.857972527
301.337641239
300.857972527
301.370161152
300.878297472
300.874232483
300.857972527
300.874232483
301.764465094
300.963662243
300.435213661
300.947402287

Average distance is : 300.802 cm
Average deviation is : 0.366 cm
Block: 10
======================================
300.943337297
301.337641239
300.874232483
301.337641239
301.305121326
300.516513443
301.321381283
301.341706228
300.435213661
300.451473618
300.451473618
300.878297472
300.435213661
300.894557428
300.451473618
300.48399353
300.435213661
300.435213661
300.435213661
300.910817385
300.435213661
300.927077341
300.414888716
300.414888716
300.431148672
300.418953705
300.894557428
300.435213661
300.435213661
300.451473618
301.78072505
300.435213661
300.451473618
300.451473618
300.435213661
300.435213661
301.321381283
300.979922199
300.910817385
300.451473618
301.337641239
300.418953705
300.435213661
300.878297472
300.431148672
300.857972527
300.878297472
300.910817385
300.914882374
302.634372759
300.862037516
300.963662243
300.435213661
300.894557428
300.894557428
300.878297472
300.418953705
300.894557428
300.963662243
300.910817385
300.894557428
300.894557428
300.451473618
300.414888716
300.418953705
300.414888716
300.418953705
300.435213661
300.431148672
300.894557428
300.435213661
300.894557428
300.451473618
300.431148672
300.894557428

Average distance is : 300.736 cm
Average deviation is : 0.393 cm