
Block: 1
======================================
302.13844409
301.731945181
302.601852846
302.597787857
302.122184134

Block: 2
======================================
302.13844409
302.581527901
302.142509079
302.158769035
302.105924177

Block: 3
======================================
302.175028992
302.618112803
302.170964003
302.175028992
302.223808861

Block: 4
======================================
302.634372759
302.158769035
302.158769035
302.634372759
302.601852846

Block: 5
======================================
302.158769035
302.565267944
302.670957661
302.597787857
302.223808861

Block: 6
======================================
302.240068817
302.175028992
302.581527901
302.170964003
302.223808861

Block: 7
======================================
302.122184134
302.650632715
302.207548904
301.727880192
302.666892672

Block: 8
======================================
302.703477573
301.727880192
302.240068817
302.207548904
302.191288948

Block: 9
======================================
302.13844409
302.581527901
302.292913675
302.207548904
301.731945181

Block: 10
======================================
301.744140148
302.614047813
302.175028992
302.207548904
302.650632715

Block: 1
======================================
301.049027014
300.585618258
300.605943203
301.475850868
300.57342329

Block: 2
======================================
300.605943203
301.524630737
301.06528697
300.622203159
301.06528697

Block: 3
======================================
301.492110825
301.032767057
301.475850868
301.492110825
301.935194635

Block: 4
======================================
300.589683247
301.492110825
301.508370781
300.585618258
301.049027014

Block: 5
======================================
301.06528697
301.508370781
301.06528697
301.06528697
300.622203159

Block: 6
======================================
300.638463116
301.524630737
300.585618258
300.622203159
300.622203159

Block: 7
======================================
301.508370781
301.012442112
301.049027014
300.675048018
300.622203159

Block: 8
======================================
300.605943203
301.492110825
300.585618258
300.605943203
301.032767057

Block: 9
======================================
301.028702068
300.605943203
300.585618258
300.605943203
300.605943203

Block: 10
======================================
301.492110825
301.118131828
301.492110825
301.118131828
301.492110825

Block: 1
======================================
300.536838388
300.996182156
300.451473618
301.357966185
300.947402287

Block: 2
======================================
300.979922199
300.467733574
300.451473618
301.337641239
301.337641239

Block: 3
======================================
300.878297472
301.337641239
300.894557428
301.000247145
300.914882374

Block: 4
======================================
300.894557428
300.927077341
300.451473618
300.451473618
300.963662243

Block: 5
======================================
300.414888716
300.471798563
300.488058519
300.500253487
301.353901196

Block: 6
======================================
300.516513443
301.390486097
300.48399353
301.357966185
301.353901196

Block: 7
======================================
300.48399353
300.500253487
300.435213661
300.451473618
300.467733574

Block: 8
======================================
300.520578432
300.451473618
300.894557428
300.878297472
300.894557428

Block: 9
======================================
300.435213661
301.357966185
300.451473618
300.471798563
300.435213661

Block: 10
======================================
301.353901196
300.451473618
300.894557428
300.894557428
300.467733574
