
Block: 1
======================================
401.335586333
401.804611087
402.673924208
400.923168015
401.367932868
401.367932868
400.939341283
401.788437819
400.906994748
400.911038065
401.792481136
401.351759601
400.906994748
401.788437819
400.890821481
401.808654404
402.65775094
401.792481136
401.792481136
401.351759601
401.335586333
401.792481136
402.176596236
402.233202672
402.249375939
401.331543016
401.772264552
402.229159355
402.245332623
401.772264552
402.229159355
401.792481136
402.229159355
401.363889551
401.808654404
401.384106135
401.808654404
402.233202672
402.245332623
402.245332623
402.233202672
401.788437819
402.229159355
402.233202672
402.229159355
401.363889551
401.788437819
401.808654404
401.331543016
401.331543016
403.50280416
401.347716284
402.233202672
401.788437819
401.367932868
401.367932868
402.212986088
401.331543016
401.351759601
401.363889551
401.351759601
401.331543016
401.331543016
401.363889551
401.331543016
401.788437819
400.890821481
400.906994748
401.792481136
401.788437819
401.788437819
400.870604897
401.351759601
400.9433846
400.911038065
401.792481136
401.792481136
400.874648213
400.874648213
401.772264552
401.347716284
401.788437819
401.367932868
400.959557867
401.788437819
400.911038065
400.9433846
401.367932868
401.804611087
400.906994748
400.906994748
402.249375939
402.249375939
403.539194012
402.653707623
400.9433846
400.906994748
401.363889551
401.380062819
401.367932868

Average distance is : 401.624 cm
Average deviation is : 0.553 cm
Block: 2
======================================
400.975731134
401.41645267
400.927211332
400.518836331
400.502663064
401.380062819
400.518836331
400.927211332
400.518836331
401.384106135
400.9433846
400.518836331
400.975731134
400.975731134
401.824827671
402.233202672
401.804611087
401.367932868
401.367932868
401.824827671
401.384106135
400.927211332
401.384106135
401.857174206
402.249375939
401.400279403
401.841000938
400.959557867
400.959557867
401.41645267
400.9433846
400.9433846
402.265549207
401.41645267
401.400279403
401.432625937
402.265549207
400.975731134
402.686054158
402.690097475
401.432625937
400.959557867
401.432625937
401.400279403
400.975731134
400.979774451
400.991904402
400.959557867
401.432625937
401.028294253
402.281722474
401.889520741
400.991904402
401.012120986
400.995947719
402.301939058
401.044467521
400.551182866
400.551182866
401.464972472
400.587572718
400.587572718
401.889520741
401.448799205
401.436669254
400.555226183
401.008077669
400.535009599
401.008077669
401.024250937
401.893564057
401.448799205
400.995947719
401.008077669
401.028294253
400.995947719
400.995947719
400.555226183
400.551182866
400.535009599
400.995947719
401.012120986
400.991904402
400.991904402
401.436669254
401.841000938
401.857174206
400.995947719
401.873347473
401.861217523
401.873347473
401.857174206
401.893564057
401.87739079
400.991904402
403.146992278
401.008077669
402.72244401
400.991904402
402.318112326

Average distance is : 401.316 cm
Average deviation is : 0.578 cm
Block: 3
======================================
400.583529401
400.991904402
401.400279403
400.555226183
400.555226183
400.555226183
401.400279403
400.991904402
400.518836331
400.518836331
400.975731134
400.959557867
401.400279403
401.857174206
400.959557867
401.384106135
400.975731134
400.514793015
400.959557867
400.502663064
401.824827671
400.502663064
401.367932868
400.906994748
400.498619747
401.367932868
400.518836331
401.367932868
400.939341283
400.9433846
401.845044255
401.824827671
400.48244648
401.824827671
401.384106135
400.9433846
401.400279403
400.959557867
401.824827671
400.48244648
400.502663064
400.518836331
400.48244648
400.518836331
401.841000938
401.384106135
401.400279403
401.824827671
401.841000938
401.384106135
401.841000938
400.518836331
401.824827671
400.959557867
400.466273212
400.959557867
400.486489797
401.808654404
400.9433846
401.380062819
401.363889551
401.367932868
400.9433846
401.824827671
401.384106135
401.824827671
401.363889551
401.367932868
401.384106135
403.535150695
402.245332623
402.229159355
403.110602427
401.367932868
402.245332623
403.539194012
402.265549207
401.808654404
401.384106135
401.804611087
402.249375939
401.351759601
403.078255892
402.249375939
401.792481136
402.249375939
401.351759601
401.824827671
402.245332623
402.233202672
401.808654404
401.351759601
402.690097475
401.363889551
403.110602427
401.824827671
401.824827671
401.820784354
401.41645267
401.347716284

Average distance is : 401.422 cm
Average deviation is : 0.701 cm
Block: 4
======================================
401.363889551
402.229159355
402.673924208
401.792481136
401.808654404
402.233202672
401.792481136
401.788437819
401.335586333
402.653707623
401.772264552
401.367932868
401.788437819
401.331543016
401.331543016
401.788437819
401.792481136
401.331543016
401.331543016
401.331543016
401.347716284
401.331543016
401.331543016
401.788437819
400.923168015
400.906994748
401.788437819
401.792481136
400.906994748
400.9433846
401.351759601
401.351759601
400.927211332
401.776307869
401.331543016
401.804611087
401.788437819
403.062082624
401.347716284
401.788437819
401.351759601
402.233202672
401.335586333
400.927211332
401.367932868
401.776307869
400.906994748
400.927211332
401.347716284
400.906994748
400.927211332
401.808654404
401.792481136
402.669880891
400.890821481
400.890821481
401.808654404
402.637534356
401.347716284
401.315369749
400.874648213
401.792481136
401.319413066
400.874648213
401.739918017
401.772264552
402.605187821
400.858474946
401.735874701
402.605187821
403.062082624
402.160422969
401.739918017
401.72374475
400.858474946
403.062082624
402.19681282
403.907135844
402.19681282
401.739918017
401.315369749
403.062082624
402.19681282
403.911179161
404.331684113
401.72374475
402.19681282
403.04186604
402.212986088
402.641577673
403.062082624
402.621361089
403.094429159
403.110602427
403.078255892
402.217029405
401.756091285
404.368073964
402.217029405
403.943525696

Average distance is : 401.885 cm
Average deviation is : 0.814 cm
Block: 5
======================================
401.756091285
401.756091285
401.772264552
401.772264552
401.739918017
402.641577673
402.212986088
403.482587576
402.281722474
403.911179161
401.772264552
401.756091285
401.756091285
402.212986088
401.772264552
401.315369749
401.804611087
402.690097475
401.756091285
402.637534356
402.212986088
402.212986088
402.212986088
401.792481136
402.19681282
402.212986088
403.959698963
402.65775094
401.808654404
401.792481136
403.094429159
401.808654404
402.249375939
402.65775094
402.212986088
401.363889551
401.315369749
402.669880891
402.653707623
402.653707623
401.804611087
401.347716284
401.351759601
401.776307869
402.217029405
402.19681282
401.351759601
401.331543016
401.788437819
401.367932868
401.331543016
401.315369749
401.331543016
401.792481136
401.792481136
401.363889551
401.347716284
402.233202672
401.331543016
401.331543016
402.212986088
403.470457625
402.217029405
401.331543016
402.65775094
403.045909357
401.315369749
402.621361089
401.756091285
401.756091285
401.739918017
401.299196482
401.283023214
402.19681282
403.045909357
402.621361089
401.772264552
402.637534356
401.315369749
404.351900697
403.062082624
402.669880891
401.756091285
403.470457625
401.772264552
401.756091285
402.653707623
402.217029405
402.212986088
402.212986088
401.772264552
402.217029405
401.351759601
402.212986088
402.217029405
402.212986088
401.367932868
401.351759601
401.331543016
401.347716284

Average distance is : 402.061 cm
Average deviation is : 0.661 cm
Block: 6
======================================
401.772264552
401.808654404
403.078255892
403.486630893
400.890821481
403.470457625
402.180639553
400.890821481
401.331543016
401.400279403
401.772264552
402.212986088
401.351759601
401.347716284
403.045909357
403.062082624
402.19681282
401.347716284
402.19681282
401.756091285
401.756091285
401.788437819
401.756091285
401.299196482
401.756091285
402.19681282
401.772264552
401.299196482
402.217029405
401.788437819
401.772264552
401.788437819
402.212986088
402.233202672
402.233202672
403.486630893
403.078255892
401.363889551
401.760134602
401.347716284
402.229159355
401.331543016
401.756091285
403.927352428
402.19681282
401.772264552
403.50280416
401.772264552
402.19681282
402.217029405
401.331543016
401.772264552
401.788437819
402.217029405
401.792481136
401.788437819
401.331543016
402.233202672
402.217029405
402.217029405
401.808654404
401.380062819
401.808654404
401.367932868
401.367932868
401.367932868
400.9433846
400.923168015
400.906994748
401.367932868
401.804611087
400.9433846
400.486489797
402.233202672
400.502663064
400.9433846
400.959557867
401.820784354
401.400279403
401.384106135
401.400279403
400.959557867
400.959557867
401.841000938
401.400279403
401.384106135
401.384106135
401.384106135
401.804611087
401.788437819
401.367932868
401.808654404
401.367932868
401.384106135
401.384106135
401.363889551
401.396236086
401.363889551
401.384106135
401.808654404

Average distance is : 401.758 cm
Average deviation is : 0.653 cm
Block: 7
======================================
401.363889551
400.9433846
400.927211332
401.824827671
400.939341283
401.845044255
401.400279403
401.400279403
400.9433846
401.841000938
401.824827671
401.384106135
403.114645743
401.384106135
400.927211332
401.367932868
401.367932868
400.9433846
402.245332623
401.384106135
400.959557867
401.808654404
400.927211332
401.808654404
401.380062819
400.939341283
401.808654404
400.959557867
400.927211332
400.927211332
401.380062819
400.923168015
401.824827671
401.841000938
401.384106135
400.959557867
400.939341283
400.923168015
400.9433846
402.265549207
401.804611087
401.363889551
401.824827671
403.551323962
402.669880891
401.363889551
401.824827671
401.347716284
402.245332623
401.808654404
401.808654404
401.824827671
401.363889551
401.363889551
401.384106135
402.233202672
400.906994748
401.841000938
403.535150695
401.808654404
401.384106135
401.792481136
401.363889551
402.669880891
401.788437819
402.229159355
402.245332623
403.078255892
401.367932868
403.943525696
401.792481136
401.792481136
403.094429159
404.776448965
401.351759601
401.347716284
401.792481136
402.669880891
402.653707623
401.772264552
403.518977427
402.669880891
401.788437819
402.233202672
401.792481136
402.229159355
401.347716284
402.673924208
402.690097475
401.351759601
401.792481136
401.808654404
401.808654404
402.690097475
401.347716284
402.229159355
401.804611087
402.245332623
401.347716284
401.792481136

Average distance is : 401.791 cm
Average deviation is : 0.737 cm
Block: 8
======================================
401.363889551
402.229159355
401.772264552
402.65775094
401.804611087
402.229159355
402.217029405
402.233202672
403.50280416
402.229159355
401.367932868
401.772264552
403.523020744
401.315369749
401.315369749
402.637534356
400.890821481
401.772264552
401.347716284
400.927211332
401.772264552
400.906994748
400.858474946
400.890821481
401.772264552
401.756091285
400.890821481
401.347716284
401.772264552
400.906994748
400.906994748
400.911038065
400.927211332
401.788437819
401.788437819
401.347716284
402.217029405
401.367932868
401.351759601
401.363889551
401.347716284
401.347716284
401.331543016
400.927211332
401.788437819
401.772264552
400.906994748
401.788437819
400.9433846
401.331543016
401.804611087
401.808654404
401.347716284
400.470316529
402.217029405
400.911038065
400.923168015
401.331543016
400.911038065
400.911038065
400.923168015
401.315369749
401.772264552
401.792481136
402.212986088
401.788437819
401.315369749
400.927211332
401.756091285
401.331543016
400.906994748
401.772264552
400.906994748
401.772264552
403.078255892
402.233202672
401.331543016
401.347716284
401.331543016
402.212986088
402.641577673
403.486630893
401.331543016
400.911038065
401.772264552
401.347716284
401.347716284
403.082299209
401.351759601
400.890821481
400.906994748
401.792481136
401.380062819
402.669880891
401.367932868
400.567356133
401.41645267
401.380062819
401.400279403
400.991904402

Average distance is : 401.561 cm
Average deviation is : 0.638 cm
Block: 9
======================================
400.57139945
401.432625937
400.514793015
400.518836331
400.535009599
400.535009599
401.400279403
402.285765791
400.959557867
400.959557867
400.975731134
401.400279403
400.518836331
401.400279403
400.9433846
400.975731134
400.939341283
400.959557867
401.841000938
400.9433846
401.841000938
400.975731134
400.939341283
400.959557867
401.400279403
401.384106135
401.857174206
401.824827671
400.959557867
402.281722474
400.975731134
400.9433846
401.857174206
400.959557867
401.824827671
401.820784354
400.959557867
401.384106135
401.384106135
401.384106135
401.824827671
401.824827671
401.841000938
402.281722474
401.384106135
400.975731134
402.281722474
401.841000938
400.979774451
400.975731134
401.400279403
401.384106135
400.927211332
402.281722474
400.939341283
401.400279403
400.9433846
400.906994748
401.380062819
400.939341283
401.824827671
401.367932868
402.26150589
401.347716284
402.245332623
402.233202672
401.808654404
400.9433846
401.351759601
401.824827671
401.347716284
401.804611087
401.384106135
401.384106135
401.347716284
401.772264552
401.384106135
400.911038065
400.927211332
400.923168015
401.347716284
400.9433846
401.808654404
400.927211332
400.927211332
400.911038065
401.384106135
400.906994748
401.367932868
401.384106135
401.384106135
400.890821481
400.923168015
401.363889551
401.363889551
400.890821481
401.384106135
400.927211332
402.233202672
401.792481136

Average distance is : 401.327 cm
Average deviation is : 0.469 cm
Block: 10
======================================
401.347716284
401.824827671
401.808654404
401.804611087
401.367932868
403.975872231
401.804611087
404.351900697
401.331543016
401.367932868
401.824827671
401.351759601
402.233202672
402.249375939
401.315369749
401.772264552
401.335586333
402.229159355
402.19681282
401.776307869
402.637534356
401.788437819
401.788437819
403.114645743
403.078255892
401.776307869
401.788437819
401.756091285
402.641577673
403.098472476
402.249375939
403.094429159
402.229159355
402.212986088
402.217029405
401.792481136
402.249375939
401.808654404
403.96374228
402.233202672
401.756091285
402.686054158
401.808654404
402.673924208
403.110602427
402.673924208
403.943525696
401.363889551
402.233202672
401.808654404
401.808654404
401.331543016
403.082299209
401.367932868
400.911038065
401.367932868
400.927211332
401.824827671
401.351759601
400.927211332
400.911038065
401.367932868
401.384106135
400.927211332
401.824827671
401.363889551
401.804611087
401.820784354
401.363889551
401.347716284
400.890821481
401.347716284
400.923168015
401.331543016
401.315369749
401.331543016
401.331543016
402.200856137
402.637534356
402.621361089
402.233202672
401.772264552
402.19681282
402.229159355
401.315369749
401.331543016
401.772264552
402.212986088
400.890821481
400.890821481
400.923168015
401.335586333
401.792481136
401.331543016
401.347716284
401.367932868
401.351759601
403.486630893
401.788437819
402.673924208

Average distance is : 401.900 cm
Average deviation is : 0.746 cm