
Block: 1
======================================
200.690881801
200.711242867
200.674592948
200.210360646
200.230721712
201.151041889
200.316238189
200.283660483
201.102175331
200.214432859
200.674592948
200.214432859
200.658304095
200.214432859
200.711242867
200.230721712
200.690881801
200.707170653
200.27958827
200.230721712
200.247010565
200.247010565
200.230721712
200.230721712
200.230721712
200.194071794
200.739748359
200.214432859
200.214432859
200.674592948
200.316238189
200.295877123
200.776398277
200.247010565
201.134753036
200.247010565
200.739748359
200.247010565
200.230721712
200.299949336
200.247010565
200.247010565
200.690881801
200.214432859
200.690881801
200.230721712
200.247010565
200.210360646
200.226649499
200.226649499
200.230721712
200.247010565
200.226649499
200.674592948
200.690881801
200.230721712
200.27958827
201.118464184
201.134753036
200.658304095
200.658304095
200.247010565
200.247010565
200.247010565
200.230721712
200.743820572
201.118464184
200.226649499
200.247010565
200.247010565
200.210360646
200.739748359
200.210360646
200.694954014
200.247010565
200.230721712
200.760109425
200.230721712
201.578624272
200.690881801
200.210360646
200.194071794
200.247010565
200.760109425
200.690881801
200.226649499
200.760109425
201.118464184
200.743820572
200.230721712
200.230721712
201.118464184
201.118464184
200.267371631
201.134753036
200.214432859
200.743820572
200.743820572
201.118464184
200.760109425

Average distance is : 200.491 cm
Average deviation is : 0.331 cm
Block: 2
======================================
200.674592948
201.118464184
201.114391971
200.670520735
200.214432859
200.230721712
200.674592948
200.690881801
200.690881801
200.230721712
201.134753036
201.098103118
200.283660483
201.118464184
201.118464184
200.690881801
200.230721712
200.230721712
200.230721712
200.230721712
200.230721712
200.226649499
200.230721712
200.230721712
200.230721712
200.743820572
200.707170653
200.230721712
200.230721712
201.118464184
200.690881801
200.739748359
201.118464184
200.247010565
201.118464184
201.118464184
200.247010565
201.102175331
201.118464184
201.118464184
201.118464184
201.118464184
200.230721712
201.118464184
201.118464184
201.118464184
200.642015243
201.118464184
201.118464184
200.230721712
200.739748359
201.118464184
200.690881801
200.658304095
200.743820572
201.118464184
201.102175331
201.118464184
200.621654177
200.674592948
200.658304095
200.654231882
201.118464184
201.118464184
201.114391971
201.102175331
201.102175331
201.098103118
201.102175331
201.118464184
201.13882525
200.674592948
201.118464184
201.102175331
201.118464184
201.118464184
200.690881801
201.118464184
201.118464184
201.118464184
200.247010565
201.102175331
200.743820572
200.247010565
201.102175331
200.230721712
201.118464184
200.760109425
200.267371631
200.27958827
200.267371631
201.118464184
200.230721712
200.756037211
200.210360646
200.743820572
201.118464184
200.230721712
200.283660483
200.230721712

Average distance is : 200.748 cm
Average deviation is : 0.375 cm
Block: 3
======================================
200.760109425
200.230721712
200.27958827
200.247010565
200.230721712
201.134753036
201.134753036
201.102175331
200.263299417
201.118464184
200.230721712
201.118464184
201.13882525
201.134753036
200.27958827
200.690881801
201.134753036
201.134753036
201.358724761
200.230721712
201.102175331
200.642015243
200.247010565
200.247010565
201.118464184
201.098103118
201.118464184
200.658304095
200.230721712
200.230721712
201.118464184
201.13882525
200.654231882
201.118464184
200.210360646
200.230721712
200.230721712
200.230721712
200.674592948
200.194071794
200.295877123
200.230721712
200.756037211
200.247010565
200.263299417
200.743820572
201.118464184
200.230721712
200.210360646
200.760109425
200.739748359
200.760109425
201.134753036
200.727531719
200.27958827
200.739748359
200.637943029
201.098103118
200.743820572
200.658304095
200.654231882
200.674592948
200.654231882
201.118464184
201.081814265
200.637943029
200.739748359
201.102175331
200.654231882
201.102175331
201.118464184
201.118464184
200.637943029
200.198144007
200.658304095
200.654231882
200.760109425
201.102175331
201.13882525
200.194071794
201.118464184
201.134753036
200.642015243
200.198144007
201.118464184
201.102175331
200.658304095
200.743820572
201.081814265
201.081814265
200.637943029
200.674592948
200.658304095
201.118464184
201.102175331
201.102175331
201.098103118
200.637943029
201.098103118
201.102175331

Average distance is : 200.739 cm
Average deviation is : 0.361 cm
Block: 4
======================================
201.102175331
201.102175331
201.118464184
200.621654177
201.134753036
200.674592948
200.674592948
200.658304095
201.102175331
200.210360646
201.546046567
200.674592948
200.658304095
201.098103118
200.674592948
201.081814265
200.723459506
201.102175331
201.098103118
200.654231882
200.658304095
201.134753036
200.642015243
201.118464184
200.743820572
200.230721712
200.621654177
200.674592948
200.674592948
201.118464184
200.658304095
200.658304095
200.674592948
200.658304095
200.642015243
201.102175331
200.177782941
200.177782941
200.658304095
200.637943029
201.102175331
200.637943029
200.194071794
200.198144007
200.214432859
200.642015243
200.654231882
200.654231882
200.658304095
200.637943029
200.658304095
200.658304095
201.118464184
200.654231882
201.102175331
200.161494088
200.654231882
200.214432859
201.102175331
200.177782941
201.118464184
200.723459506
200.214432859
200.214432859
201.102175331
200.642015243
200.658304095
200.210360646
201.098103118
200.27958827
200.637943029
200.637943029
200.637943029
201.102175331
201.098103118
200.658304095
200.637943029
200.283660483
200.739748359
200.727531719
200.743820572
200.654231882
201.098103118
200.263299417
201.098103118
200.642015243
200.177782941
200.214432859
200.642015243
201.102175331
200.670520735
200.674592948
200.658304095
201.118464184
201.098103118
200.295877123
200.247010565
200.637943029
200.283660483
201.102175331

Average distance is : 200.703 cm
Average deviation is : 0.323 cm
Block: 5
======================================
200.177782941
200.214432859
200.177782941
200.198144007
200.194071794
200.727531719
200.658304095
201.098103118
200.658304095
200.263299417
201.098103118
201.102175331
201.102175331
200.670520735
200.637943029
200.654231882
200.658304095
200.658304095
200.177782941
200.658304095
201.102175331
201.118464184
200.654231882
200.637943029
200.658304095
200.637943029
201.118464184
200.263299417
200.658304095
201.118464184
200.654231882
200.283660483
200.230721712
201.118464184
201.118464184
200.295877123
200.263299417
200.283660483
200.230721712
200.283660483
200.658304095
201.098103118
201.102175331
200.214432859
200.214432859
200.711242867
200.263299417
200.27958827
200.299949336
201.114391971
200.637943029
200.295877123
201.098103118
201.102175331
200.247010565
200.283660483
201.102175331
200.674592948
200.658304095
200.743820572
201.118464184
200.230721712
200.654231882
200.194071794
200.198144007
200.674592948
201.098103118
201.118464184
200.637943029
200.27958827
200.295877123
200.247010565
200.283660483
200.637943029
200.658304095
200.177782941
200.723459506
200.295877123
201.118464184
200.674592948
200.299949336
200.230721712
201.098103118
201.102175331
201.118464184
200.674592948
201.118464184
201.118464184
200.230721712
201.118464184
200.743820572
201.098103118
200.637943029
200.230721712
200.27958827
201.098103118
200.27958827
200.690881801
200.251082778
201.118464184

Average distance is : 200.632 cm
Average deviation is : 0.355 cm
Block: 6
======================================
200.210360646
200.230721712
200.263299417
200.230721712
200.690881801
200.214432859
201.118464184
200.295877123
200.247010565
200.674592948
200.230721712
200.263299417
200.690881801
200.674592948
200.247010565
200.743820572
201.102175331
200.658304095
201.102175331
200.295877123
200.263299417
200.690881801
201.098103118
200.267371631
200.637943029
200.295877123
201.102175331
201.081814265
200.658304095
201.102175331
200.198144007
200.654231882
200.658304095
201.118464184
201.081814265
201.085886478
200.637943029
200.642015243
200.230721712
201.118464184
200.637943029
201.118464184
201.167330742
201.098103118
201.102175331
201.118464184
200.637943029
201.118464184
200.642015243
200.637943029
200.654231882
200.642015243
200.194071794
200.210360646
200.637943029
200.637943029
200.670520735
200.658304095
200.194071794
200.637943029
200.214432859
200.214432859
200.674592948
200.658304095
200.727531719
200.723459506
200.743820572
200.198144007
200.198144007
200.194071794
201.102175331
200.642015243
200.658304095
201.118464184
200.177782941
200.642015243
201.102175331
200.658304095
200.658304095
200.637943029
200.658304095
201.118464184
200.654231882
201.118464184
200.642015243
201.118464184
201.118464184
201.102175331
200.658304095
201.102175331
200.263299417
200.642015243
200.658304095
200.658304095
201.118464184
201.102175331
200.642015243
201.102175331
200.214432859
200.214432859

Average distance is : 200.671 cm
Average deviation is : 0.334 cm
Block: 7
======================================
200.181855154
200.181855154
200.658304095
201.118464184
200.654231882
200.658304095
200.658304095
201.102175331
201.118464184
201.081814265
200.637943029
200.654231882
200.637943029
200.642015243
200.642015243
201.102175331
200.621654177
200.637943029
200.658304095
200.637943029
200.654231882
200.637943029
200.637943029
200.210360646
201.118464184
200.194071794
200.637943029
201.098103118
200.658304095
200.658304095
201.102175331
201.118464184
200.674592948
200.642015243
200.658304095
200.177782941
200.674592948
201.118464184
200.214432859
200.674592948
200.658304095
200.642015243
200.642015243
200.674592948
201.102175331
200.637943029
200.637943029
200.621654177
201.114391971
200.654231882
200.27958827
201.102175331
200.642015243
201.118464184
200.674592948
201.102175331
200.637943029
200.27958827
200.642015243
200.658304095
200.674592948
200.658304095
200.181855154
200.658304095
201.102175331
200.214432859
200.214432859
200.181855154
201.085886478
200.637943029
200.658304095
201.102175331
200.658304095
200.637943029
200.637943029
200.177782941
200.674592948
200.181855154
200.642015243
200.658304095
200.658304095
201.102175331
201.118464184
200.642015243
200.214432859
200.674592948
200.198144007
200.642015243
200.198144007
200.658304095
200.198144007
200.198144007
200.177782941
200.654231882
201.081814265
200.654231882
201.118464184
201.102175331
200.621654177
200.642015243

Average distance is : 200.666 cm
Average deviation is : 0.298 cm
Block: 8
======================================
200.658304095
200.637943029
200.674592948
201.118464184
201.102175331
201.085886478
200.637943029
200.637943029
200.177782941
200.226649499
200.247010565
201.085886478
200.674592948
201.085886478
200.658304095
200.674592948
200.674592948
200.194071794
200.230721712
200.654231882
200.194071794
201.118464184
200.658304095
200.654231882
200.194071794
200.194071794
200.670520735
200.637943029
200.637943029
200.637943029
200.658304095
200.194071794
200.177782941
200.642015243
200.658304095
200.198144007
200.642015243
200.230721712
200.194071794
200.658304095
200.283660483
200.198144007
200.637943029
200.658304095
200.194071794
200.674592948
200.658304095
200.637943029
200.637943029
200.177782941
200.654231882
200.654231882
201.081814265
200.670520735
200.637943029
200.214432859
200.658304095
201.102175331
200.214432859
200.674592948
200.674592948
200.214432859
200.642015243
200.642015243
200.654231882
200.654231882
200.654231882
200.727531719
200.194071794
200.194071794
200.637943029
201.098103118
201.102175331
201.102175331
201.102175331
200.658304095
200.658304095
200.658304095
200.198144007
201.102175331
200.658304095
200.642015243
200.214432859
200.658304095
200.642015243
200.654231882
200.27958827
200.637943029
200.654231882
200.210360646
200.210360646
200.658304095
200.177782941
200.198144007
200.230721712
200.210360646
200.27958827
201.102175331
201.118464184
200.283660483

Average distance is : 200.576 cm
Average deviation is : 0.299 cm
Block: 9
======================================
200.674592948
200.194071794
200.210360646
200.230721712
200.214432859
200.230721712
201.081814265
200.674592948
200.658304095
200.658304095
200.674592948
200.194071794
201.098103118
201.102175331
200.658304095
200.27958827
201.102175331
200.295877123
201.102175331
201.118464184
200.283660483
200.658304095
201.102175331
200.674592948
200.658304095
200.637943029
200.654231882
200.654231882
200.674592948
200.674592948
200.198144007
200.658304095
200.658304095
200.642015243
200.181855154
200.642015243
200.658304095
200.658304095
200.642015243
200.658304095
200.658304095
200.658304095
200.642015243
200.658304095
200.214432859
200.642015243
200.198144007
201.085886478
201.118464184
200.637943029
200.654231882
200.658304095
200.658304095
200.181855154
200.674592948
200.658304095
200.642015243
200.642015243
200.674592948
200.198144007
200.658304095
200.654231882
200.654231882
200.654231882
200.642015243
200.194071794
200.637943029
201.102175331
200.690881801
200.743820572
200.707170653
200.654231882
201.546046567
200.642015243
200.642015243
201.118464184
200.658304095
200.674592948
200.214432859
200.674592948
200.658304095
200.658304095
200.658304095
201.118464184
200.658304095
200.654231882
200.642015243
200.674592948
200.27958827
200.642015243
200.674592948
200.194071794
200.658304095
201.098103118
201.118464184
200.642015243
201.118464184
201.118464184
200.637943029
200.658304095

Average distance is : 200.656 cm
Average deviation is : 0.279 cm
Block: 10
======================================
201.118464184
201.118464184
200.177782941
200.674592948
201.102175331
201.118464184
200.194071794
201.118464184
200.658304095
200.3813936
200.247010565
200.214432859
200.674592948
200.194071794
200.711242867
200.637943029
200.658304095
200.198144007
200.642015243
200.177782941
200.674592948
200.658304095
200.642015243
201.102175331
200.654231882
200.177782941
200.198144007
200.674592948
200.674592948
201.118464184
200.658304095
201.134753036
201.118464184
201.134753036
200.654231882
201.114391971
201.118464184
200.654231882
200.658304095
200.181855154
201.118464184
201.102175331
201.118464184
200.674592948
201.102175331
200.654231882
200.674592948
200.674592948
200.637943029
200.670520735
201.118464184
201.118464184
200.743820572
201.118464184
201.102175331
200.743820572
201.102175331
200.760109425
201.134753036
200.295877123
201.118464184
200.658304095
200.642015243
200.658304095
200.27958827
200.27958827
200.654231882
200.658304095
200.283660483
200.674592948
200.674592948
200.194071794
200.230721712
201.098103118
201.118464184
201.118464184
200.654231882
201.098103118
200.674592948
200.210360646
200.658304095
200.658304095
200.658304095
200.198144007
201.118464184
200.654231882
201.098103118
201.118464184
201.118464184
200.658304095
200.658304095
201.114391971
201.102175331
200.198144007
200.674592948
200.198144007
200.642015243
200.658304095
200.658304095
200.658304095

Average distance is : 200.722 cm
Average deviation is : 0.326 cm