
Block: 1
======================================
200.230721712
200.690881801
200.658304095
200.674592948
200.226649499
200.776398277
200.230721712
200.299949336
200.247010565
200.247010565
200.230721712
200.263299417
200.263299417
200.247010565
200.707170653
200.690881801
200.230721712
200.247010565
200.690881801
200.690881801
200.230721712
200.674592948
200.690881801
200.690881801
200.230721712
200.674592948
200.230721712
200.230721712
200.674592948
200.694954014
200.690881801
200.690881801
200.670520735
200.226649499
200.690881801
200.247010565
200.690881801
200.230721712
200.690881801
200.247010565
200.674592948
200.711242867
200.251082778
200.226649499
200.694954014
200.690881801
200.247010565
200.674592948
200.247010565
200.711242867
200.690881801
200.690881801
200.690881801
200.707170653
200.674592948
200.690881801
200.230721712
200.214432859
200.332527041
201.134753036
201.151041889
200.711242867
200.316238189
200.267371631
200.210360646
200.654231882
201.151041889
200.690881801
200.690881801
201.155114102
201.134753036
200.690881801
200.674592948
200.707170653
201.151041889

Average distance is : 200.549 cm
Average deviation is : 0.278 cm
Block: 2
======================================
200.247010565
200.707170653
200.230721712
201.134753036
201.118464184
200.283660483
200.27958827
200.194071794
200.247010565
200.230721712
200.247010565
200.230721712
200.230721712
200.247010565
200.776398277
201.134753036
200.690881801
200.247010565
200.247010565
200.690881801
200.247010565
200.27958827
200.690881801
200.247010565
200.316238189
200.711242867
200.690881801
200.299949336
200.230721712
200.690881801
200.674592948
200.690881801
200.247010565
200.707170653
200.210360646
200.247010565
200.690881801
200.711242867
200.247010565
200.690881801
200.230721712
200.674592948
200.690881801
200.690881801
200.226649499
200.690881801
200.694954014
200.674592948
201.167330742
200.247010565
200.230721712
200.694954014
200.247010565
200.230721712
200.690881801
200.690881801
200.694954014
200.690881801
200.690881801
200.707170653
200.210360646
200.247010565
200.247010565
200.247010565
200.247010565
200.247010565
200.247010565
201.13882525
200.776398277
200.674592948
200.27958827
202.450077891
200.707170653
200.299949336
200.247010565

Average distance is : 200.517 cm
Average deviation is : 0.359 cm
Block: 3
======================================
200.711242867
200.230721712
200.707170653
200.247010565
200.263299417
200.690881801
201.134753036
201.134753036
200.267371631
200.690881801
200.230721712
200.230721712
200.694954014
200.690881801
200.247010565
200.825264835
200.230721712
200.230721712
200.247010565
200.690881801
200.247010565
200.226649499
200.674592948
200.707170653
200.707170653
200.214432859
200.690881801
200.247010565
200.226649499
200.674592948
200.247010565
200.711242867
200.230721712
200.690881801
200.690881801
200.690881801
200.690881801
200.674592948
200.690881801
200.707170653
200.674592948
201.134753036
200.690881801
200.230721712
200.711242867
200.674592948
200.690881801
200.226649499
200.690881801
200.247010565
200.711242867
200.247010565
200.247010565
200.226649499
200.674592948
200.690881801
200.674592948
201.118464184
201.134753036
200.690881801
200.690881801
201.134753036
200.690881801
201.151041889
200.348815894
201.134753036
200.674592948
200.690881801
201.134753036
200.694954014
200.247010565
200.230721712
200.247010565
200.247010565
200.776398277

Average distance is : 200.580 cm
Average deviation is : 0.297 cm
Block: 4
======================================
200.230721712
200.214432859
200.690881801
200.230721712
200.674592948
201.13882525
200.711242867
200.723459506
200.247010565
200.690881801
200.295877123
201.134753036
200.690881801
200.247010565
200.723459506
200.247010565
200.27958827
200.690881801
200.690881801
200.690881801
200.690881801
200.707170653
200.690881801
200.690881801
200.707170653
200.674592948
200.711242867
200.226649499
200.247010565
200.690881801
200.230721712
201.151041889
200.690881801
200.707170653
200.690881801
200.230721712
200.690881801
200.247010565
200.690881801
200.707170653
200.247010565
200.690881801
200.690881801
200.690881801
200.690881801
200.690881801
200.230721712
200.214432859
200.247010565
200.247010565
200.247010565
200.707170653
200.247010565
200.230721712
200.230721712
200.707170653
200.711242867
200.707170653
200.263299417
200.690881801
200.267371631
200.247010565
200.707170653
200.247010565
200.711242867
200.690881801
200.247010565
200.707170653
200.690881801
200.230721712
200.226649499
200.690881801
200.214432859
200.690881801
200.690881801

Average distance is : 200.533 cm
Average deviation is : 0.255 cm
Block: 5
======================================
200.760109425
201.578624272
200.226649499
200.230721712
200.247010565
200.674592948
200.230721712
200.226649499
200.707170653
200.316238189
201.118464184
200.27958827
201.134753036
201.098103118
200.674592948
200.690881801
200.674592948
200.674592948
200.760109425
200.690881801
200.711242867
200.226649499
200.707170653
201.118464184
200.776398277
201.118464184
200.707170653
200.690881801
200.226649499
200.247010565
200.230721712
200.674592948
200.694954014
200.690881801
200.674592948
200.690881801
200.690881801
200.230721712
200.690881801
200.694954014
200.670520735
200.711242867
200.694954014
200.723459506
200.247010565
200.707170653
200.230721712
200.230721712
200.690881801
200.210360646
200.263299417
200.690881801
201.151041889
200.690881801
200.690881801
200.247010565
200.230721712
200.230721712
200.690881801
200.247010565
200.247010565
200.214432859
200.711242867
200.247010565
200.230721712
200.690881801
200.690881801
200.690881801
200.230721712
200.707170653
200.210360646
201.134753036
200.230721712
200.230721712
200.267371631

Average distance is : 200.566 cm
Average deviation is : 0.310 cm
Block: 6
======================================
200.247010565
200.230721712
200.674592948
200.230721712
200.263299417
200.230721712
200.674592948
200.230721712
200.230721712
200.230721712
200.247010565
200.690881801
201.155114102
201.118464184
201.134753036
201.118464184
200.690881801
200.214432859
200.707170653
200.674592948
200.711242867
200.230721712
200.230721712
200.707170653
200.247010565
200.226649499
200.674592948
200.674592948
200.711242867
200.230721712
200.263299417
200.690881801
200.711242867
200.690881801
200.214432859
200.674592948
200.230721712
200.690881801
200.247010565
200.230721712
200.230721712
200.690881801
200.214432859
200.214432859
200.690881801
200.690881801
200.707170653
200.226649499
200.760109425
201.114391971
200.658304095
201.118464184
200.230721712
200.690881801
200.226649499
200.760109425
200.230721712
200.690881801
200.739748359
200.707170653
200.247010565
200.711242867
200.230721712
200.760109425
200.230721712
200.690881801
200.230721712
200.210360646
200.230721712
200.690881801
200.707170653
200.230721712
200.690881801
200.230721712
200.230721712

Average distance is : 200.509 cm
Average deviation is : 0.291 cm
Block: 7
======================================
201.102175331
201.155114102
201.114391971
200.674592948
200.214432859
200.711242867
200.690881801
200.230721712
200.711242867
200.230721712
200.690881801
200.690881801
200.760109425
200.690881801
200.230721712
200.230721712
200.230721712
200.210360646
200.247010565
200.230721712
200.230721712
200.316238189
200.247010565
200.247010565
200.210360646
200.214432859
200.674592948
200.230721712
200.690881801
200.711242867
200.247010565
200.230721712
200.247010565
200.230721712
200.690881801
200.690881801
200.230721712
200.230721712
200.230721712
200.226649499
200.226649499
200.739748359
200.230721712
200.247010565
200.247010565
200.247010565
200.707170653
200.247010565
200.27958827
200.214432859
200.690881801
200.247010565
200.230721712
200.230721712
200.247010565
200.230721712
200.707170653
201.578624272
200.230721712
200.230721712
200.690881801
200.230721712
200.247010565
200.247010565
201.183619595
200.230721712
200.247010565
200.247010565
200.230721712
200.226649499
200.230721712
200.247010565
200.707170653
200.707170653
200.247010565

Average distance is : 200.427 cm
Average deviation is : 0.301 cm
Block: 8
======================================
200.674592948
200.27958827
201.118464184
200.760109425
200.247010565
201.134753036
200.690881801
200.198144007
200.658304095
201.118464184
200.247010565
200.263299417
200.210360646
200.760109425
200.230721712
200.263299417
200.247010565
200.247010565
201.098103118
200.230721712
200.247010565
201.102175331
200.230721712
200.707170653
200.707170653
200.247010565
200.760109425
201.118464184
200.690881801
200.210360646
200.690881801
200.690881801
200.230721712
200.247010565
200.690881801
200.247010565
200.670520735
200.230721712
200.230721712
200.230721712
200.210360646
201.118464184
200.247010565
200.299949336
200.743820572
200.230721712
200.707170653
200.690881801
200.299949336
200.674592948
200.690881801
200.247010565
200.247010565
200.226649499
200.247010565
200.247010565
200.674592948
200.263299417
200.247010565
200.690881801
200.247010565
200.283660483
200.247010565
200.247010565
200.230721712
200.247010565
200.247010565
200.247010565
200.214432859
200.230721712
200.707170653
200.247010565
200.263299417
200.214432859
200.690881801

Average distance is : 200.459 cm
Average deviation is : 0.296 cm
Block: 9
======================================
200.194071794
200.230721712
200.198144007
200.674592948
200.756037211
200.674592948
201.134753036
200.674592948
200.230721712
200.760109425
200.230721712
200.295877123
200.27958827
200.27958827
200.230721712
200.27958827
201.118464184
200.283660483
200.263299417
200.27958827
200.247010565
200.230721712
200.299949336
200.230721712
200.214432859
200.27958827
200.230721712
200.230721712
200.711242867
200.230721712
200.690881801
200.674592948
200.214432859
200.707170653
200.690881801
200.690881801
200.247010565
201.578624272
200.230721712
200.230721712
200.230721712
200.295877123
200.707170653
200.247010565
200.226649499
200.247010565
201.578624272
200.230721712
200.214432859
200.128916383
200.210360646
200.295877123
200.210360646
200.226649499
200.694954014
200.690881801
200.690881801
200.230721712
200.230721712
200.230721712
200.27958827
200.690881801
200.247010565
200.711242867
200.247010565
200.214432859
200.247010565
200.230721712
200.214432859
200.226649499
200.674592948
200.674592948
200.230721712
200.690881801
200.670520735

Average distance is : 200.427 cm
Average deviation is : 0.307 cm
Block: 10
======================================
200.711242867
200.214432859
200.247010565
200.247010565
200.267371631
200.674592948
201.118464184
200.674592948
200.690881801
200.230721712
200.674592948
200.230721712
200.247010565
200.674592948
201.56233542
200.230721712
200.230721712
200.27958827
200.247010565
200.230721712
200.230721712
200.263299417
200.690881801
200.247010565
200.707170653
200.694954014
200.214432859
200.226649499
200.230721712
200.210360646
201.134753036
200.230721712
200.670520735
200.295877123
200.690881801
200.658304095
200.707170653
200.198144007
200.230721712
200.214432859
200.214432859
200.247010565
200.230721712
200.210360646
200.739748359
200.694954014
200.230721712
200.230721712
200.674592948
200.690881801
200.230721712
200.707170653
200.230721712
200.283660483
200.214432859
200.247010565
200.230721712
200.654231882
200.230721712
200.674592948
201.118464184
200.674592948
200.214432859
200.27958827
200.210360646
200.674592948
200.230721712
200.230721712
200.230721712
200.690881801
200.670520735
200.674592948
200.690881801
200.230721712
200.210360646

Average distance is : 200.444 cm
Average deviation is : 0.288 cm