
Block: 1
======================================
200.316238189
200.332527041
200.332527041
201.199908447
110.422132397
198.642558575
199.888655806
200.348815894
201.187691808
200.79268713
200.332527041
199.888655806
199.872366953
200.312165976
199.904944658
199.904944658
199.888655806
201.183619595
199.904944658
111.342452574
198.626269722
114.266301632
196.1462919
113.341909242
196.55758543
117.581083155
190.05018878
122.378150272
187.167061853
124.495701122
183.579442048
125.998347783
183.54279213
125.98205893
181.970917845
131.75645721
177.426327944
133.307970428
175.805587101
134.611078644
174.543201017
134.163135195
175.736359477
134.643656349
175.292488241
133.3609092
175.75264833
133.751841664
175.308777094
132.302133775
176.778846049
131.91120131
177.19013958
132.371361399
177.19013958
133.226526165
175.255838323
132.815232635
176.709618425
134.456334543
175.088877583
135.307427096
174.201135111
134.896133566
174.233712816
134.916494632
172.393072462
138.829891491
170.255160546
139.269690514
168.972413397
140.108566427
168.153898549
140.878214717
167.811832643

Block: 2
======================================
200.79268713
111.501268888
196.728618383
199.888655806
199.904944658
199.888655806
199.888655806
200.352888107
200.348815894
200.348815894
199.884583592
200.79268713
200.808975983
200.796759343
112.116173077
196.985167813
201.199908447
200.348815894
116.196530676
192.082223153
200.79268713
112.523394394
197.038106585
199.904944658
200.332527041
111.240647244
197.054395437
112.731077266
196.40284133
200.348815894
199.461073422
199.921233511
112.572260952
195.274838281
200.79268713
110.491360021
197.73852725
200.348815894
107.982876706
199.053852105
112.629271936
196.097425342
200.348815894
108.390098023
199.049779892
110.935231256
196.899651337
113.859080315
194.460395646
120.126216388
188.633058596
120.126216388
187.761604977
122.276344943
185.595187569
122.51660552
187.012317753
122.960476756
185.766220522
122.94011569
186.22638061
122.944187903
185.350854778
123.404347992
184.89069469
123.868580294
184.430534601
124.308379316
183.575369835
125.591126466
182.296694899
126.051286554
182.691699576
126.906451321
180.981370044

Block: 3
======================================
200.352888107
199.872366953
199.904944658
199.852005887
200.332527041
199.888655806
200.348815894
111.256936097
198.707713985
200.332527041
200.332527041
199.904944658
200.348815894
199.888655806
200.316238189
201.199908447
199.888655806
200.332527041
110.470998955
199.477362275
200.332527041
199.888655806
200.316238189
109.514028859
199.070140958
200.352888107
199.888655806
200.348815894
199.872366953
199.872366953
200.348815894
200.348815894
111.309874868
197.376100278
199.888655806
111.36281364
197.701877332
199.904944658
199.904944658
200.348815894
108.817680407
200.352888107
111.313947082
196.968878961
114.266301632
194.012452197
116.807362652
192.220678401
119.030791044
189.691834021
119.816728187
188.85703032
120.276888275
188.413159084
120.362404752
187.521344399
122.907537985
185.709209538
123.86450808
184.772600508
124.37760694
185.200182891
125.623704171
182.650977445
126.49515779
182.638760805
126.087936473
182.174528503
129.024002171
176.901012444
131.14155302
177.837621474
130.371904731
177.393750238
130.388193583

Block: 4
======================================
199.904944658
109.892744684
197.889199138
199.925305724
199.925305724
199.904944658
200.760109425
199.872366953
200.332527041
110.84971478
197.787393808
200.332527041
199.888655806
200.332527041
200.776398277
200.79268713
199.921233511
200.316238189
200.348815894
199.872366953
200.352888107
109.212685084
199.941594577
111.704879546
196.968878961
199.904944658
200.332527041
200.332527041
200.332527041
200.348815894
200.332527041
201.615274191
199.904944658
199.872366953
200.332527041
200.316238189
200.348815894
200.348815894
200.316238189
199.86829474
200.316238189
199.904944658
199.86829474
199.872366953
199.8560781
199.904944658
200.348815894
199.909016871
199.904944658
199.904944658
200.348815894
199.904944658
200.36917696
199.888655806
199.888655806
199.888655806
199.888655806
199.86829474
110.491360021
197.135839701
199.872366953
199.888655806
199.888655806
199.888655806
199.872366953
199.872366953
199.852005887
199.888655806
199.86829474
199.872366953
201.20398066
199.8560781
199.86829474
199.888655806
199.852005887

Block: 5
======================================
201.615274191
200.760109425
199.888655806
199.872366953
200.348815894
199.872366953
199.888655806
200.348815894
200.348815894
199.872366953
199.8560781
200.316238189
200.332527041
199.8560781
199.888655806
200.739748359
199.872366953
199.872366953
200.760109425
200.743820572
200.756037211
199.872366953
199.86829474
199.872366953
200.312165976
199.8560781
110.918942404
198.622197509
200.760109425
199.872366953
200.312165976
200.760109425
200.743820572
199.884583592
110.951520109
199.017202187
200.299949336
199.86829474
200.776398277
200.316238189
110.971881175
199.86829474
201.20398066
200.776398277
110.491360021
198.214976192
199.872366953
199.888655806
199.86829474
113.447786784
193.906574655
118.603208661
190.082766485
119.047079897
190.477771163
119.507239985
190.05018878
119.100018668
189.590028691
121.661440754
187.044895458
122.532894373
186.157152987
124.259512758
185.30198822
123.848219228
186.222308397
123.762702751
184.923272395
124.206573987
185.762148309
123.200737333
185.949470115
124.446834564
184.687084031

Block: 6
======================================
199.888655806
110.063777637
197.343522573
110.560587645
197.290583801
111.399463558
196.081136489
113.769491625
195.295199347
115.544976568
193.157287431
117.682888484
191.007158875
118.143048573
158.470175624
152.610260868
158.181048489
150.86735363
158.229915047
150.887714696
158.229915047
150.887714696
158.65749743
150.492710018
158.641208577
150.081416488
158.128109717
152.251906109
156.438141251
153.139648581
155.171682954
153.530581045
156.010558867
154.353168106
154.353168106
154.336879253
153.599808669
155.957620096
153.583519816
154.711522865
154.418323517
153.888935804
155.668492961
153.021554399
155.701070666
153.860430312
155.293849349
153.021554399
155.701070666
153.037843251
156.246747231
152.475877833
156.641751909
152.064584303
159.150235224
151.038386583
158.075170946
153.583519816
155.546326566
153.994813347
155.139105248
153.599808669
156.385202479
152.321133733
156.45035789
154.320590401
155.016938853
154.096618676
154.58935647
155.395654678
152.915676856
156.181591821
154.198424006
154.866266966
155.139105248

Block: 7
======================================
200.79268713
200.760109425
200.776398277
200.776398277
200.756037211
200.348815894
199.904944658
199.909016871
199.904944658
199.888655806
200.776398277
199.904944658
110.560587645
199.000913334
199.904944658
199.888655806
199.888655806
112.148750782
197.412750196
199.888655806
199.904944658
199.884583592
199.904944658
110.935231256
199.037563252
111.399463558
197.754816103
200.760109425
110.507648873
199.44478457
200.760109425
110.491360021
198.626269722
200.776398277
200.760109425
200.316238189
199.888655806
200.760109425
200.776398277
111.309874868
198.247553897
199.888655806
200.760109425
200.365104747
200.760109425
200.776398277
200.760109425
200.776398277
200.776398277
199.925305724
200.760109425
200.760109425
200.776398277
200.316238189
200.760109425
200.760109425
199.888655806
199.904944658
199.888655806
199.872366953
201.615274191
199.888655806
199.904944658
200.776398277
200.756037211
200.776398277
200.760109425
200.295877123
199.904944658
199.888655806
199.921233511
200.760109425
200.776398277
200.760109425
200.760109425

Block: 8
======================================
199.86829474
199.937522364
199.921233511
199.888655806
200.760109425
200.776398277
201.187691808
199.8560781
111.757818317
197.824043727
200.776398277
199.8560781
200.348815894
201.611201978
199.872366953
199.872366953
199.872366953
199.888655806
200.316238189
200.316238189
199.872366953
199.835717034
200.332527041
112.19761734
197.771104956
200.328454828
200.316238189
200.332527041
199.888655806
199.872366953
199.872366953
199.904944658
200.332527041
199.888655806
199.888655806
199.904944658
199.884583592
199.904944658
200.776398277
199.904944658
199.888655806
200.776398277
199.872366953
199.888655806
200.312165976
199.872366953
200.352888107
199.888655806
199.888655806
201.631563044
199.872366953
200.312165976
200.348815894
199.904944658
199.888655806
200.332527041
200.756037211
200.348815894
110.678681827
197.787393808
200.776398277
200.348815894
111.36281364
199.070140958
199.86829474
200.332527041
200.348815894
200.332527041
199.925305724
200.776398277
200.776398277
200.79268713
200.776398277
200.316238189
200.332527041

Block: 9
======================================
199.925305724
199.925305724
199.872366953
199.921233511
199.872366953
199.888655806
200.79268713
109.176035166
197.632649708
200.316238189
200.332527041
200.332527041
200.316238189
112.165039635
195.482521152
116.966178966
191.723868394
200.348815894
200.348815894
200.813048196
200.78047049
200.79268713
200.796759343
200.776398277
200.316238189
112.095812011
197.84033258
200.348815894
110.491360021
199.070140958
200.79268713
200.796759343
108.540769911
200.332527041
111.753746104
196.504646659
112.588549805
195.649481893
114.779400492
193.499353337
200.776398277
111.244719458
195.97933116
114.030113268
194.664006305
116.742207241
191.947840118
119.271051621
189.79363935
120.582304263
186.804634881
122.463666749
185.334565926
122.414800191
184.976211166
122.944187903
185.745859456
123.778991604
185.30198822
124.153635216
182.211178422
129.467873406
178.415875745
129.858805871
178.456597877
130.713970637
177.169778514
131.943779016
176.298324895
132.285844922
175.141816354
132.713427305
176.404202437
131.394030237
175.056299877

Block: 10
======================================
200.776398277
112.45416677
194.95313344
200.776398277
107.946226788
198.573330951
199.925305724
108.235353923
199.102718663
108.133548594
201.155114102
199.888655806
107.38426137
199.941594577
199.86829474
110.133005261
197.734455037
200.332527041
199.888655806
199.888655806
112.555972099
196.162580752
114.197074008
194.54183991
115.479821157
192.83558259
116.725918388
191.178191829
118.448464561
190.237510586
118.090109801
190.648804116
118.945274568
189.37012918
117.051695442
192.086295366
117.475205612
192.118873072
115.801525998
191.638351917
117.116850853
190.359676981
118.843469238
189.060640979
122.154178548
187.439900136
121.250147223
186.564374304
125.110605311
182.345561457
125.212410641
182.638760805
125.269421625
182.622471952
125.929120159
182.382211375
125.863964748
182.447366786
126.254897213
182.842371464
126.75170722
181.575913167
128.014093304
181.987206697
126.698768449
181.950556779
127.195578456
181.938340139
126.393352461
182.756854987
126.002419996
181.885401368
128.543481016
178.916757965
131.088614249
