
Block: 1
======================================
199.921233511
200.348815894
200.332527041
199.904944658
199.888655806

Block: 2
======================================
200.332527041
200.36917696
199.904944658
200.352888107
199.904944658

Block: 3
======================================
199.937522364
199.904944658
200.385465813
200.79268713
200.352888107

Block: 4
======================================
199.888655806
200.776398277
200.776398277
199.921233511
200.79268713

Block: 5
======================================
200.776398277
200.796759343
111.293586016
198.316781521
200.332527041

Block: 6
======================================
199.921233511
200.813048196
199.888655806
199.909016871
199.921233511

Block: 7
======================================
199.904944658
200.348815894
200.813048196
200.3813936
200.385465813

Block: 8
======================================
200.316238189
200.79268713
199.925305724
200.796759343
199.921233511

Block: 9
======================================
200.808975983
200.756037211
199.904944658
199.921233511
200.829337049

Block: 10
======================================
200.79268713
200.79268713
199.904944658
200.348815894
199.904944658
