
Block: 1
======================================
50.4010364532
50.4051447868
50.8159781456
50.8159781456
50.7461364746
50.8324114799
50.8159781456
50.7995448112
50.7954364777
50.7995448112
50.7790031433
50.8159781456
50.8159781456
50.4215781212
46.2475111961
50.3681697845
50.8324114799
38.926460743
50.3846031189
50.3681697845
39.115444088
50.7995448112
50.0066364288
40.2534524918
50.8159781456
50.8159781456
38.5977940559
50.762569809
50.3681697845
39.7892107964
50.8324114799
50.7831114769
38.9428940773
50.7831114769
50.8159781456
38.6347690582
50.3681697845
50.3846031189
39.702935791
50.7995448112
50.8365198135
38.9428940773
50.8159781456
50.7790031433
38.7539107323
50.762569809
50.8159781456
39.493410778
50.7995448112
50.7954364777
38.5813607216
50.3311947823
50.8488448143
39.8385107994
50.3517364502
50.8159781456
38.9798690796
50.3681697845
50.7954364777
39.5673607826
50.3353031158
50.3517364502
39.7358024597
50.4380114555
50.8159781456
39.5303857803
50.7831114769
50.3681697845
39.234585762
50.8324114799
50.7954364777
39.0990107536
50.7666781425
50.3147614479
3.31131687164
50.8159781456
50.3846031189
39.3537274361
50.8159781456
50.8324114799
38.8401857376
50.7831114769
50.7831114769
38.5813607216
50.3681697845
50.7995448112
39.8549441338
50.8324114799
50.7666781425
38.9963024139
50.7954364777
50.8365198135
38.4950857162
50.8324114799
50.8159781456
38.3554023743
50.7831114769
50.8324114799
38.7703440666
50.7954364777

Average distance is : 47.047 cm
Average deviation is : 6.775 cm
Block: 2
======================================
50.3476281166
1.4297000885
50.3353031158
50.3517364502
48.8316530228
50.3846031189
50.3311947823
36.8394272804
50.7666781425
50.3517364502
38.5977940559
50.3476281166
50.7995448112
39.9740858078
50.8159781456
50.7995448112
38.6142273903
50.3681697845
50.3681697845
40.4095691681
50.7831114769
50.7666781425
39.045602417
50.8159781456
50.7954364777
38.6183357239
50.7995448112
50.7995448112
39.25512743
50.7831114769
50.7995448112
39.1688524246
50.8159781456
50.3517364502
39.0620357513
50.8159781456
50.8529531479
39.513952446
50.8159781456
50.8159781456
38.8730524063
50.7995448112
50.4215781212
39.7193691254
50.8159781456
50.8159781456
38.5813607216
50.8529531479
50.7995448112
39.3537274361
50.8324114799
50.8159781456
38.7374773979
50.8324114799
50.8159781456
38.8730524063
50.8159781456
50.3311947823
39.4605441093
50.762569809
50.3681697845
39.164744091
50.3846031189
50.3517364502
40.290427494
50.7995448112
50.8324114799
39.3085357666
50.7790031433
50.3681697845
39.0784690857
50.3517364502
50.3517364502
39.961760807
50.3517364502
50.3887114525
39.9781941414
50.3517364502
50.7297031403
39.5262774467
50.3846031189
50.3353031158
39.9576524734
50.3681697845
50.8324114799
39.563252449
50.3476281166
50.7666781425
39.3948107719
50.3846031189
50.8324114799
39.5303857803
50.7790031433
50.3681697845
39.4400024414
50.3517364502
50.3517364502
40.0973358154
50.3681697845
50.8324114799

Average distance is : 46.589 cm
Average deviation is : 6.959 cm
Block: 3
======================================
13.6848591805
50.8159781456
50.3517364502
36.6997439384
50.8159781456
50.7666781425
38.6142273903
50.7502448082
50.3681697845
39.8056441307
50.7995448112
50.8324114799
38.4457857132
50.8159781456
50.3681697845
38.926460743
50.7297031403
50.3476281166
39.8713774681
50.8365198135
50.3681697845
38.6306607246
50.8324114799
50.3681697845
39.115444088
50.8324114799
50.3517364502
39.6865024567
50.3681697845
50.8159781456
38.9428940773
50.8324114799
50.3846031189
39.8713774681
50.7995448112
50.7995448112
38.975760746
50.8159781456
50.8159781456
38.3923773766
50.8159781456
50.8159781456
39.4769774437
50.8159781456
50.8159781456
39.2017190933
50.7831114769
50.8159781456
38.7908857346
50.7995448112
50.8159781456
39.0497107506
50.7831114769
50.762569809
38.5484940529
50.3681697845
50.3147614479
39.8220774651
50.8324114799
50.8159781456
39.0127357483
49.9696614265
50.4339031219
39.8385107994
50.4215781212
50.4051447868
39.9946274757
50.8488448143
50.7831114769
39.493410778
50.8159781456
50.762569809
38.6512023926
50.3517364502
50.3846031189
38.9100274086
50.7954364777
50.7995448112
38.7374773979
50.3147614479
50.8324114799
39.4769774437
50.3681697845
50.3846031189
39.0127357483
50.7790031433
50.8159781456
38.8730524063
50.3311947823
50.3681697845
40.0110608101
50.7995448112
50.3681697845
39.4235691071
50.3476281166
50.3846031189
39.5961191177
50.3681697845
50.3517364502
40.1343108177

Average distance is : 46.466 cm
Average deviation is : 6.354 cm
Block: 4
======================================
50.3517364502
50.3517364502
49.9162530899
50.3681697845
50.3517364502
50.3846031189
50.3681697845
50.3517364502
50.3681697845
50.3353031158
50.3681697845
50.3353031158
50.3476281166
50.762569809
50.3517364502
50.3681697845
50.3681697845
50.3353031158
39.5796857834
50.8324114799
50.3517364502
39.2715607643
50.3846031189
50.3681697845
39.7193691254
50.3517364502
50.3311947823
39.8549441338
50.4010364532
50.762569809
39.2715607643
50.3681697845
50.7995448112
39.4235691071
50.8324114799
50.7995448112
1.24071674347
50.3517364502
50.3681697845
39.842619133
50.3311947823
50.3681697845
39.5098441124
50.3846031189
50.3353031158
40.0480358124
50.3681697845
50.3517364502
39.8056441307
50.7461364746
50.3353031158
39.374269104
50.3846031189
50.3353031158
39.7522357941
50.3517364502
50.3311947823
39.8056441307
50.3517364502
50.762569809
38.975760746
50.3681697845
50.762569809
39.8385107994
50.7831114769
50.3517364502
38.8730524063
50.8324114799
50.7995448112
39.493410778
50.8488448143
50.8159781456
38.7210440636
50.7461364746
50.4010364532
39.4769774437
50.8529531479
50.7666781425
38.4786523819
50.364061451
50.7666781425
39.9247858047
50.3681697845
50.8324114799
38.9921940804
50.3147614479
50.3353031158
39.8385107994
50.3681697845
50.3517364502
39.7892107964
50.3846031189
50.3517364502
39.6659607887
50.3846031189
50.3681697845
39.8385107994
50.3681697845
50.3476281166
39.6659607887

Average distance is : 47.017 cm
Average deviation is : 6.727 cm
Block: 5
======================================
50.3353031158
50.7831114769
11.7498340607
50.3517364502
50.3681697845
43.9550610542
50.8365198135
50.3476281166
39.4112441063
50.3681697845
50.3517364502
39.2386940956
50.3147614479
50.7461364746
39.2674524307
50.364061451
50.7461364746
39.444110775
50.7954364777
50.8529531479
38.7539107323
50.7995448112
50.8159781456
39.0990107536
50.7954364777
50.3517364502
39.2879940987
50.7461364746
50.3846031189
39.2674524307
50.3517364502
50.2983281136
37.3242106438
50.7995448112
50.3476281166
38.8935940742
50.7461364746
50.7995448112
39.1688524246
50.8159781456
50.7995448112
38.9100274086
50.8529531479
50.8488448143
39.4605441093
50.3311947823
50.762569809
39.4112441063
50.8159781456
49.8012197495
39.2879940987
50.8529531479
50.8324114799
38.9798690796
50.7995448112
50.8529531479
38.975760746
50.8159781456
50.7995448112
38.4950857162
50.7995448112
51.1076698303
39.115444088
50.8159781456
50.7995448112
38.9428940773
50.7995448112
50.2818947792
38.8401857376
50.8159781456
50.9556614876
38.8073190689
50.8324114799
50.3846031189
38.3595107079
50.8159781456
50.8159781456
38.7539107323
50.8324114799
50.4708781242
38.6676357269
50.3846031189
50.8159781456
37.7514773369
50.4051447868
50.8159781456
38.4950857162
50.4010364532
50.7831114769
38.5977940559
50.8159781456
50.8159781456
38.4129190445
50.4051447868
50.8159781456
38.7005023956
50.8488448143
50.4215781212
38.5813607216
50.4010364532

Average distance is : 46.538 cm
Average deviation is : 6.503 cm
Block: 6
======================================
50.7995448112
50.3681697845
50.3681697845
50.8324114799
50.7831114769
50.2983281136
50.3681697845
50.3846031189
50.4051447868
50.8324114799
50.8159781456
50.8324114799
50.8693864822
50.4339031219
44.2837277412
50.4051447868
50.3846031189
38.5977940559
50.7831114769
50.8159781456
37.5830356598
50.8159781456
50.7995448112
37.6693106651
50.3846031189
50.8159781456
38.2691273689
50.7995448112
50.8529531479
37.4433523178
50.8159781456
50.7831114769
38.2198273659
50.3846031189
50.4010364532
39.444110775
50.8159781456
50.8159781456
37.7720190048
50.8159781456
50.8324114799
38.7703440666
50.7995448112
50.8159781456
39.1688524246
50.8529531479
50.762569809
37.1146856308
50.8529531479
50.8324114799
38.975760746
50.8159781456
50.8324114799
38.3389690399
50.3311947823
50.762569809
39.9247858047
50.8159781456
50.8529531479
38.5484940529
50.8324114799
49.9860947609
38.0637106895
49.9860947609
49.9902030945
41.0627942085
50.4215781212
50.3846031189
39.3414024353
50.3517364502
50.7831114769
39.5303857803
50.8365198135
50.7995448112
37.8254273415
50.7790031433
50.7995448112
39.5961191177
50.8159781456
50.8488448143
37.7720190048
50.7995448112
50.8324114799
39.5098441124
50.8529531479
50.7666781425
38.836077404
50.8529531479
50.8324114799
39.2879940987
50.7995448112
50.8159781456
39.1318774223
50.8324114799
50.7790031433
38.6347690582
50.3188697815
50.8159781456
39.4112441063
50.8159781456

Average distance is : 47.261 cm
Average deviation is : 5.422 cm
Block: 7
======================================
50.4708781242
50.3353031158
50.8159781456
50.7995448112
50.7995448112
50.3517364502
50.3846031189
50.8159781456
37.0160856247
50.8159781456
50.7995448112
38.6840690613
50.8159781456
50.7995448112
38.71693573
50.8159781456
50.8324114799
38.3554023743
50.8529531479
50.7461364746
39.4769774437
50.7954364777
50.7790031433
37.8911606789
50.3517364502
50.8159781456
39.7851024628
50.8365198135
50.7995448112
38.6840690613
50.8324114799
50.7338114738
38.6306607246
50.8159781456
50.3188697815
39.185285759
50.8529531479
50.762569809
39.0825774193
50.8200864792
50.7995448112
38.905919075
50.7995448112
50.8324114799
39.2017190933
50.8324114799
50.8324114799
38.4991940498
50.8159781456
50.7995448112
38.4950857162
50.8159781456
50.8159781456
38.8730524063
50.8159781456
50.3517364502
39.8754858017
50.8159781456
50.7995448112
38.7908857346
50.8324114799
50.7995448112
38.3923773766
50.8365198135
50.8488448143
39.3578357697
50.3517364502
50.7995448112
39.1811774254
50.7995448112
50.762569809
38.8237524033
50.7954364777
50.3476281166
39.2879940987
50.3476281166
50.3517364502
40.3767024994
50.3517364502
50.7666781425
39.164744091
50.3681697845
50.3188697815
39.772777462
50.3476281166
50.7666781425
39.1359857559
50.3681697845
50.3353031158
39.63309412
50.8365198135
50.8324114799
39.3414024353
50.8159781456
50.8324114799
38.926460743
50.8324114799
50.3681697845
39.2879940987
50.7995448112

Average distance is : 47.065 cm
Average deviation is : 5.451 cm
Block: 8
======================================
50.8365198135
4.2562335968
50.8488448143
50.8159781456
50.0230697632
50.8159781456
50.8159781456
38.8730524063
50.8159781456
50.7995448112
38.3430773735
50.3681697845
50.7995448112
39.8220774651
50.8159781456
50.8159781456
38.0472773552
50.8159781456
50.8159781456
39.4276774406
50.8365198135
50.7995448112
38.3389690399
50.7954364777
50.8324114799
39.3907024384
50.7502448082
50.7461364746
38.9593274117
50.8324114799
50.7831114769
38.5977940559
50.7995448112
50.8159781456
39.4276774406
50.7790031433
50.3517364502
38.926460743
50.3681697845
50.3517364502
39.5796857834
50.3517364502
50.7338114738
17.3166260719
50.7995448112
50.8324114799
32.6859020233
50.8159781456
50.7831114769
38.458110714
50.7461364746
50.3846031189
39.2715607643
50.7954364777
50.8159781456
39.304427433
50.8159781456
50.7995448112
38.786777401
50.7995448112
50.7831114769
38.6840690613
50.8159781456
50.8324114799
38.4950857162
50.7995448112
50.7954364777
39.1688524246
50.8365198135
50.7995448112
38.6347690582
50.8159781456
50.8159781456
39.0620357513
50.7995448112
50.8324114799
38.9428940773
50.8159781456
50.7995448112
38.458110714
50.7297031403
50.7995448112
39.2715607643
50.7954364777
50.8159781456
38.3061023712
50.8365198135
50.8159781456
38.8771607399
50.8324114799
50.8159781456
38.926460743
50.8324114799
50.8159781456
38.7374773979
50.7954364777
50.7995448112
38.7539107323
50.8324114799
50.8159781456

Average distance is : 46.335 cm
Average deviation is : 7.615 cm
Block: 9
======================================
11.8895174026
50.3887114525
50.7995448112
39.8015357971
50.8324114799
50.8365198135
38.3595107079
50.7995448112
50.8159781456
38.6512023926
50.7995448112
50.8159781456
38.4088107109
50.3147614479
50.3681697845
38.7210440636
50.7995448112
50.7995448112
38.856619072
50.7995448112
50.8365198135
38.3061023712
50.7790031433
50.8488448143
39.3085357666
50.8159781456
50.7995448112
38.5813607216
50.7790031433
50.8324114799
38.1664190292
50.8529531479
50.8159781456
39.0825774193
50.8159781456
50.8159781456
38.7210440636
50.8159781456
50.7954364777
38.3718357086
50.8324114799
50.7995448112
38.7539107323
50.8488448143
50.7831114769
39.0291690826
50.8324114799
50.8159781456
38.6512023926
50.8159781456
50.8159781456
37.6857439995
50.8324114799
50.8159781456
38.6676357269
50.8159781456
50.8159781456
38.8073190689
50.8488448143
50.7995448112
38.5156273842
50.7790031433
50.8159781456
38.8032107353
50.3846031189
49.9902030945
39.8754858017
50.4010364532
50.3476281166
39.185285759
50.8324114799
50.8488448143
39.513952446
50.8159781456
50.8159781456
38.1499856949
50.7995448112
50.8159781456
38.71693573
50.8159781456
50.8159781456
39.045602417
50.7995448112
50.8159781456
38.2732357025
50.8365198135
50.7995448112
38.9963024139
50.8365198135
50.762569809
38.7539107323
50.7995448112
50.8159781456
38.8073190689
50.7831114769
50.8159781456
38.5813607216
50.8324114799
50.8159781456
38.4088107109

Average distance is : 46.407 cm
Average deviation is : 6.658 cm
Block: 10
======================================
50.7461364746
50.3311947823
50.3846031189
50.7954364777
50.3517364502
50.8159781456
50.8324114799
50.7790031433
50.8159781456
44.2508610725
50.7954364777
50.8159781456
38.5977940559
50.8693864822
50.4010364532
39.0661440849
50.8159781456
50.7790031433
38.4416773796
50.7995448112
50.7790031433
38.8237524033
50.8159781456
50.8159781456
38.2033940315
50.4215781212
50.8488448143
39.0661440849
50.8159781456
50.8159781456
38.7908857346
50.4215781212
50.8159781456
39.115444088
50.7995448112
50.7954364777
38.6347690582
50.8365198135
50.8365198135
38.7210440636
50.8488448143
50.8159781456
38.647094059
50.8159781456
50.8488448143
38.6347690582
50.8159781456
50.8324114799
38.6183357239
50.8324114799
50.8365198135
38.7005023956
50.8159781456
50.8324114799
38.6512023926
50.7995448112
50.8529531479
38.5977940559
50.8324114799
50.8529531479
38.6676357269
50.3846031189
50.8324114799
38.8730524063
50.8159781456
50.8324114799
38.926460743
50.7995448112
50.8159781456
38.7210440636
50.8365198135
50.8159781456
38.2362607002
50.7995448112
50.8159781456
38.9921940804
50.7831114769
50.8159781456
38.7539107323
50.8159781456
50.8324114799
38.4457857132
50.3517364502
50.7954364777
39.63309412
50.8324114799
50.7831114769
38.0842523575
50.7995448112
50.8159781456
38.8237524033
50.8159781456
50.7831114769
39.1318774223
50.8488448143
50.7790031433
38.3759440422
50.7995448112
50.8159781456
39.1483107567

Average distance is : 47.092 cm
Average deviation is : 5.539 cm