
Block: 1
======================================
50.8159781456
50.7831114769
50.8159781456
50.7995448112
50.8159781456
50.0066364288
50.8159781456
50.8159781456
49.9860947609
49.4725530624

Block: 2
======================================
50.3681697845
19.5269095421
50.8159781456
50.7995448112
36.2724772453
50.7995448112
50.3846031189
36.1697689056
50.4174697876
49.9902030945

Block: 3
======================================
12.8180007935
49.9860947609
50.4174697876
38.2896690369
50.7995448112
50.7831114769
35.857535553
50.5037447929
50.8488448143
36.0136522293

Block: 4
======================================
49.9860947609
50.8365198135
50.8488448143
50.8488448143
50.7995448112
50.8159781456
50.8159781456
50.7995448112
50.7995448112
50.4051447868

Block: 5
======================================
49.9860947609
49.9737697601
35.4467021942
50.8488448143
50.8324114799
35.1385771751
50.8324114799
50.8159781456
35.2741521835
50.8324114799

Block: 6
======================================
50.7954364777
50.8488448143
50.7790031433
50.8159781456
50.8159781456
50.8159781456
50.7831114769
50.8324114799
50.4380114555
50.7995448112

Block: 7
======================================
50.3681697845
27.1067850113
50.3517364502
51.280219841
36.3094522476
50.7666781425
50.3681697845
36.3094522476
50.4051447868
50.7995448112

Block: 8
======================================
14.5229592323
49.9737697601
50.0230697632
40.9600858688
50.0025280952
49.9902030945
40.6519608498
50.8159781456
50.8159781456
38.1335523605

Block: 9
======================================
50.8159781456
50.3846031189
49.9902030945
50.8488448143
50.3517364502
50.7831114769
50.7995448112
50.3353031158
50.8159781456
50.7995448112

Block: 10
======================================
50.3311947823
50.3476281166
33.1008437157
50.8159781456
50.3846031189
36.9092689514
50.8324114799
50.7831114769
35.2577188492
50.7995448112
