
Block: 1
======================================
300.195379305
301.06528697
299.715710592
299.736035538
301.081546926
300.179119349
300.179119349
300.195379305
300.211639261
300.179119349

Average distance is : 300.274 cm
Average deviation is : 0.462 cm
Block: 2
======================================
300.195379305
300.622203159
299.752295494
300.195379305
299.719775581
301.06528697
300.622203159
300.211639261
301.06528697
300.622203159

Average distance is : 300.407 cm
Average deviation is : 0.475 cm
Block: 3
======================================
299.752295494
301.06528697
300.175054359
301.081546926
300.195379305
300.21570425
301.097806883
299.736035538
299.752295494
300.162859392

Average distance is : 300.323 cm
Average deviation is : 0.558 cm
Block: 4
======================================
300.622203159
300.654723072
300.601878214
300.654723072
300.211639261
300.179119349
300.195379305
300.654723072
300.195379305
300.179119349

Average distance is : 300.415 cm
Average deviation is : 0.236 cm
Block: 5
======================================
300.195379305
300.211639261
299.719775581
300.158794403
299.699450636
299.752295494
300.638463116
301.101871872
300.179119349
299.752295494

Average distance is : 300.141 cm
Average deviation is : 0.454 cm
Block: 6
======================================
300.211639261
300.211639261
300.231964207
299.788880396
299.731970549
300.227899218
300.211639261
299.76855545
300.21570425
299.752295494

Average distance is : 300.035 cm
Average deviation is : 0.237 cm
Block: 7
======================================
300.195379305
300.195379305
300.675048018
300.654723072
301.540890694
300.195379305
300.179119349
300.195379305
299.736035538
300.211639261

Average distance is : 300.378 cm
Average deviation is : 0.486 cm
Block: 8
======================================
300.654723072
300.227899218
300.195379305
300.642528105
301.118131828
299.77262044
300.211639261
300.162859392
301.118131828
300.231964207

Average distance is : 300.434 cm
Average deviation is : 0.438 cm
Block: 9
======================================
300.211639261
300.195379305
299.752295494
300.195379305
299.752295494
300.231964207
299.76855545
300.227899218
299.703515625
300.195379305

Average distance is : 300.023 cm
Average deviation is : 0.241 cm
Block: 10
======================================
300.211639261
300.211639261
300.638463116
300.227899218
300.670983028
300.199444294
299.784815407
300.195379305
300.211639261
300.195379305

Average distance is : 300.255 cm
Average deviation is : 0.249 cm