
Block: 1
======================================
101.523803473
38.4379643202
100.768012404
67.917945981
101.598143578
101.181012988
101.131452918
101.110802889
102.374584675
91.0624986887

Block: 2
======================================
16.7843437195
101.160362959
85.2763605118
101.181012988
101.181012988
102.064834237
101.181012988
101.147972941
100.313711762
101.560973525
86.6681724787
101.234703064
101.214053035
100.730842352
53.5785657167

Block: 3
======================================
59.2077636719
101.201663017
81.2950348854
101.164492965
90.0423872471

Block: 4
======================================
101.164492965
100.763882399
101.560973525
101.994624138
80.3244835138

Block: 5
======================================
101.197533011
101.230573058
101.598143578
102.048314214
77.9001700878

Block: 6
======================================
101.164492965
100.747362375
88.6712253094
101.181012988
67.0712947845
101.197533011

Block: 7
======================================
100.730842352
53.7355059385
100.801052451
75.5088967085
101.181012988

Block: 8
======================================
100.714322329
78.123190403
100.330231786
84.0456187725
100.763882399

Block: 9
======================================
100.747362375
101.147972941
100.730842352
100.784532428
101.598143578

Block: 10
======================================
101.234703064
100.801052451
101.197533011
101.664223671
101.164492965
