
Block: 1
======================================
398.873206377
398.889379644
399.313927913
398.941942763
398.432484841
399.362447715
399.297754645
399.297754645
398.889379644
399.297754645
398.85703311
398.85703311
398.873206377
398.468874693
399.313927913
398.873206377
398.840859842
398.416311574
398.873206377
399.277538061
398.85703311
398.432484841
398.432484841
398.85703311
399.297754645
398.873206377
398.452701426
399.313927913
399.313927913
398.432484841
398.905552912
398.889379644
398.432484841
399.33010118
398.889379644
398.909596229
399.33010118
398.873206377
398.893422961
398.889379644
398.905552912
398.889379644
399.297754645
398.909596229
398.873206377
398.873206377
399.313927913
399.334144497
398.921726179
398.873206377
398.925769496
399.297754645
399.313927913
398.85703311
399.313927913
398.468874693
399.281581378
398.889379644
398.937899446
398.905552912
398.873206377
398.873206377
398.909596229
399.313927913
399.313927913
398.852989793
399.33010118
398.840859842
399.313927913
399.313927913
398.85703311
398.432484841
399.313927913
399.297754645
399.297754645
398.889379644
398.873206377
399.281581378
398.432484841
399.281581378
398.873206377
399.297754645
399.297754645
399.33010118
398.840859842
398.85703311
399.313927913
399.277538061
398.840859842
399.346274447
399.277538061
399.313927913
399.297754645
399.334144497
398.889379644
398.85703311
399.297754645
399.297754645
399.334144497
399.313927913

Block: 2
======================================
399.281581378
399.706129646
399.685913062
399.722302914
399.281581378
398.824686575
399.754649448
399.702086329
398.820643258
399.738476181
399.722302914
398.85703311
399.722302914
399.738476181
399.722302914
399.685913062
400.146851182
400.163024449
399.281581378
399.281581378
400.163024449
399.297754645
399.702086329
399.281581378
399.689956379
399.722302914
399.281581378
399.281581378
399.685913062
399.754649448
399.245191526
400.146851182
399.738476181
399.738476181
399.706129646
399.689956379
399.718259597
399.265408111
399.738476181
400.11046133
399.738476181
400.11046133
399.718259597
399.738476181
400.158981133
399.689956379
399.261364794
399.722302914
399.706129646
399.718259597
399.281581378
399.313927913
399.718259597
400.142807865
399.281581378
399.277538061
399.738476181
399.265408111
399.297754645
399.297754645
399.281581378
399.738476181
399.706129646
399.706129646
399.738476181
399.281581378
399.702086329
399.738476181
399.722302914
399.702086329
399.689956379
399.722302914
399.722302914
399.738476181
399.718259597
399.722302914
399.738476181
399.702086329
399.706129646
399.31797123
399.718259597
399.281581378
399.722302914
399.754649448
399.738476181
399.706129646
399.281581378
399.734432864
399.706129646
399.689956379
399.754649448
399.281581378
399.738476181
399.754649448
399.689956379
398.852989793
399.281581378
399.738476181
399.754649448
399.754649448

Block: 3
======================================
399.350317764
399.754649448
399.346274447
399.350317764
399.313927913
399.297754645
399.297754645
399.293711329
399.346274447
399.297754645
399.297754645
399.33010118
399.334144497
399.33010118
399.297754645
399.350317764
399.754649448
399.313927913
399.293711329
399.313927913
399.33010118
399.313927913
399.297754645
399.346274447
399.281581378
399.346274447
399.313927913
399.33010118
399.346274447
399.313927913
399.350317764
399.33010118
399.346274447
399.334144497
398.873206377
399.277538061
399.33010118
399.350317764
399.382664299
399.362447715
399.313927913
399.346274447
399.350317764
399.33010118
399.313927913
399.33010118
398.889379644
398.889379644
398.909596229
398.873206377
398.873206377
399.313927913
398.921726179
399.334144497
399.313927913
399.350317764
399.350317764
399.350317764
399.346274447
399.366491032
399.33010118
398.925769496
399.346274447
398.468874693
398.921726179
398.925769496
398.925769496
398.921726179
398.958116031
399.382664299
398.921726179
398.958116031
398.925769496
399.346274447
398.941942763
398.501221228
398.586130881
398.974289298
398.958116031
398.958116031
398.517394495
398.994505882
399.398837566
398.941942763
398.974289298
399.398837566
399.415010834
398.958116031
398.994505882
398.958116031
399.382664299
399.415010834
399.01067915
399.01067915
399.415010834
399.431184101
398.978332615
399.415010834
399.467573953
398.974289298

Block: 4
======================================
399.431184101
399.398837566
399.01067915
399.402880883
399.006635833
398.990462565
399.378620982
398.974289298
398.533567762
398.978332615
398.958116031
399.0228091
398.958116031
399.435227418
398.974289298
399.415010834
399.026852417
399.451400685
399.451400685
399.01067915
399.398837566
398.958116031
399.006635833
398.958116031
398.533567762
398.565914297
399.419054151
398.990462565
398.553784347
399.006635833
398.958116031
399.006635833
398.978332615
398.974289298
398.974289298
398.974289298
399.398837566
398.990462565
399.415010834
399.382664299
398.974289298
399.382664299
398.978332615
399.362447715
399.382664299
398.958116031
399.398837566
398.958116031
398.941942763
398.958116031
398.974289298
398.958116031
399.415010834
398.978332615
398.990462565
399.350317764
399.382664299
398.958116031
398.990462565
398.937899446
398.958116031
398.978332615
398.974289298
398.925769496
398.974289298
398.958116031
399.382664299
398.468874693
398.958116031
398.990462565
398.958116031
398.990462565
398.941942763
398.941942763
398.974289298
399.398837566
398.978332615
398.958116031
399.398837566
398.990462565
398.978332615
399.398837566
398.974289298
398.497177911
398.958116031
398.994505882
399.382664299
399.01067915
398.994505882
399.451400685
399.431184101
398.974289298
399.01067915
398.994505882
398.974289298
398.990462565
398.941942763
399.447357368
398.974289298
399.01067915

Block: 5
======================================
398.994505882
398.958116031
398.974289298
398.958116031
398.990462565
398.501221228
398.517394495
154.070588231
119.746871567
153.65008328
119.847954488
151.846763968
120.35741241
151.426259017
120.745570827
150.57716248
120.563621569
152.732250357
121.117555976
152.275355554
121.493584442
151.866980553
121.966652513
150.953190947
122.831922317
150.544815946
122.831922317
150.512469411
123.240297318
150.120267677
123.664845586
149.679546142
123.681018853
149.679546142
124.121740389
149.254997873
124.513942122
148.830449605
124.481595588
149.000268912
124.780801034
148.984095645
124.780801034
148.984095645
124.83740747
148.967922378
124.84953742
148.458464456
124.732281232
149.085178566
124.732281232
149.069005299
124.327949548
148.984095645
124.764627767
149.052832031
124.307732964
149.473336983
124.344122815
149.440990448
123.919574547
149.849365449
123.899357963
149.901928568
123.458636427
150.326476836
123.021958208
150.779328322
123.005784941
150.338606787
123.462679744
149.881711984
123.935747814
149.392470646
124.392642617
148.935575843
124.424989152
149.339907527
124.481595588
148.866839457
124.954663658
148.409944654
125.391341877
147.997526336
125.322605491
148.037959504
125.730980492
148.033916187
125.751197076
147.5568048
125.342822075
147.965179801
125.342822075
148.033916187
125.326648808
148.458464456
125.326648808
148.050089455
125.278129005
148.49081099

Block: 6
======================================
399.362447715
398.958116031
359.236571383
398.958116031
398.937899446
398.925769496
398.925769496
398.958116031
398.517394495
398.958116031
398.804469991
398.060499692
398.958116031
398.905552912
398.941942763
398.958116031
398.941942763
398.958116031
398.941942763
398.921726179
398.941942763
398.941942763
398.974289298
398.925769496
398.941942763
398.464831376
398.974289298
398.468874693
398.941942763
398.941942763
398.941942763
398.925769496
398.958116031
398.925769496
398.941942763
169.811220694
103.500824499
168.978297424
104.802772522
168.060464501
105.724648762
168.048334551
105.756995296
167.603569698
105.724648762
167.656132817
106.128980446
167.199238014
107.014466834
166.297578359
107.46731832
165.39996202
108.316414857
165.501044941
108.30024159
165.432308555
108.348761392
165.432308555
108.316414857
165.39996202
108.332588124
165.011803603
108.740963125
164.550865483
109.642622781
164.296136522
109.638579464
164.09397068
109.335330701
164.397219443
109.214031196
164.498302364
109.181684661
164.077797413
109.691142583
164.041407561
109.691142583
164.061624146
110.115690851
161.550724387
111.01330719
162.634333301
110.997133923
162.298738003
111.830057192
161.684153843
112.01200645
161.752890229
112.016049767
161.667980576
112.064569569
161.247475624
112.489117837
160.806754088
112.962185907
160.329642701
113.471643829
160.281122899
113.439297295
160.313469434

Block: 7
======================================
399.362447715
399.366491032
399.382664299
399.366491032
399.346274447
398.958116031
399.382664299
399.415010834
399.398837566
399.362447715
399.366491032
399.366491032
399.382664299
399.366491032
399.398837566
399.382664299
398.941942763
399.415010834
398.958116031
399.362447715
399.366491032
399.398837566
398.958116031
399.382664299
398.941942763
399.447357368
398.974289298
398.941942763
399.382664299
398.958116031
399.398837566
399.398837566
399.419054151
398.974289298
399.398837566
398.958116031
399.435227418
399.431184101
399.415010834
399.415010834
398.958116031
399.01067915
399.398837566
398.974289298
398.517394495
398.958116031
398.958116031
398.974289298
398.941942763
399.382664299
398.958116031
399.415010834
399.398837566
399.415010834
399.819342518
399.823385835
399.398837566
399.774866033
399.807212567
398.941942763
399.823385835
398.958116031
399.382664299
399.871905637
399.382664299
399.839559102
399.415010834
399.415010834
399.419054151
399.839559102
399.839559102
399.366491032
399.415010834
399.839559102
398.978332615
399.855732369
399.366491032
399.855732369
399.415010834
399.823385835
399.823385835
399.415010834
399.7910393
399.398837566
399.398837566
399.855732369
399.807212567
399.382664299
399.451400685
399.80316925
399.398837566
399.823385835
399.823385835
399.807212567
399.382664299
399.839559102
399.823385835
399.80316925
399.843602419
399.431184101

Block: 8
======================================
399.807212567
398.905552912
399.823385835
399.382664299
399.398837566
399.823385835
398.925769496
399.382664299
399.398837566
399.366491032
399.419054151
399.398837566
399.839559102
399.398837566
399.823385835
399.382664299
399.382664299
399.839559102
399.398837566
399.415010834
398.921726179
399.415010834
399.382664299
399.419054151
399.415010834
398.958116031
399.382664299
398.974289298
399.362447715
399.382664299
399.378620982
399.378620982
399.382664299
399.382664299
399.415010834
399.398837566
399.415010834
399.382664299
399.398837566
398.941942763
399.398837566
399.366491032
399.382664299
399.398837566
399.346274447
399.398837566
399.398837566
399.398837566
399.382664299
399.346274447
399.402880883
398.921726179
399.366491032
399.398837566
398.925769496
399.398837566
398.937899446
399.415010834
399.382664299
399.786995983
399.398837566
399.366491032
399.366491032
398.941942763
399.419054151
399.346274447
399.415010834
399.786995983
399.382664299
399.366491032
399.382664299
399.398837566
399.382664299
399.382664299
399.398837566
399.402880883
399.346274447
399.843602419
399.431184101
399.398837566
399.366491032
399.398837566
399.382664299
399.415010834
399.435227418
399.415010834
399.382664299
399.382664299
399.398837566
398.941942763
399.362447715
399.398837566
399.366491032
399.382664299
399.839559102
399.431184101
399.819342518
398.978332615
399.415010834
398.941942763

Block: 9
======================================
398.941942763
399.398837566
399.431184101
399.382664299
399.350317764
398.990462565
399.382664299
399.415010834
398.533567762
398.941942763
398.958116031
399.362447715
157.887479329
115.404349279
157.923869181
116.306008935
157.462931061
116.289835668
157.070729327
116.694167352
157.090945911
116.677994084
157.123292446
116.593084431
157.175855565
116.625430965
157.175855565
116.629474282
156.714917445
116.661820817
157.107119179
116.677994084
156.68257091
117.086369085
156.702787495
117.066152501
156.718960762
117.070195818
155.849647641
117.931422305
155.42914269
117.915249038
155.853690958
117.979942107
155.833474374
117.915249038
123.426289892
150.184960747
123.575892615
150.205177331
123.547589397
149.865538716
123.919574547
149.121568418
124.22282331
149.085178566
124.732281232
149.085178566
124.667588162
149.069005299
124.732281232
149.493553567
124.307732964
149.440990448
124.323906231
149.865538716
123.495026278
150.2698704
123.474809694
150.306260252
123.495026278
150.322433519
123.495026278
150.25774045
123.53141613
150.237523866
123.547589397
150.237523866
123.988310933
149.780629063
123.968094349
149.849365449
123.951921082
149.812975597
124.412859201
149.376297379
124.441162419
149.339907527
124.429032469
149.271171141
124.732281232
149.4773803
124.307732964
149.901928568
124.259213161
149.509726834
124.732281232
149.493553567
124.344122815
149.881711984

Block: 10
======================================
399.823385835
399.415010834
399.807212567
399.398837566
398.958116031
399.807212567
399.451400685
399.451400685
399.843602419
399.398837566
399.415010834
399.415010834
399.463530636
399.467573953
398.978332615
399.48374722
399.467573953
399.006635833
399.487790537
398.565914297
399.026852417
399.48374722
399.467573953
398.582087564
399.447357368
398.565914297
399.451400685
399.467573953
399.467573953
399.026852417
399.059198952
399.435227418
399.467573953
399.451400685
399.467573953
398.565914297
399.451400685
399.467573953
399.451400685
398.565914297
399.48374722
399.026852417
399.48374722
399.451400685
399.467573953
398.836816525
399.01067915
399.435227418
399.006635833
399.48374722
399.431184101
398.990462565
398.569957614
399.467573953
399.467573953
399.447357368
399.026852417
398.569957614
399.48374722
399.463530636
398.990462565
399.463530636
399.48374722
399.447357368
399.447357368
399.467573953
399.435227418
399.006635833
399.435227418
399.467573953
399.026852417
399.467573953
399.467573953
399.467573953
399.871905637
399.904252172
399.447357368
399.451400685
399.875948954
399.871905637
399.435227418
399.01067915
399.908295488
399.447357368
399.0228091
399.871905637
399.892122221
399.467573953
399.48374722
399.451400685
399.48374722
399.908295488
399.871905637
399.892122221
399.451400685
399.875948954
399.467573953
399.892122221
399.451400685
399.892122221
