
Block: 1
======================================
400.365190291
400.41775341
400.332843757
399.924468756
400.365190291

Block: 2
======================================
399.48374722
400.365190291
400.349017024
400.365190291
399.928512073

Block: 3
======================================
399.993205142
399.924468756
400.332843757
400.365190291
400.365190291

Block: 4
======================================
400.365190291
400.381363559
399.924468756
400.349017024
399.908295488

Block: 5
======================================
400.332843757
400.316670489
400.381363559
399.908295488
400.365190291

Block: 6
======================================
400.365190291
400.349017024
400.381363559
400.381363559
400.401580143

Block: 7
======================================
399.993205142
399.503963804
400.013421726
399.924468756
399.95681529

Block: 8
======================================
399.552483606
400.009378409
399.95681529
399.091545486
399.95681529

Block: 9
======================================
399.079415536
399.960858607
399.960858607
261.335740709
399.94468534

Block: 10
======================================
399.520137072
399.993205142
399.111762071
399.940642023
399.94468534
