
Block: 1
======================================
399.807212567
318.722536635
399.786995983
399.855732369
400.300497222

Block: 2
======================================
399.875948954
400.280280638
399.839559102
400.296453905
399.839559102

Block: 3
======================================
399.855732369
399.839559102
400.211544251
399.415010834
399.807212567

Block: 4
======================================
399.770822716
399.362447715
399.839559102
399.859775686
399.807212567

Block: 5
======================================
399.754649448
400.247934103
399.754649448
400.227717519
400.195370984

Block: 6
======================================
399.770822716
321.912713623
400.247934103
321.589248276
400.63609252

Block: 7
======================================
217.275717092
399.770822716
399.754649448
319.013655448
399.754649448

Block: 8
======================================
399.786995983
399.786995983
399.786995983
317.250769305
399.823385835

Block: 9
======================================
399.823385835
399.855732369
321.524555206
399.467573953
323.271268082

Block: 10
======================================
399.855732369
316.248026729
399.398837566
319.36946733
362.345882034
