
Block: 1
======================================
50.4731992722
50.0781057358
50.0781057358
50.1110301971
50.0616435051
50.0945679665
50.1110301971
50.1110301971
50.1316079855
50.0739901781
50.4937770605
50.0616435051
50.5267015219
50.0781057358
50.4896615028
50.4937770605
50.0781057358
50.0945679665
50.0781057358
50.4896615028
50.0781057358
50.5061237335
50.0781057358
50.0739901781
50.4526214838
50.4731992722
50.4896615028
50.0904524088
50.5102392912
50.0945679665
50.4937770605
50.4896615028
50.0781057358
50.5102392912
50.0575279474
50.0451812744
50.5061237335
50.0781057358
50.0904524088
50.0945679665
50.0739901781
50.4896615028
50.0781057358
50.4896615028
50.0781057358
50.0945679665
50.1110301971
50.0945679665
50.1110301971
50.0945679665
50.0616435051
50.0781057358
50.1110301971
50.4896615028
50.5225859642
50.0739901781
50.0781057358
50.1480702162
50.5061237335
50.4896615028
50.0616435051
50.0739901781
50.0781057358
50.0781057358
50.0739901781
50.5061237335
50.0575279474
50.5431637526
50.0781057358
50.0575279474
50.5061237335
50.0945679665
50.0945679665
50.0945679665
50.4937770605
50.0781057358
50.0945679665
50.4567370415
50.0945679665
50.5431637526
50.5267015219
50.5061237335
50.4937770605
50.5431637526
50.0781057358
50.5431637526
50.1110301971
50.1274924278
50.0945679665
50.1439546585
50.5431637526
50.0945679665
50.5596259832
50.4937770605
50.5102392912
50.5431637526
50.1110301971
50.5102392912
50.4896615028
50.0739901781

Block: 2
======================================
50.5102392912
50.4896615028
50.1110301971
50.5061237335
50.5267015219
50.975297308
50.5596259832
50.5225859642
50.5102392912
50.5061237335
50.5267015219
50.9423728466
50.5102392912
50.4896615028
50.4937770605
50.5102392912
50.9547195196
50.5267015219
50.5267015219
50.4937770605
50.1110301971
50.1274924278
50.975297308
50.5061237335
50.5061237335
50.9711817503
50.5225859642
50.4731992722
50.4896615028
50.4896615028
50.5061237335
50.5431637526
50.5596259832
50.5225859642
50.4937770605
50.5061237335
50.5061237335
50.5431637526
50.4896615028
50.5102392912
50.0781057358
50.5061237335
50.5061237335
50.5596259832
50.1110301971
50.5061237335
50.9547195196
50.5061237335
50.5061237335
50.975297308
50.5061237335
50.5061237335
50.4896615028
50.0781057358
50.0945679665
50.1110301971
50.0781057358
50.0945679665
50.0781057358
50.1110301971
50.1110301971
50.4896615028
50.0945679665
50.0945679665
50.0945679665
50.0945679665
50.4896615028
50.4896615028
50.5061237335
50.5061237335
50.0945679665
50.1110301971
50.1110301971
50.0904524088
50.1110301971
50.1110301971
50.0945679665
50.5102392912
50.0945679665
50.0781057358
50.0781057358
50.1110301971
50.0945679665
50.0904524088
50.0739901781
50.0945679665
50.4731992722
50.1316079855
50.0739901781
50.0945679665
50.1151457548
50.1110301971
50.0904524088
50.1110301971
50.0781057358
50.0904524088
50.0904524088
50.0781057358
50.0781057358
50.3332703114

Block: 3
======================================
50.0945679665
50.1110301971
50.1110301971
50.1110301971
50.0575279474
50.0781057358
50.1274924278
50.0945679665
50.0616435051
50.0945679665
49.7653233528
50.0781057358
50.1316079855
50.1110301971
50.0575279474
50.1110301971
50.0739901781
50.0945679665
50.0945679665
50.1316079855
50.1110301971
50.0945679665
50.0781057358
50.0575279474
50.0781057358
50.0616435051
50.0739901781
50.1110301971
50.0945679665
50.0945679665
50.0945679665
50.0945679665
50.0781057358
50.0781057358
50.0945679665
50.0781057358
50.1151457548
50.0945679665
50.0575279474
50.0739901781
50.0945679665
50.0616435051
50.0945679665
50.0945679665
50.5267015219
50.4896615028
50.0575279474
50.0739901781
50.4773148298
50.0945679665
50.0781057358
50.0739901781
50.1274924278
50.0945679665
50.0616435051
50.0781057358
50.0945679665
50.0575279474
50.0945679665
50.0781057358
49.9916790247
50.1110301971
50.5267015219
50.0904524088
50.0945679665
50.1110301971
50.1110301971
50.0945679665
50.0945679665
50.0945679665
50.0904524088
50.0904524088
50.0945679665
50.0781057358
50.0781057358
50.0739901781
50.1110301971
50.1110301971
50.0945679665
50.0616435051
50.0945679665
50.0781057358
50.0945679665
50.1110301971
50.1110301971
50.1110301971
50.0739901781
50.0945679665
50.0945679665
50.0945679665
50.1151457548
50.0781057358
50.0945679665
50.0616435051
50.0781057358
50.0739901781
50.0945679665
50.0739901781
50.4731992722
50.4896615028

Block: 4
======================================
50.5431637526
50.1316079855
50.4567370415
50.4896615028
50.0904524088
50.0945679665
50.0739901781
50.0945679665
50.1316079855
50.1110301971
50.4896615028
50.4731992722
50.0904524088
50.5061237335
50.4896615028
50.0945679665
50.0945679665
50.0945679665
50.1110301971
50.1274924278
50.0739901781
50.5102392912
50.0945679665
50.0781057358
50.0945679665
50.1110301971
50.4937770605
50.5102392912
50.1110301971
50.5102392912
50.0616435051
50.4731992722
50.0945679665
50.0945679665
50.0616435051
50.0739901781
50.5061237335
50.4731992722
50.0945679665
50.0945679665
50.1110301971
50.0945679665
50.1110301971
50.4896615028
50.0575279474
50.0739901781
50.0781057358
50.0945679665
50.0781057358
50.0945679665
50.0575279474
50.0781057358
50.0945679665
50.0904524088
50.1110301971
50.0945679665
50.1110301971
50.0945679665
50.0945679665
50.0739901781
50.1151457548
50.0945679665
50.0739901781
50.1110301971
50.1110301971
50.1110301971
50.0945679665
50.1110301971
50.0945679665
50.1110301971
50.0781057358
50.1110301971
50.0945679665
50.1110301971
50.0945679665
50.1316079855
50.0739901781
50.0945679665
50.0945679665
50.1110301971
50.0945679665
50.4937770605
50.5102392912
50.1110301971
50.5431637526
50.1274924278
50.0945679665
50.0781057358
50.1110301971
50.5431637526
50.5431637526
50.0945679665
50.0739901781
50.0945679665
50.1110301971
50.1110301971
50.0945679665
50.1110301971
50.0945679665
50.0945679665

Block: 5
======================================
50.0616435051
50.0945679665
50.1110301971
50.0904524088
50.4567370415
50.1316079855
50.0945679665
50.1151457548
50.0781057358
50.4896615028
50.1110301971
50.0781057358
50.0739901781
50.1110301971
50.0616435051
50.0945679665
50.5102392912
50.1110301971
50.1110301971
50.0945679665
50.0945679665
50.0739901781
50.0781057358
50.0945679665
50.0781057358
50.0739901781
50.5102392912
50.0904524088
50.0781057358
50.0945679665
50.0739901781
50.0781057358
50.0739901781
50.4731992722
50.1110301971
50.0781057358
50.0945679665
50.4731992722
50.0945679665
50.5225859642
50.4731992722
50.0945679665
50.0739901781
50.4937770605
50.0945679665
50.0945679665
50.0945679665
50.4896615028
50.5102392912
50.4896615028
50.5102392912
50.5225859642
50.5061237335
50.0781057358
50.5061237335
50.0945679665
50.0945679665
50.5431637526
50.5061237335
50.0575279474
50.0781057358
50.0945679665
50.5267015219
50.4896615028
50.0781057358
50.0945679665
50.0739901781
50.1274924278
50.0781057358
50.0781057358
50.0904524088
50.0945679665
50.9588350773
50.5267015219
50.4937770605
50.0945679665
50.0945679665
50.5267015219
50.0616435051
50.1110301971
50.5225859642
50.0904524088
50.5225859642
50.5431637526
50.4937770605
50.4937770605
50.0945679665
50.1110301971
50.5061237335
50.0781057358
50.0945679665
50.5802037716
50.4896615028
50.5102392912
50.4937770605
50.5061237335
50.5267015219
50.1110301971
50.4896615028
50.5061237335

Block: 6
======================================
50.5267015219
50.1274924278
50.1480702162
50.1274924278
50.4731992722
50.5267015219
50.5267015219
50.5431637526
50.0575279474
50.4731992722
50.5267015219
50.5267015219
50.5061237335
50.5061237335
50.9547195196
50.0781057358
50.5061237335
50.5061237335
50.1110301971
50.5267015219
50.9711817503
50.0945679665
50.0904524088
50.0945679665
50.5431637526
50.1274924278
50.1110301971
50.9423728466
50.1110301971
50.5267015219
50.0781057358
50.4896615028
50.1110301971
50.4937770605
50.0945679665
50.5102392912
50.5431637526
50.4896615028
50.4937770605
50.5061237335
50.4896615028
50.4896615028
50.5102392912
50.0575279474
50.1274924278
50.0575279474
50.4896615028
50.0904524088
50.4896615028
50.4896615028
50.4567370415
50.5061237335
50.4937770605
50.1110301971
50.0945679665
50.5225859642
50.5267015219
50.0945679665
50.5267015219
50.5102392912
50.0575279474
50.0616435051
50.0781057358
50.0781057358
50.4896615028
50.0781057358
50.5267015219
50.0616435051
50.0739901781
50.5267015219
50.5225859642
50.5431637526
50.1110301971
50.4731992722
50.0616435051
50.4896615028
50.5431637526
50.4937770605
50.4731992722
50.0616435051
50.5061237335
50.0575279474
50.0575279474
50.0575279474
50.4896615028
50.0575279474
50.5225859642
50.5267015219
50.0781057358
50.0945679665
50.0739901781
50.5225859642
50.0781057358
50.0616435051
50.0575279474
50.0945679665
50.0945679665
50.0575279474
50.0739901781
50.0781057358

Block: 7
======================================
50.0781057358
50.4896615028
50.4731992722
50.0781057358
50.1110301971
50.0781057358
50.0945679665
50.1110301971
50.1110301971
50.0739901781
50.0575279474
50.4773148298
50.0781057358
50.5102392912
50.0781057358
50.0616435051
50.0616435051
50.0616435051
50.0781057358
50.4896615028
50.0616435051
50.0575279474
50.0739901781
50.4731992722
50.4731992722
50.5102392912
50.0945679665
50.0945679665
50.0945679665
50.0945679665
50.4937770605
50.0616435051
50.5225859642
50.5267015219
55.2760550737
50.5267015219
50.4896615028
50.0410657167
50.4896615028
50.0945679665
50.0904524088
50.5102392912
50.1274924278
50.5061237335
50.5267015219
50.0781057358
50.5596259832
50.4731992722
50.5102392912
50.5431637526
50.1110301971
50.4896615028
50.4896615028
50.4731992722
50.4896615028
50.4937770605
50.4896615028
50.4896615028
50.5225859642
50.4731992722
50.5431637526
50.1110301971
50.0945679665
50.5431637526
50.4896615028
50.9382572889
50.4896615028
50.5596259832
50.0904524088
50.1316079855
50.0945679665
50.1110301971
50.5596259832
50.5225859642
50.5431637526
50.0945679665
50.4896615028
50.1110301971
50.0945679665
50.0904524088
50.5431637526
50.0945679665
50.0945679665
50.975297308
50.5267015219
50.5431637526
50.5390481949
50.0945679665
50.1274924278
50.4773148298
50.5267015219
50.0945679665
50.1110301971
50.4937770605
50.0904524088
50.1110301971
50.1110301971
50.1110301971
50.5431637526
50.1110301971

Block: 8
======================================
50.1110301971
50.5061237335
50.1274924278
50.1316079855
50.5431637526
50.1110301971
50.1480702162
50.0945679665
50.4896615028
50.1274924278
50.0246034861
50.0781057358
50.0945679665
50.1110301971
50.1110301971
50.1316079855
50.0781057358
50.1316079855
50.5267015219
50.1274924278
50.4896615028
50.5267015219
50.5267015219
50.4773148298
50.5267015219
50.5431637526
50.4773148298
50.5431637526
50.5061237335
50.5267015219
50.0739901781
50.5637415409
50.0575279474
50.4731992722
50.0945679665
50.5431637526
50.5596259832
50.0945679665
50.5061237335
50.5102392912
50.5225859642
50.1316079855
50.4937770605
50.4731992722
50.5267015219
50.0739901781
50.4731992722
50.0945679665
50.0945679665
50.0781057358
50.0575279474
50.0575279474
50.4937770605
50.5061237335
50.5061237335
50.0781057358
50.0781057358
50.0945679665
50.0945679665
50.0575279474
50.4567370415
50.0781057358
50.5267015219
50.5431637526
50.5431637526
50.1316079855
50.5431637526
50.5267015219
50.5431637526
50.0945679665
50.4896615028
50.0945679665
50.0575279474
50.0781057358
50.0575279474
50.5637415409
50.0739901781
50.0945679665
50.0945679665
50.5431637526
50.0781057358
50.5267015219
50.5596259832
50.0739901781
50.0945679665
50.4731992722
50.1110301971
50.4731992722
50.0945679665
50.0945679665
50.0575279474
50.4896615028
50.0616435051
50.0739901781
50.0781057358
50.5102392912
50.0781057358
50.4896615028
50.0739901781
50.0781057358

Block: 9
======================================
50.4937770605
50.4731992722
50.0945679665
50.4731992722
50.0739901781
50.4937770605
50.4567370415
50.5267015219
50.1110301971
50.0945679665
50.4773148298
50.0904524088
50.4937770605
50.4896615028
50.0945679665
50.0781057358
50.4731992722
50.5431637526
50.5431637526
50.4937770605
50.5225859642
50.4731992722
50.4896615028
50.5267015219
50.4937770605
50.4937770605
50.1809946775
50.5596259832
50.4731992722
50.5267015219
50.1110301971
50.1110301971
50.0945679665
50.5390481949
50.5225859642
50.1110301971
50.5596259832
50.5267015219
50.4896615028
50.9588350773
50.1110301971
50.5596259832
50.1110301971
50.5267015219
50.1110301971
50.5596259832
50.4731992722
50.9588350773
50.5267015219
50.5431637526
50.0781057358
50.0945679665
50.4937770605
50.9547195196
50.9711817503
50.5267015219
50.0945679665
50.1274924278
50.5102392912
50.5061237335
50.4896615028
50.1316079855
50.1110301971
50.1274924278
50.5061237335
50.5061237335
50.1151457548
50.0945679665
50.1274924278
50.5102392912
50.5267015219
50.5061237335
50.4896615028
50.975297308
50.9588350773
50.4896615028
50.5431637526
50.1110301971
50.1274924278
50.1110301971
50.9588350773
50.5596259832
50.0945679665
50.0945679665
50.0781057358
50.0945679665
50.1274924278
50.5596259832
50.1480702162
50.5431637526
50.1274924278
50.1274924278
50.5596259832
50.1274924278
50.5431637526
50.0904524088
50.1274924278
50.1110301971
50.0945679665
50.9547195196

Block: 10
======================================
50.5061237335
50.4731992722
50.0451812744
50.4567370415
50.5431637526
50.4896615028
50.0410657167
50.4731992722
50.5102392912
50.5760882139
50.5267015219
50.5431637526
50.5267015219
50.4567370415
50.1316079855
50.9382572889
50.0945679665
50.5431637526
50.5267015219
50.0945679665
50.0781057358
50.0616435051
50.0945679665
50.0616435051
50.4731992722
50.0781057358
50.0945679665
50.4937770605
50.0781057358
50.0781057358
50.4896615028
50.0616435051
50.0575279474
50.0945679665
50.5267015219
50.4731992722
50.1110301971
50.5431637526
50.0945679665
50.4896615028
50.4937770605
50.4896615028
50.5267015219
50.4937770605
50.0904524088
50.0781057358
50.4567370415
50.0781057358
50.0616435051
50.0410657167
50.5102392912
50.0616435051
50.5431637526
50.5061237335
50.5061237335
50.0904524088
50.0945679665
50.0616435051
50.0945679665
50.1274924278
50.1110301971
50.0945679665
50.0781057358
50.4937770605
50.1274924278
50.5225859642
50.5225859642
50.5431637526
50.0575279474
50.5061237335
50.1110301971
50.5061237335
50.5267015219
50.0616435051
50.1110301971
50.0575279474
50.0575279474
50.0945679665
50.0781057358
50.1110301971
50.0739901781
50.0575279474
50.0616435051
50.4731992722
50.5267015219
50.5267015219
50.0781057358
50.5102392912
50.4937770605
50.0739901781
50.0739901781
50.4896615028
50.0739901781
50.0781057358
50.0781057358
50.4773148298
50.0945679665
50.0781057358
50.0575279474
50.0945679665
