
Block: 1
======================================
48.575927186
50.6954393864
50.5267015219
50.5061237335
50.5061237335

Average distance is : 50.162 cm
Average deviation is : 0.890 cm
Block: 2
======================================
50.0904524088
50.0739901781
50.9588350773
50.0945679665
50.9217950583

Average distance is : 50.428 cm
Average deviation is : 0.468 cm
Block: 3
======================================
50.5102392912
50.975297308
50.4402748108
50.9382572889
50.5061237335

Average distance is : 50.674 cm
Average deviation is : 0.260 cm
Block: 4
======================================
50.0781057358
50.0739901781
50.0781057358
50.1274924278
50.1110301971

Average distance is : 50.094 cm
Average deviation is : 0.024 cm
Block: 5
======================================
50.5102392912
50.4567370415
50.5267015219
50.5061237335
50.5102392912

Average distance is : 50.502 cm
Average deviation is : 0.027 cm
Block: 6
======================================
50.8888705969
50.1316079855
50.1110301971
50.1110301971
50.0575279474

Average distance is : 50.260 cm
Average deviation is : 0.353 cm
Block: 7
======================================
50.9217950583
50.5267015219
50.4896615028
50.9217950583
50.5267015219

Average distance is : 50.677 cm
Average deviation is : 0.224 cm
Block: 8
======================================
50.0945679665
50.1110301971
50.1110301971
50.0616435051
50.5267015219

Average distance is : 50.181 cm
Average deviation is : 0.194 cm
Block: 9
======================================
50.0575279474
50.0945679665
50.5061237335
50.1110301971
50.1316079855

Average distance is : 50.180 cm
Average deviation is : 0.184 cm
Block: 10
======================================
50.5390481949
50.5225859642
50.9588350773
50.5431637526
50.5061237335

Average distance is : 50.614 cm
Average deviation is : 0.193 cm