
Block: 1
======================================
404.351900697
402.180639553
401.739918017
400.874648213
401.351759601
401.772264552
401.739918017
401.776307869
402.212986088
402.19681282

Block: 2
======================================
402.217029405
401.351759601
402.233202672
401.792481136
401.792481136
401.788437819
402.217029405
401.331543016
401.792481136
402.212986088

Block: 3
======================================
402.212986088
401.351759601
402.673924208
401.824827671
402.233202672
402.690097475
402.249375939
401.804611087
401.808654404
402.265549207

Block: 4
======================================
400.959557867
400.959557867
400.991904402
401.008077669
400.975731134
401.436669254
401.452842522
401.028294253
400.995947719
401.87739079

Block: 5
======================================
400.551182866
400.975731134
400.583529401
400.551182866
400.587572718
400.995947719
401.012120986
401.012120986
400.995947719
401.028294253

Block: 6
======================================
401.315369749
400.995947719
400.995947719
400.57139945
400.991904402
401.008077669
400.57139945
400.551182866
401.012120986
400.142807865

Block: 7
======================================
401.469015789
401.448799205
401.448799205
400.57139945
401.436669254
401.024250937
400.551182866
401.432625937
401.87739079
401.012120986

Block: 8
======================================
401.024250937
402.706270742
401.448799205
402.281722474
401.889520741
403.179338813
400.567356133
401.012120986
401.008077669
401.436669254

Block: 9
======================================
401.028294253
400.163024449
400.551182866
400.587572718
401.469015789
401.857174206
400.587572718
400.587572718
401.012120986
400.57139945

Block: 10
======================================
400.603745985
400.555226183
401.024250937
400.57139945
400.146851182
400.146851182
402.297895741
400.991904402
400.587572718
400.126634598
