
Block: 1
======================================
50.8189061165
50.8230216742
50.3867725611
50.7859816551
50.8189061165
50.4196970224
50.4032347918
50.8230216742
50.7859816551
50.8518305779

Block: 2
======================================
50.8189061165
50.8189061165
50.7695194244
50.8559461355
50.8724083662
50.8024438858
50.8518305779
50.8353683472
50.8888705969
50.8724083662

Block: 3
======================================
50.8189061165
50.8189061165
50.4238125801
50.8024438858
50.8189061165
50.8724083662
50.8518305779
50.8518305779
50.8724083662
50.8682928085

Block: 4
======================================
50.3703103304
50.4196970224
50.8024438858
50.8559461355
50.8189061165
50.3703103304
50.8024438858
50.8353683472
50.8724083662
50.3867725611

Block: 5
======================================
50.8724083662
50.8724083662
50.8559461355
50.8847550392
50.8518305779
50.8888705969
50.8724083662
50.4731992722
50.8888705969
50.8724083662

Block: 6
======================================
50.4731992722
50.4731992722
50.8518305779
50.4196970224
50.4731992722
50.4773148298
50.8847550392
50.4196970224
50.4402748108
50.4402748108

Block: 7
======================================
50.8353683472
50.8724083662
50.8559461355
50.9053328276
50.8518305779
50.8353683472
50.8353683472
50.8518305779
50.8724083662
50.8888705969

Block: 8
======================================
50.8518305779
50.8847550392
50.8024438858
50.4032347918
50.3867725611
50.8189061165
50.8559461355
50.8518305779
50.8847550392
50.9053328276

Block: 9
======================================
50.9053328276
50.8353683472
50.7859816551
50.8394839048
50.7818660975
50.8724083662
50.8353683472
50.8024438858
50.8559461355
50.8518305779

Block: 10
======================================
50.8518305779
50.4567370415
50.9053328276
50.4567370415
50.8888705969
50.4567370415
50.4731992722
50.8353683472
50.4731992722
50.4567370415
