
Block: 1
======================================
50.4073503494
50.4073503494
50.4238125801
50.8024438858
50.8024438858

Average distance is : 50.569 cm
Average deviation is : 0.214 cm
Block: 2
======================================
51.4773953438
50.4238125801
50.4032347918
50.3867725611
50.8189061165

Average distance is : 50.702 cm
Average deviation is : 0.469 cm
Block: 3
======================================
50.8559461355
50.7818660975
50.8353683472
50.8847550392
50.8724083662

Average distance is : 50.846 cm
Average deviation is : 0.040 cm
Block: 4
======================================
50.8888705969
50.8353683472
50.8724083662
50.8353683472
50.8559461355

Average distance is : 50.858 cm
Average deviation is : 0.023 cm
Block: 5
======================================
50.4238125801
50.8024438858
50.8353683472
50.8518305779
50.8353683472

Average distance is : 50.750 cm
Average deviation is : 0.183 cm
Block: 6
======================================
50.8353683472
50.8394839048
50.3867725611
50.8353683472
50.4196970224

Average distance is : 50.663 cm
Average deviation is : 0.238 cm
Block: 7
======================================
50.7983283281
50.8559461355
50.8353683472
50.8724083662
50.8189061165

Average distance is : 50.836 cm
Average deviation is : 0.029 cm
Block: 8
======================================
50.8353683472
50.8353683472
50.7983283281
50.8394839048
50.8024438858

Average distance is : 50.822 cm
Average deviation is : 0.020 cm
Block: 9
======================================
50.4032347918
50.4032347918
50.4238125801
50.3867725611
50.4032347918

Average distance is : 50.404 cm
Average deviation is : 0.013 cm
Block: 10
======================================
50.4238125801
50.4567370415
50.4196970224
50.4238125801
50.4361592531

Average distance is : 50.432 cm
Average deviation is : 0.015 cm