
Block: 1
======================================
50.8353683472
50.8189061165
50.8394839048
50.8518305779
50.8724083662
50.8518305779
50.8888705969
50.8518305779
50.8682928085
50.8888705969
50.8847550392
50.8353683472
50.8888705969
50.8559461355
50.8724083662
50.8518305779
50.8559461355
50.9053328276
50.8724083662
50.8394839048
50.8724083662
50.8189061165
50.8024438858
50.8353683472
50.8682928085

Average distance is : 50.857 cm
Average deviation is : 0.025 cm
Block: 2
======================================
50.4238125801
50.4032347918
50.4196970224
50.8353683472
50.3867725611
50.3703103304
50.4238125801
50.8353683472
50.4073503494
50.8353683472
50.4196970224
50.4196970224
50.4073503494
50.3867725611
50.4032347918
50.4032347918
50.4073503494
50.3867725611
50.8189061165
50.9382572889
50.8724083662
50.4073503494
50.7818660975
50.8353683472
50.8888705969

Average distance is : 50.565 cm
Average deviation is : 0.220 cm
Block: 3
======================================
50.8724083662
50.8353683472
50.8682928085
50.7695194244
50.8394839048
50.7859816551
50.8559461355
50.7859816551
50.8518305779
50.8394839048
50.8559461355
50.9053328276
50.8518305779
50.8888705969
50.8518305779
50.8724083662
50.8559461355
50.8559461355
50.8888705969
50.8888705969
50.8189061165
50.8724083662
50.8682928085
50.8559461355
50.8682928085

Average distance is : 50.852 cm
Average deviation is : 0.033 cm
Block: 4
======================================
50.4073503494
50.4567370415
50.4032347918
50.4567370415
50.4196970224
50.8518305779
50.7818660975
50.8353683472
50.8724083662
50.8518305779
50.8189061165
50.8189061165
50.8024438858
50.8353683472
50.8353683472
50.8189061165
50.8518305779
50.4073503494
50.7983283281
50.8189061165
50.8189061165
50.8189061165
50.3867725611
50.8024438858
50.8189061165

Average distance is : 50.712 cm
Average deviation is : 0.187 cm
Block: 5
======================================
50.4402748108
50.4238125801
50.4361592531
50.4238125801
50.3538480997
50.4402748108
50.4073503494
50.3867725611
50.4032347918
50.4073503494
50.4032347918
50.4238125801
50.8024438858
50.4073503494
50.4196970224
50.4073503494
50.4238125801
50.8189061165
50.4196970224
50.3867725611
50.4196970224
50.4196970224
50.4238125801
50.4196970224
50.3867725611

Average distance is : 50.444 cm
Average deviation is : 0.112 cm
Block: 6
======================================
50.8353683472
50.7859816551
50.8189061165
50.8518305779
50.8024438858
50.8024438858
50.8189061165
50.9053328276
50.8682928085
50.8353683472
50.4567370415
50.8559461355
50.8353683472
50.8682928085
50.8518305779
50.8682928085
50.4567370415
50.8353683472
50.8888705969
50.8682928085
50.8888705969
50.8353683472
50.8353683472
50.8888705969
50.8559461355

Average distance is : 50.817 cm
Average deviation is : 0.112 cm
Block: 7
======================================
50.8559461355
50.8518305779
50.8353683472
50.8559461355
50.4402748108
50.8518305779
50.8847550392
50.8518305779
50.8724083662
50.8682928085
50.8518305779
50.8682928085
50.8518305779
50.8518305779
50.8353683472
50.8682928085
50.8518305779
50.8518305779
50.8682928085
50.8888705969
50.8847550392
50.8682928085
50.4567370415
50.9053328276
50.8682928085

Average distance is : 50.830 cm
Average deviation is : 0.116 cm
Block: 8
======================================
50.8724083662
50.8682928085
50.8888705969
50.8847550392
50.8682928085
50.8353683472
50.8189061165
50.8353683472
50.8353683472
50.8518305779
50.699554944
50.8724083662
50.8559461355
50.8888705969
50.8724083662
50.8724083662
50.9053328276
50.8724083662
50.8724083662
50.8682928085
50.8724083662
50.8724083662
50.8724083662
50.8888705969
50.8559461355

Average distance is : 50.860 cm
Average deviation is : 0.039 cm
Block: 9
======================================
50.7695194244
50.8353683472
50.8682928085
50.8724083662
50.8518305779
50.8559461355
50.8724083662
50.8518305779
50.8518305779
50.8888705969
50.4731992722
50.8394839048
50.8518305779
50.8682928085
50.8682928085
50.8724083662
50.8888705969
50.8888705969
50.8888705969
50.8724083662
50.8518305779
50.8682928085
50.8888705969
50.4567370415
50.8888705969

Average distance is : 50.831 cm
Average deviation is : 0.113 cm
Block: 10
======================================
50.8559461355
50.8724083662
50.8724083662
50.4402748108
50.4731992722
50.4567370415
50.4567370415
50.4567370415
50.4238125801
50.4731992722
50.4402748108
50.4402748108
50.4567370415
50.8847550392
50.4567370415
50.8724083662
50.4196970224
50.8682928085
50.9053328276
50.8518305779
50.4567370415
50.8518305779
50.8888705969
50.8682928085
50.4567370415

Average distance is : 50.636 cm
Average deviation is : 0.214 cm