
Block: 1
======================================
300.589683247
301.471785879
300.589683247
300.585618258
301.475850868
301.012442112
301.114066839
300.622203159
300.589683247
301.101871872
300.585618258
300.585618258
301.488045835
301.114066839
301.000247145
300.589683247
301.455525923
300.605943203
301.012442112
301.097806883
301.044962025
301.012442112
300.605943203
300.585618258
300.658788061
300.605943203
300.605943203
300.605943203
300.658788061
300.605943203
301.488045835
301.540890694
300.605943203
300.605943203
300.622203159
301.475850868
301.492110825
300.589683247
300.589683247
300.622203159
301.114066839
301.935194635
300.605943203
301.488045835
300.638463116
301.475850868
300.605943203
301.114066839
301.455525923
300.589683247
301.508370781
301.475850868
301.475850868
301.032767057
301.471785879
300.996182156
301.032767057
301.032767057
301.951454592
300.589683247
300.675048018
300.605943203
300.585618258
301.114066839
300.601878214
301.488045835
300.670983028
300.601878214
300.670983028
301.081546926
300.585618258
301.049027014
300.691307974
300.670983028
300.622203159
300.622203159
300.638463116
300.585618258
300.605943203
300.601878214
300.585618258
300.601878214
300.601878214
300.605943203
300.605943203
300.622203159
300.622203159
300.658788061
301.492110825
300.601878214
300.601878214
300.622203159
301.524630737
300.638463116
301.508370781
300.658788061
300.601878214
300.601878214
301.134391785
300.605943203

Average distance is : 300.892 cm
Average deviation is : 0.379 cm
Block: 2
======================================
300.654723072
301.488045835
300.670983028
301.475850868
301.049027014
300.658788061
300.654723072
300.670983028
300.605943203
300.638463116
301.032767057
301.049027014
300.589683247
300.675048018
300.605943203
301.06528697
300.605943203
301.492110825
300.654723072
300.622203159
301.028702068
300.601878214
301.492110825
300.654723072
301.471785879
301.492110825
300.670983028
301.114066839
300.605943203
300.638463116
300.605943203
301.114066839
300.675048018
301.508370781
300.605943203
300.605943203
300.691307974
300.670983028
300.601878214
300.605943203
300.638463116
300.654723072
300.605943203
300.675048018
300.654723072
301.492110825
301.028702068
300.622203159
301.032767057
301.492110825
301.06528697
300.658788061
300.605943203
300.589683247
301.049027014
300.622203159
300.605943203
300.589683247
300.605943203
300.658788061
300.589683247
300.605943203
300.605943203
301.492110825
301.492110825
300.638463116
301.492110825
300.658788061
300.654723072
301.044962025
301.028702068
301.488045835
300.569358301
300.605943203
301.016507101
300.589683247
301.918934679
301.475850868
300.585618258
301.492110825
300.585618258
301.049027014
301.508370781
300.589683247
301.101871872
301.114066839
300.605943203
300.585618258
300.605943203
301.06528697
300.589683247
300.57342329
300.601878214
300.638463116
301.049027014
300.585618258
301.715685225
300.622203159
300.605943203
300.605943203

Average distance is : 300.868 cm
Average deviation is : 0.356 cm
Block: 3
======================================
301.049027014
300.601878214
301.488045835
300.601878214
301.06528697
301.028702068
301.508370781
301.471785879
301.028702068
301.028702068
301.012442112
301.049027014
300.589683247
300.605943203
301.337641239
301.06528697
301.06528697
301.561215639
301.049027014
301.032767057
301.044962025
300.622203159
301.028702068
301.540890694
300.585618258
301.032767057
301.06528697
301.06528697
301.044962025
300.654723072
301.06528697
300.589683247
300.605943203
301.06528697
301.049027014
301.049027014
300.654723072
300.601878214
300.585618258
301.06528697
300.601878214
300.605943203
300.605943203
300.585618258
300.601878214
301.028702068
300.585618258
301.06528697
301.101871872
301.06528697
300.605943203
300.585618258
301.508370781
300.622203159
300.654723072
300.622203159
300.601878214
300.670983028
300.585618258
301.044962025
301.06528697
300.605943203
300.589683247
301.492110825
300.675048018
300.605943203
300.670983028
300.622203159
300.622203159
300.601878214
300.675048018
301.06528697
300.622203159
300.605943203
300.654723072
300.670983028
301.097806883
301.032767057
301.049027014
300.605943203
300.670983028
301.471785879
301.492110825
301.032767057
301.049027014
301.032767057
300.691307974
300.585618258
301.492110825
301.492110825
300.589683247
300.585618258
300.654723072
301.492110825
301.097806883
300.605943203
301.492110825
301.508370781
301.016507101
300.589683247

Average distance is : 300.909 cm
Average deviation is : 0.318 cm
Block: 4
======================================
301.475850868
301.492110825
301.475850868
301.561215639
300.605943203
300.601878214
301.492110825
301.049027014
301.028702068
301.471785879
301.028702068
301.471785879
301.049027014
301.012442112
300.585618258
301.044962025
301.032767057
300.654723072
300.585618258
300.601878214
301.492110825
300.638463116
301.049027014
301.049027014
300.943337297
300.601878214
301.097806883
301.028702068
300.569358301
300.569358301
300.589683247
301.049027014
300.589683247
300.57342329
301.101871872
300.589683247
301.032767057
301.032767057
301.032767057
301.540890694
300.569358301
301.475850868
301.012442112
301.032767057
301.049027014
301.012442112
301.049027014
301.544955683
301.475850868
301.475850868
301.016507101
301.032767057
301.028702068
301.049027014
301.012442112
301.028702068
301.488045835
301.012442112
301.049027014
300.569358301
301.012442112
301.032767057
301.032767057
301.492110825
301.016507101
301.475850868
301.492110825
301.032767057
301.492110825
300.658788061
301.475850868
300.569358301
301.032767057
301.028702068
301.012442112
300.675048018
301.492110825
301.032767057
301.118131828
300.622203159
301.508370781
301.032767057
301.016507101
301.016507101
301.492110825
301.902674723
301.032767057
301.012442112
301.028702068
300.569358301
301.049027014
301.134391785
301.049027014
300.569358301
300.601878214
300.605943203
301.032767057
301.032767057
300.57342329
300.585618258

Average distance is : 301.031 cm
Average deviation is : 0.325 cm
Block: 5
======================================
301.06528697
301.000247145
301.06528697
300.585618258
301.049027014
300.605943203
300.638463116
300.605943203
301.028702068
300.585618258
301.06528697
301.508370781
301.492110825
301.492110825
301.492110825
300.675048018
301.049027014
301.049027014
301.044962025
301.028702068
301.508370781
301.508370781
301.492110825
300.622203159
300.585618258
301.492110825
300.675048018
300.654723072
301.51243577
300.605943203
300.675048018
301.475850868
300.675048018
301.492110825
300.622203159
301.508370781
301.475850868
301.049027014
301.044962025
301.049027014
301.114066839
300.654723072
301.492110825
300.622203159
301.492110825
301.51243577
301.049027014
300.675048018
300.622203159
300.622203159
301.508370781
301.488045835
300.61813817
300.605943203
300.622203159
300.589683247
300.622203159
301.032767057
301.049027014
301.492110825
300.675048018
300.675048018
301.508370781
300.675048018
301.032767057
301.492110825
301.134391785
300.622203159
300.654723072
300.622203159
301.488045835
300.670983028
300.585618258
300.622203159
300.675048018
300.691307974
300.622203159
300.622203159
300.605943203
300.622203159
301.492110825
300.658788061
300.605943203
300.654723072
300.605943203
301.508370781
300.675048018
300.622203159
301.528695726
300.622203159
300.605943203
300.622203159
300.61813817
300.605943203
300.622203159
300.605943203
300.691307974
301.508370781
301.492110825
301.130326796

Average distance is : 300.951 cm
Average deviation is : 0.373 cm
Block: 6
======================================
301.508370781
301.049027014
301.049027014
300.601878214
300.585618258
300.605943203
300.585618258
300.57342329
301.524630737
300.622203159
301.028702068
300.601878214
301.508370781
300.654723072
301.06528697
301.06528697
301.524630737
301.049027014
301.06528697
301.028702068
301.06528697
301.06528697
301.524630737
300.622203159
300.601878214
301.951454592
301.081546926
300.605943203
301.049027014
301.049027014
301.085611916
300.605943203
301.049027014
301.049027014
300.601878214
301.06528697
301.06528697
300.605943203
301.508370781
300.605943203
301.049027014
301.081546926
301.044962025
301.524630737
300.605943203
300.605943203
300.638463116
300.601878214
300.601878214
301.51243577
300.638463116
301.524630737
300.601878214
301.06528697
301.06528697
300.70756793
301.097806883
301.508370781
300.605943203
300.601878214
300.605943203
301.081546926
300.622203159
300.601878214
300.601878214
300.605943203
300.605943203
300.601878214
300.622203159
301.049027014
301.118131828
300.605943203
300.605943203
301.06528697
300.605943203
300.605943203
300.642528105
300.585618258
300.622203159
301.06528697
301.951454592
300.642528105
301.114066839
300.585618258
301.134391785
301.081546926
301.540890694
300.622203159
301.150651741
300.622203159
300.605943203
300.601878214
301.134391785
300.622203159
301.114066839
300.605943203
300.638463116
300.605943203
301.06528697
301.06528697

Average distance is : 300.909 cm
Average deviation is : 0.344 cm
Block: 7
======================================
300.622203159
301.55715065
301.032767057
301.049027014
301.032767057
300.589683247
301.049027014
301.032767057
301.032767057
300.605943203
300.601878214
301.524630737
301.049027014
301.049027014
301.06528697
301.06528697
301.044962025
300.622203159
301.508370781
300.605943203
300.622203159
301.06528697
301.06528697
301.06528697
300.622203159
301.049027014
301.049027014
301.06528697
301.081546926
301.032767057
301.049027014
301.06528697
301.044962025
301.561215639
301.06528697
300.675048018
301.508370781
301.049027014
301.049027014
300.585618258
300.569358301
301.130326796
301.06528697
301.049027014
301.06528697
301.06528697
301.049027014
301.044962025
301.06528697
301.524630737
301.06528697
300.589683247
301.049027014
301.049027014
302.805102301
301.049027014
301.06528697
300.605943203
301.06528697
301.069351959
301.081546926
301.081546926
301.06528697
301.134391785
301.528695726
301.049027014
300.605943203
301.06528697
301.044962025
300.638463116
300.687242985
300.605943203
300.622203159
301.06528697
302.414863348
300.605943203
300.585618258
301.049027014
301.097806883
300.601878214
300.622203159
301.081546926
301.06528697
301.577475595
300.605943203
301.134391785
301.101871872
300.622203159
301.508370781
301.524630737
301.508370781
301.06528697
301.524630737
301.524630737
301.081546926
300.658788061
301.524630737
301.528695726
300.622203159
300.691307974

Average distance is : 301.044 cm
Average deviation is : 0.369 cm
Block: 8
======================================
300.638463116
301.524630737
300.622203159
301.166911697
300.687242985
301.524630737
300.638463116
301.101871872
300.687242985
300.703502941
300.605943203
300.691307974
301.06528697
300.691307974
300.642528105
300.638463116
301.049027014
301.06528697
300.691307974
300.622203159
301.593735552
300.605943203
300.638463116
301.06528697
301.573410606
301.524630737
301.081546926
301.06528697
301.06528697
300.654723072
300.638463116
301.06528697
300.691307974
300.642528105
300.638463116
300.638463116
301.134391785
300.70756793
301.524630737
301.508370781
301.06528697
301.524630737
300.70756793
300.691307974
300.638463116
301.544955683
301.577475595
301.524630737
301.528695726
300.638463116
301.524630737
300.638463116
301.150651741
301.097806883
300.658788061
301.540890694
300.622203159
301.508370781
300.642528105
300.642528105
301.508370781
301.150651741
300.638463116
301.06528697
301.528695726
301.166911697
300.691307974
300.638463116
301.06528697
301.06528697
301.081546926
301.06528697
300.601878214
301.524630737
300.589683247
301.508370781
300.605943203
301.524630737
301.06528697
300.622203159
301.561215639
300.638463116
300.605943203
300.622203159
300.622203159
300.605943203
300.605943203
301.134391785
301.049027014
301.049027014
300.585618258
300.622203159
301.06528697
301.032767057
301.06528697
301.06528697
301.06528697
300.622203159
300.605943203
300.622203159

Average distance is : 300.961 cm
Average deviation is : 0.354 cm
Block: 9
======================================
300.622203159
300.670983028
301.488045835
301.06528697
301.049027014
301.06528697
301.049027014
301.044962025
301.06528697
301.134391785
301.475850868
300.605943203
300.605943203
300.605943203
300.589683247
300.605943203
300.622203159
301.492110825
300.622203159
300.585618258
300.622203159
300.589683247
301.044962025
301.488045835
301.475850868
300.638463116
301.049027014
301.032767057
301.028702068
301.012442112
300.585618258
300.654723072
301.134391785
300.601878214
300.601878214
301.492110825
301.118131828
300.622203159
301.134391785
301.492110825
301.032767057
300.675048018
301.492110825
301.06528697
301.508370781
301.475850868
301.06528697
301.012442112
301.06528697
301.049027014
301.51243577
301.049027014
300.658788061
300.589683247
301.492110825
301.134391785
300.589683247
301.488045835
300.605943203
301.134391785
301.134391785
301.492110825
300.622203159
301.471785879
301.528695726
301.508370781
300.675048018
301.492110825
300.61813817
301.049027014
300.622203159
300.605943203
301.492110825
300.675048018
301.134391785
301.492110825
300.622203159
300.605943203
300.605943203
301.130326796
300.622203159
301.06528697
300.569358301
300.601878214
300.670983028
301.130326796
300.585618258
300.622203159
300.553098345
300.622203159
300.605943203
301.492110825
301.081546926
300.605943203
301.118131828
300.605943203
301.06528697
300.675048018
300.622203159
300.670983028

Average distance is : 300.953 cm
Average deviation is : 0.346 cm
Block: 10
======================================
300.622203159
301.508370781
301.508370781
301.081546926
300.670983028
300.605943203
301.492110825
300.605943203
301.06528697
301.049027014
301.06528697
301.134391785
301.492110825
301.081546926
300.601878214
300.585618258
300.585618258
300.654723072
300.622203159
300.605943203
300.622203159
301.508370781
301.51243577
301.049027014
300.605943203
300.670983028
300.601878214
301.508370781
300.605943203
300.654723072
300.601878214
300.622203159
300.605943203
300.654723072
300.670983028
300.601878214
300.670983028
300.605943203
301.475850868
300.605943203
300.601878214
300.601878214
300.601878214
300.670983028
300.654723072
300.638463116
300.622203159
301.150651741
300.622203159
300.654723072
300.622203159
300.622203159
300.654723072
300.691307974
300.638463116
301.508370781
300.605943203
300.605943203
300.605943203
301.118131828
300.675048018
301.118131828
300.658788061
300.622203159
300.605943203
301.06528697
300.642528105
301.049027014
300.589683247
300.622203159
300.622203159
300.585618258
301.06528697
301.150651741
300.658788061
300.622203159
301.06528697
301.114066839
301.044962025
300.589683247
301.492110825
301.561215639
301.508370781
300.605943203
301.508370781
301.118131828
300.605943203
301.118131828
300.601878214
300.589683247
301.492110825
301.06528697
300.638463116
300.605943203
300.585618258
301.049027014
301.06528697
301.049027014
301.049027014
301.06528697

Average distance is : 300.861 cm
Average deviation is : 0.327 cm