
Block: 1
======================================
300.601878214
300.569358301
301.049027014
300.589683247
301.492110825
300.57342329
300.605943203
301.06528697
300.605943203
301.459590912
301.06528697
301.028702068
300.585618258
301.049027014
301.049027014
301.044962025
300.622203159
301.475850868
301.134391785
301.544955683
300.605943203
301.049027014
301.049027014
300.605943203
301.049027014
301.06528697
301.049027014
300.589683247
301.06528697
301.118131828
301.118131828
301.049027014
300.658788061
300.605943203
301.049027014
300.589683247
300.605943203
300.605943203
300.605943203
300.605943203
301.06528697
300.622203159
300.691307974
301.524630737
301.508370781
301.069351959
301.049027014
301.06528697
300.691307974
301.049027014
301.06528697
301.06528697
301.06528697
300.622203159
300.605943203
300.605943203
300.638463116
301.06528697
301.06528697
301.06528697
301.044962025
301.081546926
300.605943203
300.589683247
300.622203159
300.601878214
301.06528697
301.06528697
301.06528697
301.081546926
301.085611916
300.622203159
300.622203159
301.049027014
300.622203159

Average distance is : 300.906 cm
Average deviation is : 0.281 cm
Block: 2
======================================
301.044962025
300.601878214
301.06528697
301.049027014
301.06528697
301.118131828
300.589683247
301.06528697
300.605943203
300.589683247
301.081546926
301.134391785
300.622203159
301.06528697
300.601878214
300.585618258
301.06528697
300.622203159
300.601878214
301.508370781
301.06528697
300.622203159
300.605943203
300.622203159
300.670983028
300.622203159
300.622203159
301.508370781
300.675048018
300.605943203
300.654723072
300.605943203
300.622203159
301.032767057
301.032767057
301.118131828
300.622203159
300.605943203
300.622203159
301.91486969
300.601878214
300.670983028
300.601878214
300.585618258
300.601878214
300.601878214
300.585618258
300.585618258
300.601878214
301.471785879
301.06528697
300.605943203
301.06528697
300.605943203
300.622203159
301.049027014
300.585618258
300.585618258
301.06528697
300.605943203
300.605943203
300.605943203
300.622203159
300.605943203
300.605943203
300.658788061
300.605943203
301.492110825
300.658788061
300.589683247
300.605943203
301.492110825
300.622203159
301.508370781
300.675048018

Average distance is : 300.811 cm
Average deviation is : 0.312 cm
Block: 3
======================================
301.134391785
301.508370781
301.475850868
300.605943203
301.150651741
301.028702068
301.049027014
301.492110825
300.605943203
301.118131828
300.622203159
300.605943203
301.508370781
301.492110825
301.475850868
301.028702068
300.589683247
301.492110825
302.378278446
301.049027014
301.032767057
301.475850868
301.028702068
301.508370781
301.508370781
301.06528697
301.032767057
301.032767057
301.028702068
301.508370781
301.492110825
301.049027014
301.049027014
301.06528697
300.589683247
301.032767057
301.049027014
301.028702068
301.044962025
301.049027014
301.508370781
300.622203159
301.508370781
301.044962025
301.492110825
301.475850868
301.049027014
300.622203159
301.492110825
301.492110825
301.475850868
301.06528697
301.06528697
300.622203159
301.085611916
300.589683247
300.654723072
300.605943203
300.622203159
300.622203159
301.51243577
300.622203159
301.492110825
301.032767057
301.508370781
300.605943203
301.492110825
300.589683247
300.658788061
300.638463116
301.475850868
301.935194635
300.622203159
301.488045835
300.691307974

Average distance is : 301.109 cm
Average deviation is : 0.388 cm
Block: 4
======================================
301.032767057
301.032767057
300.654723072
301.471785879
301.028702068
301.012442112
301.028702068
301.475850868
301.028702068
300.601878214
300.601878214
301.471785879
301.471785879
301.471785879
300.601878214
300.658788061
300.654723072
301.012442112
301.544955683
300.57342329
300.569358301
301.475850868
300.557163334
301.049027014
300.605943203
301.032767057
301.471785879
301.012442112
301.492110825
301.471785879
301.508370781
300.601878214
301.488045835
300.601878214
301.471785879
300.654723072
301.028702068
300.57342329
300.675048018
300.996182156
301.032767057
300.654723072
301.492110825
301.049027014
300.601878214
301.471785879
300.654723072
301.049027014
301.016507101
300.605943203
300.605943203
300.605943203
300.654723072
300.605943203
300.601878214
301.097806883
300.605943203
301.492110825
301.475850868
301.492110825
300.670983028
300.622203159
300.654723072
300.589683247
301.049027014
300.638463116
300.605943203
300.658788061
300.675048018
300.670983028
300.569358301
300.658788061
300.589683247
300.654723072
300.569358301

Average distance is : 300.927 cm
Average deviation is : 0.358 cm
Block: 5
======================================
300.605943203
300.605943203
300.605943203
300.589683247
301.049027014
301.492110825
301.118131828
301.471785879
300.605943203
301.492110825
300.675048018
301.016507101
301.032767057
301.492110825
301.475850868
301.488045835
300.605943203
301.471785879
301.492110825
301.475850868
301.049027014
301.475850868
300.605943203
301.032767057
301.012442112
300.585618258
301.032767057
301.028702068
300.638463116
301.032767057
301.475850868
301.049027014
300.589683247
301.032767057
300.569358301
301.049027014
301.032767057
301.032767057
300.589683247
301.492110825
301.049027014
301.016507101
301.049027014
301.049027014
301.012442112
300.622203159
301.471785879
301.471785879
301.049027014
301.475850868
301.475850868
301.471785879
301.028702068
301.049027014
301.488045835
301.028702068
301.012442112
301.032767057
300.589683247
300.605943203
301.032767057
300.658788061
300.622203159
300.605943203
301.492110825
301.032767057
301.492110825
301.032767057
300.589683247
301.459590912
301.951454592
301.012442112
301.475850868
300.605943203
301.475850868

Average distance is : 301.065 cm
Average deviation is : 0.352 cm
Block: 6
======================================
301.028702068
300.57342329
301.492110825
300.589683247
301.101871872
301.488045835
301.488045835
301.032767057
301.028702068
301.475850868
300.585618258
301.492110825
301.012442112
301.012442112
301.012442112
301.032767057
301.049027014
301.016507101
301.032767057
301.028702068
301.492110825
301.471785879
301.044962025
301.471785879
301.012442112
301.032767057
301.032767057
301.459590912
301.475850868
301.06528697
300.589683247
301.492110825
300.605943203
301.492110825
301.032767057
300.605943203
301.049027014
300.589683247
301.06528697
301.06528697
300.589683247
301.492110825
300.658788061
301.134391785
300.601878214
300.605943203
301.459590912
300.589683247
300.654723072
301.012442112
301.488045835
300.642528105
301.492110825
300.638463116
301.492110825
300.601878214
301.134391785
300.585618258
300.589683247
300.654723072
301.492110825
301.488045835
300.670983028
301.118131828
301.475850868
301.471785879
300.654723072
301.032767057
301.049027014
301.032767057
301.475850868
301.475850868
300.654723072
300.601878214
300.605943203

Average distance is : 301.042 cm
Average deviation is : 0.347 cm
Block: 7
======================================
300.569358301
300.553098345
301.101871872
300.569358301
300.569358301
301.016507101
301.032767057
301.049027014
301.012442112
300.569358301
301.016507101
301.016507101
301.028702068
300.553098345
301.028702068
300.569358301
301.016507101
301.028702068
301.032767057
301.012442112
301.049027014
300.585618258
301.455525923
301.012442112
301.475850868
300.569358301
301.918934679
300.553098345
300.553098345
301.101871872
301.016507101
301.016507101
300.553098345
301.016507101
300.569358301
300.585618258
300.553098345
301.012442112
301.016507101
301.016507101
301.032767057
300.569358301
301.028702068
301.012442112
301.471785879
301.032767057
300.557163334
301.032767057
301.012442112
301.028702068
301.016507101
301.032767057
301.032767057
301.016507101
300.569358301
301.101871872
301.016507101
300.553098345
301.032767057
301.032767057
301.032767057
301.016507101
301.101871872
301.016507101
301.049027014
301.085611916
300.589683247
301.012442112
301.028702068
301.081546926
301.016507101
301.032767057
300.589683247
301.032767057
301.049027014

Average distance is : 300.932 cm
Average deviation is : 0.265 cm
Block: 8
======================================
301.012442112
301.475850868
301.455525923
301.508370781
300.996182156
301.118131828
300.638463116
300.605943203
301.118131828
301.118131828
300.585618258
300.601878214
301.471785879
300.670983028
301.492110825
300.601878214
301.471785879
300.654723072
300.585618258
301.101871872
300.605943203
301.475850868
301.044962025
300.654723072
300.605943203
301.492110825
300.605943203
301.028702068
301.508370781
300.654723072
301.492110825
301.475850868
301.028702068
300.605943203
300.605943203
300.589683247
300.605943203
300.605943203
301.492110825
300.675048018
300.654723072
300.654723072
301.118131828
301.471785879
301.51243577
300.605943203
300.569358301
301.51243577
301.032767057
301.492110825
301.475850868
301.118131828
300.605943203
300.605943203
300.605943203
301.492110825
301.508370781
300.675048018
301.032767057
300.605943203
301.508370781
301.049027014
300.675048018
301.032767057
301.049027014
301.044962025
301.028702068
300.569358301
301.508370781
301.028702068
301.032767057
300.605943203
301.492110825
300.585618258
300.605943203

Average distance is : 300.991 cm
Average deviation is : 0.372 cm
Block: 9
======================================
301.492110825
301.91486969
301.508370781
300.622203159
300.638463116
300.654723072
301.508370781
301.55715065
301.049027014
300.622203159
301.524630737
301.032767057
301.049027014
301.032767057
300.605943203
300.670983028
301.492110825
301.488045835
300.605943203
301.508370781
301.032767057
301.492110825
301.032767057
301.032767057
301.471785879
300.605943203
300.589683247
301.016507101
301.492110825
300.658788061
301.049027014
300.605943203
301.475850868
301.475850868
301.114066839
301.118131828
301.049027014
300.589683247
301.049027014
301.085611916
301.475850868
300.605943203
300.589683247
300.654723072
300.589683247
300.605943203
301.049027014
301.06528697
300.589683247
300.622203159
301.06528697
301.492110825
301.475850868
301.028702068
300.569358301
301.471785879
301.492110825
301.475850868
301.475850868
301.049027014
301.492110825
301.492110825
301.032767057
301.049027014
300.622203159
301.032767057
301.540890694
301.475850868
301.492110825
301.032767057
301.032767057
300.589683247
301.016507101
301.049027014
301.032767057

Average distance is : 301.081 cm
Average deviation is : 0.364 cm
Block: 10
======================================
301.475850868
300.589683247
301.488045835
301.049027014
301.475850868
301.028702068
301.012442112
301.028702068
301.471785879
301.475850868
301.475850868
301.492110825
300.605943203
301.508370781
301.459590912
301.475850868
301.475850868
300.589683247
300.589683247
300.589683247
301.097806883
301.114066839
300.569358301
300.605943203
300.589683247
301.492110825
301.06528697
301.492110825
301.097806883
300.601878214
301.016507101
301.032767057
301.118131828
301.049027014
301.475850868
301.475850868
301.118131828
301.032767057
301.032767057
301.101871872
300.605943203
301.049027014
301.492110825
300.654723072
301.492110825
300.585618258
300.622203159
301.51243577
300.654723072
300.589683247
301.134391785
301.471785879
300.605943203
301.012442112
300.605943203
300.622203159
300.601878214
301.097806883
300.642528105
301.492110825
300.622203159
301.492110825
301.475850868
301.101871872
300.589683247
301.118131828
301.032767057
301.475850868
300.605943203
300.622203159
301.118131828
301.492110825
301.492110825
301.492110825
301.471785879

Average distance is : 301.070 cm
Average deviation is : 0.364 cm