
Block: 1
======================================
99.8635411263
99.9337512255
99.8800611496
99.9172312021
99.8965811729
99.9172312021
99.8635411263
99.8800611496
99.8800611496
99.8635411263
99.8965811729
99.8965811729
100.313711762
99.9007111788
100.27654171
100.317841768
99.8841911554
99.8635411263
99.8841911554
99.8635411263
99.8841911554
99.8841911554
100.297191739
100.297191739
99.9007111788
100.297191739
100.280671716
99.8800611496
100.313711762
100.317841768
100.297191739
99.8800611496
100.297191739
99.8470211029
99.8800611496
99.8800611496
100.313711762
100.330231786
100.313711762
99.8635411263
100.313711762
100.313711762
99.8841911554
99.8470211029
99.8635411263
99.9172312021
100.313711762
100.313711762
100.330231786
100.297191739
99.8800611496
99.8841911554
100.27654171
99.8635411263
100.297191739
99.8800611496
100.313711762
100.280671716
99.8635411263
100.280671716
99.4670605659
100.297191739
100.313711762
99.8305010796
99.4464105368
100.297191739
100.297191739
99.9007111788
100.297191739
99.8841911554
99.9007111788
100.297191739
99.8841911554
100.297191739
99.8635411263

Average distance is : 100.050 cm
Average deviation is : 0.231 cm
Block: 2
======================================
99.8635411263
99.4298905134
100.367401838
100.313711762
100.280671716
100.297191739
99.8800611496
99.8965811729
100.27654171
100.313711762
99.8800611496
100.297191739
99.8635411263
99.8470211029
99.8305010796
99.9007111788
100.297191739
100.313711762
99.8635411263
99.8470211029
100.280671716
100.313711762
99.8841911554
99.8965811729
99.8800611496
100.297191739
100.330231786
100.334361792
99.8635411263
99.8635411263
100.313711762
100.334361792
99.8965811729
100.334361792
100.280671716
99.8635411263
100.313711762
99.9007111788
99.8800611496
100.334361792
100.334361792
100.313711762
100.297191739
99.8800611496
100.297191739
99.8841911554
100.313711762
100.264151692
99.8676711321
99.8800611496
99.9007111788
100.297191739
99.8800611496
100.313711762
100.297191739
99.9007111788
100.313711762
100.330231786
100.297191739
100.313711762
99.8635411263
99.8800611496
99.8635411263
100.334361792
100.313711762
99.8965811729
100.297191739
99.8305010796
99.8470211029
99.9667912722
100.313711762
100.313711762
100.313711762
100.313711762
99.8635411263

Average distance is : 100.102 cm
Average deviation is : 0.231 cm
Block: 3
======================================
99.8841911554
99.9172312021
100.334361792
100.313711762
100.346751809
100.297191739
99.8841911554
99.8800611496
99.566180706
99.9502712488
99.8676711321
99.8800611496
99.9007111788
99.8635411263
99.8800611496
99.8635411263
99.4133704901
99.8470211029
100.313711762
99.8800611496
100.330231786
100.313711762
100.330231786
100.297191739
99.9007111788
100.313711762
100.313711762
100.313711762
99.8965811729
100.313711762
100.313711762
100.330231786
100.330231786
100.280671716
99.8635411263
99.8841911554
100.297191739
100.313711762
100.297191739
99.8635411263
99.8305010796
99.8800611496
99.4505405426
100.313711762
100.313711762
100.313711762
100.330231786
100.313711762
100.330231786
99.8263710737
99.8841911554
100.297191739
99.8470211029
99.8841911554
100.297191739
100.330231786
100.297191739
99.8470211029
99.8470211029
100.313711762
99.8965811729
100.280671716
100.297191739
100.334361792
100.334361792
100.334361792
100.297191739
100.317841768
100.313711762
99.8800611496
100.297191739
99.8635411263
100.27654171
99.8965811729
99.8965811729

Average distance is : 100.099 cm
Average deviation is : 0.250 cm
Block: 4
======================================
99.8800611496
100.313711762
100.313711762
100.313711762
99.8800611496
100.297191739
99.8635411263
99.8635411263
100.317841768
100.297191739
100.313711762
99.8841911554
99.9007111788
100.330231786
100.334361792
100.317841768
99.8800611496
100.280671716
100.313711762
100.313711762
99.8635411263
100.330231786
100.297191739
99.8841911554
99.8676711321
99.8800611496
100.313711762
100.297191739
100.297191739
99.8676711321
100.317841768
99.8470211029
99.4505405426
99.8635411263
99.8676711321
99.8841911554
100.313711762
99.9337512255
100.297191739
99.8470211029
99.8635411263
100.313711762
99.8800611496
99.8676711321
99.8470211029
99.8635411263
99.8841911554
99.9007111788
100.297191739
99.8635411263
99.8800611496
99.8470211029
99.8139810562
99.8635411263
99.9007111788
99.8470211029
99.8635411263
99.4133704901
99.8635411263
99.8635411263
99.8470211029
99.8470211029
99.8635411263
99.8470211029
99.9172312021
99.8635411263
99.8635411263
99.8635411263
99.8841911554
100.280671716
99.8800611496
99.8470211029
99.8428910971
99.8635411263
99.8841911554

Average distance is : 99.998 cm
Average deviation is : 0.227 cm
Block: 5
======================================
99.9337512255
100.313711762
100.363271832
99.8470211029
99.8635411263
99.8841911554
99.9337512255
99.4298905134
99.4835805893
100.330231786
99.8635411263
100.297191739
100.297191739
99.8800611496
99.8841911554
99.8841911554
100.317841768
99.8635411263
99.9007111788
100.313711762
100.297191739
99.8800611496
100.313711762
100.297191739
99.8635411263
100.280671716
99.4464105368
99.8635411263
100.313711762
100.297191739
99.9007111788
100.297191739
99.8965811729
100.330231786
100.297191739
99.8841911554
100.313711762
99.8635411263
99.8800611496
100.313711762
100.297191739
99.9007111788
100.297191739
99.8635411263
100.330231786
100.297191739
99.8841911554
100.27654171
99.8635411263
100.297191739
100.297191739
99.8800611496
100.334361792
100.313711762
100.334361792
100.334361792
100.297191739
99.8800611496
99.9007111788
100.297191739
100.313711762
99.9007111788
99.8965811729
100.313711762
100.313711762
99.8965811729
100.313711762
100.297191739
100.313711762
100.280671716
100.280671716
100.297191739
100.297191739
100.317841768
100.297191739

Average distance is : 100.110 cm
Average deviation is : 0.246 cm
Block: 6
======================================
99.8800611496
99.8800611496
100.367401838
99.9007111788
100.297191739
100.334361792
100.313711762
100.313711762
100.297191739
100.297191739
100.297191739
99.8800611496
100.297191739
99.9007111788
100.334361792
100.313711762
100.313711762
99.8470211029
100.280671716
100.313711762
100.297191739
100.317841768
100.280671716
100.280671716
100.297191739
100.297191739
100.297191739
100.264151692
99.8470211029
100.301321745
99.9337512255
99.9131011963
100.313711762
100.280671716
83.2856976986
54.6523672342
80.7953041792
100.383921862
100.334361792
100.367401838
100.297191739
99.8965811729
100.350881815
99.8965811729
100.330231786
100.313711762
100.297191739
100.297191739
100.350881815
100.330231786
100.297191739
100.297191739
100.280671716
99.8470211029
100.313711762
100.313711762
100.297191739
100.297191739
99.8305010796
100.313711762
100.297191739
100.297191739
100.297191739
100.280671716
99.8635411263
100.313711762
100.350881815
100.330231786
100.350881815
100.330231786
100.334361792
100.346751809
100.346751809
100.313711762
100.313711762

Average distance is : 99.136 cm
Average deviation is : 5.989 cm
Block: 7
======================================
99.9337512255
100.313711762
100.313711762
100.330231786
99.8635411263
100.280671716
100.297191739
100.27654171
100.313711762
100.317841768
99.9007111788
100.334361792
99.9007111788
100.297191739
100.297191739
100.313711762
100.313711762
100.317841768
100.297191739
100.330231786
100.330231786
100.313711762
100.313711762
100.334361792
100.334361792
100.330231786
99.9007111788
100.313711762
100.334361792
100.297191739
100.313711762
100.313711762
100.313711762
100.297191739
100.313711762
100.334361792
100.313711762
99.9172312021
99.9172312021
99.9502712488
99.9502712488
99.9172312021
100.334361792
100.313711762
100.317841768
100.313711762
100.313711762
100.297191739
100.297191739
100.280671716
100.297191739
100.317841768
100.297191739
100.297191739
100.317841768
100.313711762
100.313711762
100.297191739
100.317841768
100.317841768
100.297191739
100.330231786
100.313711762
100.313711762
100.334361792
100.297191739
99.8635411263
100.297191739
100.313711762
100.297191739
99.8800611496
100.27654171
100.367401838
100.297191739
100.367401838

Average distance is : 100.248 cm
Average deviation is : 0.151 cm
Block: 8
======================================
99.9007111788
99.8965811729
100.313711762
99.8800611496
100.317841768
100.313711762
100.313711762
100.367401838
100.367401838
100.346751809
100.330231786
100.313711762
100.297191739
100.313711762
100.334361792
100.297191739
100.317841768
100.313711762
100.330231786
100.313711762
100.330231786
100.334361792
100.346751809
100.317841768
100.313711762
100.313711762
100.313711762
100.297191739
100.313711762
99.8841911554
100.317841768
100.313711762
100.313711762
99.9337512255
100.334361792
99.8635411263
99.8635411263
99.8635411263
99.8965811729
99.9007111788
99.8470211029
99.4340205193
100.297191739
100.297191739
100.313711762
99.8800611496
100.280671716
100.313711762
100.317841768
100.297191739
100.313711762
99.8800611496
100.313711762
100.317841768
100.297191739
99.8800611496
100.297191739
100.317841768
100.297191739
100.280671716
100.297191739
99.8635411263
100.297191739
99.8800611496
99.4835805893
100.313711762
100.313711762
100.317841768
100.317841768
100.297191739
100.297191739
100.317841768
100.334361792
100.330231786
100.313711762

Average distance is : 100.200 cm
Average deviation is : 0.217 cm
Block: 9
======================================
99.9502712488
100.313711762
99.8470211029
99.8635411263
100.313711762
100.330231786
99.8635411263
99.8676711321
100.317841768
100.367401838
100.313711762
100.330231786
100.297191739
100.313711762
100.313711762
100.297191739
99.8965811729
100.334361792
100.297191739
100.330231786
100.330231786
100.313711762
100.317841768
99.8635411263
99.8800611496
99.4505405426
100.280671716
99.8965811729
99.8965811729
99.8676711321
99.8800611496
100.297191739
99.8098510504
99.8635411263
99.8800611496
99.8470211029
99.8800611496
100.313711762
100.313711762
99.8635411263
99.9007111788
100.297191739
99.8800611496
99.8470211029
99.8635411263
100.297191739
99.8800611496
100.280671716
100.297191739
99.9007111788
100.334361792
100.297191739
99.8800611496
100.313711762
100.297191739
99.9502712488
99.8841911554
100.297191739
99.8635411263
99.8676711321
99.8800611496
99.8800611496
100.280671716
99.8635411263
99.9007111788
100.334361792
100.317841768
100.313711762
100.313711762
99.8965811729
100.313711762
99.8965811729
100.313711762
100.313711762
100.313711762

Average distance is : 100.098 cm
Average deviation is : 0.230 cm
Block: 10
======================================
99.9007111788
99.8841911554
100.297191739
100.297191739
100.313711762
100.330231786
100.313711762
99.8965811729
100.297191739
100.330231786
100.313711762
100.334361792
100.330231786
100.243501663
99.4629305601
99.9172312021
100.313711762
100.313711762
100.313711762
100.330231786
99.8800611496
100.297191739
99.8470211029
99.8965811729
100.280671716
99.8635411263
100.590422153
100.297191739
100.317841768
100.297191739
99.9337512255
100.330231786
99.8841911554
99.9131011963
100.313711762
99.8470211029
100.297191739
99.8635411263
99.8139810562
99.4464105368
99.9007111788
99.8800611496
100.297191739
99.4670605659
99.4298905134
100.313711762
100.297191739
99.8841911554
100.297191739
100.334361792
100.317841768
100.350881815
100.313711762
100.350881815
100.330231786
100.297191739
99.8635411263
100.330231786
100.313711762
100.090691447
100.330231786
100.317841768
100.334361792
100.313711762
100.313711762
100.297191739
99.8305010796
99.8098510504
99.8635411263
99.8635411263
99.8676711321
99.8635411263
99.8470211029
99.8305010796
100.313711762

Average distance is : 100.115 cm
Average deviation is : 0.267 cm
Average distance for 10x75 is : 100.016 cm
Average deviation for 10x75 is : 0.804 cm
 Percentage of values that failed: 0.000