
Block: 1
======================================
100.801052451
101.6848737
100.850612521
100.437611938
100.437611938
100.421091914
100.796922445
100.801052451
100.433481932
100.416961908
100.780402422
100.817572474
100.834092498
101.251223087
100.421091914
100.416961908
100.404571891
101.6848737
100.796922445
101.267743111
100.437611938
100.817572474
100.817572474
100.813442469
100.437611938
100.817572474
100.834092498
101.668353677
100.834092498
100.796922445
100.801052451
100.817572474
100.817572474
101.251223087
100.400441885
100.854742527
101.267743111
100.817572474
100.433481932
100.801052451
101.267743111
100.400441885
100.834092498
100.784532428
100.834092498
100.801052451
100.801052451
101.717913747
100.834092498
100.850612521
100.817572474
100.404571891
100.817572474
100.801052451
100.834092498
100.834092498
100.801052451
101.304913163
100.834092498
100.834092498
100.817572474
101.267743111
100.801052451
100.817572474
100.838222504
100.817572474
100.801052451
101.251223087
100.437611938
101.717913747
100.801052451
100.817572474
100.817572474
100.421091914
100.817572474

Average distance is : 100.839 cm
Average deviation is : 0.328 cm
Block: 2
======================================
100.433481932
100.854742527
100.850612521
100.834092498
100.834092498
101.284263134
101.664223671
100.834092498
100.834092498
100.433481932
100.416961908
100.416961908
100.416961908
100.433481932
100.801052451
100.400441885
101.680743694
100.780402422
100.784532428
101.251223087
100.801052451
101.267743111
100.817572474
100.834092498
101.267743111
101.6848737
100.813442469
100.400441885
101.218183041
100.817572474
100.801052451
100.834092498
100.801052451
101.664223671
100.813442469
100.834092498
100.801052451
101.680743694
100.817572474
100.796922445
101.251223087
100.834092498
100.817572474
100.834092498
101.701393723
100.817572474
100.817572474
100.817572474
100.796922445
100.404571891
100.796922445
100.817572474
100.801052451
100.817572474
100.813442469
100.834092498
100.817572474
100.404571891
100.817572474
100.416961908
101.214053035
100.404571891
100.817572474
100.400441885
101.701393723
100.813442469
101.680743694
99.9502712488
100.834092498
100.834092498
101.6848737
100.834092498
100.817572474
100.817572474
100.801052451

Average distance is : 100.881 cm
Average deviation is : 0.379 cm
Block: 3
======================================
101.234703064
100.834092498
101.214053035
100.817572474
101.701393723
101.284263134
101.680743694
101.6848737
100.400441885
100.404571891
101.263613105
100.796922445
100.817572474
100.838222504
100.383921862
100.817572474
100.817572474
100.817572474
100.400441885
101.680743694
101.701393723
101.6848737
100.817572474
100.801052451
100.850612521
101.717913747
100.817572474
100.383921862
101.6848737
101.197533011
100.834092498
100.850612521
100.796922445
100.834092498
100.801052451
101.701393723
100.801052451
100.421091914
101.6848737
100.817572474
101.680743694
100.813442469
100.817572474
100.813442469
100.796922445
100.834092498
100.817572474
100.421091914
101.701393723
101.701393723
101.251223087
100.421091914
100.780402422
101.247093081
100.801052451
100.834092498
101.680743694
100.813442469
100.784532428
100.834092498
100.421091914
100.834092498
100.817572474
100.834092498
100.817572474
100.383921862
100.416961908
100.817572474
100.400441885
100.87126255
100.817572474
101.680743694
101.267743111
100.421091914
100.817572474

Average distance is : 100.967 cm
Average deviation is : 0.426 cm
Block: 4
======================================
101.284263134
101.717913747
101.717913747
101.680743694
100.838222504
100.834092498
100.796922445
101.251223087
100.400441885
100.801052451
100.796922445
101.701393723
100.801052451
101.680743694
101.664223671
100.834092498
100.834092498
100.433481932
100.780402422
101.251223087
100.400441885
100.817572474
100.834092498
100.400441885
101.234703064
100.421091914
100.421091914
100.834092498
100.796922445
100.416961908
100.801052451
100.796922445
100.834092498
100.801052451
100.813442469
100.850612521
101.267743111
101.247093081
100.850612521
100.801052451
100.838222504
100.400441885
100.817572474
100.801052451
100.796922445
100.834092498
100.813442469
100.796922445
100.817572474
101.701393723
100.817572474
100.780402422
100.801052451
101.251223087
100.383921862
100.817572474
100.834092498
100.834092498
101.263613105
101.6848737
100.437611938
100.801052451
101.680743694
100.801052451
101.230573058
100.813442469
100.834092498
100.834092498
101.214053035
100.813442469
100.834092498
101.214053035
100.817572474
100.817572474
100.834092498

Average distance is : 100.931 cm
Average deviation is : 0.361 cm
Block: 5
======================================
100.780402422
101.317303181
101.717913747
100.780402422
100.437611938
100.867132545
100.834092498
100.400441885
100.817572474
100.796922445
100.867132545
100.801052451
101.234703064
100.421091914
100.854742527
101.230573058
100.433481932
101.267743111
100.817572474
100.421091914
101.668353677
100.780402422
100.796922445
101.251223087
100.421091914
100.850612521
100.834092498
101.680743694
100.817572474
100.817572474
100.817572474
101.647703648
101.230573058
100.437611938
100.834092498
100.801052451
100.421091914
100.817572474
100.801052451
100.400441885
101.713783741
100.416961908
101.664223671
100.817572474
100.817572474
101.6848737
101.234703064
100.834092498
100.834092498
101.6848737
101.267743111
100.801052451
100.747362375
100.817572474
100.817572474
100.400441885
100.801052451
100.400441885
101.267743111
100.817572474
101.197533011
101.664223671
100.22698164
100.433481932
100.834092498
100.780402422
101.6848737
100.817572474
101.6848737
100.421091914
101.218183041
100.404571891
101.251223087
101.701393723
101.6848737

Average distance is : 100.948 cm
Average deviation is : 0.427 cm
Block: 6
======================================
100.383921862
101.6848737
100.801052451
101.234703064
101.251223087
101.717913747
101.284263134
100.834092498
101.251223087
100.796922445
101.28839314
100.416961908
100.834092498
100.437611938
100.416961908
100.416961908
100.834092498
100.416961908
100.437611938
100.834092498
100.817572474
100.817572474
100.850612521
100.383921862
100.801052451
100.796922445
100.416961908
100.416961908
100.87126255
100.801052451
100.817572474
100.817572474
100.834092498
100.801052451
100.433481932
100.416961908
100.801052451
100.817572474
100.801052451
100.416961908
100.817572474
100.817572474
100.817572474
100.834092498
100.817572474
100.784532428
100.801052451
100.416961908
100.817572474
101.251223087
100.834092498
100.421091914
100.817572474
101.214053035
100.433481932
100.813442469
100.834092498
100.801052451
101.197533011
101.664223671
100.416961908
100.780402422
100.801052451
101.664223671
100.801052451
100.834092498
101.680743694
100.813442469
100.416961908
101.701393723
100.400441885
100.813442469
101.267743111
100.404571891
100.817572474

Average distance is : 100.831 cm
Average deviation is : 0.357 cm
Block: 7
======================================
100.813442469
100.763882399
100.383921862
100.813442469
100.784532428
100.433481932
100.437611938
100.817572474
100.796922445
100.834092498
100.854742527
100.817572474
100.796922445
100.400441885
101.6848737
100.400441885
100.400441885
100.383921862
100.817572474
101.680743694
101.197533011
100.780402422
100.367401838
100.796922445
100.817572474
100.834092498
101.218183041
100.416961908
101.230573058
100.796922445
100.801052451
100.437611938
100.850612521
100.784532428
100.400441885
100.850612521
100.817572474
100.421091914
100.834092498
101.267743111
100.817572474
100.817572474
100.796922445
100.817572474
100.437611938
100.784532428
101.284263134
100.801052451
100.834092498
101.267743111
100.817572474
101.701393723
100.400441885
100.421091914
101.267743111
100.416961908
101.647703648
100.817572474
100.834092498
100.813442469
100.454131961
100.416961908
101.251223087
100.796922445
101.263613105
100.834092498
100.801052451
100.416961908
100.796922445
100.817572474
100.801052451
100.400441885
100.834092498
100.817572474
100.817572474

Average distance is : 100.805 cm
Average deviation is : 0.328 cm
Block: 8
======================================
101.284263134
100.813442469
100.817572474
100.817572474
100.817572474
100.421091914
101.267743111
100.817572474
101.267743111
100.801052451
100.421091914
100.801052451
100.834092498
100.400441885
100.834092498
101.251223087
101.6848737
100.801052451
101.267743111
100.801052451
100.400441885
100.404571891
101.267743111
100.813442469
100.796922445
101.214053035
100.416961908
101.664223671
100.404571891
101.680743694
100.433481932
101.247093081
100.383921862
100.834092498
101.680743694
100.834092498
101.218183041
101.668353677
100.801052451
100.834092498
100.817572474
100.796922445
101.664223671
100.784532428
100.796922445
101.247093081
100.796922445
100.801052451
100.763882399
101.247093081
100.801052451
100.834092498
101.214053035
100.834092498
100.817572474
100.796922445
100.437611938
100.801052451
100.834092498
100.801052451
100.801052451
100.400441885
100.817572474
100.834092498
100.817572474
100.400441885
100.817572474
101.197533011
100.404571891
100.817572474
101.664223671
100.400441885
100.780402422
101.234703064
101.234703064

Average distance is : 100.903 cm
Average deviation is : 0.361 cm
Block: 9
======================================
100.834092498
100.834092498
100.796922445
100.400441885
101.230573058
101.251223087
100.801052451
100.813442469
100.540862083
100.817572474
100.796922445
100.383921862
100.801052451
100.834092498
100.383921862
100.801052451
100.817572474
100.400441885
100.834092498
100.834092498
100.796922445
101.664223671
101.6848737
100.850612521
100.383921862
100.817572474
100.817572474
100.801052451
100.801052451
100.817572474
100.801052451
100.801052451
100.838222504
100.834092498
100.817572474
100.801052451
101.6848737
100.817572474
100.404571891
100.801052451
100.416961908
101.251223087
100.817572474
101.234703064
100.801052451
100.813442469
100.801052451
100.801052451
100.801052451
100.817572474
100.801052451
100.813442469
100.801052451
100.850612521
100.834092498
101.6848737
100.817572474
100.817572474
100.801052451
100.834092498
100.796922445
100.416961908
100.817572474
100.796922445
100.796922445
100.383921862
100.421091914
100.400441885
100.801052451
101.668353677
100.784532428
100.834092498
100.817572474
100.813442469
100.400441885

Average distance is : 100.824 cm
Average deviation is : 0.299 cm
Block: 10
======================================
100.784532428
100.796922445
100.416961908
100.404571891
100.383921862
100.383921862
100.400441885
100.817572474
100.383921862
100.780402422
100.437611938
100.421091914
100.817572474
100.817572474
100.817572474
100.817572474
100.796922445
100.801052451
100.416961908
100.796922445
100.801052451
100.813442469
100.784532428
100.416961908
100.817572474
100.817572474
101.6848737
100.801052451
100.801052451
100.784532428
100.817572474
100.834092498
100.400441885
100.834092498
100.796922445
100.437611938
101.701393723
100.400441885
100.796922445
100.801052451
100.383921862
100.817572474
100.404571891
100.817572474
101.267743111
100.400441885
100.817572474
100.796922445
100.834092498
100.416961908
101.680743694
100.801052451
100.421091914
100.400441885
100.433481932
100.796922445
101.263613105
101.668353677
101.251223087
101.267743111
101.251223087
100.780402422
100.817572474
100.817572474
100.421091914
101.717913747
100.817572474
100.801052451
100.416961908
101.6848737
100.801052451
101.6848737
100.796922445
101.247093081
100.784532428

Average distance is : 100.808 cm
Average deviation is : 0.371 cm
Average distance for 10x75 is : 100.874 cm
Average deviation for 10x75 is : 0.364 cm
 Percentage of values that failed: 0.000