
Block: 1
======================================
100.801052451
101.267743111
100.433481932
101.668353677
100.421091914
100.768012404
101.651833653
101.680743694
100.437611938
100.834092498
100.404571891
100.433481932
100.817572474
100.796922445
100.421091914
100.421091914
101.230573058
101.6848737
100.404571891
100.796922445
100.801052451
101.251223087
101.6848737
100.834092498
100.801052451
100.416961908
100.421091914
101.701393723
101.664223671
101.680743694
100.437611938
100.400441885
100.817572474
100.784532428
100.801052451
101.234703064
100.838222504
100.796922445
100.801052451
100.817572474
100.421091914
100.834092498
100.817572474
101.680743694
101.6848737
101.697263718
100.801052451
100.383921862
100.400441885
100.850612521

Block: 2
======================================
100.801052451
100.813442469
100.813442469
100.834092498
100.400441885
100.416961908
100.854742527
101.701393723
100.850612521
100.834092498
101.6848737
100.801052451
101.284263134
100.834092498
100.404571891
101.263613105
100.796922445
100.817572474
101.077762842
100.817572474
100.801052451
100.813442469
100.817572474
100.817572474
100.817572474
100.400441885
100.416961908
100.817572474
100.416961908
100.421091914
100.834092498
100.817572474
101.6848737
100.817572474
100.784532428
100.421091914
100.421091914
101.197533011
100.421091914
100.801052451
101.701393723
100.834092498
100.817572474
100.437611938
100.433481932
100.838222504
101.214053035
100.813442469
100.801052451
100.400441885

Block: 3
======================================
101.668353677
101.713783741
100.817572474
100.834092498
100.400441885
100.813442469
100.817572474
100.817572474
101.267743111
101.218183041
101.267743111
100.817572474
100.817572474
101.214053035
101.230573058
101.701393723
100.817572474
101.251223087
100.796922445
100.834092498
100.796922445
100.834092498
100.383921862
100.813442469
100.834092498
100.834092498
100.834092498
100.850612521
100.400441885
100.817572474
101.701393723
101.680743694
100.817572474
100.834092498
101.680743694
100.421091914
100.817572474
100.834092498
100.813442469
101.263613105
100.834092498
101.284263134
100.838222504
101.267743111
101.267743111
100.437611938
100.421091914
100.416961908
100.817572474
100.817572474

Block: 4
======================================
101.680743694
100.834092498
100.416961908
100.801052451
101.680743694
100.801052451
100.850612521
100.817572474
100.400441885
101.701393723
101.6848737
101.6848737
100.416961908
101.6848737
101.251223087
100.416961908
100.850612521
101.6848737
101.230573058
100.421091914
100.433481932
100.834092498
101.251223087
100.834092498
100.817572474
100.834092498
100.454131961
100.817572474
101.251223087
100.817572474
100.850612521
100.784532428
100.813442469
100.817572474
100.383921862
100.796922445
100.817572474
100.817572474
100.834092498
100.817572474
101.680743694
100.433481932
100.416961908
100.850612521
100.834092498
100.400441885
100.817572474
100.817572474
100.400441885
100.817572474

Block: 5
======================================
100.834092498
100.834092498
100.834092498
101.680743694
100.834092498
100.416961908
100.400441885
100.801052451
100.437611938
100.817572474
100.400441885
100.834092498
100.817572474
100.334361792
100.834092498
100.801052451
101.267743111
100.817572474
100.817572474
100.817572474
100.400441885
100.400441885
100.817572474
100.817572474
100.433481932
100.834092498
100.796922445
100.437611938
101.701393723
100.817572474
100.817572474
100.416961908
100.437611938
100.801052451
101.230573058
100.433481932
101.6848737
100.813442469
100.817572474
100.834092498
100.404571891
101.234703064
100.834092498
100.383921862
101.267743111
100.383921862
100.421091914
100.817572474
100.801052451
100.817572474

Block: 6
======================================
101.218183041
100.404571891
100.400441885
100.854742527
100.433481932
100.850612521
100.383921862
100.437611938
100.433481932
100.834092498
100.850612521
100.437611938
100.850612521
100.801052451
100.834092498
100.400441885
100.817572474
100.817572474
101.6848737
100.834092498
100.801052451
100.801052451
101.680743694
100.796922445
101.247093081
100.784532428
100.817572474
101.680743694
100.850612521
101.251223087
100.400441885
100.817572474
100.801052451
100.817572474
101.267743111
100.404571891
100.433481932
101.701393723
101.680743694
101.230573058
101.267743111
100.421091914
100.801052451
100.817572474
100.801052451
100.817572474
100.421091914
100.850612521
101.680743694
100.817572474

Block: 7
======================================
100.817572474
100.850612521
100.834092498
100.813442469
100.834092498
100.813442469
100.801052451
100.834092498
100.796922445
100.801052451
101.6848737
100.817572474
101.668353677
101.247093081
101.263613105
101.284263134
101.234703064
101.680743694
100.834092498
100.834092498
100.037001371
100.801052451
101.284263134
100.850612521
100.421091914
100.850612521
100.801052451
100.400441885
100.834092498
100.421091914
100.416961908
100.433481932
100.433481932
100.796922445
100.400441885
100.817572474
100.796922445
101.6848737
100.813442469
100.801052451
101.267743111
100.817572474
100.421091914
100.796922445
100.796922445
100.801052451
100.416961908
100.383921862
100.801052451
101.267743111

Block: 8
======================================
100.784532428
101.284263134
101.697263718
100.801052451
101.701393723
100.850612521
100.813442469
100.817572474
100.801052451
100.817572474
101.284263134
100.817572474
100.834092498
100.817572474
100.834092498
100.400441885
101.668353677
101.251223087
100.433481932
101.267743111
101.664223671
101.251223087
101.263613105
101.6848737
101.234703064
101.664223671
101.697263718
101.247093081
101.6848737
100.801052451
100.817572474
100.801052451
100.817572474
100.784532428
100.801052451
100.400441885
101.6848737
101.668353677
100.834092498
100.416961908
101.664223671
100.834092498
100.813442469
101.701393723
100.404571891
101.267743111
100.813442469
100.834092498
100.834092498
100.817572474

Block: 9
======================================
100.421091914
100.834092498
100.780402422
100.817572474
100.784532428
100.850612521
101.664223671
100.421091914
100.801052451
100.850612521
100.400441885
100.817572474
101.214053035
100.437611938
101.267743111
101.6848737
101.218183041
100.433481932
101.717913747
101.284263134
100.817572474
101.6848737
101.284263134
101.717913747
100.834092498
101.214053035
100.421091914
100.796922445
100.817572474
101.214053035
100.817572474
100.784532428
101.701393723
100.87126255
100.433481932
100.437611938
100.780402422
101.697263718
101.680743694
101.664223671
100.801052451
100.784532428
100.796922445
101.214053035
100.834092498
100.817572474
100.416961908
100.834092498
101.234703064
101.701393723

Block: 10
======================================
100.454131961
101.701393723
100.416961908
100.433481932
100.697802305
100.817572474
100.801052451
100.817572474
100.437611938
100.850612521
100.416961908
100.838222504
100.834092498
101.267743111
100.416961908
100.796922445
100.850612521
100.813442469
100.416961908
100.416961908
100.404571891
100.421091914
100.834092498
100.834092498
100.433481932
101.680743694
100.416961908
100.834092498
100.416961908
100.796922445
100.813442469
100.796922445
100.801052451
100.433481932
100.817572474
100.416961908
101.230573058
100.834092498
100.400441885
100.834092498
100.834092498
100.801052451
101.664223671
100.404571891
100.400441885
100.416961908
100.813442469
101.267743111
100.433481932
100.834092498
