
Block: 1
======================================
200.316238189
200.861914754
200.312165976
200.348815894
201.236558366
200.36917696
201.240630579
200.401754665
200.829337049
201.240630579
200.348815894
200.418043518
201.236558366
201.240630579
201.220269513
200.348815894
201.220269513
200.332527041
201.252847219
201.220269513
201.220269513
201.236558366
201.220269513
200.3813936
201.236558366

Average distance is : 200.852 cm
Average deviation is : 0.425 cm
Block: 2
======================================
200.332527041
200.348815894
200.348815894
200.352888107
201.220269513
201.220269513
200.312165976
200.78047049
200.295877123
201.220269513
200.3813936
201.236558366
200.332527041
200.299949336
200.776398277
200.776398277
200.776398277
201.236558366
201.224341726
201.224341726
201.220269513
201.20398066
201.199908447
200.27958827
201.20398066

Average distance is : 200.792 cm
Average deviation is : 0.417 cm
Block: 3
======================================
200.776398277
200.776398277
200.760109425
201.220269513
200.760109425
201.220269513
200.332527041
201.183619595
200.760109425
200.727531719
201.220269513
200.743820572
201.220269513
200.760109425
201.20398066
201.20398066
201.220269513
200.332527041
200.739748359
200.739748359
200.743820572
200.727531719
201.183619595
200.723459506
200.739748359

Average distance is : 200.881 cm
Average deviation is : 0.275 cm
Block: 4
======================================
200.401754665
200.88227582
201.220269513
200.365104747
201.20398066
201.20398066
200.385465813
201.220269513
201.20398066
201.220269513
200.365104747
201.183619595
201.236558366
201.220269513
200.776398277
201.224341726
201.220269513
200.316238189
200.328454828
201.220269513
201.220269513
201.220269513
200.760109425
201.20398066
201.236558366

Average distance is : 200.962 cm
Average deviation is : 0.371 cm
Block: 5
======================================
201.220269513
200.332527041
200.78047049
200.299949336
200.743820572
200.739748359
200.796759343
200.776398277
200.760109425
200.776398277
200.760109425
200.756037211
200.813048196
200.760109425
200.299949336
200.760109425
200.332527041
200.295877123
200.283660483
200.295877123
200.312165976
200.756037211
200.295877123
200.756037211
200.299949336

Average distance is : 200.600 cm
Average deviation is : 0.262 cm
Block: 6
======================================
201.236558366
201.236558366
200.841553688
200.316238189
200.739748359
200.27958827
200.727531719
200.743820572
200.299949336
200.316238189
200.27958827
200.263299417
200.27958827
200.263299417
200.776398277
200.316238189
200.739748359
200.760109425
200.756037211
200.27958827
200.760109425
200.27958827
200.295877123
201.187691808
200.776398277

Average distance is : 200.590 cm
Average deviation is : 0.328 cm
Block: 7
======================================
200.332527041
200.776398277
201.220269513
200.194071794
200.760109425
200.295877123
200.312165976
200.295877123
200.295877123
200.796759343
200.829337049
200.299949336
200.316238189
200.316238189
200.332527041
200.756037211
200.743820572
200.760109425
200.743820572
200.739748359
200.295877123
200.760109425
200.27958827
200.756037211
200.739748359

Average distance is : 200.558 cm
Average deviation is : 0.273 cm
Block: 8
======================================
200.332527041
200.385465813
200.796759343
200.813048196
200.348815894
200.316238189
200.401754665
201.20398066
200.365104747
200.739748359
200.177782941
200.707170653
200.776398277
201.220269513
200.760109425
200.299949336
201.171402955
200.727531719
200.739748359
201.20398066
201.183619595
200.760109425
200.723459506
200.743820572
200.723459506

Average distance is : 200.705 cm
Average deviation is : 0.317 cm
Block: 9
======================================
200.743820572
200.263299417
200.739748359
200.27958827
201.647851896
200.760109425
200.727531719
200.27958827
200.283660483
201.171402955
200.776398277
201.167330742
201.171402955
200.263299417
200.267371631
200.27958827
201.183619595
200.829337049
200.295877123
201.183619595
200.739748359
200.813048196
201.151041889
201.151041889
200.690881801

Average distance is : 200.754 cm
Average deviation is : 0.400 cm
Block: 10
======================================
200.27958827
201.611201978
201.167330742
200.723459506
200.723459506
201.183619595
200.312165976
201.167330742
200.825264835
200.295877123
200.365104747
200.332527041
201.183619595
201.171402955
200.776398277
200.295877123
201.167330742
201.167330742
201.183619595
200.295877123
200.27958827
200.352888107
200.299949336
200.316238189
200.283660483

Average distance is : 200.710 cm
Average deviation is : 0.433 cm