
Block: 1
======================================
400.773565292
400.247934103
400.688655639
400.243890786
401.129377174
400.247934103
401.994646978
400.704828906
400.688655639
400.688655639
400.688655639
401.129377174
400.688655639
400.704828906
400.688655639
400.737175441
400.247934103
400.668439054
400.247934103
401.198113561
400.757392025
400.688655639
400.704828906
400.247934103
400.26410737
400.243890786
401.145550442
400.26410737
400.247934103
400.26410737
401.553925443
401.145550442
400.721002173
401.129377174
401.57009871
400.688655639
400.753348708
400.26410737
400.753348708
400.773565292
400.721002173
400.280280638
400.26410737
400.668439054
400.704828906
400.26410737
400.704828906
400.769521976
401.145550442
400.773565292
400.721002173
400.72504549
401.145550442
401.161723709
400.721002173
401.161723709
400.773565292
400.737175441
401.177896976
401.214286828
400.737175441
400.805911827
400.72504549
401.181940293
400.296453905
400.721002173
400.769521976
401.145550442
401.165767026
400.704828906
400.72504549
400.721002173
400.757392025
401.161723709
401.177896976

Block: 2
======================================
400.721002173
400.721002173
401.655008364
401.622661829
401.161723709
401.161723709
401.145550442
401.177896976
401.129377174
401.161723709
400.721002173
401.145550442
400.737175441
400.721002173
401.177896976
400.78973856
400.737175441
400.737175441
400.838258362
400.842301679
400.753348708
400.737175441
400.316670489
400.805911827
400.822085094
400.826128411
400.805911827
400.773565292
400.753348708
400.316670489
400.349017024
400.401580143
400.381363559
400.757392025
400.822085094
400.741218758
400.753348708
400.332843757
400.332843757
400.822085094
400.316670489
400.753348708
400.397536826
400.826128411
400.753348708
400.78973856
400.773565292
400.296453905
400.332843757
400.753348708
400.316670489
401.210243511
401.63479178
400.773565292
400.332843757
400.773565292
400.316670489
400.312627172
400.769521976
400.741218758
399.871905637
400.773565292
400.300497222
400.773565292
400.296453905
400.332843757
400.332843757
400.753348708
400.300497222
400.332843757
400.32880044
399.888078904
400.316670489
400.32880044
400.332843757

Block: 3
======================================
400.757392025
400.300497222
400.280280638
400.280280638
400.805911827
401.145550442
400.757392025
400.721002173
400.349017024
400.349017024
400.741218758
400.737175441
400.349017024
400.737175441
400.300497222
400.741218758
400.365190291
400.721002173
400.26410737
400.284323955
400.284323955
401.198113561
400.721002173
400.296453905
400.284323955
400.704828906
400.721002173
400.721002173
400.704828906
400.349017024
400.365190291
400.26410737
400.704828906
400.332843757
400.721002173
400.721002173
400.280280638
400.721002173
400.72504549
400.72504549
401.230460095
400.72504549
401.210243511
400.26410737
400.721002173
402.451541781
400.721002173
400.721002173
400.26410737
400.721002173
400.704828906
400.26410737
400.300497222
400.721002173
400.737175441
400.243890786
400.312627172
400.704828906
400.704828906
400.721002173
400.721002173
400.721002173
400.26410737
400.78973856
400.721002173
400.721002173
400.284323955
400.26410737
400.721002173
400.26410737
402.010820246
401.230460095
400.280280638
400.300497222
400.704828906

Block: 4
======================================
400.741218758
401.230460095
401.57009871
400.704828906
400.280280638
400.737175441
400.721002173
400.26410737
400.26410737
400.26410737
400.741218758
401.586271977
400.704828906
400.365190291
400.231760836
400.72504549
400.704828906
400.280280638
400.721002173
400.247934103
400.688655639
400.704828906
400.704828906
400.280280638
400.231760836
400.773565292
400.247934103
400.26410737
400.296453905
400.26410737
400.688655639
400.312627172
400.247934103
400.688655639
401.590315294
400.247934103
401.129377174
400.688655639
401.990603662
400.757392025
401.129377174
400.721002173
400.260064054
402.435368514
400.688655639
400.704828906
401.161723709
400.704828906
400.773565292
401.165767026
400.688655639
401.145550442
400.721002173
400.721002173
401.145550442
400.72504549
401.165767026
400.721002173
400.78973856
400.773565292
400.78973856
400.72504549
401.671181631
401.181940293
401.181940293
401.181940293
400.805911827
400.757392025
400.057898211
400.822085094
402.04316678
400.773565292
400.753348708
401.214286828
401.26280663

Block: 5
======================================
400.332843757
402.04316678
400.296453905
401.230460095
400.809955144
400.757392025
400.753348708
401.266849947
400.741218758
400.332843757
400.349017024
400.757392025
400.332843757
400.773565292
400.397536826
400.78973856
400.753348708
400.757392025
401.194070244
401.230460095
401.214286828
400.773565292
400.332843757
400.78973856
400.842301679
400.349017024
400.332843757
400.757392025
400.365190291
400.316670489
400.312627172
400.316670489
400.757392025
400.349017024
400.773565292
401.210243511
400.773565292
400.296453905
400.753348708
400.753348708
400.826128411
400.753348708
401.181940293
400.737175441
400.753348708
400.805911827
400.332843757
400.312627172
400.296453905
400.773565292
400.316670489
400.78973856
400.300497222
400.757392025
400.312627172
400.826128411
400.312627172
400.32880044
401.214286828
400.316670489
401.177896976
400.316670489
401.26280663
400.401580143
401.198113561
400.332843757
400.769521976
400.809955144
400.753348708
401.655008364
400.773565292
400.757392025
400.312627172
400.737175441
400.805911827

Block: 6
======================================
400.753348708
400.753348708
400.381363559
400.741218758
400.822085094
400.753348708
400.773565292
400.296453905
400.741218758
400.757392025
400.401580143
400.296453905
400.296453905
400.737175441
400.757392025
400.741218758
400.753348708
400.741218758
401.602445245
400.296453905
400.757392025
400.312627172
400.280280638
400.300497222
401.177896976
400.737175441
400.72504549
401.181940293
400.741218758
400.737175441
400.805911827
400.757392025
400.721002173
400.737175441
401.246633363
400.296453905
400.757392025
400.721002173
400.721002173
400.721002173
401.181940293
401.177896976
400.316670489
401.165767026
400.741218758
400.721002173
400.721002173
400.312627172
401.161723709
401.165767026
400.280280638
400.721002173
400.741218758
400.773565292
401.230460095
400.721002173
400.757392025
401.161723709
400.753348708
400.300497222
401.161723709
400.805911827
401.161723709
400.26410737
400.280280638
400.737175441
401.161723709
401.177896976
400.280280638
400.280280638
400.737175441
401.161723709
401.181940293
400.63609252
400.26410737

Block: 7
======================================
400.773565292
400.280280638
400.822085094
400.721002173
400.280280638
400.296453905
400.316670489
400.721002173
401.230460095
401.198113561
400.300497222
400.316670489
400.296453905
400.721002173
400.741218758
400.280280638
400.296453905
400.300497222
400.349017024
401.505405641
400.822085094
400.316670489
400.365190291
400.284323955
400.312627172
401.181940293
400.381363559
400.757392025
401.198113561
400.296453905
400.704828906
400.296453905
400.312627172
400.296453905
400.296453905
400.316670489
400.381363559
400.741218758
400.757392025
400.332843757
400.349017024
400.381363559
400.332843757
400.316670489
400.312627172
400.300497222
400.401580143
400.332843757
400.757392025
400.296453905
400.300497222
400.280280638
400.737175441
400.365190291
400.296453905
400.316670489
400.300497222
400.349017024
400.365190291
400.349017024
400.349017024
399.839559102
400.300497222
400.26410737
400.296453905
400.296453905
400.300497222
400.737175441
400.296453905
400.78973856
400.296453905
400.365190291
400.296453905
400.737175441
400.32880044

Block: 8
======================================
400.296453905
400.349017024
400.809955144
401.230460095
400.757392025
401.161723709
400.381363559
400.72504549
400.280280638
400.280280638
400.757392025
400.737175441
401.586271977
400.741218758
400.737175441
400.316670489
400.737175441
400.721002173
400.737175441
401.181940293
400.822085094
401.198113561
400.741218758
400.753348708
400.296453905
400.737175441
400.72504549
400.737175441
400.737175441
400.78973856
401.161723709
400.721002173
400.78973856
400.72504549
401.586271977
400.704828906
401.230460095
400.296453905
400.805911827
401.165767026
400.721002173
400.721002173
401.230460095
400.757392025
401.181940293
400.737175441
401.194070244
401.181940293
401.25067668
400.737175441
400.72504549
400.737175441
400.78973856
400.721002173
401.622661829
401.177896976
401.177896976
401.586271977
401.181940293
400.757392025
401.181940293
402.04316678
401.177896976
402.047210097
401.181940293
401.707571483
401.210243511
400.741218758
402.04316678
401.703528166
401.181940293
400.721002173
401.161723709
401.181940293
400.822085094

Block: 9
======================================
401.707571483
400.721002173
400.741218758
401.63479178
400.737175441
402.026993513
401.165767026
401.161723709
401.181940293
402.047210097
401.165767026
401.161723709
400.737175441
401.618618512
400.737175441
401.177896976
400.737175441
401.198113561
400.312627172
400.316670489
401.230460095
400.332843757
400.773565292
400.312627172
400.300497222
401.230460095
400.365190291
400.826128411
401.198113561
400.332843757
401.198113561
400.316670489
400.822085094
400.365190291
400.401580143
401.177896976
400.365190291
400.822085094
400.300497222
401.194070244
401.194070244
400.312627172
400.316670489
401.198113561
400.753348708
400.757392025
400.332843757
400.344973707
400.349017024
400.757392025
400.381363559
400.332843757
400.332843757
400.773565292
400.332843757
400.296453905
400.32880044
400.312627172
400.78973856
401.63479178
400.757392025
400.78973856
400.316670489
400.300497222
400.349017024
401.214286828
400.332843757
400.773565292
400.349017024
400.349017024
400.332843757
400.195370984
400.401580143
400.312627172
400.312627172

Block: 10
======================================
400.78973856
400.757392025
400.753348708
400.316670489
400.826128411
400.365190291
400.757392025
400.757392025
400.332843757
400.773565292
400.381363559
400.741218758
400.809955144
400.332843757
400.312627172
400.312627172
400.773565292
400.312627172
400.332843757
400.332843757
400.397536826
400.316670489
400.753348708
402.487931633
400.300497222
400.753348708
400.280280638
400.332843757
400.721002173
400.757392025
400.365190291
400.757392025
400.397536826
400.296453905
400.773565292
400.349017024
400.757392025
400.316670489
401.194070244
400.316670489
400.753348708
400.757392025
401.198113561
400.312627172
400.773565292
400.753348708
399.892122221
400.773565292
400.757392025
400.316670489
400.757392025
400.312627172
400.842301679
400.365190291
401.655008364
400.312627172
400.312627172
400.300497222
400.296453905
400.280280638
401.214286828
400.753348708
401.25067668
400.737175441
400.805911827
400.757392025
401.198113561
400.72504549
401.177896976
400.721002173
400.741218758
400.300497222
401.181940293
400.741218758
401.161723709
