
Block: 1
======================================
299.410836411
299.410836411
299.431161356
299.394576454
299.378316498
298.931167698
299.390511465
298.9677526
299.394576454
299.427096367
298.935232687
299.447421312
299.394576454
299.362056541
298.951492643
299.394576454
298.951492643
299.394576454
299.394576454
299.410836411
299.394576454
299.4149014
299.394576454
299.410836411
299.374251509
298.9677526
299.4149014
298.918972731
298.9677526
299.394576454
299.378316498
299.394576454
299.410836411
299.410836411
299.378316498
298.914907742
299.378316498
299.410836411
299.410836411
299.427096367
298.951492643
299.390511465
299.394576454
299.431161356
298.914907742
299.394576454
299.410836411
299.378316498
299.374251509
299.378316498
299.394576454
299.447421312
298.951492643
299.431161356
299.394576454
299.374251509
298.931167698
299.036857414
299.374251509
298.935232687
299.357991552
299.394576454
299.378316498
298.914907742
299.378316498
299.431161356
298.951492643
299.410836411
298.951492643
298.9677526
299.378316498
298.9677526
299.427096367
298.9677526
299.410836411
299.4149014
298.984012556
299.394576454
299.378316498
298.898647785
298.918972731
299.410836411
299.394576454
299.394576454
299.394576454
299.378316498
299.362056541
299.431161356
299.378316498
299.410836411
299.410836411
299.410836411
299.431161356
298.931167698
299.378316498
299.394576454
299.394576454
298.951492643
299.378316498
298.935232687

Block: 2
======================================
298.918972731
299.362056541
299.357991552
298.492148876
298.984012556
298.9677526
299.378316498
299.357991552
299.394576454
299.431161356
299.410836411
299.431161356
299.410836411
299.410836411
299.410836411
299.378316498
299.410836411
298.918972731
299.374251509
299.362056541
299.394576454
299.378316498
299.357991552
299.410836411
299.427096367
299.427096367
299.394576454
299.378316498
299.357991552
299.394576454
299.362056541
299.410836411
299.378316498
299.394576454
299.410836411
299.378316498
299.4149014
299.410836411
299.378316498
299.378316498
299.394576454
299.362056541
298.951492643
299.427096367
298.935232687
299.431161356
299.378316498
299.394576454
299.341731596
299.378316498
298.931167698
299.362056541
299.362056541
299.362056541
299.362056541
299.410836411
299.378316498
299.394576454
298.918972731
299.394576454
299.394576454
299.362056541
299.390511465
299.378316498
299.374251509
299.410836411
299.357991552
298.914907742
299.378316498
299.357991552
299.362056541
299.394576454
298.914907742
299.374251509
299.341731596
299.378316498
298.935232687
298.951492643
299.374251509
298.918972731
299.394576454
299.394576454
298.935232687
299.362056541
299.4149014
298.931167698
299.410836411
299.378316498
299.410836411
299.394576454
299.374251509
299.394576454
299.410836411
299.394576454
299.362056541
299.410836411
298.898647785
299.410836411
299.394576454
299.394576454

Block: 3
======================================
299.394576454
299.4149014
299.431161356
299.410836411
299.394576454
299.378316498
298.882387829
299.394576454
299.374251509
299.362056541
299.378316498
299.431161356
299.410836411
299.378316498
298.931167698
299.394576454
299.394576454
299.410836411
299.345796585
299.427096367
299.357991552
299.362056541
299.394576454
299.378316498
299.357991552
299.410836411
298.935232687
299.390511465
299.154742098
299.394576454
299.378316498
299.394576454
298.935232687
299.357991552
298.918972731
299.394576454
299.341731596
299.378316498
299.378316498
299.394576454
299.394576454
298.914907742
299.410836411
298.931167698
298.951492643
299.357991552
298.918972731
298.47588892
299.378316498
299.410836411
299.378316498
299.345796585
299.394576454
299.378316498
298.918972731
299.394576454
299.394576454
299.394576454
299.341731596
299.378316498
298.931167698
298.935232687
299.378316498
299.410836411
298.935232687
299.4149014
298.951492643
299.378316498
299.345796585
299.394576454
299.378316498
299.4149014
299.378316498
299.378316498
299.394576454
299.378316498
298.984012556
299.378316498
298.914907742
299.394576454
299.394576454
299.357991552
299.427096367
299.378316498
298.918972731
299.378316498
299.341731596
299.410836411
299.378316498
299.362056541
299.378316498
298.984012556
299.378316498
298.931167698
298.914907742
299.427096367
298.914907742
299.362056541
298.935232687
299.394576454

Block: 4
======================================
299.4149014
298.9677526
299.345796585
298.914907742
299.378316498
299.394576454
299.410836411
299.394576454
298.914907742
298.918972731
299.374251509
298.931167698
299.410836411
298.935232687
299.394576454
299.431161356
299.4149014
299.378316498
299.357991552
299.378316498
299.410836411
299.357991552
299.410836411
299.378316498
299.410836411
299.410836411
299.394576454
298.931167698
299.394576454
299.394576454
299.394576454
298.951492643
299.394576454
299.4149014
299.410836411
299.357991552
299.410836411
299.362056541
299.427096367
299.394576454
298.951492643
299.410836411
299.378316498
299.431161356
299.378316498
298.9677526
299.378316498
299.378316498
299.378316498
299.378316498
299.394576454
299.410836411
299.410836411
299.394576454
299.410836411
299.394576454
299.390511465
299.447421312
299.357991552
299.410836411
299.394576454
299.394576454
299.374251509
299.378316498
298.951492643
299.378316498
299.410836411
299.378316498
299.427096367
299.427096367
298.931167698
298.951492643
299.427096367
299.378316498
299.427096367
299.410836411
299.410836411
299.394576454
299.410836411
299.443356323
299.378316498
299.410836411
299.378316498
299.410836411
299.427096367
299.378316498
298.935232687
299.378316498
298.935232687
299.427096367
299.378316498
299.374251509
299.431161356
299.431161356
299.427096367
298.951492643
299.378316498
299.378316498
299.390511465
299.410836411

Block: 5
======================================
299.410836411
299.427096367
299.431161356
298.947427654
299.410836411
298.984012556
299.394576454
299.431161356
299.394576454
299.443356323
298.951492643
299.394576454
299.410836411
299.427096367
299.410836411
299.394576454
299.410836411
298.935232687
299.410836411
299.431161356
299.427096367
299.427096367
299.410836411
299.410836411
299.427096367
298.9677526
299.394576454
299.410836411
299.443356323
299.427096367
299.443356323
299.431161356
299.427096367
299.374251509
299.431161356
299.410836411
299.394576454
299.410836411
299.410836411
298.951492643
299.378316498
299.410836411
299.410836411
299.427096367
298.935232687
299.357991552
299.378316498
299.394576454
299.374251509
299.394576454
299.4149014
298.931167698
299.394576454
299.378316498
298.984012556
299.410836411
299.410836411
299.410836411
299.443356323
299.410836411
299.394576454
299.443356323
299.410836411
298.971817589
299.394576454
299.410836411
299.378316498
299.394576454
299.394576454
299.394576454
299.394576454
299.427096367
298.9677526
299.378316498
299.394576454
299.390511465
299.447421312
299.410836411
299.4149014
298.951492643
299.378316498
299.410836411
299.394576454
299.410836411
299.394576454
299.4149014
298.9677526
299.378316498
299.378316498
298.9677526
299.362056541
299.427096367
298.951492643
299.410836411
299.374251509
298.951492643
299.394576454
299.427096367
299.394576454
299.394576454

Block: 6
======================================
298.918972731
299.036857414
299.394576454
299.394576454
298.9677526
299.410836411
298.984012556
299.443356323
299.004337502
299.394576454
299.394576454
299.394576454
298.988077545
298.984012556
299.394576454
298.984012556
299.427096367
298.935232687
299.410836411
298.9677526
298.951492643
299.410836411
299.378316498
299.020597458
299.394576454
299.410836411
298.9677526
299.463681269
298.984012556
299.000272512
299.410836411
298.988077545
299.374251509
299.394576454
298.9677526
299.004337502
299.378316498
299.394576454
298.988077545
298.951492643
299.394576454
299.410836411
299.374251509
299.410836411
298.935232687
299.4149014
298.951492643
298.931167698
299.394576454
299.394576454
298.951492643
298.9677526
298.931167698
299.394576454
299.394576454
299.410836411
299.431161356
298.988077545
299.378316498
298.935232687
299.410836411
298.508408833
298.984012556
298.935232687
298.935232687
299.394576454
298.898647785
298.988077545
298.951492643
299.4149014
298.902712774
298.951492643
299.410836411
299.410836411
298.918972731
299.427096367
299.394576454
299.4149014
299.4149014
299.427096367
299.378316498
299.378316498
299.394576454
299.378316498
299.378316498
299.378316498
299.410836411
299.378316498
299.394576454
299.394576454
298.931167698
299.357991552
299.362056541
299.357991552
299.378316498
298.914907742
299.362056541
299.378316498
299.410836411
299.378316498

Block: 7
======================================
298.914907742
299.410836411
298.882387829
298.9677526
299.394576454
299.410836411
299.341731596
298.898647785
299.447421312
299.378316498
299.410836411
299.362056541
298.951492643
299.378316498
299.378316498
298.951492643
299.378316498
299.410836411
299.374251509
299.378316498
299.394576454
299.394576454
299.394576454
299.374251509
299.394576454
298.931167698
298.9677526
298.9677526
299.394576454
299.394576454
299.378316498
299.362056541
299.427096367
299.394576454
299.394576454
298.951492643
299.394576454
299.378316498
299.410836411
298.951492643
299.378316498
299.394576454
299.394576454
299.431161356
299.394576454
298.951492643
299.410836411
299.394576454
299.410836411
299.410836411
298.951492643
299.357991552
299.394576454
299.410836411
299.378316498
299.447421312
298.9677526
299.362056541
299.378316498
298.931167698
298.935232687
299.410836411
299.410836411
298.931167698
299.410836411
299.362056541
299.410836411
299.4149014
299.427096367
299.410836411
299.410836411
298.984012556
298.918972731
299.410836411
299.374251509
298.914907742
299.4149014
299.378316498
299.378316498
299.345796585
299.394576454
298.951492643
299.394576454
299.427096367
298.914907742
298.935232687
299.410836411
299.431161356
299.378316498
299.378316498
299.374251509
299.394576454
299.443356323
298.988077545
299.378316498
298.9677526
299.463681269
299.374251509
299.341731596
299.394576454

Block: 8
======================================
298.951492643
298.984012556
298.931167698
298.931167698
299.378316498
299.431161356
299.394576454
299.427096367
299.394576454
299.378316498
299.410836411
298.9677526
299.394576454
299.394576454
298.9677526
299.394576454
299.394576454
299.378316498
298.935232687
298.931167698
299.378316498
299.394576454
299.410836411
299.427096367
298.951492643
299.410836411
299.394576454
299.394576454
299.378316498
299.378316498
299.427096367
299.410836411
299.378316498
299.410836411
298.951492643
299.378316498
299.374251509
299.378316498
299.374251509
299.374251509
299.357991552
299.378316498
299.394576454
299.394576454
299.378316498
299.447421312
299.378316498
299.410836411
299.309211683
299.394576454
299.4149014
299.394576454
298.935232687
298.951492643
299.394576454
298.951492643
299.394576454
299.410836411
299.378316498
299.378316498
298.984012556
299.341731596
299.378316498
299.427096367
299.394576454
299.378316498
298.951492643
299.447421312
299.410836411
298.9677526
299.431161356
299.378316498
298.9677526
299.378316498
299.427096367
299.427096367
299.394576454
298.951492643
299.394576454
299.431161356
299.362056541
298.914907742
299.362056541
299.427096367
299.394576454
299.410836411
299.410836411
299.431161356
299.410836411
299.394576454
299.394576454
299.431161356
299.362056541
299.427096367
299.394576454
298.951492643
298.951492643
298.951492643
299.362056541
299.378316498

Block: 9
======================================
298.951492643
299.394576454
299.463681269
299.410836411
299.427096367
298.951492643
298.951492643
299.447421312
298.984012556
299.394576454
299.394576454
299.378316498
299.394576454
299.4149014
299.410836411
298.9677526
299.427096367
299.362056541
299.4149014
298.951492643
299.394576454
299.427096367
299.394576454
299.431161356
299.394576454
298.935232687
299.378316498
299.427096367
298.9677526
298.918972731
298.914907742
299.431161356
299.443356323
299.410836411
299.427096367
299.394576454
298.951492643
299.394576454
299.394576454
298.984012556
299.410836411
298.988077545
299.4149014
299.362056541
299.447421312
299.362056541
299.378316498
299.362056541
299.378316498
299.394576454
299.374251509
299.378316498
298.9677526
298.951492643
299.394576454
299.431161356
299.357991552
298.935232687
299.341731596
299.394576454
299.410836411
299.000272512
299.394576454
299.410836411
299.378316498
299.394576454
299.394576454
299.431161356
299.4149014
299.394576454
299.431161356
298.931167698
299.431161356
299.394576454
298.988077545
299.378316498
299.394576454
298.931167698
299.394576454
299.427096367
299.394576454
299.410836411
299.427096367
299.394576454
299.410836411
299.431161356
299.374251509
298.9677526
299.378316498
299.410836411
299.378316498
298.931167698
299.410836411
299.427096367
299.378316498
299.410836411
299.410836411
299.4149014
298.9677526
298.988077545

Block: 10
======================================
299.362056541
299.394576454
299.378316498
299.394576454
299.378316498
299.410836411
299.410836411
298.951492643
298.9677526
299.410836411
298.951492643
299.362056541
299.4149014
299.427096367
299.431161356
299.410836411
298.951492643
299.378316498
299.378316498
299.427096367
299.431161356
299.4149014
298.914907742
299.378316498
299.394576454
299.410836411
299.394576454
299.394576454
298.524668789
299.410836411
299.341731596
299.394576454
299.345796585
298.918972731
299.357991552
298.898647785
299.394576454
299.394576454
299.394576454
299.378316498
298.951492643
298.931167698
299.410836411
299.378316498
298.951492643
299.362056541
299.378316498
299.410836411
298.9677526
299.362056541
299.394576454
299.394576454
299.394576454
299.4149014
299.4149014
298.984012556
299.394576454
299.394576454
298.914907742
299.362056541
298.951492643
299.362056541
299.394576454
299.374251509
299.378316498
299.4149014
299.378316498
299.410836411
299.410836411
299.378316498
299.357991552
298.935232687
298.951492643
299.362056541
299.394576454
299.394576454
298.951492643
299.410836411
299.394576454
299.394576454
299.378316498
299.394576454
299.362056541
299.394576454
299.378316498
299.390511465
299.394576454
299.378316498
299.410836411
299.378316498
298.951492643
298.931167698
299.463681269
299.394576454
299.394576454
299.394576454
299.394576454
299.394576454
299.443356323
299.410836411
