
Block: 1
======================================
200.263299417
199.803139329
200.247010565
200.263299417
200.27958827
200.263299417
201.13882525
201.56233542
200.299949336
199.839789248
199.819428182
200.263299417
200.707170653
200.263299417
201.578624272
199.839789248
200.283660483
200.27958827
200.263299417
200.27958827
200.295877123
199.819428182
199.839789248
199.835717034
199.835717034

Block: 2
======================================
199.819428182
199.86829474
200.263299417
200.283660483
199.8560781
200.707170653
199.819428182
200.247010565
199.852005887
199.8560781
200.707170653
200.299949336
199.839789248
199.835717034
199.852005887
199.835717034
200.727531719
200.707170653
199.835717034
200.707170653
199.819428182
199.819428182
200.299949336
200.283660483
200.316238189

Block: 3
======================================
199.786850476
199.819428182
200.230721712
200.27958827
199.819428182
200.27958827
199.835717034
199.852005887
200.707170653
199.8560781
200.283660483
199.835717034
199.835717034
199.835717034
199.8560781
199.823500395
199.823500395
200.283660483
199.835717034
200.27958827
199.8560781
199.823500395
199.8560781
199.819428182
200.727531719

Block: 4
======================================
199.803139329
200.267371631
200.674592948
199.839789248
200.316238189
199.819428182
199.839789248
200.267371631
200.267371631
200.283660483
201.56233542
199.803139329
199.835717034
199.852005887
200.727531719
200.263299417
201.582696486
199.835717034
199.835717034
199.839789248
199.839789248
199.786850476
200.707170653
199.819428182
199.823500395

Block: 5
======================================
199.819428182
200.727531719
199.819428182
200.247010565
199.835717034
199.839789248
199.839789248
199.835717034
199.819428182
199.835717034
200.299949336
199.819428182
199.839789248
200.299949336
200.295877123
199.835717034
200.27958827
199.819428182
199.819428182
199.835717034
199.835717034
200.299949336
200.299949336
199.835717034
200.27958827

Block: 6
======================================
200.711242867
199.819428182
199.835717034
200.723459506
199.819428182
199.819428182
201.155114102
199.839789248
199.819428182
200.27958827
199.835717034
199.8560781
199.839789248
199.835717034
199.835717034
199.835717034
200.727531719
199.839789248
199.835717034
199.803139329
199.835717034
199.835717034
199.839789248
201.578624272
200.267371631

Block: 7
======================================
201.171402955
200.263299417
200.727531719
199.8560781
200.267371631
199.803139329
199.8560781
199.819428182
200.27958827
200.295877123
199.823500395
199.819428182
200.299949336
199.819428182
199.803139329
200.283660483
200.263299417
200.723459506
199.839789248
200.727531719
200.707170653
199.8560781
200.707170653
200.739748359
200.690881801

Block: 8
======================================
200.267371631
200.723459506
199.86829474
200.707170653
200.723459506
200.727531719
200.267371631
199.872366953
199.835717034
199.819428182
199.852005887
200.727531719
199.839789248
199.872366953
199.8560781
199.852005887
199.872366953
199.839789248
199.852005887
199.852005887
199.872366953
199.852005887
201.598985338
199.8560781
199.872366953

Block: 9
======================================
199.803139329
200.316238189
200.283660483
200.743820572
200.316238189
199.888655806
200.707170653
199.888655806
200.263299417
200.760109425
200.27958827
200.743820572
199.8560781
200.760109425
200.743820572
199.852005887
200.267371631
200.756037211
199.8560781
200.27958827
200.263299417
200.743820572
200.723459506
200.27958827
200.723459506

Block: 10
======================================
200.263299417
200.27958827
201.151041889
199.835717034
199.835717034
200.299949336
200.27958827
200.283660483
200.299949336
200.283660483
201.134753036
200.263299417
200.312165976
200.299949336
200.299949336
200.743820572
201.167330742
200.27958827
200.27958827
200.283660483
201.13882525
199.424423504
200.299949336
200.295877123
200.263299417
