
Block: 1
======================================
299.666930723
299.171002054
299.666930723
299.650670767
299.68319068
299.223846912
299.650670767
299.630345821
299.68319068
299.650670767
299.63441081
299.223846912
299.646605778
299.207586956
299.63441081
299.223846912
299.666930723
299.191327
299.687255669
299.68319068
299.687255669
299.223846912
299.666930723
299.63441081
299.68319068
299.207586956
299.207586956
299.666930723
299.68319068
299.68319068
299.650670767
299.666930723
299.666930723
299.207586956
299.650670767
299.650670767
299.646605778
299.666930723
299.703515625
299.650670767
299.207586956
299.207586956
299.650670767
299.666930723
299.207586956
299.68319068
299.223846912
299.699450636
299.687255669
299.68319068
299.260431814
299.68319068
299.719775581
299.207586956
299.699450636
299.630345821
299.68319068
299.223846912
299.68319068
299.703515625
299.256366825
299.703515625
299.666930723
299.68319068
299.68319068
299.68319068
299.699450636
299.666930723
299.666930723
299.68319068
299.68319068
299.650670767
299.650670767
299.68319068
299.687255669
299.240106869
299.703515625
299.68319068
299.646605778
299.666930723
299.223846912
299.68319068
299.68319068
299.666930723
299.646605778
299.650670767
299.666930723
299.68319068
299.687255669
299.666930723
299.276691771
299.687255669
299.699450636
299.650670767
299.699450636
299.223846912
299.68319068
299.223846912
299.63441081
299.207586956

Block: 2
======================================
299.650670767
299.666930723
299.666930723
299.63441081
299.68319068
299.666930723
299.666930723
299.666930723
299.63441081
299.650670767
299.614085865
299.646605778
299.223846912
299.223846912
299.68319068
299.203521967
299.223846912
299.63441081
299.666930723
299.666930723
299.68319068
299.687255669
299.223846912
299.650670767
299.703515625
299.68319068
299.207586956
299.650670767
299.187262011
299.666930723
299.618150854
299.207586956
299.240106869
299.650670767
299.666930723
299.666930723
299.191327
299.687255669
299.646605778
299.650670767
299.666930723
299.650670767
299.614085865
299.68319068
299.68319068
299.618150854
299.175067043
299.207586956
299.68319068
299.618150854
299.666930723
299.630345821
299.646605778
299.650670767
299.618150854
299.666930723
299.666930723
299.63441081
299.68319068
299.666930723
299.207586956
299.63441081
299.618150854
299.63441081
299.650670767
299.63441081
299.666930723
299.650670767
299.650670767
299.171002054
299.256366825
299.63441081
299.650670767
299.650670767
299.68319068
299.666930723
299.207586956
299.666930723
299.650670767
299.666930723
299.630345821
299.650670767
299.666930723
299.618150854
299.63441081
299.63441081
299.650670767
299.650670767
299.68319068
299.666930723
299.670995712
299.614085865
299.630345821
299.687255669
299.68319068
299.650670767
299.666930723
299.63441081
299.666930723
299.207586956

Block: 3
======================================
299.191327
299.68319068
299.719775581
299.68319068
299.63441081
299.614085865
299.650670767
299.666930723
299.666930723
299.670995712
299.666930723
299.68319068
299.68319068
299.614085865
299.68319068
299.650670767
299.68319068
299.666930723
299.650670767
299.650670767
299.666930723
299.666930723
299.650670767
299.650670767
299.68319068
299.870180178
299.630345821
299.650670767
299.650670767
299.666930723
299.666930723
299.63441081
299.223846912
299.666930723
299.646605778
299.650670767
299.703515625
299.68319068
299.68319068
299.650670767
299.666930723
299.650670767
299.703515625
299.666930723
299.68319068
299.650670767
299.223846912
299.666930723
299.666930723
299.63441081
299.68319068
299.68319068
299.687255669
299.223846912
299.666930723
299.63441081
299.670995712
299.207586956
299.187262011
299.207586956
299.666930723
299.646605778
299.703515625
299.207586956
299.63441081
299.650670767
299.699450636
299.670995712
299.650670767
299.63441081
299.191327
299.650670767
299.699450636
299.223846912
299.703515625
299.68319068
299.666930723
299.646605778
299.630345821
299.207586956
299.650670767
299.699450636
299.703515625
299.207586956
299.207586956
299.63441081
299.666930723
299.650670767
299.666930723
299.666930723
299.666930723
299.646605778
299.703515625
299.666930723
299.666930723
299.650670767
299.630345821
299.240106869
299.666930723
299.666930723

Block: 4
======================================
299.650670767
299.68319068
299.207586956
299.68319068
299.666930723
299.240106869
299.650670767
299.687255669
299.68319068
299.666930723
299.650670767
299.240106869
299.666930723
299.223846912
299.191327
299.68319068
299.703515625
299.203521967
299.650670767
299.666930723
299.207586956
299.703515625
299.646605778
299.666930723
299.666930723
299.207586956
299.292951727
299.699450636
299.63441081
299.63441081
299.68319068
299.687255669
299.68319068
299.703515625
299.240106869
299.666930723
299.666930723
299.68319068
299.650670767
299.666930723
299.191327
299.68319068
299.687255669
299.666930723
299.666930723
299.666930723
299.288886738
299.203521967
299.68319068
299.240106869
299.666930723
299.650670767
299.650670767
299.207586956
299.666930723
299.227911901
299.68319068
299.666930723
299.719775581
299.223846912
299.630345821
299.646605778
299.699450636
299.687255669
299.715710592
299.68319068
299.63441081
299.687255669
299.666930723
299.68319068
299.223846912
299.207586956
299.650670767
299.670995712
299.68319068
299.240106869
299.68319068
299.207586956
299.666930723
299.68319068
299.687255669
299.650670767
299.256366825
299.666930723
299.666930723
299.699450636
299.240106869
299.68319068
299.68319068
299.68319068
299.666930723
299.650670767
299.207586956
299.666930723
299.650670767
299.703515625
299.699450636
299.223846912
299.223846912
299.650670767

Block: 5
======================================
299.699450636
299.666930723
299.650670767
299.650670767
299.68319068
299.244171858
299.223846912
299.666930723
299.240106869
299.650670767
299.666930723
299.666930723
299.687255669
299.666930723
299.666930723
299.666930723
299.666930723
299.68319068
299.666930723
299.191327
299.650670767
299.191327
299.223846912
299.207586956
299.650670767
299.719775581
299.687255669
299.666930723
299.650670767
299.666930723
299.68319068
299.650670767
299.650670767
299.68319068
299.703515625
299.666930723
299.223846912
299.68319068
299.666930723
299.68319068
299.240106869
299.699450636
299.191327
299.650670767
299.650670767
299.666930723
299.670995712
299.666930723
299.240106869
299.687255669
299.68319068
299.187262011
299.68319068
299.207586956
299.223846912
299.68319068
299.68319068
299.666930723
299.666930723
299.256366825
299.68319068
299.207586956
299.650670767
299.203521967
299.240106869
299.207586956
299.699450636
299.666930723
299.719775581
299.240106869
299.715710592
299.68319068
299.240106869
299.207586956
299.703515625
299.666930723
299.240106869
299.687255669
299.650670767
299.699450636
299.666930723
299.68319068
299.223846912
299.650670767
299.646605778
299.223846912
299.256366825
299.666930723
299.63441081
299.63441081
299.276691771
299.666930723
299.699450636
299.63441081
299.650670767
299.687255669
299.187262011
299.650670767
299.68319068
299.68319068

Block: 6
======================================
299.175067043
299.63441081
299.699450636
299.666930723
299.68319068
299.223846912
299.207586956
299.666930723
299.223846912
299.666930723
299.63441081
299.650670767
299.687255669
299.68319068
299.650670767
299.187262011
299.68319068
299.666930723
299.207586956
299.63441081
299.699450636
299.687255669
299.666930723
299.666930723
299.650670767
299.650670767
299.687255669
299.223846912
299.223846912
299.63441081
299.207586956
299.223846912
299.650670767
299.630345821
299.670995712
299.68319068
299.68319068
299.666930723
299.260431814
299.650670767
299.63441081
299.650670767
299.687255669
299.272626781
299.630345821
299.699450636
299.256366825
299.650670767
299.650670767
299.68319068
299.666930723
299.256366825
299.650670767
299.699450636
299.666930723
299.650670767
299.670995712
299.240106869
299.703515625
299.244171858
299.240106869
299.666930723
299.650670767
299.240106869
299.227911901
299.63441081
299.666930723
299.666930723
299.703515625
299.223846912
299.223846912
299.191327
299.650670767
299.191327
299.223846912
299.666930723
299.687255669
299.223846912
299.256366825
299.223846912
299.68319068
299.646605778
299.666930723
299.646605778
299.670995712
299.687255669
299.650670767
299.650670767
299.207586956
299.666930723
299.63441081
299.646605778
299.650670767
299.63441081
299.207586956
299.207586956
299.207586956
299.666930723
299.63441081
299.650670767

Block: 7
======================================
299.650670767
299.666930723
299.614085865
299.207586956
299.614085865
299.207586956
299.175067043
299.650670767
299.223846912
299.650670767
299.223846912
299.666930723
299.618150854
299.630345821
299.223846912
299.666930723
299.63441081
299.650670767
299.666930723
299.63441081
299.650670767
299.207586956
299.666930723
299.666930723
299.191327
299.191327
299.191327
299.650670767
299.244171858
299.171002054
299.650670767
299.63441081
299.666930723
299.650670767
299.650670767
299.191327
299.650670767
299.618150854
299.63441081
299.666930723
299.187262011
299.191327
299.666930723
299.614085865
299.597825909
299.207586956
299.618150854
299.187262011
299.630345821
299.207586956
299.650670767
299.63441081
299.63441081
299.223846912
299.171002054
299.191327
299.597825909
299.175067043
299.63441081
299.666930723
299.666930723
299.650670767
299.171002054
299.614085865
299.618150854
299.614085865
299.63441081
299.666930723
299.175067043
299.191327
299.650670767
299.650670767
299.650670767
299.63441081
299.63441081
299.63441081
299.650670767
299.650670767
299.650670767
299.63441081
299.187262011
299.650670767
299.597825909
299.618150854
299.191327
299.240106869
299.650670767
299.63441081
299.614085865
299.191327
299.63441081
299.614085865
299.614085865
299.191327
299.614085865
299.154742098
299.618150854
299.614085865
299.650670767
299.618150854

Block: 8
======================================
299.666930723
299.187262011
299.171002054
299.666930723
299.650670767
299.687255669
299.650670767
299.191327
299.646605778
299.223846912
299.618150854
299.650670767
299.223846912
299.646605778
299.630345821
299.666930723
299.618150854
299.187262011
299.650670767
299.614085865
299.630345821
299.207586956
299.646605778
299.650670767
299.646605778
299.630345821
299.223846912
299.618150854
299.203521967
299.187262011
299.618150854
299.650670767
299.171002054
299.630345821
299.614085865
299.650670767
299.618150854
299.63441081
299.650670767
299.666930723
299.666930723
299.63441081
299.63441081
299.666930723
299.630345821
299.581565952
299.618150854
299.63441081
299.666930723
299.63441081
299.601890898
299.63441081
299.650670767
299.601890898
299.614085865
299.68319068
299.614085865
299.154742098
299.650670767
299.63441081
299.63441081
299.650670767
299.646605778
299.191327
299.650670767
299.614085865
299.138482141
299.203521967
299.666930723
299.191327
299.666930723
299.837660265
299.666930723
299.666930723
299.191327
299.175067043
299.171002054
299.666930723
299.650670767
299.630345821
299.191327
299.666930723
299.630345821
299.650670767
299.666930723
299.68319068
299.63441081
299.650670767
299.63441081
299.666930723
299.666930723
299.666930723
299.650670767
299.666930723
299.666930723
299.666930723
299.650670767
299.614085865
299.63441081
299.175067043

Block: 9
======================================
299.630345821
299.650670767
299.699450636
299.670995712
299.63441081
299.687255669
299.63441081
299.171002054
299.703515625
299.687255669
299.650670767
299.687255669
299.699450636
299.223846912
299.687255669
299.666930723
299.207586956
299.256366825
299.670995712
299.687255669
299.630345821
299.203521967
299.666930723
299.666930723
299.687255669
299.650670767
299.650670767
299.68319068
299.650670767
299.650670767
299.618150854
299.687255669
299.666930723
299.68319068
299.646605778
299.666930723
299.68319068
299.666930723
299.223846912
299.650670767
299.666930723
299.650670767
299.650670767
299.666930723
299.650670767
299.687255669
299.699450636
299.63441081
299.650670767
299.670995712
299.650670767
299.68319068
299.666930723
299.68319068
299.207586956
299.650670767
299.68319068
299.223846912
299.63441081
299.687255669
299.666930723
299.207586956
299.650670767
299.666930723
299.666930723
299.68319068
299.63441081
299.650670767
299.666930723
299.666930723
299.68319068
299.207586956
299.207586956
299.666930723
299.207586956
299.63441081
299.68319068
299.68319068
299.650670767
299.666930723
299.699450636
299.68319068
299.687255669
299.207586956
299.666930723
299.207586956
299.703515625
299.68319068
299.666930723
299.666930723
299.227911901
299.68319068
299.666930723
299.650670767
299.650670767
299.666930723
299.650670767
299.666930723
299.699450636
299.666930723

Block: 10
======================================
299.650670767
299.650670767
299.68319068
299.223846912
299.240106869
299.223846912
299.687255669
299.68319068
299.191327
299.650670767
299.650670767
299.650670767
299.666930723
299.207586956
299.687255669
299.207586956
299.223846912
299.650670767
299.650670767
299.670995712
299.618150854
299.666930723
299.207586956
299.68319068
299.68319068
299.666930723
299.63441081
299.646605778
299.646605778
299.187262011
299.68319068
299.207586956
299.650670767
299.703515625
299.223846912
299.68319068
299.687255669
299.207586956
299.187262011
299.650670767
299.666930723
299.223846912
299.203521967
299.191327
299.630345821
299.63441081
299.666930723
299.68319068
299.68319068
299.666930723
299.68319068
299.650670767
299.650670767
299.650670767
299.687255669
299.666930723
299.175067043
299.68319068
299.666930723
299.650670767
299.223846912
299.666930723
299.650670767
299.187262011
299.650670767
299.207586956
299.240106869
299.650670767
299.666930723
299.260431814
299.687255669
299.687255669
299.240106869
299.650670767
299.207586956
299.276691771
299.223846912
299.687255669
299.68319068
299.68319068
299.203521967
299.68319068
299.666930723
299.666930723
299.687255669
299.244171858
299.666930723
299.699450636
299.68319068
299.203521967
299.68319068
299.223846912
299.646605778
299.223846912
299.68319068
299.223846912
299.703515625
299.666930723
299.646605778
299.650670767
