
Block: 1
======================================
299.63441081
299.240106869
299.666930723
299.240106869
299.650670767

Average distance is : 299.486 cm
Average deviation is : 0.225 cm
Block: 2
======================================
299.63441081
299.187262011
299.650670767
299.666930723
299.666930723

Average distance is : 299.561 cm
Average deviation is : 0.209 cm
Block: 3
======================================
299.240106869
299.666930723
299.207586956
299.650670767
299.68319068

Average distance is : 299.490 cm
Average deviation is : 0.243 cm
Block: 4
======================================
299.650670767
299.618150854
299.715710592
299.68319068
299.68319068

Average distance is : 299.670 cm
Average deviation is : 0.037 cm
Block: 5
======================================
299.244171858
299.703515625
299.650670767
299.666930723
299.240106869

Average distance is : 299.501 cm
Average deviation is : 0.237 cm
Block: 6
======================================
299.687255669
299.223846912
299.63441081
299.719775581
299.223846912

Average distance is : 299.498 cm
Average deviation is : 0.252 cm
Block: 7
======================================
299.650670767
299.207586956
299.68319068
299.670995712
299.191327

Average distance is : 299.481 cm
Average deviation is : 0.257 cm
Block: 8
======================================
299.68319068
299.63441081
299.736035538
299.666930723
299.207586956

Average distance is : 299.586 cm
Average deviation is : 0.215 cm
Block: 9
======================================
299.719775581
299.223846912
299.223846912
299.666930723
299.703515625

Average distance is : 299.508 cm
Average deviation is : 0.260 cm
Block: 10
======================================
299.256366825
299.715710592
299.650670767
299.650670767
299.666930723

Average distance is : 299.588 cm
Average deviation is : 0.187 cm