
Block: 1
======================================
401.517535591
402.386848712
401.044467521
401.485189056
401.517535591
401.040424204
402.807353663
401.076814055
401.485189056
401.942083859
401.925910592
401.517535591
401.060640788
401.942083859
401.521578908
401.060640788
401.537752175
401.517535591
401.060640788
402.807353663
401.962300444
401.501362324
401.505405641
401.537752175
401.505405641
401.501362324
401.521578908
400.652265787
401.076814055
400.63609252
401.076814055
401.517535591
400.652265787
401.060640788
400.672482371
400.619919252
401.092987323
400.656309104
401.09703064
400.672482371
400.63609252
401.076814055
400.668439054
401.978473711
400.247934103
401.129377174
400.656309104
400.656309104
400.211544251
401.113203907

Block: 2
======================================
400.668439054
400.688655639
401.145550442
400.652265787
400.688655639
400.704828906
400.672482371
400.247934103
401.113203907
400.668439054
401.962300444
400.656309104
401.113203907
400.656309104
400.672482371
400.247934103
400.656309104
400.211544251
400.656309104
400.63609252
401.537752175
400.63609252
401.942083859
400.63609252
402.366632128
401.533708858
400.652265787
400.619919252
400.603745985
401.060640788
400.619919252
400.619919252
401.485189056
401.060640788
401.501362324
401.044467521
401.485189056
401.044467521
401.925910592
401.485189056
401.060640788
402.35045886
401.485189056
401.925910592
401.452842522
401.925910592
401.469015789
402.346415544
401.060640788
400.603745985

Block: 3
======================================
401.060640788
400.603745985
400.63609252
401.060640788
401.044467521
401.501362324
401.040424204
400.603745985
400.163024449
401.024250937
400.583529401
401.060640788
401.060640788
401.044467521
400.619919252
400.603745985
400.179197717
400.179197717
400.623962569
400.619919252
400.163024449
400.195370984
400.603745985
400.603745985
400.603745985
401.060640788
401.485189056
400.603745985
401.464972472
401.044467521
400.619919252
401.044467521
401.028294253
400.603745985
401.501362324
401.044467521
401.485189056
401.905694008
400.583529401
400.583529401
401.469015789
401.028294253
400.587572718
401.044467521
401.909737325
401.909737325
400.619919252
400.567356133
401.012120986
401.485189056

Block: 4
======================================
400.535009599
400.518836331
400.514793015
401.028294253
401.012120986
400.539052916
400.991904402
400.975731134
401.41645267
401.432625937
400.959557867
401.396236086
400.502663064
400.551182866
400.518836331
401.41645267
400.959557867
401.400279403
400.514793015
400.959557867
400.991904402
400.094288063
401.436669254
400.518836331
401.420495987
400.535009599
401.012120986
400.518836331
400.514793015
400.535009599
400.11046133
400.11046133
400.551182866
400.094288063
400.567356133
400.991904402
400.094288063
401.464972472
400.126634598
400.078114796
400.555226183
400.126634598
401.012120986
400.163024449
400.142807865
400.126634598
401.024250937
401.024250937
400.587572718
400.991904402

Block: 5
======================================
400.126634598
401.076814055
400.587572718
400.146851182
400.126634598
400.163024449
401.044467521
401.024250937
401.008077669
401.452842522
401.028294253
401.028294253
400.535009599
401.012120986
400.551182866
401.469015789
400.551182866
402.330242276
401.008077669
401.432625937
401.008077669
401.008077669
400.991904402
401.87739079
401.008077669
400.991904402
401.452842522
401.012120986
401.452842522
400.535009599
401.436669254
400.995947719
400.535009599
400.975731134
400.979774451
400.535009599
401.448799205
401.432625937
400.535009599
400.518836331
400.535009599
400.518836331
400.514793015
402.314069009
400.991904402
401.432625937
400.991904402
401.873347473
401.857174206
401.889520741

Block: 6
======================================
402.791180396
401.012120986
400.555226183
401.909737325
401.469015789
401.028294253
401.925910592
401.469015789
401.008077669
400.603745985
400.587572718
401.024250937
401.044467521
401.028294253
400.603745985
400.583529401
400.587572718
401.909737325
401.008077669
402.791180396
401.485189056
400.587572718
401.028294253
400.57139945
401.469015789
401.044467521
401.464972472
401.485189056
401.008077669
400.587572718
400.587572718
400.57139945
401.469015789
401.485189056
401.485189056
401.044467521
400.587572718
400.587572718
400.567356133
400.599702668
401.060640788
400.603745985
400.587572718
402.366632128
401.028294253
400.603745985
401.485189056
401.012120986
400.603745985
400.599702668

Block: 7
======================================
401.485189056
401.060640788
400.619919252
401.044467521
401.060640788
400.619919252
400.640135837
400.619919252
400.619919252
400.619919252
401.080857372
400.619919252
400.652265787
401.521578908
400.63609252
400.211544251
400.63609252
401.076814055
401.060640788
401.521578908
400.656309104
400.179197717
400.619919252
400.63609252
401.501362324
401.505405641
401.060640788
400.652265787
400.179197717
400.619919252
400.619919252
401.521578908
400.603745985
401.909737325
401.044467521
400.603745985
401.485189056
401.044467521
401.044467521
400.619919252
401.060640788
402.35045886
400.619919252
401.044467521
401.044467521
402.775007129
400.619919252
401.909737325
400.587572718
400.603745985

Block: 8
======================================
401.448799205
400.587572718
401.448799205
400.583529401
400.587572718
400.551182866
401.028294253
400.991904402
400.551182866
401.028294253
401.024250937
401.008077669
400.551182866
402.297895741
401.012120986
401.889520741
401.452842522
400.535009599
400.57139945
401.452842522
401.432625937
401.87739079
400.995947719
401.452842522
401.012120986
401.893564057
400.979774451
401.012120986
401.012120986
400.567356133
400.991904402
400.57139945
402.318112326
400.587572718
400.995947719
401.41645267
400.991904402
400.991904402
400.975731134
401.857174206
401.448799205
401.857174206
401.873347473
402.297895741
400.991904402
401.857174206
400.975731134
401.432625937
403.146992278
401.432625937

Block: 9
======================================
400.991904402
400.991904402
401.41645267
400.995947719
401.436669254
400.975731134
401.861217523
401.893564057
400.959557867
401.400279403
400.991904402
401.420495987
400.959557867
401.41645267
401.384106135
400.995947719
402.265549207
401.400279403
401.41645267
401.400279403
401.400279403
401.384106135
400.975731134
401.87739079
401.41645267
400.959557867
401.400279403
401.420495987
402.281722474
400.959557867
400.991904402
400.939341283
401.436669254
400.975731134
401.420495987
401.432625937
400.991904402
401.008077669
400.567356133
400.975731134
400.979774451
400.518836331
400.991904402
400.551182866
400.975731134
401.432625937
400.535009599
401.432625937
400.975731134
401.432625937

Block: 10
======================================
400.927211332
400.486489797
401.804611087
400.518836331
400.498619747
400.502663064
400.959557867
400.979774451
401.87739079
401.861217523
400.975731134
400.518836331
400.995947719
401.432625937
400.518836331
401.889520741
401.436669254
401.41645267
400.551182866
400.535009599
401.464972472
401.012120986
402.301939058
401.432625937
401.028294253
401.452842522
400.535009599
401.889520741
401.012120986
400.995947719
401.008077669
401.448799205
401.452842522
401.464972472
400.57139945
401.044467521
400.583529401
401.469015789
400.555226183
401.464972472
401.469015789
401.012120986
401.485189056
400.587572718
402.318112326
401.469015789
402.334285593
401.448799205
401.452842522
400.991904402
