
Block: 1
======================================
301.455525923
300.983987188
300.553098345
300.553098345
300.520578432
301.016507101
300.589683247
300.589683247
300.589683247
300.536838388
300.569358301
301.032767057
301.443330956
301.866089821
300.57342329
301.000247145
301.012442112
301.459590912
300.57342329
300.57342329
300.996182156
301.012442112
300.996182156
300.979922199
301.016507101

Block: 2
======================================
300.557163334
301.443330956
300.553098345
301.87015481
300.553098345
301.012442112
300.57342329
301.882349777
300.979922199
300.553098345
301.459590912
300.569358301
301.032767057
301.866089821
300.536838388
300.996182156
300.569358301
301.849829865
300.553098345
300.979922199
300.569358301
301.032767057
301.012442112
300.57342329
301.012442112

Block: 3
======================================
300.569358301
300.605943203
301.439265966
301.471785879
300.553098345
301.439265966
301.459590912
300.585618258
301.87015481
300.57342329
300.536838388
300.569358301
300.553098345
300.110014534
300.57342329
300.536838388
301.455525923
300.569358301
300.536838388
301.016507101
301.439265966
300.585618258
300.569358301
301.443330956
300.557163334

Block: 4
======================================
301.459590912
300.57342329
300.569358301
300.996182156
301.902674723
300.585618258
300.979922199
300.553098345
302.292913675
301.016507101
300.553098345
300.57342329
301.012442112
301.012442112
300.979922199
301.000247145
300.979922199
300.569358301
301.439265966
300.57342329
301.028702068
301.886414766
300.569358301
301.459590912
300.996182156

Block: 5
======================================
301.459590912
301.000247145
300.569358301
300.979922199
301.016507101
301.866089821
301.016507101
301.016507101
300.536838388
301.012442112
300.979922199
300.553098345
301.000247145
300.996182156
301.016507101
301.443330956
300.553098345
301.012442112
300.569358301
300.553098345
300.57342329
301.016507101
300.557163334
300.520578432
300.569358301

Block: 6
======================================
300.536838388
301.000247145
300.553098345
300.57342329
301.459590912
301.443330956
300.553098345
301.012442112
300.536838388
301.42300601
301.012442112
300.536838388
300.553098345
301.016507101
300.569358301
301.455525923
300.963662243
302.313238621
300.553098345
300.536838388
301.866089821
301.866089821
301.42300601
301.42300601
300.536838388

Block: 7
======================================
300.536838388
300.979922199
300.536838388
300.553098345
301.439265966
302.309173632
300.553098345
300.979922199
300.553098345
300.57342329
300.557163334
301.000247145
301.012442112
300.553098345
300.569358301
301.439265966
300.553098345
301.866089821
300.589683247
301.866089821
300.12627449
300.536838388
301.439265966
300.536838388
300.569358301

Block: 8
======================================
301.439265966
300.553098345
300.589683247
301.439265966
300.553098345
301.016507101
301.439265966
301.016507101
300.57342329
300.569358301
300.536838388
301.849829865
300.142534447
300.557163334
300.553098345
301.42300601
300.557163334
300.536838388
300.114079523
300.569358301
300.57342329
301.87015481
301.455525923
300.12627449
300.57342329

Block: 9
======================================
300.589683247
301.849829865
300.536838388
300.536838388
300.979922199
301.439265966
300.553098345
300.553098345
301.443330956
301.439265966
300.553098345
300.569358301
300.557163334
300.589683247
300.142534447
301.012442112
300.536838388
300.553098345
300.979922199
301.012442112
300.536838388
300.12627449
301.012442112
301.455525923
300.557163334

Block: 10
======================================
300.536838388
300.553098345
300.553098345
300.536838388
300.979922199
300.983987188
300.963662243
301.42300601
300.520578432
300.553098345
300.553098345
301.443330956
300.536838388
300.983987188
300.585618258
300.57342329
300.553098345
300.536838388
300.553098345
300.996182156
300.553098345
300.979922199
300.996182156
300.996182156
300.553098345
