
Block: 1
======================================
301.813244963
300.569358301
300.536838388
300.520578432
301.016507101
300.979922199
300.536838388
300.557163334
300.963662243
301.87015481

Block: 2
======================================
301.455525923
300.996182156
300.979922199
301.016507101
300.553098345
301.439265966
302.309173632
300.536838388
301.439265966
300.589683247

Block: 3
======================================
301.866089821
300.536838388
300.979922199
300.589683247
300.553098345
300.983987188
301.439265966
300.996182156
300.553098345
301.849829865

Block: 4
======================================
300.963662243
300.979922199
300.959597254
300.536838388
300.979922199
300.979922199
300.553098345
300.996182156
300.553098345
300.996182156

Block: 5
======================================
300.553098345
301.849829865
300.569358301
300.979922199
300.996182156
301.455525923
301.87015481
301.42300601
300.979922199
300.520578432

Block: 6
======================================
301.845764875
300.57342329
300.553098345
300.979922199
300.553098345
300.979922199
300.553098345
301.443330956
300.57342329
300.996182156

Block: 7
======================================
301.459590912
300.553098345
300.536838388
300.585618258
300.557163334
301.016507101
300.979922199
302.735997486
300.996182156
300.569358301

Block: 8
======================================
301.000247145
300.569358301
301.455525923
301.016507101
301.012442112
301.150651741
301.032767057
301.032767057
301.443330956
301.459590912

Block: 9
======================================
300.589683247
301.000247145
300.622203159
301.866089821
301.028702068
301.882349777
301.455525923
301.898609734
301.455525923
300.569358301

Block: 10
======================================
301.91486969
301.000247145
300.57342329
300.57342329
301.866089821
301.459590912
301.012442112
300.557163334
300.569358301
301.455525923
