
Block: 1
======================================
300.211639261
299.719775581
300.195379305
301.114066839
300.211639261
300.211639261
300.195379305
300.175054359
300.211639261
299.719775581

Average distance is : 300.197 cm
Average deviation is : 0.380 cm
Block: 2
======================================
299.76855545
301.097806883
299.752295494
299.756360483
300.162859392
300.211639261
300.654723072
300.638463116
299.752295494
300.21570425

Average distance is : 300.201 cm
Average deviation is : 0.470 cm
Block: 3
======================================
300.211639261
299.76855545
300.195379305
299.752295494
300.179119349
300.195379305
301.081546926
299.736035538
300.211639261
300.175054359

Average distance is : 300.151 cm
Average deviation is : 0.388 cm
Block: 4
======================================
299.736035538
299.736035538
299.736035538
300.195379305
300.179119349
300.61813817
300.638463116
300.654723072
299.752295494
300.211639261

Average distance is : 300.146 cm
Average deviation is : 0.393 cm
Block: 5
======================================
300.162859392
299.76855545
300.179119349
300.211639261
301.081546926
300.654723072
300.638463116
300.195379305
300.21570425
301.097806883

Average distance is : 300.421 cm
Average deviation is : 0.433 cm
Block: 6
======================================
301.097806883
299.752295494
301.085611916
300.195379305
301.085611916
300.195379305
300.622203159
300.195379305
300.21570425
300.211639261

Average distance is : 300.466 cm
Average deviation is : 0.477 cm
Block: 7
======================================
300.211639261
300.211639261
300.21570425
300.211639261
300.21570425
300.195379305
300.691307974
300.195379305
300.21570425
299.719775581

Average distance is : 300.208 cm
Average deviation is : 0.229 cm
Block: 8
======================================
299.77262044
301.118131828
300.195379305
300.211639261
300.211639261
299.77262044
299.752295494
299.731970549
300.638463116
300.179119349

Average distance is : 300.158 cm
Average deviation is : 0.448 cm
Block: 9
======================================
299.736035538
300.179119349
300.675048018
299.719775581
300.211639261
300.622203159
299.76855545
301.081546926
301.06528697
299.752295494

Average distance is : 300.281 cm
Average deviation is : 0.547 cm
Block: 10
======================================
299.752295494
301.085611916
300.179119349
301.081546926
300.162859392
301.081546926
299.736035538
301.097806883
299.752295494
300.211639261

Average distance is : 300.414 cm
Average deviation is : 0.606 cm