
Block: 1
======================================
300.654723072
300.199444294
300.195379305
299.752295494
300.195379305
300.654723072
299.715710592
300.654723072
300.195379305
300.179119349
300.179119349
300.179119349
300.179119349
300.605943203
300.195379305
300.179119349
300.622203159
300.654723072
300.658788061
300.179119349
301.101871872
300.179119349
300.654723072
300.638463116
300.211639261
300.179119349
300.211639261
300.21570425
299.719775581
300.670983028
299.731970549
299.752295494
300.638463116
300.195379305
300.675048018
300.654723072
300.195379305
300.638463116
299.752295494
300.195379305
300.179119349
300.658788061
299.76855545
300.654723072
300.211639261
300.195379305
300.195379305
299.736035538
300.21570425
299.715710592
300.162859392
300.195379305
300.658788061
300.211639261
300.675048018
300.195379305
300.638463116
299.752295494
300.227899218
301.097806883
300.195379305
300.654723072
299.752295494
300.21570425
299.76855545
300.658788061
300.638463116
299.76855545
299.752295494
300.687242985
300.179119349
301.085611916
299.76855545
299.76855545
300.195379305

Average distance is : 300.276 cm
Average deviation is : 0.367 cm
Block: 2
======================================
300.195379305
300.654723072
300.179119349
300.654723072
299.719775581
300.162859392
300.179119349
299.736035538
300.175054359
299.719775581
299.736035538
300.211639261
300.211639261
300.179119349
300.21570425
300.622203159
299.752295494
300.21570425
300.195379305
300.211639261
300.195379305
299.77262044
300.21570425
300.654723072
300.675048018
300.195379305
300.179119349
300.211639261
299.736035538
300.195379305
299.736035538
299.719775581
299.752295494
300.231964207
301.097806883
299.736035538
300.638463116
300.195379305
300.195379305
299.736035538
299.736035538
299.752295494
299.756360483
300.675048018
299.736035538
299.736035538
299.752295494
300.195379305
300.179119349
299.719775581
300.179119349
300.195379305
300.179119349
299.752295494
300.211639261
299.736035538
299.736035538
299.719775581
300.179119349
300.195379305
300.179119349
300.158794403
300.179119349
300.622203159
300.622203159
300.179119349
300.195379305
300.622203159
300.162859392
300.211639261
300.158794403
300.195379305
299.736035538
300.179119349
299.736035538

Average distance is : 300.113 cm
Average deviation is : 0.320 cm
Block: 3
======================================
299.719775581
299.752295494
299.715710592
300.158794403
300.760412788
300.179119349
299.699450636
300.195379305
299.736035538
299.736035538
300.162859392
300.179119349
299.719775581
300.195379305
300.195379305
299.736035538
300.195379305
299.731970549
300.199444294
299.719775581
300.195379305
299.719775581
300.179119349
300.179119349
300.179119349
300.211639261
299.736035538
299.76855545
300.195379305
300.211639261
299.736035538
300.642528105
300.211639261
300.179119349
300.211639261
299.752295494
300.195379305
299.719775581
300.658788061
300.622203159
299.752295494
301.097806883
299.752295494
300.227899218
300.231964207
300.638463116
300.179119349
301.081546926
300.622203159
300.622203159
299.752295494
300.231964207
300.195379305
300.638463116
300.179119349
300.638463116
300.199444294
300.179119349
300.654723072
300.658788061
300.211639261
300.162859392
299.752295494
300.638463116
299.719775581
299.736035538
300.179119349
299.736035538
300.195379305
299.699450636
300.179119349
300.179119349
300.195379305
300.179119349
300.638463116

Average distance is : 300.148 cm
Average deviation is : 0.354 cm
Block: 4
======================================
300.195379305
300.195379305
300.21570425
299.752295494
299.752295494
300.162859392
300.21570425
299.752295494
299.752295494
300.179119349
299.736035538
299.752295494
300.199444294
300.211639261
299.719775581
300.638463116
299.752295494
300.195379305
299.736035538
300.195379305
299.736035538
300.199444294
300.195379305
301.081546926
299.752295494
299.736035538
299.736035538
299.736035538
300.195379305
300.179119349
300.179119349
300.199444294
299.736035538
300.211639261
300.638463116
300.638463116
300.179119349
300.658788061
300.195379305
300.195379305
300.21570425
300.199444294
300.638463116
300.638463116
300.179119349
299.752295494
300.622203159
299.736035538
300.622203159
300.211639261
300.658788061
299.731970549
300.638463116
300.179119349
300.179119349
300.638463116
300.199444294
300.211639261
299.736035538
300.195379305
300.211639261
299.719775581
300.179119349
300.158794403
299.719775581
299.719775581
300.211639261
300.211639261
300.642528105
300.622203159
299.752295494
301.081546926
300.195379305
300.195379305
299.752295494

Average distance is : 300.150 cm
Average deviation is : 0.348 cm
Block: 5
======================================
299.719775581
300.211639261
300.21570425
299.736035538
299.736035538
301.06528697
299.736035538
301.081546926
300.638463116
300.179119349
300.199444294
299.736035538
300.211639261
300.21570425
300.211639261
300.195379305
300.179119349
299.736035538
300.195379305
300.670983028
299.736035538
300.21570425
300.195379305
300.175054359
300.211639261
299.752295494
299.719775581
300.658788061
299.715710592
300.211639261
299.719775581
299.76855545
299.736035538
299.719775581
300.195379305
299.752295494
300.675048018
299.736035538
300.179119349
300.179119349
300.227899218
299.736035538
300.179119349
300.195379305
300.195379305
300.195379305
299.731970549
300.195379305
300.654723072
300.211639261
300.638463116
300.638463116
299.736035538
300.195379305
300.670983028
301.544955683
300.179119349
299.719775581
300.195379305
299.736035538
300.622203159
300.211639261
299.752295494
300.21570425
301.097806883
299.752295494
300.21570425
300.195379305
300.195379305
299.719775581
299.719775581
299.736035538
300.21570425
300.622203159
299.736035538

Average distance is : 300.145 cm
Average deviation is : 0.399 cm
Block: 6
======================================
300.638463116
300.179119349
300.179119349
300.12627449
299.752295494
300.195379305
300.179119349
300.195379305
300.622203159
299.719775581
300.162859392
300.61813817
300.158794403
300.638463116
300.179119349
300.162859392
299.736035538
300.162859392
300.179119349
300.638463116
300.199444294
300.195379305
300.179119349
300.179119349
300.638463116
300.195379305
300.179119349
300.605943203
300.179119349
300.179119349
301.524630737
300.622203159
299.752295494
300.638463116
300.70756793
300.622203159
299.76855545
300.622203159
299.736035538
300.179119349
300.638463116
299.719775581
300.638463116
299.76855545
300.670983028
300.162859392
300.179119349
300.162859392
300.162859392
300.179119349
299.736035538
300.179119349
301.524630737
300.195379305
300.622203159
299.752295494
300.195379305
300.195379305
300.179119349
300.638463116
300.179119349
300.179119349
300.179119349
300.179119349
300.179119349
300.162859392
300.195379305
299.736035538
301.06528697
300.195379305
300.642528105
299.731970549
300.638463116
300.638463116
300.162859392

Average distance is : 300.279 cm
Average deviation is : 0.371 cm
Block: 7
======================================
300.211639261
301.114066839
299.736035538
300.195379305
300.162859392
299.736035538
300.179119349
299.736035538
299.719775581
300.195379305
300.179119349
300.158794403
300.195379305
300.162859392
300.601878214
300.179119349
300.195379305
299.719775581
300.179119349
299.715710592
299.756360483
300.605943203
299.752295494
300.179119349
301.085611916
300.179119349
299.736035538
300.638463116
299.719775581
299.736035538
300.195379305
300.195379305
300.195379305
299.736035538
300.158794403
299.719775581
299.719775581
299.736035538
300.162859392
300.179119349
300.195379305
299.752295494
300.195379305
299.752295494
300.195379305
299.736035538
300.195379305
300.179119349
300.654723072
299.731970549
301.085611916
299.715710592
299.752295494
301.081546926
300.622203159
300.654723072
300.622203159
300.195379305
301.081546926
299.719775581
299.736035538
300.622203159
299.752295494
300.21570425
300.211639261
300.195379305
299.736035538
299.736035538
300.21570425
300.195379305
300.211639261
300.175054359
300.622203159
300.162859392
300.642528105

Average distance is : 300.149 cm
Average deviation is : 0.390 cm
Block: 8
======================================
300.622203159
300.158794403
300.162859392
301.508370781
300.195379305
300.211639261
299.736035538
300.658788061
299.752295494
300.638463116
300.638463116
299.752295494
299.736035538
300.638463116
301.081546926
299.703515625
300.642528105
300.195379305
300.638463116
300.199444294
300.638463116
300.638463116
300.21570425
299.731970549
300.622203159
300.211639261
300.622203159
300.211639261
299.736035538
299.719775581
301.097806883
300.605943203
299.731970549
300.638463116
301.081546926
300.195379305
299.736035538
301.081546926
301.06528697
300.638463116
299.752295494
300.21570425
299.736035538
299.752295494
300.638463116
299.736035538
300.195379305
300.162859392
300.638463116
300.638463116
300.195379305
299.715710592
300.179119349
300.638463116
300.622203159
300.638463116
300.638463116
300.622203159
299.731970549
300.195379305
300.162859392
300.162859392
300.638463116
301.081546926
300.195379305
300.622203159
299.752295494
300.622203159
300.622203159
300.622203159
301.06528697
299.736035538
300.622203159
300.162859392
300.211639261

Average distance is : 300.347 cm
Average deviation is : 0.445 cm
Block: 9
======================================
299.736035538
300.589683247
299.752295494
300.622203159
299.719775581
301.085611916
301.06528697
300.605943203
300.622203159
300.622203159
299.736035538
300.179119349
299.752295494
300.195379305
300.211639261
300.622203159
301.081546926
300.605943203
301.097806883
299.752295494
299.736035538
299.736035538
299.715710592
300.179119349
299.736035538
300.179119349
300.195379305
300.605943203
299.719775581
299.719775581
299.719775581
299.719775581
300.658788061
300.622203159
300.622203159
300.605943203
299.736035538
301.081546926
301.06528697
301.492110825
300.638463116
300.199444294
300.158794403
300.638463116
300.622203159
299.703515625
300.605943203
299.736035538
299.719775581
300.825452614
299.719775581
300.638463116
300.622203159
300.622203159
299.736035538
299.719775581
299.715710592
300.195379305
300.622203159
300.162859392
300.179119349
300.179119349
300.179119349
300.179119349
300.162859392
300.195379305
299.719775581
300.638463116
300.195379305
300.175054359
299.715710592
300.622203159
301.06528697
300.589683247
301.097806883

Average distance is : 300.293 cm
Average deviation is : 0.480 cm
Block: 10
======================================
300.195379305
300.638463116
300.179119349
299.719775581
299.715710592
300.179119349
300.179119349
300.675048018
299.715710592
300.179119349
300.195379305
300.162859392
300.179119349
300.179119349
300.195379305
300.638463116
300.179119349
300.179119349
300.175054359
300.179119349
299.736035538
300.179119349
299.703515625
299.736035538
299.736035538
300.175054359
299.736035538
300.179119349
299.719775581
299.703515625
300.195379305
300.179119349
300.622203159
300.601878214
300.179119349
300.179119349
300.622203159
300.179119349
300.195379305
299.736035538
300.162859392
300.195379305
299.719775581
301.06528697
300.211639261
300.199444294
299.752295494
300.179119349
300.179119349
300.175054359
300.175054359
300.179119349
299.715710592
301.085611916
300.622203159
300.179119349
300.675048018
300.179119349
300.179119349
300.162859392
301.524630737
299.719775581
299.736035538
300.638463116
300.179119349
300.642528105
300.179119349
300.179119349
301.049027014
300.605943203
299.715710592
300.162859392
299.719775581
299.736035538
300.61813817

Average distance is : 300.191 cm
Average deviation is : 0.378 cm