
Block: 1
======================================
99.8635411263
99.8635411263
99.8841911554
99.8800611496
99.9007111788
99.8965811729
99.8800611496
99.9172312021
99.9007111788
99.9131011963
99.9007111788
99.9007111788
100.297191739
99.8841911554
99.9007111788
99.9007111788
99.8841911554
99.8841911554
99.8635411263
99.8635411263
99.9007111788
100.260021687
99.8676711321
99.8841911554
99.9172312021
100.317841768
99.9172312021
99.8635411263
99.8800611496
99.8841911554
99.8841911554
99.8635411263
99.8800611496
99.9172312021
99.8800611496
99.9007111788
99.9007111788
99.8635411263
100.27654171
99.8800611496
99.8800611496
99.9337512255
99.9007111788
99.8800611496
99.8635411263
99.8841911554
99.8635411263
99.8965811729
99.8800611496
99.8800611496

Block: 2
======================================
99.8800611496
99.8676711321
100.317841768
99.9007111788
99.9172312021
100.297191739
99.9172312021
99.9007111788
100.297191739
99.8635411263
99.8965811729
99.9337512255
99.8676711321
99.8841911554
99.8800611496
99.8635411263
99.8841911554
99.8635411263
99.8841911554
99.8841911554
99.8635411263
99.8635411263
99.8800611496
99.8965811729
99.8965811729
99.8800611496
99.9131011963
99.9007111788
99.8676711321
99.9007111788
99.8841911554
99.8841911554
99.9007111788
99.9007111788
99.8841911554
99.9007111788
99.8965811729
99.8800611496
99.8841911554
99.8965811729
99.8800611496
99.9007111788
99.9007111788
99.9172312021
99.8635411263
99.9131011963
99.9007111788
99.8965811729
99.8965811729
99.9007111788

Block: 3
======================================
99.9007111788
100.301321745
100.317841768
99.8800611496
99.8800611496
99.9172312021
99.9172312021
99.9172312021
99.8965811729
99.8965811729
99.8841911554
100.313711762
99.8965811729
99.8965811729
99.8841911554
99.8800611496
99.8800611496
99.8635411263
99.8965811729
99.8965811729
99.9172312021
99.9007111788
99.8965811729
99.9007111788
99.9007111788
99.8965811729
99.9007111788
99.8965811729
99.8965811729
99.8965811729
99.8965811729
99.8965811729
99.8841911554
99.8841911554
99.8965811729
99.8635411263
99.9007111788
99.9007111788
99.9007111788
99.9007111788
99.8965811729
99.8800611496
99.8800611496
99.8800611496
99.8965811729
99.8635411263
99.9172312021
99.8965811729
99.8965811729
99.8841911554

Block: 4
======================================
99.8965811729
99.8841911554
100.297191739
99.8841911554
99.8676711321
99.9296212196
99.6735608578
99.8470211029
99.9131011963
99.8841911554
99.9007111788
99.8800611496
99.8635411263
99.9172312021
99.8635411263
99.8800611496
99.8470211029
99.8635411263
99.8635411263
99.8841911554
99.8635411263
99.8841911554
99.9007111788
99.9007111788
99.9007111788
99.8470211029
99.9131011963
100.334361792
99.8841911554
99.8800611496
99.8800611496
99.8635411263
99.8841911554
99.8635411263
99.8965811729
99.9007111788
99.9007111788
99.9172312021
99.8800611496
99.9007111788
99.8841911554
99.8635411263
99.8635411263
99.8841911554
99.8800611496
99.8470211029
99.8841911554
99.8965811729
99.8965811729
99.8800611496

Block: 5
======================================
99.9172312021
99.9502712488
99.9131011963
99.9172312021
99.9007111788
99.8965811729
99.8841911554
99.9172312021
99.8965811729
99.9172312021
99.8800611496
100.297191739
99.8965811729
99.8800611496
99.8965811729
99.8800611496
99.8635411263
99.8800611496
99.8800611496
99.8965811729
99.8635411263
99.8470211029
99.9131011963
99.8635411263
99.9172312021
99.8470211029
99.9337512255
99.8635411263
100.297191739
99.8470211029
99.9337512255
99.9007111788
99.8965811729
99.8800611496
99.9131011963
99.8965811729
99.8800611496
99.8800611496
99.8800611496
99.8800611496
99.8965811729
99.8965811729
99.8800611496
99.9172312021
100.317841768
99.8965811729
99.8965811729
99.9007111788
99.8841911554
99.9007111788

Block: 6
======================================
99.9172312021
99.8965811729
99.8635411263
99.8800611496
100.313711762
99.8635411263
99.9172312021
99.9172312021
99.9131011963
99.9172312021
99.8800611496
99.8841911554
99.9131011963
99.8800611496
99.8635411263
99.8800611496
99.8800611496
99.8800611496
99.8965811729
99.8800611496
99.8635411263
99.8635411263
99.8635411263
99.8800611496
99.8800611496
99.8800611496
99.8635411263
99.8965811729
99.9007111788
99.9007111788
99.9007111788
99.8800611496
99.8635411263
99.9007111788
99.9007111788
99.9172312021
99.8635411263
99.8635411263
99.9172312021
99.8965811729
99.8841911554
100.297191739
99.9007111788
99.8800611496
99.8965811729
99.8470211029
99.8841911554
99.8800611496
99.8965811729
99.8635411263

Block: 7
======================================
99.8965811729
99.8965811729
99.8635411263
99.8800611496
99.8800611496
99.8800611496
99.8965811729
99.8841911554
99.8635411263
99.8965811729
99.8635411263
99.9131011963
99.8965811729
99.8965811729
99.9007111788
99.8800611496
99.9007111788
100.297191739
99.8800611496
99.8800611496
99.8800611496
99.8635411263
99.8428910971
99.8965811729
99.8965811729
99.8800611496
99.8800611496
99.8841911554
99.9007111788
99.9007111788
100.313711762
99.9007111788
99.9007111788
99.9007111788
99.9007111788
99.9007111788
99.9007111788
99.8841911554
99.8800611496
99.8800611496
99.8965811729
99.8800611496
99.8965811729
99.8841911554
99.9007111788
99.9007111788
99.8800611496
99.8965811729
99.8800611496
99.8965811729

Block: 8
======================================
99.8965811729
100.297191739
99.9007111788
99.9007111788
99.9172312021
99.9337512255
99.9172312021
100.330231786
99.8635411263
99.8800611496
99.8800611496
99.9172312021
100.334361792
99.9337512255
99.8965811729
99.8965811729
99.8800611496
99.9172312021
99.8470211029
99.9131011963
99.8470211029
99.8635411263
99.9131011963
99.9172312021
99.9172312021
99.9007111788
99.9337512255
99.8470211029
99.8800611496
99.8635411263
99.9172312021
99.9172312021
99.8841911554
99.9007111788
99.9007111788
99.9007111788
99.8800611496
99.8965811729
99.8965811729
99.9172312021
99.8635411263
99.8470211029
99.9007111788
99.9172312021
99.8965811729
99.8800611496
99.9172312021
99.8841911554
99.8965811729
99.8965811729

Block: 9
======================================
99.9131011963
99.9131011963
99.8800611496
99.8841911554
99.8965811729
99.8841911554
99.8635411263
100.313711762
99.8800611496
99.8965811729
99.9007111788
99.8676711321
99.9007111788
99.9007111788
99.8965811729
99.9131011963
99.8965811729
99.8800611496
99.8841911554
99.9007111788
99.8965811729
99.9131011963
99.8965811729
99.9007111788
99.8635411263
99.8800611496
99.9007111788
99.8841911554
99.8635411263
99.8800611496
99.8965811729
99.9131011963
100.317841768
99.9172312021
100.313711762
99.9007111788
99.9007111788
99.8965811729
99.8800611496
99.8841911554
100.334361792
99.9007111788
99.8800611496
99.8800611496
100.297191739
99.8676711321
99.8470211029
99.8841911554
99.8841911554
99.9007111788

Block: 10
======================================
99.8635411263
99.8635411263
99.8635411263
99.8800611496
99.9007111788
99.8470211029
99.8800611496
99.9337512255
99.8965811729
99.9007111788
99.8800611496
99.9337512255
99.9131011963
99.8965811729
99.8841911554
99.8965811729
99.9007111788
99.9172312021
99.9172312021
99.8841911554
99.8800611496
99.8800611496
99.8841911554
99.8635411263
99.8965811729
99.8676711321
99.8800611496
99.9007111788
99.8800611496
99.8635411263
99.8841911554
99.8965811729
99.9007111788
99.8676711321
99.9007111788
99.8470211029
99.8841911554
99.8635411263
99.8635411263
99.8800611496
99.8841911554
99.8800611496
99.8965811729
99.8635411263
100.297191739
100.297191739
99.8635411263
99.8841911554
99.8800611496
99.8800611496
