
Block: 1
======================================
99.8800611496
99.9337512255
99.8470211029
100.330231786
99.8800611496
99.8965811729
99.8800611496
99.9172312021
99.8965811729
99.9172312021
99.8841911554
99.9172312021
99.9172312021
99.9007111788
99.9007111788
99.8965811729
99.8841911554
99.9131011963
99.8800611496
99.9337512255
99.8841911554
99.8841911554
99.8800611496
99.8635411263
99.8965811729

Average distance is : 99.913 cm
Average deviation is : 0.089 cm
Block: 2
======================================
99.8841911554
99.8965811729
99.9172312021
100.313711762
99.8841911554
99.9007111788
99.8965811729
99.8800611496
99.8635411263
100.334361792
99.8841911554
99.8800611496
99.8841911554
99.8800611496
99.9007111788
99.8841911554
99.8800611496
99.8841911554
99.9172312021
99.9172312021
99.9007111788
99.8841911554
99.9007111788
99.8676711321
99.8800611496

Average distance is : 99.925 cm
Average deviation is : 0.121 cm
Block: 3
======================================
100.313711762
99.8800611496
99.9172312021
99.8800611496
99.9502712488
99.8800611496
99.8965811729
99.8800611496
99.8965811729
99.8635411263
100.297191739
100.313711762
99.8800611496
100.313711762
99.8470211029
99.8841911554
100.297191739
99.9172312021
100.330231786
99.8800611496
99.9337512255
100.313711762
99.8635411263
99.9172312021
99.8800611496

Average distance is : 100.009 cm
Average deviation is : 0.194 cm
Block: 4
======================================
99.9007111788
99.8800611496
99.9007111788
99.8800611496
99.8841911554
100.313711762
100.330231786
99.8635411263
99.8800611496
99.9007111788
99.8965811729
99.8800611496
99.8841911554
99.8800611496
99.8841911554
100.317841768
100.313711762
99.8800611496
99.8800611496
99.8965811729
100.334361792
100.313711762
99.9007111788
99.9007111788
99.8841911554

Average distance is : 99.991 cm
Average deviation is : 0.189 cm
Block: 5
======================================
99.9007111788
99.8965811729
99.9007111788
100.313711762
99.8800611496
99.9337512255
99.9007111788
99.8800611496
99.9007111788
99.8635411263
99.8800611496
99.8800611496
99.9172312021
99.8965811729
100.313711762
99.8965811729
99.8841911554
99.8676711321
99.8800611496
100.280671716
99.8635411263
100.313711762
99.8800611496
100.313711762
99.8841911554

Average distance is : 99.973 cm
Average deviation is : 0.171 cm
Block: 6
======================================
99.8841911554
99.8965811729
99.8841911554
99.8635411263
99.9172312021
99.8635411263
99.8965811729
99.8800611496
99.8965811729
99.9007111788
99.9007111788
99.8800611496
99.8635411263
99.8676711321
100.313711762
100.350881815
99.9131011963
99.8635411263
99.9007111788
99.8800611496
99.9007111788
99.8841911554
99.8800611496
99.8635411263
99.8800611496

Average distance is : 99.921 cm
Average deviation is : 0.125 cm
Block: 7
======================================
99.9007111788
99.8841911554
100.280671716
99.9007111788
99.8965811729
99.9007111788
99.8841911554
99.9172312021
99.8965811729
99.9007111788
99.9131011963
99.8965811729
99.9172312021
99.8800611496
99.9172312021
99.8800611496
99.8965811729
99.8800611496
99.8635411263
99.8965811729
99.9172312021
99.8841911554
99.9337512255
99.9007111788
99.9007111788

Average distance is : 99.914 cm
Average deviation is : 0.078 cm
Block: 8
======================================
99.9007111788
100.334361792
99.8965811729
99.9007111788
99.9007111788
99.9172312021
99.9007111788
99.9172312021
99.9172312021
99.8841911554
99.9337512255
99.8635411263
99.8800611496
99.8841911554
99.9172312021
99.9007111788
99.8965811729
99.8800611496
99.8965811729
99.9131011963
100.280671716
99.8800611496
99.9007111788
99.8635411263
99.8800611496

Average distance is : 99.930 cm
Average deviation is : 0.115 cm
Block: 9
======================================
99.8965811729
99.8305010796
99.9337512255
99.9131011963
99.8965811729
99.8800611496
100.280671716
99.8841911554
99.8800611496
99.8676711321
99.9172312021
99.8470211029
99.8800611496
99.8965811729
99.8965811729
99.8800611496
99.8800611496
99.8841911554
99.8965811729
99.9172312021
99.9007111788
99.9007111788
99.8635411263
100.301321745
99.8965811729

Average distance is : 99.921 cm
Average deviation is : 0.114 cm
Block: 10
======================================
99.9131011963
99.8841911554
99.8841911554
99.8965811729
99.8676711321
99.8800611496
99.8800611496
99.8635411263
99.9172312021
99.8635411263
99.8841911554
99.8800611496
99.9172312021
99.8965811729
99.8470211029
99.8800611496
99.8965811729
99.8635411263
99.8635411263
99.8635411263
99.9007111788
99.8841911554
99.8676711321
99.9337512255
99.9502712488

Average distance is : 99.887 cm
Average deviation is : 0.025 cm
Average distance for 10x25 is : 99.938 cm
Average deviation for 10x25 is : 0.122 cm
 Percentage of values that failed: 0.000