
Block: 1
======================================
200.145205235
200.145205235
199.701334
200.128916383
199.685045147
200.11262753
199.733911705
200.128916383
200.572787619
200.589076471
106.325485945
200.552426553
200.128916383
199.733911705
200.589076471
199.241173911
199.737983918
200.161494088
200.572787619
199.717622852
199.220812845
200.145205235
199.717622852
199.685045147
200.621654177

Average distance is : 196.284 cm
Average deviation is : 18.746 cm
Block: 2
======================================
199.701334
199.717622852
200.145205235
177.206428432
200.12484417
199.273751616
199.701334
199.269679403
200.145205235
199.273751616
200.145205235
199.717622852
200.161494088
200.145205235
199.290040469
199.290040469
200.161494088
200.128916383
199.733911705
199.697261786
199.717622852
200.161494088
200.145205235
200.145205235
199.717622852

Average distance is : 198.917 cm
Average deviation is : 4.536 cm
Block: 3
======================================
199.685045147
199.754272771
199.717622852
199.220812845
200.161494088
200.145205235
200.128916383
200.589076471
200.161494088
200.145205235
200.177782941
200.12484417
200.568715405
199.697261786
199.685045147
200.177782941
199.701334
200.161494088
199.737983918
199.717622852
201.032947707
199.701334
199.685045147
200.145205235
199.717622852

Average distance is : 199.990 cm
Average deviation is : 0.383 cm
Block: 4
======================================
200.128916383
200.12484417
200.605365324
199.701334
199.257462764
199.701334
199.717622852
199.701334
199.717622852
200.128916383
199.697261786
200.572787619
199.273751616
200.145205235
199.717622852
199.273751616
200.145205235
199.717622852
199.685045147
200.128916383
199.664684081
200.12484417
199.733911705
199.237101698
200.141133022

Average distance is : 199.842 cm
Average deviation is : 0.374 cm
Block: 5
======================================
199.733911705
199.680972934
200.161494088
200.177782941
200.181855154
199.253390551
200.145205235
199.701334
199.680972934
199.717622852
199.273751616
199.701334
200.145205235
200.145205235
199.701334
200.145205235
199.701334
200.145205235
200.589076471
200.108555317
199.685045147
200.128916383
199.680972934
200.161494088
199.685045147

Average distance is : 199.897 cm
Average deviation is : 0.318 cm
Block: 6
======================================
199.717622852
199.701334
199.685045147
199.685045147
199.717622852
199.273751616
200.128916383
200.12484417
200.145205235
199.701334
200.145205235
200.128916383
199.701334
199.680972934
199.717622852
200.108555317
199.680972934
200.572787619
200.128916383
199.685045147
199.685045147
200.12484417
200.145205235
199.701334
200.12484417

Average distance is : 199.888 cm
Average deviation is : 0.282 cm
Block: 7
======================================
199.701334
200.589076471
199.717622852
199.680972934
199.733911705
200.145205235
200.145205235
199.697261786
200.145205235
200.128916383
200.128916383
199.680972934
200.128916383
199.680972934
200.589076471
200.605365324
200.572787619
199.685045147
199.685045147
201.000370002
199.717622852
200.145205235
199.680972934
200.589076471
200.589076471

Average distance is : 200.087 cm
Average deviation is : 0.411 cm
Block: 8
======================================
201.407591319
199.685045147
199.664684081
199.685045147
201.032947707
199.697261786
200.145205235
199.701334
199.680972934
199.685045147
199.697261786
200.128916383
199.701334
199.668756294
199.701334
200.128916383
199.701334
199.701334
200.128916383
200.12484417
199.701334
200.145205235
199.701334
200.145205235
199.717622852

Average distance is : 199.939 cm
Average deviation is : 0.437 cm
Block: 9
======================================
200.092266464
200.11262753
199.701334
199.717622852
199.701334
199.685045147
200.128916383
200.128916383
199.664684081
201.016658854
200.11262753
200.980008936
199.685045147
200.161494088
199.701334
199.664684081
200.128916383
200.11262753
199.685045147
199.680972934
199.685045147
199.701334
200.145205235
200.128916383
200.128916383

Average distance is : 199.986 cm
Average deviation is : 0.372 cm
Block: 10
======================================
200.092266464
200.540209913
199.685045147
200.108555317
199.664684081
199.237101698
199.680972934
199.241173911
200.108555317
200.145205235
199.685045147
199.701334
200.108555317
200.572787619
199.701334
200.128916383
200.572787619
200.11262753
200.12484417
200.11262753
199.257462764
199.664684081
199.648395228
200.161494088
199.237101698

Average distance is : 199.892 cm
Average deviation is : 0.404 cm