
Block: 1
======================================
400.26410737
401.194070244
400.280280638
400.260064054
400.26410737
400.26410737
400.684612322
400.704828906
400.704828906
400.721002173
400.704828906
400.773565292
400.78973856
400.741218758
400.737175441
400.737175441
400.721002173
400.72504549
400.721002173
400.721002173
400.721002173
400.284323955
401.57009871
400.78973856
400.721002173

Average distance is : 400.672 cm
Average deviation is : 0.297 cm
Block: 2
======================================
400.296453905
400.737175441
400.773565292
400.721002173
400.737175441
401.165767026
402.026993513
400.737175441
401.161723709
401.145550442
400.809955144
400.753348708
401.655008364
400.721002173
400.773565292
400.741218758
400.737175441
401.161723709
401.161723709
402.047210097
400.78973856
401.57009871
400.704828906
401.145550442
400.704828906

Average distance is : 400.999 cm
Average deviation is : 0.431 cm
Block: 3
======================================
401.129377174
400.704828906
400.769521976
401.145550442
400.243890786
400.773565292
400.78973856
400.26410737
401.129377174
400.721002173
401.145550442
401.149593759
401.129377174
400.757392025
401.177896976
401.149593759
400.688655639
400.753348708
401.994646978
401.145550442
400.721002173
400.757392025
400.704828906
400.721002173
401.129377174

Average distance is : 400.912 cm
Average deviation is : 0.350 cm
Block: 4
======================================
401.198113561
400.704828906
400.688655639
400.704828906
401.57009871
401.145550442
401.57009871
400.688655639
400.668439054
401.125333858
400.688655639
400.688655639
400.672482371
400.688655639
401.214286828
401.129377174
400.688655639
401.145550442
400.704828906
400.684612322
401.145550442
401.129377174
401.553925443
401.57009871
401.129377174

Average distance is : 400.996 cm
Average deviation is : 0.333 cm
Block: 5
======================================
400.668439054
400.704828906
400.704828906
400.704828906
401.113203907
400.757392025
401.10916059
401.129377174
400.280280638
401.145550442
400.704828906
401.145550442
400.704828906
401.145550442
401.145550442
400.72504549
400.704828906
400.721002173
400.721002173
402.010820246
401.165767026
400.72504549
401.129377174
400.773565292
401.129377174

Average distance is : 400.919 cm
Average deviation is : 0.330 cm
Block: 6
======================================
400.773565292
400.688655639
400.26410737
400.78973856
400.737175441
400.688655639
400.721002173
400.708872223
400.704828906
400.243890786
400.721002173
400.773565292
400.721002173
400.260064054
400.704828906
400.704828906
400.280280638
400.280280638
400.32880044
401.145550442
400.688655639
400.280280638
400.26410737
401.161723709
400.280280638

Average distance is : 400.597 cm
Average deviation is : 0.273 cm
Block: 7
======================================
401.165767026
400.280280638
400.26410737
400.704828906
400.243890786
400.26410737
400.26410737
400.280280638
400.316670489
400.280280638
400.26410737
400.280280638
400.26410737
400.688655639
400.284323955
400.247934103
401.145550442
400.721002173
401.161723709
400.332843757
400.26410737
400.704828906
400.284323955
400.721002173
400.280280638

Average distance is : 400.468 cm
Average deviation is : 0.313 cm
Block: 8
======================================
400.737175441
400.26410737
400.280280638
400.26410737
400.26410737
400.721002173
400.332843757
400.769521976
400.721002173
400.349017024
400.280280638
400.332843757
400.296453905
400.26410737
400.26410737
400.280280638
400.369233608
400.280280638
400.280280638
400.296453905
400.280280638
400.280280638
401.181940293
400.296453905
400.300497222

Average distance is : 400.399 cm
Average deviation is : 0.234 cm
Block: 9
======================================
400.284323955
400.26410737
400.26410737
400.280280638
400.721002173
401.165767026
400.296453905
400.26410737
400.26410737
400.300497222
400.280280638
400.247934103
400.72504549
400.704828906
400.741218758
400.78973856
400.284323955
400.349017024
400.704828906
400.721002173
400.721002173
400.280280638
401.145550442
400.296453905
400.296453905

Average distance is : 400.496 cm
Average deviation is : 0.288 cm
Block: 10
======================================
400.721002173
400.757392025
400.757392025
400.26410737
400.72504549
400.32880044
400.26410737
400.688655639
400.280280638
401.177896976
400.300497222
400.280280638
400.72504549
400.284323955
400.26410737
400.773565292
400.78973856
400.737175441
400.26410737
400.809955144
400.704828906
400.805911827
400.284323955
400.296453905
401.161723709

Average distance is : 400.578 cm
Average deviation is : 0.291 cm