
Block: 1
======================================
101.147972941
100.313711762
100.280671716
100.317841768
100.280671716
100.313711762
100.317841768
99.8965811729
99.8635411263
100.313711762

Block: 2
======================================
101.160362959
100.726712346
100.280671716
100.297191739
100.334361792
100.313711762
100.330231786
100.313711762
100.297191739
100.297191739

Block: 3
======================================
100.730842352
100.768012404
100.297191739
100.330231786
100.313711762
100.280671716
99.8800611496
100.297191739
100.313711762
100.313711762

Block: 4
======================================
100.730842352
100.730842352
100.264151692
100.714322329
100.350881815
100.280671716
100.297191739
100.317841768
100.313711762
99.8800611496

Block: 5
======================================
100.313711762
100.260021687
100.317841768
100.297191739
100.730842352
100.297191739
100.280671716
100.313711762
100.297191739
100.280671716

Block: 6
======================================
101.181012988
100.763882399
100.264151692
100.726712346
99.9172312021
100.313711762
100.313711762
100.280671716
100.280671716
100.317841768

Block: 7
======================================
100.714322329
100.317841768
100.280671716
99.9172312021
100.313711762
100.313711762
99.9172312021
99.9337512255
100.730842352
100.297191739

Block: 8
======================================
100.714322329
100.714322329
100.264151692
100.763882399
100.346751809
100.297191739
100.297191739
100.313711762
100.297191739
100.313711762

Block: 9
======================================
101.147972941
100.747362375
100.27654171
99.9131011963
100.317841768
100.297191739
100.297191739
100.317841768
100.317841768
100.317841768

Block: 10
======================================
101.160362959
101.127322912
100.297191739
100.280671716
100.730842352
100.317841768
99.9007111788
100.297191739
100.27654171
100.313711762
