
Block: 1
======================================
99.9007111788
100.693672299
100.280671716
100.313711762
100.714322329
100.297191739
100.297191739
100.280671716
100.334361792
100.280671716
100.297191739
99.9007111788
99.8841911554
99.9007111788
99.8635411263
100.297191739
100.313711762
100.313711762
100.297191739
100.297191739
100.313711762
99.8841911554
99.8800611496
99.8841911554
99.9172312021
100.330231786
99.8800611496
99.9172312021
99.9172312021
100.317841768
100.317841768
100.313711762
100.297191739
100.297191739
100.297191739
100.367401838
99.9172312021
100.693672299
99.9172312021
100.280671716
100.297191739
100.297191739
100.297191739
100.280671716
100.330231786
100.297191739
100.297191739
100.297191739
100.313711762
100.330231786

Block: 2
======================================
100.313711762
100.730842352
100.317841768
100.313711762
101.164492965
100.313711762
99.8800611496
100.317841768
99.8965811729
100.297191739
100.297191739
100.297191739
100.264151692
100.334361792
100.313711762
100.297191739
100.297191739
100.264151692
101.164492965
100.747362375
100.730842352
99.8635411263
100.747362375
101.164492965
100.297191739
100.334361792
100.334361792
100.313711762
99.9007111788
99.9172312021
99.8965811729
100.313711762
100.297191739
100.313711762
100.730842352
99.8841911554
100.768012404
100.730842352
101.147972941
101.164492965
99.9007111788
99.8965811729
99.8965811729
100.297191739
100.297191739
100.297191739
100.330231786
100.334361792
100.313711762
100.297191739

Block: 3
======================================
100.280671716
100.280671716
100.297191739
101.143842936
100.730842352
100.714322329
99.9172312021
99.8800611496
100.317841768
99.8965811729
99.9007111788
100.313711762
100.330231786
99.9007111788
99.9172312021
100.763882399
99.9172312021
100.681282282
100.317841768
100.313711762
100.297191739
100.330231786
100.297191739
100.313711762
99.9131011963
100.317841768
100.330231786
100.730842352
99.8965811729
100.726712346
101.160362959
99.9172312021
100.763882399
99.9007111788
99.8841911554
99.8841911554
100.714322329
100.317841768
100.280671716
100.313711762
100.644112229
100.334361792
100.313711762
99.9007111788
100.297191739
100.297191739
100.747362375
100.730842352
99.9337512255
100.747362375

Block: 4
======================================
100.681282282
100.693672299
100.264151692
101.164492965
101.147972941
99.8800611496
99.8965811729
100.297191739
100.297191739
100.297191739
100.313711762
100.297191739
100.297191739
100.297191739
100.297191739
100.313711762
100.313711762
99.8965811729
99.9007111788
99.8965811729
100.313711762
100.317841768
100.297191739
100.297191739
100.313711762
100.297191739
100.751492381
99.3803304434
100.297191739
99.9172312021
100.763882399
99.9131011963
99.9007111788
99.8965811729
100.313711762
100.297191739
100.313711762
100.297191739
100.297191739
100.677152276
99.8800611496
100.730842352
100.747362375
100.730842352
100.280671716
100.297191739
100.27654171
100.297191739
100.317841768
100.313711762

Block: 5
======================================
100.297191739
101.197533011
100.747362375
101.147972941
101.164492965
100.280671716
100.313711762
100.313711762
100.297191739
99.8965811729
99.9007111788
99.8965811729
99.8841911554
99.9131011963
99.8965811729
100.297191739
99.8841911554
101.143842936
99.9007111788
101.164492965
100.297191739
100.313711762
99.9172312021
99.8965811729
99.8800611496
100.330231786
100.730842352
99.9007111788
100.763882399
99.9337512255
101.131452918
99.9007111788
100.763882399
101.181012988
99.9007111788
99.9172312021
99.9131011963
100.313711762
100.313711762
100.280671716
100.280671716
99.8841911554
100.747362375
99.9007111788
100.317841768
99.9007111788
99.9172312021
99.9131011963
100.313711762
100.297191739

Block: 6
======================================
99.9172312021
100.330231786
100.330231786
99.9337512255
100.313711762
100.313711762
100.297191739
100.297191739
100.280671716
100.317841768
100.313711762
100.714322329
100.763882399
99.9337512255
99.9502712488
100.714322329
100.747362375
100.350881815
100.346751809
100.730842352
100.367401838
99.9502712488
100.363271832
99.9667912722
99.9502712488
100.334361792
100.317841768
101.181012988
101.201663017
100.763882399
101.197533011
99.9172312021
100.763882399
100.350881815
100.350881815
100.367401838
100.330231786
99.9667912722
99.9337512255
100.330231786
100.313711762
100.313711762
100.280671716
100.334361792
100.768012404
101.181012988
101.181012988
101.160362959
101.160362959
99.9502712488

Block: 7
======================================
99.9337512255
99.9007111788
100.710192323
100.334361792
100.313711762
100.313711762
100.714322329
100.313711762
100.317841768
100.297191739
100.313711762
100.313711762
100.313711762
100.330231786
100.297191739
100.714322329
100.334361792
100.317841768
100.714322329
100.313711762
100.313711762
100.334361792
100.297191739
100.313711762
100.730842352
100.297191739
100.313711762
100.297191739
100.297191739
101.181012988
101.160362959
99.9172312021
100.334361792
99.9337512255
101.181012988
100.313711762
100.280671716
100.330231786
100.313711762
100.334361792
100.313711762
100.297191739
100.297191739
101.164492965
100.297191739
100.297191739
101.181012988
99.9337512255
99.9172312021
100.763882399

Block: 8
======================================
100.367401838
100.334361792
100.780402422
100.330231786
100.317841768
100.313711762
100.697802305
99.9544012547
101.181012988
100.260021687
100.714322329
100.313711762
100.297191739
100.313711762
100.313711762
100.730842352
100.280671716
101.181012988
100.297191739
100.693672299
101.164492965
99.9337512255
101.181012988
99.9337512255
100.317841768
100.330231786
100.297191739
100.330231786
100.297191739
100.313711762
100.334361792
100.297191739
100.313711762
100.297191739
100.313711762
100.313711762
100.297191739
100.313711762
100.334361792
100.747362375
101.181012988
100.280671716
100.697802305
101.143842936
100.280671716
100.297191739
100.297191739
100.297191739
100.330231786
101.164492965

Block: 9
======================================
100.297191739
100.330231786
100.330231786
100.313711762
100.334361792
100.313711762
100.27654171
100.297191739
100.297191739
100.27654171
100.350881815
100.297191739
100.297191739
100.297191739
100.796922445
100.768012404
100.313711762
99.8635411263
100.313711762
100.710192323
101.181012988
100.313711762
100.714322329
100.317841768
100.297191739
100.346751809
100.313711762
100.297191739
100.350881815
100.747362375
101.147972941
101.197533011
101.164492965
100.730842352
100.313711762
100.747362375
99.9337512255
99.9337512255
100.313711762
100.313711762
100.313711762
100.297191739
100.330231786
100.697802305
101.197533011
100.297191739
100.710192323
100.313711762
100.334361792
100.313711762

Block: 10
======================================
100.363271832
100.280671716
99.9874413013
100.297191739
100.763882399
100.763882399
100.784532428
101.181012988
100.710192323
101.214053035
100.784532428
100.763882399
101.230573058
100.367401838
99.9337512255
100.350881815
99.9337512255
99.9172312021
100.747362375
101.181012988
100.346751809
100.313711762
100.313711762
100.334361792
99.9337512255
100.350881815
100.334361792
99.9296212196
101.181012988
100.334361792
101.197533011
100.297191739
100.730842352
99.9833112955
100.784532428
100.317841768
101.197533011
100.346751809
100.330231786
100.330231786
99.9502712488
99.9502712488
100.801052451
101.181012988
100.313711762
101.164492965
99.9502712488
100.367401838
100.350881815
99.9172312021
