
Block: 1
======================================
99.8841911554
99.9172312021
99.8676711321
100.313711762
99.8841911554
99.8470211029
99.8470211029
99.8470211029
99.8841911554
99.8841911554
99.8841911554
99.8841911554
100.297191739
100.330231786
100.317841768
99.8800611496
99.8635411263
100.297191739
100.313711762
99.8635411263
100.280671716
100.264151692
99.8470211029
99.8635411263
99.8800611496
100.260021687
100.334361792
100.297191739
100.313711762
100.264151692
100.280671716
99.8800611496
99.8470211029
100.280671716
99.8635411263
99.8800611496
100.313711762
100.280671716
100.297191739
100.297191739
100.264151692
100.297191739
100.297191739
100.297191739
100.280671716
100.313711762
100.313711762
99.8470211029
100.330231786
99.8841911554
99.8841911554
100.297191739
99.8635411263
100.280671716
99.8965811729
100.350881815
100.297191739
100.313711762
100.313711762
100.350881815
99.9172312021
100.313711762
99.8841911554
100.27654171
100.297191739
100.280671716
99.8635411263
99.9007111788
100.313711762
100.297191739
100.297191739
100.297191739
100.297191739
100.27654171
99.8635411263

Average distance is : 100.124 cm
Average deviation is : 0.212 cm
Block: 2
======================================
99.8800611496
99.8800611496
99.8635411263
100.350881815
100.297191739
99.8800611496
100.297191739
99.8965811729
100.313711762
100.297191739
99.8635411263
99.8841911554
100.280671716
100.280671716
99.8800611496
99.8841911554
99.8800611496
100.280671716
99.8470211029
100.301321745
99.8841911554
100.330231786
100.350881815
100.280671716
100.280671716
100.313711762
100.313711762
99.8635411263
99.9007111788
100.297191739
99.8635411263
99.9337512255
100.350881815
100.264151692
99.9007111788
100.317841768
100.297191739
100.297191739
99.8841911554
100.297191739
99.8841911554
99.8635411263
99.8635411263
99.8676711321
100.27654171
100.280671716
99.8470211029
100.297191739
99.8470211029
100.297191739
100.27654171
99.8428910971
100.297191739
99.8470211029
100.313711762
100.297191739
100.297191739
100.313711762
100.297191739
100.297191739
99.8800611496
99.8635411263
100.280671716
99.8800611496
100.297191739
99.8841911554
99.8841911554
100.280671716
100.334361792
100.313711762
99.9172312021
100.260021687
100.350881815
100.313711762
100.313711762

Average distance is : 100.120 cm
Average deviation is : 0.213 cm
Block: 3
======================================
99.8800611496
99.9131011963
99.8635411263
99.8470211029
100.260021687
100.297191739
99.8800611496
100.297191739
99.8800611496
99.8800611496
99.8841911554
99.8800611496
100.297191739
100.280671716
99.9007111788
97.1790373325
135.790461898
99.9998313189
99.9172312021
99.8635411263
99.8841911554
99.8841911554
100.297191739
100.297191739
99.8635411263
100.297191739
100.313711762
100.280671716
99.8800611496
100.297191739
100.313711762
99.8635411263
100.280671716
99.8800611496
100.280671716
100.280671716
100.297191739
100.297191739
99.8470211029
100.297191739
99.8800611496
100.334361792
100.301321745
100.301321745
100.280671716
100.297191739
100.280671716
100.297191739
99.8800611496
100.280671716
100.297191739
99.8800611496
99.9131011963
100.297191739
99.8635411263
100.297191739
100.280671716
99.8635411263
99.8800611496
100.27654171
99.8800611496
99.8841911554
100.297191739
100.297191739
99.8635411263
100.297191739
100.297191739
100.297191739
99.8800611496
99.8841911554
99.9337512255
99.8841911554
99.8635411263
100.280671716
99.8676711321

Average distance is : 100.528 cm
Average deviation is : 4.145 cm
Block: 4
======================================
99.8965811729
99.8635411263
100.280671716
100.280671716
100.280671716
100.297191739
99.9131011963
99.8635411263
99.8800611496
100.297191739
100.334361792
99.8800611496
99.8800611496
100.297191739
100.297191739
100.280671716
100.334361792
100.297191739
100.297191739
99.8800611496
100.280671716
100.297191739
100.297191739
100.280671716
100.280671716
99.8470211029
100.297191739
100.313711762
100.297191739
100.313711762
99.8305010796
99.9007111788
99.8965811729
99.9172312021
99.8635411263
100.260021687
100.297191739
99.8676711321
99.8635411263
99.8841911554
99.8800611496
100.301321745
99.9131011963
100.297191739
100.297191739
100.297191739
99.8841911554
100.330231786
99.8800611496
100.330231786
100.264151692
100.297191739
99.8800611496
100.297191739
100.297191739
100.297191739
100.297191739
100.350881815
99.8841911554
100.280671716
100.297191739
99.8635411263
99.8635411263
99.8841911554
99.8965811729
100.297191739
100.330231786
100.280671716
100.330231786
100.313711762
99.8635411263
100.313711762
99.8635411263
99.8800611496
100.297191739

Average distance is : 100.131 cm
Average deviation is : 0.208 cm
Block: 5
======================================
99.8470211029
99.8305010796
100.297191739
100.297191739
100.280671716
99.8470211029
99.9007111788
99.8470211029
100.264151692
106.310480237
100.280671716
99.8470211029
99.8800611496
100.27654171
100.350881815
100.264151692
100.280671716
100.297191739
100.297191739
100.280671716
100.297191739
99.8635411263
100.330231786
100.297191739
100.297191739
100.297191739
99.8635411263
100.280671716
99.8635411263
99.8635411263
99.8635411263
99.8470211029
99.8635411263
100.317841768
100.297191739
99.8470211029
99.8800611496
100.334361792
100.330231786
99.8676711321
99.8841911554
100.280671716
99.8635411263
99.8635411263
99.8635411263
99.8635411263
100.313711762
100.297191739
100.297191739
99.8676711321
100.297191739
99.8470211029
100.280671716
99.8635411263
99.8470211029
100.280671716
99.8841911554
100.280671716
99.8800611496
100.330231786
100.313711762
99.8470211029
99.8635411263
99.8470211029
100.280671716
100.330231786
100.346751809
100.27654171
100.297191739
99.8800611496
100.330231786
100.313711762
99.8635411263
100.297191739
99.8676711321

Average distance is : 100.182 cm
Average deviation is : 0.750 cm
Block: 6
======================================
99.9007111788
99.8635411263
99.8635411263
100.297191739
99.8635411263
100.313711762
99.8800611496
100.297191739
99.8841911554
100.27654171
100.280671716
99.8470211029
99.8841911554
100.297191739
100.297191739
100.27654171
99.8800611496
99.8800611496
100.334361792
100.280671716
99.8635411263
99.8800611496
100.297191739
100.280671716
99.8470211029
99.8470211029
100.297191739
99.8800611496
100.297191739
100.313711762
100.297191739
100.297191739
100.280671716
99.8965811729
99.8635411263
99.8470211029
82.8726971149
100.313711762
100.313711762
100.280671716
99.8841911554
99.8635411263
99.8841911554
100.280671716
100.297191739
99.8800611496
100.297191739
100.280671716
99.8800611496
100.330231786
100.313711762
100.330231786
100.313711762
100.260021687
100.297191739
99.8470211029
99.8676711321
99.8635411263
99.8470211029
100.297191739
100.313711762
100.260021687
100.330231786
99.8635411263
100.27654171
100.313711762
100.313711762
99.8635411263
100.301321745
99.8635411263
99.8635411263
99.8635411263
99.8841911554
100.297191739
99.8470211029

Average distance is : 99.871 cm
Average deviation is : 2.001 cm
Block: 7
======================================
99.8800611496
99.9172312021
99.8800611496
99.9172312021
100.313711762
99.8841911554
99.8800611496
99.8800611496
100.330231786
99.8635411263
99.8800611496
100.297191739
99.8841911554
99.8635411263
100.317841768
99.9131011963
99.8635411263
100.297191739
100.317841768
99.8635411263
99.9007111788
100.313711762
100.317841768
100.334361792
100.313711762
100.297191739
100.313711762
100.313711762
100.313711762
99.8635411263
100.313711762
99.8841911554
100.297191739
100.297191739
99.8800611496
100.313711762
100.313711762
99.8800611496
99.8470211029
100.280671716
99.8841911554
99.9007111788
99.8800611496
100.313711762
100.297191739
100.297191739
100.297191739
100.313711762
99.8470211029
100.313711762
100.297191739
99.8800611496
99.8635411263
100.297191739
100.297191739
99.8841911554
100.313711762
100.297191739
99.8841911554
99.8635411263
100.317841768
100.301321745
100.297191739
99.8800611496
100.280671716
100.313711762
99.8800611496
100.330231786
100.313711762
100.243501663
99.8800611496
99.8965811729
100.297191739
100.297191739
100.297191739

Average distance is : 100.118 cm
Average deviation is : 0.213 cm
Block: 8
======================================
99.9007111788
99.9172312021
100.334361792
99.8841911554
99.8965811729
99.8965811729
100.313711762
99.8841911554
100.260021687
100.297191739
100.313711762
99.8800611496
100.280671716
100.297191739
100.330231786
100.297191739
100.334361792
99.8800611496
100.297191739
100.330231786
100.297191739
99.8965811729
100.297191739
100.297191739
99.8470211029
100.313711762
100.313711762
100.297191739
100.330231786
100.313711762
100.330231786
100.313711762
100.297191739
99.8800611496
99.8800611496
100.350881815
99.8635411263
100.313711762
99.8635411263
100.297191739
100.27654171
99.8139810562
99.8139810562
99.9172312021
99.8800611496
100.350881815
99.9007111788
100.297191739
100.330231786
100.334361792
99.8800611496
100.317841768
100.334361792
100.313711762
100.313711762
100.313711762
100.313711762
99.8800611496
100.317841768
100.334361792
100.313711762
100.334361792
100.297191739
100.330231786
100.330231786
100.334361792
100.317841768
100.317841768
100.334361792
100.297191739
100.313711762
100.313711762
100.313711762
100.297191739
99.9007111788

Average distance is : 100.187 cm
Average deviation is : 0.200 cm
Block: 9
======================================
100.334361792
99.8841911554
99.8841911554
99.9131011963
99.9007111788
99.8635411263
100.330231786
99.9007111788
99.8139810562
99.8965811729
99.8305010796
99.8965811729
100.317841768
99.8800611496
99.9131011963
99.8800611496
100.330231786
100.313711762
100.313711762
99.8841911554
99.8965811729
99.8841911554
100.297191739
100.313711762
100.313711762
99.9007111788
99.8635411263
99.8635411263
99.8635411263
99.8635411263
100.313711762
100.334361792
100.317841768
100.297191739
100.313711762
100.313711762
99.8800611496
100.313711762
100.330231786
100.297191739
99.8965811729
99.8841911554
100.334361792
100.297191739
99.8800611496
99.8800611496
99.8635411263
100.313711762
100.330231786
100.330231786
100.313711762
100.317841768
100.297191739
100.334361792
100.330231786
100.330231786
100.313711762
100.297191739
100.330231786
100.313711762
100.334361792
100.260021687
99.8635411263
100.297191739
100.330231786
100.330231786
99.8800611496
100.313711762
100.313711762
100.330231786
100.334361792
99.8470211029
99.9131011963
99.8800611496
99.8800611496

Average distance is : 100.125 cm
Average deviation is : 0.220 cm
Block: 10
======================================
99.9172312021
99.9172312021
99.9131011963
99.8635411263
99.8841911554
99.8965811729
100.313711762
100.330231786
100.334361792
99.8841911554
100.313711762
99.8800611496
99.8635411263
99.8635411263
100.280671716
99.8635411263
100.313711762
100.313711762
99.8800611496
99.8635411263
99.9007111788
99.8635411263
100.280671716
100.297191739
99.8965811729
99.8635411263
100.313711762
100.264151692
99.8635411263
100.297191739
99.8800611496
100.297191739
99.8965811729
99.9007111788
99.8800611496
99.8841911554
99.9172312021
100.317841768
99.8635411263
99.8470211029
100.297191739
99.8635411263
100.317841768
100.297191739
100.280671716
93.6644023657
99.9007111788
99.8841911554
100.313711762
99.8841911554
100.313711762
100.280671716
100.27654171
99.8470211029
99.8635411263
100.313711762
99.8635411263
100.313711762
99.8635411263
100.297191739
99.8635411263
100.297191739
99.8635411263
100.313711762
99.8841911554
99.8800611496
100.313711762
100.313711762
99.8676711321
99.8635411263
100.280671716
100.280671716
100.313711762
100.297191739
100.27654171

Average distance is : 99.987 cm
Average deviation is : 0.770 cm
Average distance for 10x75 is : 100.137 cm
Average deviation for 10x75 is : 0.893 cm
 Percentage of values that failed: 0.000