
Block: 1
======================================
400.603745985
401.464972472
400.146851182
401.028294253
400.142807865
401.452842522
401.044467521
400.567356133
400.57139945
400.567356133
400.57139945
400.146851182
401.028294253
400.146851182
400.57139945
400.57139945
400.57139945
401.024250937
400.126634598
400.57139945
400.551182866
401.028294253
401.028294253
401.008077669
401.873347473

Average distance is : 400.736 cm
Average deviation is : 0.455 cm
Block: 2
======================================
401.464972472
401.012120986
400.163024449
400.57139945
400.142807865
400.587572718
401.469015789
400.146851182
401.028294253
400.142807865
400.587572718
401.044467521
400.567356133
400.567356133
400.587572718
400.163024449
400.146851182
401.044467521
400.603745985
400.619919252
400.146851182
401.485189056
400.599702668
400.583529401
401.040424204

Average distance is : 400.661 cm
Average deviation is : 0.436 cm
Block: 3
======================================
400.163024449
400.142807865
400.142807865
401.028294253
400.57139945
400.567356133
401.024250937
400.130677915
401.044467521
401.024250937
400.126634598
401.028294253
400.603745985
400.142807865
401.040424204
400.603745985
400.583529401
401.485189056
400.603745985
401.060640788
401.485189056
400.587572718
400.603745985
401.464972472
401.464972472

Average distance is : 400.749 cm
Average deviation is : 0.461 cm
Block: 4
======================================
401.044467521
400.57139945
401.893564057
401.044467521
401.012120986
401.044467521
400.587572718
401.448799205
400.567356133
401.012120986
400.551182866
401.432625937
401.436669254
401.012120986
400.535009599
400.535009599
400.975731134
401.432625937
401.012120986
400.995947719
400.567356133
401.432625937
400.991904402
401.41645267
401.41645267

Average distance is : 401.039 cm
Average deviation is : 0.378 cm
Block: 5
======================================
400.514793015
402.301939058
401.41645267
400.975731134
400.551182866
401.841000938
400.551182866
400.535009599
401.873347473
401.400279403
400.502663064
400.975731134
401.432625937
400.959557867
400.975731134
400.518836331
400.539052916
400.514793015
400.975731134
400.939341283
400.539052916
400.498619747
400.498619747
401.436669254
400.502663064

Average distance is : 400.951 cm
Average deviation is : 0.523 cm
Block: 6
======================================
401.400279403
400.95551455
400.939341283
401.400279403
400.939341283
400.939341283
400.975731134
400.48244648
400.518836331
400.518836331
401.400279403
401.41645267
401.400279403
401.400279403
401.384106135
401.367932868
401.384106135
400.939341283
401.380062819
400.48244648
400.518836331
401.363889551
400.906994748
401.367932868
400.466273212

Average distance is : 401.050 cm
Average deviation is : 0.371 cm
Block: 7
======================================
400.041724944
400.041724944
400.518836331
400.518836331
400.959557867
400.041724944
400.057898211
400.045768261
401.400279403
400.078114796
400.057898211
400.514793015
401.861217523
400.518836331
400.518836331
400.514793015
400.518836331
400.502663064
400.041724944
400.498619747
400.539052916
400.041724944
400.535009599
399.605046725
400.078114796

Average distance is : 400.402 cm
Average deviation is : 0.476 cm
Block: 8
======================================
400.074071479
400.979774451
401.384106135
400.057898211
400.041724944
400.061941528
400.061941528
400.078114796
400.535009599
400.078114796
400.959557867
400.057898211
400.514793015
400.535009599
400.057898211
400.025551677
400.078114796
400.518836331
400.078114796
400.518836331
400.518836331
400.094288063
400.518836331
400.074071479
400.094288063

Average distance is : 400.320 cm
Average deviation is : 0.367 cm
Block: 9
======================================
400.535009599
400.959557867
400.078114796
400.975731134
400.078114796
400.535009599
400.078114796
400.061941528
400.535009599
399.617176676
399.617176676
400.078114796
400.518836331
400.094288063
400.078114796
400.991904402
400.078114796
400.057898211
400.057898211
400.518836331
400.061941528
400.078114796
400.551182866
400.074071479
400.078114796

Average distance is : 400.256 cm
Average deviation is : 0.371 cm
Block: 10
======================================
401.820784354
400.074071479
400.9433846
401.384106135
400.518836331
400.959557867
400.057898211
400.498619747
400.041724944
400.518836331
400.486489797
400.502663064
400.502663064
400.061941528
400.9433846
400.057898211
400.48244648
400.927211332
400.502663064
400.502663064
400.025551677
400.041724944
400.959557867
400.045768261
400.927211332

Average distance is : 400.552 cm
Average deviation is : 0.468 cm