
Block: 1
======================================
100.796922445
100.817572474
101.300783157
100.834092498
100.437611938
100.834092498
101.701393723
100.433481932
100.801052451
101.284263134
100.834092498
100.454131961
101.251223087
101.284263134
100.854742527
101.214053035
101.267743111
100.834092498
100.817572474
100.834092498
100.416961908
100.834092498
101.230573058
100.834092498
101.6848737
100.817572474
101.717913747
100.801052451
100.834092498
100.834092498
101.230573058
100.416961908
100.834092498
100.433481932
100.421091914
100.421091914
100.850612521
100.850612521
100.813442469
101.267743111
100.400441885
100.834092498
100.813442469
100.400441885
100.801052451
100.437611938
100.433481932
100.400441885
100.834092498
100.834092498

Block: 2
======================================
101.234703064
100.834092498
101.247093081
100.887782574
100.416961908
100.834092498
100.421091914
100.421091914
100.416961908
100.834092498
100.834092498
100.817572474
100.450001955
100.454131961
101.267743111
100.834092498
100.813442469
100.437611938
101.267743111
100.416961908
100.421091914
100.416961908
100.817572474
101.284263134
101.300783157
100.416961908
100.850612521
100.834092498
100.850612521
100.404571891
100.817572474
100.421091914
101.701393723
100.850612521
100.416961908
100.433481932
100.838222504
100.817572474
101.6848737
100.838222504
100.404571891
100.416961908
100.801052451
100.817572474
100.416961908
100.817572474
100.834092498
100.834092498
100.854742527
101.267743111

Block: 3
======================================
100.834092498
100.437611938
100.817572474
101.73443377
100.400441885
100.817572474
100.817572474
100.416961908
100.834092498
101.247093081
100.801052451
100.817572474
100.421091914
100.834092498
100.437611938
100.817572474
100.817572474
100.834092498
100.416961908
100.817572474
101.6848737
100.416961908
100.433481932
100.817572474
100.834092498
100.437611938
100.421091914
100.834092498
100.421091914
101.680743694
100.796922445
100.813442469
100.400441885
100.454131961
101.701393723
100.433481932
100.383921862
100.834092498
100.834092498
100.817572474
100.421091914
100.817572474
100.383921862
100.400441885
101.664223671
100.834092498
101.6848737
100.416961908
100.834092498
100.400441885

Block: 4
======================================
100.796922445
100.383921862
100.400441885
101.33795321
100.834092498
100.834092498
100.454131961
100.801052451
101.284263134
100.817572474
100.817572474
100.834092498
100.813442469
100.416961908
101.230573058
100.817572474
100.433481932
100.416961908
100.817572474
100.834092498
100.817572474
100.437611938
100.817572474
100.817572474
101.284263134
100.400441885
101.284263134
100.433481932
100.834092498
100.383921862
100.433481932
100.433481932
100.834092498
100.850612521
101.251223087
100.850612521
100.416961908
100.813442469
100.400441885
101.717913747
100.850612521
100.796922445
100.433481932
100.834092498
101.701393723
101.6848737
100.817572474
100.801052451
100.867132545
100.817572474

Block: 5
======================================
100.400441885
101.251223087
100.400441885
100.454131961
100.850612521
100.437611938
100.850612521
100.416961908
100.421091914
101.6848737
100.834092498
100.834092498
100.433481932
100.817572474
101.284263134
100.817572474
100.400441885
100.416961908
100.834092498
100.838222504
100.437611938
101.284263134
100.450001955
100.801052451
100.416961908
100.834092498
100.421091914
100.834092498
100.400441885
100.850612521
101.680743694
100.817572474
100.416961908
100.817572474
100.850612521
100.850612521
101.251223087
100.854742527
101.214053035
101.267743111
100.796922445
100.850612521
101.300783157
100.817572474
101.697263718
101.697263718
101.701393723
100.400441885
101.214053035
100.437611938

Block: 6
======================================
101.247093081
100.416961908
100.383921862
100.433481932
100.433481932
100.817572474
100.433481932
100.780402422
100.817572474
100.400441885
100.817572474
100.796922445
101.717913747
100.416961908
100.817572474
100.817572474
100.834092498
100.400441885
101.234703064
100.437611938
100.834092498
100.834092498
100.400441885
100.834092498
100.834092498
100.834092498
100.834092498
100.416961908
100.796922445
100.416961908
101.701393723
101.247093081
101.234703064
101.234703064
100.834092498
100.796922445
100.437611938
101.697263718
100.850612521
100.817572474
101.251223087
101.701393723
100.834092498
100.817572474
100.834092498
100.817572474
100.433481932
100.817572474
101.680743694
101.214053035

Block: 7
======================================
100.801052451
100.784532428
100.87126255
100.867132545
100.834092498
100.817572474
100.416961908
100.421091914
100.437611938
101.6848737
100.450001955
100.416961908
101.267743111
100.834092498
100.854742527
101.717913747
100.404571891
101.680743694
100.437611938
100.437611938
100.416961908
101.680743694
100.421091914
100.454131961
100.421091914
100.813442469
100.437611938
100.796922445
101.028202772
100.421091914
101.284263134
100.416961908
100.813442469
100.400441885
100.400441885
101.251223087
101.230573058
101.6848737
100.834092498
100.421091914
100.416961908
100.437611938
101.680743694
100.817572474
100.400441885
101.6848737
100.416961908
100.421091914
100.400441885
100.817572474

Block: 8
======================================
100.834092498
100.834092498
100.801052451
100.416961908
100.421091914
101.701393723
100.421091914
101.251223087
100.850612521
101.680743694
100.416961908
100.416961908
100.850612521
100.437611938
100.817572474
100.796922445
100.437611938
100.834092498
101.284263134
100.834092498
101.251223087
100.834092498
100.416961908
100.834092498
100.421091914
100.834092498
100.850612521
100.433481932
100.433481932
100.437611938
100.404571891
100.834092498
100.834092498
100.400441885
101.267743111
101.701393723
100.834092498
100.416961908
101.284263134
100.416961908
100.416961908
100.817572474
100.850612521
100.400441885
100.834092498
100.437611938
100.817572474
100.421091914
100.383921862
100.437611938

Block: 9
======================================
100.817572474
100.383921862
100.801052451
100.796922445
100.416961908
100.383921862
101.230573058
100.400441885
100.834092498
100.834092498
101.251223087
100.817572474
100.400441885
101.230573058
101.251223087
100.813442469
100.817572474
100.834092498
101.234703064
100.817572474
100.813442469
100.796922445
100.838222504
100.801052451
100.813442469
100.834092498
100.834092498
101.6848737
100.817572474
101.680743694
101.701393723
101.267743111
101.251223087
101.267743111
100.850612521
100.416961908
100.433481932
101.284263134
100.433481932
100.454131961
100.437611938
101.284263134
101.267743111
100.400441885
101.234703064
100.817572474
100.817572474
100.801052451
100.817572474
99.5868307352

Block: 10
======================================
100.854742527
100.383921862
100.834092498
100.416961908
100.834092498
100.416961908
100.433481932
100.834092498
100.437611938
100.813442469
100.850612521
100.421091914
100.400441885
100.421091914
100.454131961
100.834092498
101.284263134
101.6848737
101.284263134
100.817572474
101.230573058
100.834092498
100.437611938
100.834092498
100.416961908
100.801052451
100.850612521
100.437611938
100.854742527
100.421091914
100.801052451
100.817572474
100.817572474
101.717913747
101.230573058
101.701393723
100.433481932
100.834092498
100.400441885
100.433481932
101.284263134
100.796922445
100.416961908
100.817572474
100.780402422
101.284263134
100.404571891
100.416961908
100.421091914
100.416961908
