
Block: 1
======================================
101.230573058
101.164492965
100.416961908
101.6848737
101.701393723
101.697263718
100.400441885
101.717913747
100.433481932
100.854742527
101.680743694
101.267743111
100.400441885
100.817572474
100.433481932
100.834092498
100.400441885
100.817572474
100.796922445
101.234703064
100.834092498
100.400441885
100.404571891
100.867132545
100.813442469
100.437611938
100.421091914
100.834092498
101.701393723
100.850612521
100.817572474
100.817572474
101.6848737
100.817572474
101.267743111
100.801052451
100.454131961
100.850612521
101.701393723
100.416961908
100.400441885
101.251223087
100.834092498
101.6848737
100.834092498
100.421091914
100.433481932
101.6848737
100.817572474
101.6848737
100.817572474
100.400441885
101.214053035
101.234703064
101.6848737
100.850612521
100.437611938
100.433481932
100.817572474
100.433481932
100.834092498
100.416961908
100.850612521
101.251223087
100.421091914
100.850612521
100.421091914
100.817572474
101.300783157
100.867132545
100.416961908
100.834092498
100.867132545
101.6848737
101.284263134
100.801052451
100.404571891
100.784532428
100.834092498
100.834092498
100.834092498
100.801052451
100.817572474
101.234703064
101.263613105
100.421091914
101.284263134
100.801052451
100.400441885
100.834092498
101.251223087
100.437611938
100.850612521
100.817572474
100.813442469
100.454131961
100.834092498
100.437611938
100.796922445
100.834092498

Block: 2
======================================
100.437611938
100.850612521
100.834092498
100.433481932
100.834092498
99.743770957
100.433481932
100.437611938
100.421091914
101.230573058
100.813442469
100.817572474
100.817572474
100.801052451
100.817572474
100.817572474
100.400441885
100.817572474
100.400441885
100.817572474
100.834092498
101.701393723
100.421091914
100.834092498
100.834092498
101.267743111
100.834092498
100.416961908
100.801052451
100.834092498
100.850612521
100.817572474
100.834092498
101.701393723
100.416961908
100.817572474
100.834092498
100.817572474
101.701393723
100.817572474
100.834092498
100.796922445
100.813442469
100.416961908
100.421091914
101.697263718
100.817572474
100.801052451
100.834092498
101.6848737
100.437611938
100.834092498
100.454131961
100.437611938
101.6848737
100.834092498
100.834092498
100.817572474
100.421091914
100.416961908
100.817572474
100.817572474
100.817572474
100.421091914
100.834092498
100.433481932
100.801052451
100.817572474
101.251223087
100.834092498
100.383921862
100.850612521
100.416961908
100.817572474
100.421091914
100.834092498
100.454131961
100.850612521
100.416961908
100.421091914
101.230573058
100.817572474
100.834092498
100.854742527
100.437611938
100.834092498
100.838222504
100.850612521
100.817572474
100.400441885
100.416961908
100.813442469
100.416961908
100.416961908
100.404571891
100.801052451
100.850612521
101.218183041
100.817572474
100.437611938

Block: 3
======================================
100.437611938
100.421091914
101.267743111
101.701393723
100.834092498
100.796922445
100.400441885
100.437611938
100.834092498
101.680743694
101.701393723
100.817572474
100.834092498
100.433481932
101.267743111
100.817572474
100.416961908
100.813442469
101.214053035
100.850612521
100.416961908
101.267743111
100.834092498
100.454131961
100.834092498
100.850612521
101.717913747
100.834092498
100.454131961
100.437611938
100.817572474
100.433481932
101.701393723
100.854742527
100.400441885
100.400441885
101.701393723
100.416961908
100.817572474
100.834092498
100.850612521
100.416961908
100.817572474
100.416961908
100.834092498
100.454131961
100.400441885
101.6848737
100.817572474
101.214053035
100.817572474
100.850612521
100.437611938
100.817572474
100.416961908
100.416961908
100.404571891
100.416961908
100.416961908
100.834092498
100.834092498
100.817572474
100.421091914
100.817572474
100.421091914
100.813442469
100.433481932
100.416961908
101.680743694
100.416961908
100.416961908
100.813442469
100.834092498
100.400441885
101.284263134
101.701393723
101.214053035
100.416961908
101.284263134
100.817572474
100.834092498
101.263613105
100.437611938
100.421091914
100.437611938
100.404571891
100.87126255
100.796922445
100.437611938
100.834092498
100.421091914
101.717913747
100.416961908
100.834092498
100.850612521
100.813442469
100.801052451
100.817572474
100.801052451
100.817572474

Block: 4
======================================
100.850612521
100.400441885
100.416961908
100.817572474
100.854742527
101.218183041
100.817572474
100.400441885
100.416961908
100.400441885
100.801052451
100.813442469
100.817572474
100.780402422
100.450001955
101.701393723
100.854742527
100.416961908
100.454131961
101.267743111
100.817572474
100.400441885
101.284263134
100.421091914
100.437611938
100.801052451
101.267743111
100.400441885
100.421091914
101.247093081
100.801052451
100.416961908
101.697263718
100.433481932
100.817572474
101.267743111
100.850612521
100.817572474
100.813442469
100.433481932
101.28839314
100.813442469
100.416961908
100.817572474
100.404571891
100.421091914
100.400441885
101.267743111
100.454131961
101.267743111
100.834092498
100.817572474
100.838222504
100.817572474
100.437611938
101.701393723
100.834092498
100.416961908
100.834092498
100.801052451
100.400441885
100.834092498
101.28839314
101.284263134
100.437611938
100.437611938
100.404571891
100.817572474
101.701393723
100.87126255
100.433481932
100.400441885
101.680743694
100.834092498
100.813442469
101.300783157
100.834092498
100.850612521
100.416961908
100.416961908
100.817572474
100.421091914
100.834092498
100.437611938
101.701393723
100.421091914
100.433481932
101.267743111
100.817572474
100.834092498
100.834092498
100.850612521
100.454131961
100.817572474
101.697263718
100.834092498
100.784532428
100.867132545
100.850612521
101.697263718

Block: 5
======================================
101.284263134
100.400441885
100.677152276
100.834092498
100.454131961
100.850612521
101.664223671
100.834092498
100.817572474
100.416961908
100.834092498
100.404571891
100.834092498
101.701393723
101.267743111
100.400441885
101.701393723
101.680743694
101.234703064
100.400441885
100.813442469
100.817572474
100.834092498
101.267743111
100.437611938
100.437611938
100.834092498
100.834092498
100.834092498
101.701393723
101.717913747
100.867132545
101.701393723
101.267743111
100.796922445
100.520212054
100.813442469
100.817572474
101.230573058
100.817572474
100.437611938
100.834092498
100.437611938
100.834092498
100.850612521
100.454131961
100.834092498
100.817572474
100.817572474
100.834092498
101.697263718
100.421091914
100.421091914
101.251223087
100.817572474
101.717913747
100.834092498
100.867132545
101.214053035
100.817572474
100.421091914
100.801052451
100.400441885
100.404571891
100.817572474
100.416961908
100.850612521
100.834092498
100.834092498
101.680743694
100.813442469
100.416961908
100.838222504
100.834092498
101.701393723
100.850612521
101.284263134
100.780402422
100.834092498
100.817572474
101.284263134
100.817572474
100.834092498
101.697263718
100.817572474
100.416961908
100.437611938
101.701393723
100.437611938
101.251223087
101.28839314
100.834092498
101.284263134
101.267743111
100.834092498
101.284263134
101.717913747
100.796922445
100.817572474
100.437611938

Block: 6
======================================
100.433481932
101.317303181
100.817572474
100.421091914
100.817572474
100.834092498
101.284263134
100.813442469
100.433481932
100.834092498
101.304913163
100.817572474
100.834092498
100.796922445
101.251223087
100.834092498
101.697263718
101.717913747
101.284263134
100.421091914
101.247093081
100.834092498
100.421091914
101.284263134
100.437611938
101.28839314
101.717913747
100.834092498
100.834092498
100.421091914
101.284263134
101.234703064
100.867132545
100.817572474
101.300783157
100.454131961
100.404571891
100.801052451
100.437611938
100.416961908
100.416961908
101.717913747
100.437611938
100.817572474
100.834092498
101.230573058
100.834092498
100.834092498
100.850612521
100.416961908
100.850612521
101.251223087
101.218183041
100.813442469
100.834092498
101.267743111
101.701393723
101.267743111
100.850612521
100.817572474
100.834092498
100.904302597
100.817572474
100.817572474
100.834092498
100.850612521
100.867132545
101.214053035
100.817572474
100.796922445
100.437611938
100.817572474
101.284263134
101.284263134
100.796922445
100.834092498
101.697263718
101.284263134
100.817572474
100.416961908
100.433481932
100.817572474
100.400441885
100.383921862
100.854742527
101.284263134
100.850612521
101.284263134
100.834092498
100.834092498
100.817572474
100.421091914
100.834092498
100.400441885
100.817572474
100.817572474
100.834092498
100.813442469
100.834092498
101.680743694

Block: 7
======================================
100.421091914
101.230573058
100.850612521
100.854742527
100.817572474
101.717913747
100.454131961
100.433481932
100.834092498
100.834092498
100.433481932
101.717913747
100.437611938
101.284263134
101.267743111
101.284263134
101.214053035
100.867132545
101.230573058
100.817572474
100.834092498
100.817572474
100.421091914
101.234703064
101.234703064
101.284263134
100.834092498
100.850612521
100.801052451
100.421091914
100.437611938
100.817572474
100.813442469
100.454131961
100.416961908
100.834092498
101.697263718
100.801052451
101.284263134
101.680743694
100.838222504
101.251223087
100.850612521
100.817572474
100.867132545
100.834092498
100.834092498
100.454131961
100.421091914
100.454131961
101.6848737
100.454131961
100.437611938
100.416961908
100.834092498
100.421091914
100.817572474
100.433481932
100.834092498
100.433481932
100.817572474
100.437611938
100.867132545
101.230573058
101.234703064
101.300783157
100.834092498
100.437611938
100.437611938
100.416961908
100.801052451
100.400441885
100.437611938
101.6848737
100.400441885
100.850612521
100.850612521
100.437611938
100.416961908
101.230573058
100.454131961
100.421091914
101.214053035
101.6848737
100.817572474
101.680743694
100.437611938
100.416961908
100.437611938
100.416961908
100.850612521
100.834092498
101.267743111
100.437611938
100.834092498
100.850612521
101.284263134
101.680743694
100.834092498
100.450001955

Block: 8
======================================
101.300783157
100.470651984
101.267743111
100.817572474
100.454131961
100.834092498
100.801052451
100.400441885
100.400441885
100.416961908
100.801052451
100.454131961
101.251223087
100.854742527
101.697263718
100.437611938
101.214053035
100.834092498
100.850612521
100.400441885
100.421091914
100.834092498
100.834092498
100.454131961
100.433481932
100.834092498
101.267743111
100.454131961
100.834092498
100.834092498
101.6848737
100.817572474
100.834092498
100.850612521
100.838222504
100.437611938
100.817572474
100.850612521
100.437611938
100.834092498
100.437611938
100.834092498
100.850612521
100.433481932
100.817572474
100.433481932
100.834092498
100.834092498
100.850612521
100.421091914
101.267743111
101.214053035
100.834092498
100.400441885
101.701393723
101.6848737
101.214053035
100.437611938
100.454131961
101.73443377
100.854742527
100.437611938
100.416961908
101.701393723
100.801052451
101.267743111
100.850612521
100.416961908
100.850612521
100.817572474
100.433481932
101.680743694
101.267743111
100.421091914
101.6848737
100.838222504
101.701393723
100.850612521
100.437611938
100.454131961
100.416961908
100.850612521
100.817572474
100.437611938
100.400441885
100.817572474
100.421091914
100.850612521
100.383921862
100.834092498
101.284263134
101.6848737
100.817572474
100.834092498
100.421091914
100.834092498
100.854742527
100.400441885
100.421091914
100.416961908

Block: 9
======================================
100.450001955
100.867132545
100.421091914
101.234703064
101.300783157
101.251223087
101.717913747
100.801052451
100.416961908
100.437611938
100.838222504
100.421091914
100.796922445
101.701393723
100.416961908
101.267743111
100.400441885
100.817572474
100.796922445
100.421091914
101.664223671
100.834092498
100.850612521
100.433481932
100.421091914
100.437611938
101.701393723
101.717913747
100.416961908
100.433481932
100.437611938
100.433481932
100.834092498
100.416961908
100.801052451
101.284263134
100.796922445
101.717913747
100.437611938
101.6848737
100.454131961
100.437611938
101.267743111
101.267743111
100.400441885
100.421091914
100.801052451
100.433481932
101.234703064
100.454131961
100.416961908
100.817572474
100.416961908
100.433481932
100.813442469
100.817572474
100.817572474
101.668353677
100.817572474
100.834092498
100.813442469
100.400441885
100.454131961
101.284263134
101.701393723
100.454131961
100.817572474
100.817572474
100.433481932
100.437611938
100.400441885
100.416961908
101.697263718
100.87126255
100.400441885
100.437611938
101.304913163
100.813442469
100.421091914
100.834092498
100.416961908
100.421091914
100.834092498
100.834092498
100.834092498
100.801052451
100.416961908
100.801052451
100.421091914
100.834092498
100.801052451
101.284263134
100.437611938
100.834092498
101.284263134
100.416961908
100.433481932
100.834092498
100.454131961
100.817572474

Block: 10
======================================
100.801052451
100.416961908
100.383921862
100.854742527
100.780402422
100.850612521
100.817572474
101.701393723
100.437611938
100.850612521
100.834092498
101.680743694
100.834092498
100.383921862
100.817572474
100.404571891
100.421091914
100.437611938
100.400441885
100.437611938
100.834092498
100.421091914
100.437611938
100.400441885
100.416961908
100.834092498
100.416961908
100.813442469
100.834092498
101.247093081
101.284263134
100.454131961
100.834092498
101.284263134
101.214053035
100.383921862
100.834092498
100.834092498
100.834092498
100.404571891
101.234703064
101.284263134
100.817572474
100.437611938
100.817572474
100.854742527
101.701393723
101.230573058
100.433481932
100.416961908
100.400441885
101.267743111
101.717913747
100.834092498
100.400441885
100.433481932
100.416961908
100.416961908
101.680743694
100.854742527
100.834092498
101.680743694
100.416961908
101.284263134
100.437611938
100.817572474
100.400441885
100.416961908
100.834092498
100.421091914
100.817572474
101.697263718
100.834092498
100.450001955
100.817572474
100.421091914
100.817572474
100.854742527
101.701393723
100.817572474
100.834092498
100.834092498
100.817572474
100.817572474
100.834092498
100.801052451
100.383921862
101.701393723
100.817572474
100.834092498
100.834092498
101.234703064
100.834092498
100.421091914
100.801052451
100.421091914
100.801052451
100.383921862
100.834092498
100.416961908
