
Block: 1
======================================
101.251223087
101.300783157
100.416961908
100.416961908
100.834092498

Average distance is : 100.844 cm
Average deviation is : 0.430 cm
Block: 2
======================================
100.854742527
100.854742527
101.234703064
100.801052451
101.697263718

Average distance is : 101.089 cm
Average deviation is : 0.382 cm
Block: 3
======================================
100.834092498
100.433481932
101.251223087
100.421091914
100.796922445

Average distance is : 100.747 cm
Average deviation is : 0.342 cm
Block: 4
======================================
100.796922445
101.680743694
101.267743111
100.834092498
100.416961908

Average distance is : 100.999 cm
Average deviation is : 0.486 cm
Block: 5
======================================
100.454131961
100.421091914
100.404571891
100.796922445
101.668353677

Average distance is : 100.749 cm
Average deviation is : 0.539 cm
Block: 6
======================================
100.817572474
100.416961908
100.817572474
101.668353677
100.400441885

Average distance is : 100.824 cm
Average deviation is : 0.514 cm
Block: 7
======================================
100.796922445
100.796922445
100.834092498
100.437611938
101.701393723

Average distance is : 100.913 cm
Average deviation is : 0.469 cm
Block: 8
======================================
100.817572474
100.450001955
100.421091914
100.834092498
100.383921862

Average distance is : 100.581 cm
Average deviation is : 0.224 cm
Block: 9
======================================
100.87126255
100.834092498
100.437611938
100.383921862
101.6848737

Average distance is : 100.842 cm
Average deviation is : 0.521 cm
Block: 10
======================================
100.838222504
100.421091914
101.201663017
100.454131961
100.817572474

Average distance is : 100.747 cm
Average deviation is : 0.321 cm
Average distance for 10x5 is : 100.834 cm
Average deviation for 10x5 is : 0.423 cm
 Percentage of values that failed: 0.000