
Block: 1
======================================
200.808975983
200.739748359
200.760109425
199.8560781
200.299949336
200.776398277
200.316238189
199.872366953
200.328454828
199.888655806
200.332527041
200.295877123
200.312165976
200.760109425
200.312165976
200.756037211
200.365104747
199.904944658
200.760109425
200.27958827
200.743820572
199.888655806
200.295877123
200.760109425
200.776398277

Average distance is : 200.408 cm
Average deviation is : 0.339 cm
Block: 2
======================================
200.365104747
199.872366953
200.776398277
200.348815894
200.760109425
200.332527041
200.776398277
199.872366953
199.888655806
199.888655806
200.348815894
199.921233511
200.756037211
200.27958827
199.904944658
199.86829474
200.776398277
200.760109425
199.888655806
200.316238189
199.921233511
199.872366953
199.904944658
199.888655806
199.888655806

Average distance is : 200.207 cm
Average deviation is : 0.370 cm
Block: 3
======================================
199.8560781
199.803139329
200.3813936
199.86829474
200.316238189
199.884583592
199.904944658
200.332527041
200.756037211
199.888655806
199.904944658
199.872366953
200.776398277
199.888655806
200.332527041
200.743820572
200.776398277
200.743820572
201.151041889
199.835717034
200.760109425
200.295877123
201.187691808
199.8560781
199.86829474

Average distance is : 200.279 cm
Average deviation is : 0.457 cm
Block: 4
======================================
199.888655806
199.839789248
200.299949336
200.332527041
200.743820572
199.872366953
200.760109425
200.316238189
200.776398277
199.904944658
199.872366953
199.888655806
199.888655806
200.776398277
200.743820572
200.365104747
200.760109425
200.332527041
200.332527041
200.299949336
200.348815894
199.872366953
199.909016871
200.348815894
200.760109425

Average distance is : 200.289 cm
Average deviation is : 0.358 cm
Block: 5
======================================
199.839789248
199.904944658
200.316238189
200.316238189
200.332527041
199.909016871
200.299949336
201.20398066
199.8560781
200.79268713
199.904944658
199.888655806
199.888655806
199.888655806
199.888655806
199.888655806
199.872366953
199.888655806
199.872366953
200.776398277
200.776398277
200.756037211
200.78047049
199.888655806
199.8560781

Average distance is : 200.183 cm
Average deviation is : 0.420 cm
Block: 6
======================================
200.161494088
200.707170653
200.776398277
199.86829474
200.332527041
200.776398277
200.776398277
200.299949336
199.909016871
200.27958827
200.760109425
200.332527041
200.760109425
200.760109425
199.921233511
199.872366953
199.835717034
200.739748359
199.424423504
199.909016871
200.760109425
199.888655806
200.760109425
200.760109425
199.904944658

Average distance is : 200.331 cm
Average deviation is : 0.430 cm
Block: 7
======================================
199.872366953
199.839789248
200.348815894
199.904944658
200.760109425
200.739748359
199.904944658
200.299949336
200.316238189
200.79268713
200.739748359
200.760109425
200.312165976
199.904944658
200.316238189
200.316238189
200.776398277
200.78047049
199.921233511
199.904944658
200.79268713
201.187691808
200.796759343
200.316238189
199.904944658

Average distance is : 200.380 cm
Average deviation is : 0.406 cm
Block: 8
======================================
200.27958827
200.760109425
199.86829474
200.760109425
200.727531719
200.739748359
199.904944658
200.760109425
200.776398277
200.760109425
199.888655806
200.760109425
200.332527041
200.743820572
201.171402955
199.888655806
200.776398277
199.8560781
199.888655806
200.78047049
200.299949336
200.756037211
200.79268713
200.760109425
199.888655806

Average distance is : 200.477 cm
Average deviation is : 0.417 cm
Block: 9
======================================
199.888655806
199.888655806
200.299949336
199.8560781
200.316238189
200.316238189
200.739748359
200.743820572
200.776398277
200.776398277
199.872366953
199.909016871
199.904944658
200.743820572
201.151041889
200.743820572
200.760109425
199.884583592
200.739748359
200.295877123
200.79268713
200.316238189
200.312165976
200.756037211
199.888655806

Average distance is : 200.387 cm
Average deviation is : 0.408 cm
Block: 10
======================================
199.852005887
199.904944658
199.937522364
200.776398277
200.776398277
200.760109425
200.760109425
200.760109425
200.760109425
199.904944658
200.760109425
200.760109425
200.743820572
199.904944658
200.352888107
200.743820572
200.332527041
199.904944658
200.756037211
199.888655806
199.8560781
199.872366953
199.888655806
199.888655806
200.760109425

Average distance is : 200.344 cm
Average deviation is : 0.425 cm