
Block: 1
======================================
199.839789248
200.36917696
200.743820572
199.909016871
200.348815894
201.151041889
200.743820572
201.199908447
200.813048196
199.888655806
200.776398277
200.312165976
200.316238189
199.872366953
199.872366953
200.760109425
200.743820572
199.8560781
200.316238189
200.332527041
200.332527041
200.299949336
200.27958827
200.312165976
200.776398277
200.776398277
200.760109425
200.312165976
200.283660483
200.743820572
200.332527041
200.776398277
200.295877123
200.332527041
200.299949336
200.316238189
200.776398277
200.760109425
200.760109425
200.332527041
200.796759343
200.299949336
201.187691808
201.171402955
200.348815894
201.20398066
200.743820572
200.760109425
200.316238189
201.167330742

Average distance is : 200.520 cm
Average deviation is : 0.379 cm
Block: 2
======================================
200.727531719
200.760109425
200.760109425
199.852005887
200.776398277
200.295877123
200.739748359
200.743820572
199.872366953
200.776398277
199.852005887
200.316238189
200.739748359
199.888655806
199.888655806
200.776398277
200.760109425
199.888655806
200.348815894
200.776398277
200.760109425
200.760109425
199.888655806
200.760109425
199.888655806
199.872366953
199.888655806
199.852005887
199.904944658
199.888655806
199.888655806
201.62749083
200.723459506
199.86829474
199.909016871
200.776398277
200.36917696
200.332527041
199.872366953
199.904944658
199.872366953
200.739748359
200.332527041
199.872366953
200.348815894
199.888655806
199.888655806
200.299949336
200.332527041
200.316238189

Average distance is : 200.303 cm
Average deviation is : 0.433 cm
Block: 3
======================================
200.316238189
199.888655806
200.348815894
200.348815894
200.365104747
199.8560781
199.86829474
199.8560781
199.888655806
199.872366953
199.888655806
199.904944658
199.888655806
200.760109425
200.348815894
199.888655806
200.332527041
199.888655806
200.332527041
199.888655806
199.904944658
199.717622852
199.884583592
199.888655806
199.872366953
200.348815894
200.348815894
200.829337049
199.823500395
201.220269513
200.352888107
201.615274191
201.220269513
199.86829474
200.348815894
199.872366953
199.872366953
199.888655806
199.888655806
199.86829474
199.904944658
199.888655806
199.904944658
200.316238189
199.888655806
199.872366953
200.776398277
200.36917696
199.86829474
199.852005887

Average distance is : 200.140 cm
Average deviation is : 0.418 cm
Block: 4
======================================
199.86829474
200.316238189
200.723459506
200.776398277
200.299949336
200.316238189
199.888655806
199.888655806
200.283660483
199.904944658
200.739748359
200.760109425
199.86829474
200.760109425
200.79268713
200.316238189
200.332527041
199.888655806
199.888655806
200.312165976
200.727531719
199.888655806
199.904944658
200.295877123
199.884583592
199.921233511
199.904944658
200.756037211
200.78047049
199.86829474
199.86829474
199.888655806
200.332527041
199.872366953
200.739748359
199.888655806
199.921233511
199.904944658
200.776398277
200.760109425
200.760109425
200.776398277
199.921233511
200.776398277
199.888655806
200.760109425
200.776398277
200.776398277
199.888655806
200.776398277

Average distance is : 200.298 cm
Average deviation is : 0.398 cm
Block: 5
======================================
199.8560781
199.888655806
199.904944658
200.348815894
199.872366953
199.86829474
199.888655806
200.348815894
199.904944658
199.904944658
199.888655806
199.888655806
199.904944658
199.888655806
199.8560781
199.888655806
199.888655806
199.852005887
199.888655806
199.888655806
200.365104747
199.888655806
199.904944658
199.904944658
199.8560781
199.86829474
199.86829474
199.904944658
199.872366953
201.598985338
200.316238189
199.888655806
199.904944658
200.36917696
199.888655806
199.852005887
199.872366953
199.909016871
199.888655806
201.631563044
199.888655806
200.352888107
199.904944658
199.852005887
199.888655806
199.925305724
199.921233511
200.316238189
200.776398277
200.79268713

Average distance is : 200.056 cm
Average deviation is : 0.395 cm
Block: 6
======================================
200.385465813
199.872366953
199.8560781
198.369720292
200.79268713
200.776398277
199.872366953
199.888655806
199.925305724
199.888655806
199.888655806
199.888655806
200.760109425
199.86829474
199.888655806
199.86829474
199.884583592
199.904944658
199.904944658
199.888655806
199.888655806
199.888655806
199.904944658
199.888655806
200.776398277
199.86829474
199.904944658
199.888655806
199.904944658
199.904944658
199.904944658
199.888655806
200.808975983
199.909016871
200.776398277
199.904944658
199.904944658
200.316238189
199.904944658
199.888655806
200.79268713
199.904944658
199.904944658
199.888655806
200.348815894
199.904944658
199.888655806
199.888655806
199.888655806
199.888655806

Average distance is : 200.014 cm
Average deviation is : 0.398 cm
Block: 7
======================================
200.776398277
199.86829474
200.365104747
199.904944658
200.760109425
199.888655806
199.872366953
200.756037211
200.299949336
199.909016871
200.332527041
199.872366953
200.332527041
200.312165976
199.904944658
200.776398277
199.909016871
200.79268713
199.921233511
200.760109425
200.312165976
201.187691808
199.8560781
200.776398277
199.888655806
199.904944658
200.332527041
200.776398277
201.187691808
199.921233511
200.348815894
199.888655806
199.888655806
200.931142378
199.888655806
199.8560781
199.872366953
200.79268713
199.888655806
199.872366953
199.888655806
199.872366953
200.348815894
199.888655806
199.872366953
199.925305724
199.888655806
199.888655806
200.352888107
199.888655806

Average distance is : 200.210 cm
Average deviation is : 0.413 cm
Block: 8
======================================
200.365104747
199.904944658
199.904944658
199.86829474
199.872366953
199.925305724
200.312165976
199.872366953
199.86829474
199.909016871
200.348815894
199.904944658
199.904944658
199.904944658
199.888655806
199.86829474
199.872366953
199.872366953
199.888655806
199.888655806
199.8560781
200.776398277
200.776398277
199.909016871
199.888655806
200.79268713
200.756037211
200.776398277
199.904944658
199.904944658
199.921233511
200.760109425
199.904944658
199.904944658
200.312165976
200.79268713
199.872366953
200.776398277
199.884583592
200.776398277
200.78047049
200.756037211
199.904944658
199.888655806
200.316238189
200.006749988
200.316238189
199.921233511
199.888655806
199.904944658

Average distance is : 200.142 cm
Average deviation is : 0.368 cm
Block: 9
======================================
199.86829474
199.819428182
199.904944658
200.776398277
200.776398277
199.872366953
200.760109425
199.888655806
199.888655806
199.904944658
199.8560781
200.760109425
199.904944658
199.872366953
200.776398277
199.872366953
199.909016871
199.888655806
199.888655806
199.888655806
199.888655806
200.743820572
199.872366953
199.888655806
200.776398277
200.316238189
200.760109425
199.872366953
199.86829474
199.884583592
200.776398277
199.888655806
199.904944658
199.888655806
200.348815894
199.888655806
200.760109425
199.888655806
200.776398277
200.760109425
200.27958827
200.739748359
199.904944658
200.776398277
199.888655806
200.743820572
200.739748359
200.760109425
200.760109425
200.299949336

Average distance is : 200.234 cm
Average deviation is : 0.416 cm
Block: 10
======================================
199.872366953
200.776398277
199.852005887
200.760109425
200.299949336
199.872366953
200.760109425
200.332527041
200.760109425
199.872366953
199.835717034
200.299949336
200.760109425
199.888655806
199.888655806
199.872366953
199.888655806
199.8560781
200.316238189
199.872366953
199.888655806
199.872366953
199.888655806
200.760109425
199.888655806
200.295877123
200.299949336
199.904944658
199.888655806
199.8560781
200.739748359
199.904944658
200.760109425
200.316238189
200.723459506
199.884583592
201.183619595
200.743820572
200.743820572
200.739748359
200.299949336
200.27958827
199.872366953
200.316238189
200.299949336
200.295877123
200.299949336
199.872366953
200.283660483
199.819428182

Average distance is : 200.231 cm
Average deviation is : 0.383 cm