
Block: 1
======================================
399.977031875
399.95681529
399.94468534
399.552483606
399.977031875
399.960858607
399.95681529
399.940642023
399.993205142
399.520137072
399.091545486
399.584830141
399.532267022
399.568656874
399.536310339
399.568656874
399.993205142
399.516093755
399.516093755
399.520137072
399.079415536
399.516093755
399.095588803
399.516093755
399.584830141
399.552483606
399.552483606
399.091545486
399.584830141
399.584830141
399.584830141
399.568656874
399.568656874
399.552483606
399.536310339
399.532267022
399.972988558
399.532267022
399.111762071
399.552483606
399.568656874
399.548440289
399.111762071
399.584830141
400.009378409
399.977031875
399.972988558
399.993205142
399.536310339
399.532267022

Average distance is : 399.614 cm
Average deviation is : 0.269 cm
Block: 2
======================================
399.532267022
399.568656874
399.568656874
399.095588803
399.552483606
399.552483606
399.584830141
399.095588803
399.960858607
399.972988558
399.584830141
399.568656874
399.111762071
399.536310339
399.520137072
399.516093755
399.516093755
399.548440289
399.095588803
399.499920487
399.516093755
399.552483606
399.095588803
399.977031875
399.516093755
399.144108605
399.127935338
399.091545486
399.536310339
399.107718754
399.107718754
399.552483606
399.536310339
399.536310339
399.552483606
399.107718754
399.536310339
399.584830141
399.993205142
399.972988558
399.095588803
399.520137072
399.568656874
399.568656874
399.107718754
399.972988558
399.536310339
399.503963804
399.568656874
399.548440289

Average distance is : 399.482 cm
Average deviation is : 0.265 cm
Block: 3
======================================
399.499920487
399.568656874
399.503963804
399.972988558
399.924468756
399.503963804
399.520137072
399.940642023
399.94468534
399.940642023
399.516093755
399.972988558
399.95681529
399.95681529
399.503963804
399.536310339
399.520137072
399.94468534
399.520137072
399.960858607
399.908295488
399.48374722
399.977031875
399.503963804
399.960858607
399.499920487
399.499920487
399.924468756
399.924468756
399.940642023
399.516093755
399.94468534
399.48374722
399.467573953
399.48374722
400.365190291
399.95681529
399.95681529
399.940642023
400.365190291
399.95681529
400.365190291
400.365190291
400.365190291
399.924468756
400.365190291
400.349017024
400.365190291
400.369233608
400.349017024

Average distance is : 399.872 cm
Average deviation is : 0.317 cm
Block: 4
======================================
400.397536826
400.349017024
399.940642023
399.940642023
399.904252172
399.940642023
400.369233608
399.977031875
399.977031875
399.940642023
399.940642023
400.365190291
399.94468534
399.924468756
399.904252172
400.381363559
399.940642023
400.349017024
400.344973707
399.520137072
400.316670489
399.924468756
399.095588803
399.503963804
399.940642023
399.940642023
399.499920487
399.960858607
399.467573953
399.924468756
399.536310339
399.908295488
399.48374722
399.415010834
399.48374722
399.908295488
399.520137072
399.940642023
399.924468756
399.516093755
399.924468756
399.516093755
399.924468756
399.467573953
399.924468756
399.520137072
399.960858607
399.48374722
399.536310339
399.960858607

Average distance is : 399.856 cm
Average deviation is : 0.310 cm
Block: 5
======================================
399.924468756
399.940642023
400.741218758
399.960858607
399.48374722
399.48374722
400.349017024
399.95681529
399.924468756
399.924468756
399.960858607
399.940642023
399.091545486
399.924468756
399.499920487
399.499920487
399.924468756
399.960858607
399.516093755
399.977031875
399.503963804
399.940642023
399.960858607
399.94468534
399.960858607
399.584830141
399.520137072
399.977031875
399.924468756
399.520137072
399.520137072
399.940642023
399.95681529
399.520137072
399.908295488
399.536310339
399.552483606
399.924468756
399.520137072
399.516093755
399.568656874
399.95681529
399.568656874
399.075372219
399.548440289
399.075372219
399.532267022
399.079415536
399.552483606
399.532267022

Average distance is : 399.724 cm
Average deviation is : 0.320 cm
Block: 6
======================================
399.552483606
399.499920487
399.107718754
399.075372219
399.516093755
399.059198952
399.536310339
399.059198952
398.638694
399.095588803
399.499920487
399.503963804
399.095588803
399.520137072
398.634650683
398.666997218
399.095588803
399.48374722
399.520137072
399.48374722
399.516093755
399.059198952
399.532267022
399.536310339
399.451400685
399.520137072
399.516093755
399.503963804
399.499920487
399.499920487
399.059198952
399.548440289
399.892122221
398.905552912
399.532267022
399.532267022
399.552483606
399.536310339
399.95681529
399.924468756
399.568656874
399.552483606
399.924468756
399.536310339
399.499920487
399.499920487
399.960858607
399.95681529
399.908295488
399.499920487

Average distance is : 399.433 cm
Average deviation is : 0.327 cm
Block: 7
======================================
399.48374722
399.924468756
400.397536826
400.365190291
400.369233608
399.516093755
400.41775341
400.397536826
400.381363559
400.365190291
400.397536826
400.41775341
400.401580143
400.401580143
399.940642023
399.960858607
400.401580143
400.401580143
400.401580143
400.397536826
399.95681529
399.532267022
400.413710093
400.433926678
400.397536826
399.993205142
400.41775341
400.397536826
400.397536826
400.381363559
400.397536826
400.397536826
400.539052916
399.960858607
399.977031875
399.532267022
399.536310339
399.972988558
400.41775341
399.960858607
400.009378409
400.025551677
399.989161825
399.993205142
400.450099945
399.993205142
400.450099945
400.429883361
400.41775341
400.41775341

Average distance is : 400.199 cm
Average deviation is : 0.300 cm
Block: 8
======================================
399.552483606
400.454143262
399.977031875
399.568656874
400.009378409
400.025551677
399.977031875
400.009378409
399.993205142
400.009378409
399.993205142
399.127935338
399.568656874
399.127935338
399.127935338
399.552483606
399.568656874
399.977031875
400.009378409
399.568656874
399.960858607
399.993205142
399.972988558
399.95681529
399.584830141
399.548440289
399.532267022
399.536310339
399.111762071
399.552483606
399.552483606
399.536310339
399.977031875
399.520137072
399.568656874
399.536310339
399.568656874
399.532267022
399.552483606
399.548440289
399.520137072
399.552483606
399.532267022
399.536310339
399.548440289
399.568656874
399.095588803
399.148151922
399.584830141
398.634650683

Average distance is : 399.631 cm
Average deviation is : 0.330 cm
Block: 9
======================================
399.568656874
399.584830141
399.552483606
399.548440289
399.095588803
399.091545486
399.568656874
399.552483606
398.666997218
399.972988558
399.568656874
399.091545486
399.532267022
399.552483606
399.584830141
399.144108605
399.552483606
399.499920487
399.111762071
399.536310339
399.552483606
399.111762071
399.111762071
399.536310339
399.536310339
399.568656874
399.516093755
399.532267022
399.111762071
399.548440289
399.095588803
398.687213802
399.516093755
399.516093755
399.532267022
399.111762071
399.516093755
399.568656874
399.516093755
399.536310339
399.111762071
399.552483606
399.568656874
399.095588803
399.091545486
399.532267022
399.091545486
399.127935338
399.516093755
399.499920487

Average distance is : 399.386 cm
Average deviation is : 0.261 cm
Block: 10
======================================
399.059198952
399.520137072
399.536310339
399.503963804
399.536310339
399.499920487
399.516093755
399.536310339
399.516093755
399.552483606
399.520137072
399.536310339
399.924468756
399.095588803
399.977031875
399.503963804
399.924468756
399.520137072
399.892122221
399.960858607
399.94468534
399.960858607
399.95681529
399.94468534
399.499920487
399.499920487
399.940642023
399.48374722
399.977031875
399.503963804
399.977031875
399.924468756
400.365190291
400.365190291
399.95681529
400.381363559
399.94468534
400.349017024
400.365190291
399.977031875
399.499920487
400.349017024
399.499920487
399.908295488
399.95681529
400.349017024
400.381363559
400.385406876
399.94468534
400.365190291

Average distance is : 399.832 cm
Average deviation is : 0.355 cm