
Block: 1
======================================
401.26280663
401.283023214
401.283023214
400.805911827
401.719701433
401.299196482
402.160422969
403.02973609
401.72374475
400.858474946
402.164466286
401.278979897
403.858616042
400.826128411
401.283023214
402.144249701
401.26280663
400.805911827
400.805911827
402.56879797
401.719701433
400.805911827
400.809955144
401.283023214
401.26280663
401.719701433
401.266849947
400.822085094
400.822085094
401.278979897
400.805911827
401.671181631
400.805911827
403.401721239
401.671181631
401.655008364
401.671181631
401.230460095
400.78973856
401.230460095
401.214286828
402.111903167
401.687354898
401.214286828
401.230460095
401.230460095
403.789879656
402.552624702
401.230460095
402.111903167
402.111903167
401.230460095
400.78973856
401.230460095
401.719701433
401.246633363
401.230460095
401.230460095
401.230460095
400.365190291
401.687354898
401.707571483
400.365190291
404.671322727
401.691398215
401.707571483
400.838258362
401.26280663
400.401580143
401.266849947
400.78973856
401.26280663
401.283023214
401.26280663
400.365190291

Block: 2
======================================
399.972988558
399.960858607
400.41775341
399.993205142
399.960858607
400.858474946
400.838258362
399.977031875
401.26280663
402.960999703
400.842301679
400.433926678
400.854431629
400.454143262
400.413710093
400.009378409
400.41775341
400.874648213
399.95681529
399.993205142
399.977031875
399.989161825
399.977031875
402.144249701
400.41775341
402.552624702
399.993205142
400.413710093
399.972988558
399.977031875
399.972988558
402.148293018
399.977031875
401.687354898
399.95681529
399.536310339
402.111903167
400.413710093
401.687354898
401.283023214
2796.07893846
400.450099945
399.552483606
400.858474946
400.009378409
399.977031875
400.41775341
400.41775341
400.874648213
400.874648213
400.429883361
400.009378409
403.013562822
400.413710093
400.433926678
400.890821481
400.874648213
401.756091285
400.874648213
400.874648213
402.19681282
400.874648213
400.433926678
400.433926678
400.874648213
401.315369749
400.890821481
400.450099945
401.315369749
399.972988558
401.331543016
401.315369749
400.874648213
400.397536826
400.858474946

Block: 3
======================================
402.212986088
402.212986088
401.347716284
401.756091285
402.229159355
401.756091285
404.756232381
401.739918017
401.331543016
401.315369749
401.299196482
401.756091285
401.347716284
401.331543016
401.739918017
401.299196482
403.911179161
401.315369749
402.217029405
401.315369749
401.299196482
402.180639553
403.062082624
401.315369749
402.212986088
401.331543016
401.331543016
401.315369749
401.315369749
402.621361089
400.890821481
400.874648213
401.315369749
400.890821481
401.315369749
400.874648213
401.315369749
400.894864798
401.739918017
400.858474946
400.874648213
400.858474946
401.72374475
401.739918017
400.874648213
401.299196482
402.180639553
401.283023214
402.180639553
402.180639553
401.739918017
402.160422969
403.045909357
401.315369749
402.180639553
402.164466286
401.72374475
401.739918017
403.02973609
401.756091285
401.739918017
401.756091285
401.703528166
402.164466286
403.470457625
402.180639553
401.295153165
402.180639553
401.72374475
401.72374475
402.605187821
402.180639553
401.72374475
402.589014554
402.164466286

Block: 4
======================================
402.180639553
401.739918017
401.72374475
401.72374475
401.703528166
401.703528166
401.739918017
403.450241041
401.299196482
401.719701433
401.26280663
401.283023214
401.72374475
403.450241041
401.703528166
402.180639553
402.160422969
402.993346238
402.128076434
401.72374475
402.180639553
403.858616042
401.72374475
401.315369749
401.703528166
403.02973609
401.315369749
401.315369749
401.72374475
402.164466286
401.283023214
402.584971237
401.739918017
401.315369749
401.719701433
401.299196482
401.315369749
402.160422969
402.19681282
403.454284358
401.72374475
403.470457625
401.299196482
401.315369749
402.993346238
400.858474946
400.890821481
401.319413066
400.874648213
400.858474946
401.347716284
400.890821481
400.433926678
400.890821481
400.874648213
401.756091285
401.315369749
400.858474946
401.739918017
401.315369749
400.874648213
401.299196482
401.735874701
400.874648213
401.756091285
401.315369749
401.283023214
401.719701433
403.013562822
401.278979897
401.266849947
403.009519506
401.278979897
401.266849947
401.707571483

Block: 5
======================================
401.283023214
401.687354898
401.26280663
401.278979897
402.584971237
403.02973609
401.283023214
401.299196482
402.148293018
402.144249701
401.266849947
402.584971237
401.719701433
403.009519506
401.707571483
401.719701433
401.739918017
402.148293018
401.283023214
403.87478931
402.164466286
402.160422969
402.164466286
402.180639553
403.842442775
401.266849947
401.739918017
402.144249701
400.826128411
401.687354898
400.842301679
402.144249701
402.164466286
402.176596236
401.283023214
401.299196482
400.858474946
400.842301679
400.842301679
401.719701433
401.72374475
400.842301679
401.278979897
400.826128411
403.434067774
401.26280663
403.013562822
401.703528166
401.707571483
400.870604897
401.283023214
401.283023214
400.874648213
400.842301679
401.295153165
401.266849947
401.295153165
401.299196482
402.164466286
401.26280663
401.72374475
401.735874701
400.822085094
401.719701433
401.72374475
401.266849947
401.278979897
401.739918017
400.822085094
401.26280663
401.703528166
401.687354898
401.707571483
402.144249701
401.703528166

Block: 6
======================================
402.993346238
403.009519506
402.281722474
403.470457625
403.02973609
403.009519506
402.128076434
402.144249701
403.486630893
402.180639553
402.148293018
405.148434114
402.589014554
403.450241041
402.584971237
404.74410243
402.56879797
402.144249701
403.045909357
404.299337578
402.601144505
402.164466286
403.02973609
402.180639553
401.756091285
403.045909357
401.739918017
402.621361089
402.19681282
403.062082624
402.621361089
401.756091285
402.19681282
401.756091285
402.637534356
401.772264552
401.331543016
401.788437819
403.045909357
401.331543016
402.19681282
402.19681282
401.315369749
402.180639553
401.315369749
401.331543016
401.756091285
401.331543016
402.212986088
401.315369749
402.637534356
401.315369749
401.315369749
401.331543016
401.772264552
401.347716284
401.788437819
402.233202672
401.772264552
402.229159355
401.351759601
400.894864798
402.229159355
402.212986088
401.315369749
403.927352428
401.347716284
401.739918017
402.637534356
401.315369749
402.621361089
402.621361089
401.315369749
401.299196482
402.19681282

Block: 7
======================================
402.605187821
402.673924208
402.180639553
402.637534356
401.739918017
401.299196482
401.756091285
401.756091285
402.19681282
402.19681282
401.756091285
402.65775094
402.637534356
401.772264552
402.212986088
402.233202672
402.212986088
402.212986088
402.19681282
402.212986088
402.229159355
401.72374475
402.19681282
401.756091285
402.180639553
401.739918017
401.772264552
402.641577673
403.907135844
402.621361089
401.756091285
401.756091285
402.19681282
401.72374475
401.719701433
401.72374475
401.719701433
402.180639553
402.180639553
402.621361089
401.739918017
403.470457625
402.19681282
401.335586333
401.739918017
402.180639553
401.756091285
401.335586333
402.180639553
402.212986088
402.200856137
401.756091285
400.890821481
400.890821481
401.331543016
400.874648213
401.315369749
401.315369749
401.315369749
402.212986088
400.890821481
402.180639553
402.212986088
401.776307869
402.19681282
401.295153165
401.756091285
402.217029405
400.874648213
403.486630893
401.347716284
400.874648213
401.331543016
400.890821481
402.212986088

Block: 8
======================================
403.062082624
400.894864798
400.470316529
400.874648213
401.347716284
401.335586333
401.315369749
400.890821481
401.772264552
401.347716284
401.335586333
401.331543016
400.48244648
400.874648213
401.331543016
400.466273212
400.890821481
400.894864798
400.911038065
400.911038065
401.335586333
400.911038065
400.890821481
400.466273212
400.450099945
400.48244648
400.911038065
400.911038065
400.470316529
400.466273212
400.906994748
400.906994748
400.045768261
400.470316529
402.180639553
400.470316529
400.450099945
400.433926678
401.772264552
401.347716284
401.331543016
400.890821481
401.315369749
400.48244648
401.347716284
400.890821481
400.870604897
401.331543016
400.906994748
401.331543016
400.874648213
400.874648213
401.772264552
401.739918017
401.772264552
400.874648213
401.756091285
400.874648213
400.874648213
401.72374475
401.315369749
400.858474946
401.278979897
401.315369749
400.842301679
400.842301679
401.299196482
400.874648213
400.822085094
401.719701433
401.299196482
400.858474946
401.315369749
400.858474946
400.842301679

Block: 9
======================================
400.433926678
401.246633363
400.826128411
401.266849947
401.299196482
402.128076434
401.283023214
400.397536826
400.826128411
400.838258362
400.822085094
400.822085094
401.707571483
401.299196482
400.842301679
400.805911827
401.283023214
400.838258362
401.283023214
400.822085094
402.552624702
400.805911827
401.283023214
400.842301679
400.349017024
400.365190291
400.381363559
400.805911827
402.128076434
401.671181631
400.349017024
400.369233608
400.369233608
400.381363559
401.671181631
401.246633363
400.385406876
401.671181631
401.691398215
400.809955144
400.805911827
400.809955144
401.655008364
401.26280663
401.687354898
402.115946484
401.230460095
400.826128411
401.25067668
400.826128411
401.210243511
401.230460095
400.826128411
402.132119751
400.78973856
400.773565292
403.826269507
400.805911827
401.671181631
401.230460095
401.671181631
401.691398215
401.655008364
401.650965047
402.536451435
402.095729899
401.198113561
401.230460095
401.214286828
401.246633363
401.214286828
401.230460095
401.210243511
402.536451435
401.214286828

Block: 10
======================================
401.230460095
401.703528166
402.56879797
401.707571483
401.675224948
401.230460095
401.25067668
403.842442775
402.552624702
401.246633363
402.111903167
401.25067668
402.572841287
402.128076434
402.111903167
401.671181631
401.675224948
402.115946484
402.128076434
402.111903167
402.095729899
402.115946484
401.230460095
401.687354898
403.842442775
401.675224948
402.128076434
402.56879797
401.756091285
402.095729899
402.552624702
403.417894506
402.993346238
402.556668019
404.266991043
404.262947726
404.250817776
403.417894506
406.761717534
403.842442775
404.723885846
402.977172971
402.572841287
402.589014554
402.552624702
402.111903167
403.434067774
402.993346238
402.148293018
402.132119751
401.671181631
401.266849947
402.56879797
403.385547972
400.826128411
402.128076434
400.826128411
401.283023214
403.858616042
401.72374475
405.11608758
404.266991043
402.132119751
402.584971237
400.826128411
401.26280663
401.278979897
401.72374475
400.842301679
400.842301679
401.26280663
400.805911827
400.826128411
402.56879797
400.822085094
