
Block: 1
======================================
402.605187821
401.26280663
401.26280663
401.266849947
401.72374475
401.295153165
401.266849947
402.164466286
401.26280663
402.164466286
401.756091285
402.148293018
401.266849947
403.009519506
401.278979897
401.246633363
401.266849947
402.589014554
401.278979897
401.739918017
401.283023214
401.246633363
401.278979897
402.148293018
401.719701433

Block: 2
======================================
401.739918017
402.589014554
401.703528166
402.148293018
402.132119751
401.72374475
401.719701433
402.584971237
401.266849947
401.719701433
402.144249701
401.691398215
401.266849947
401.72374475
401.687354898
400.822085094
401.703528166
401.230460095
400.809955144
401.266849947
400.785695243
402.556668019
401.266849947
400.838258362
400.805911827

Block: 3
======================================
401.214286828
401.246633363
402.536451435
401.687354898
401.671181631
401.671181631
402.132119751
402.111903167
402.111903167
401.671181631
401.246633363
401.671181631
401.671181631
401.687354898
401.691398215
401.671181631
402.536451435
401.214286828
401.230460095
403.826269507
401.671181631
401.671181631
401.655008364
401.246633363
401.230460095

Block: 4
======================================
401.687354898
401.214286828
401.214286828
402.095729899
401.230460095
401.687354898
403.822226191
401.230460095
402.095729899
402.132119751
401.246633363
401.26280663
401.687354898
401.691398215
400.842301679
400.822085094
401.283023214
400.822085094
400.838258362
400.826128411
400.822085094
401.26280663
401.72374475
400.805911827
401.266849947

Block: 5
======================================
400.41775341
400.397536826
400.381363559
400.433926678
400.450099945
401.299196482
400.874648213
400.874648213
400.874648213
401.315369749
400.433926678
401.347716284
400.41775341
401.299196482
400.842301679
401.315369749
401.315369749
403.466414309
401.756091285
400.450099945
399.993205142
400.858474946
401.315369749
401.315369749
399.993205142

Block: 6
======================================
400.025551677
400.009378409
400.890821481
401.367932868
401.351759601
400.890821481
403.486630893
400.450099945
400.433926678
402.637534356
400.466273212
400.874648213
400.433926678
401.335586333
401.347716284
400.450099945
400.911038065
401.772264552
400.466273212
400.874648213
401.347716284
401.772264552
400.911038065
400.894864798
400.906994748

Block: 7
======================================
402.212986088
401.347716284
402.229159355
401.331543016
400.890821481
401.335586333
401.788437819
401.756091285
401.756091285
401.792481136
400.894864798
401.347716284
401.788437819
401.756091285
403.082299209
402.249375939
401.772264552
401.772264552
401.335586333
400.858474946
401.687354898
400.890821481
400.890821481
403.50280416
401.335586333

Block: 8
======================================
400.854431629
401.315369749
400.890821481
400.874648213
401.315369749
401.315369749
401.283023214
401.335586333
401.315369749
400.890821481
400.890821481
400.890821481
400.874648213
400.890821481
401.315369749
400.874648213
401.315369749
401.315369749
401.299196482
400.41775341
401.315369749
401.335586333
401.299196482
400.858474946
400.433926678

Block: 9
======================================
400.838258362
401.246633363
400.805911827
400.858474946
401.299196482
400.842301679
403.454284358
400.842301679
401.703528166
400.842301679
402.160422969
400.842301679
401.735874701
401.283023214
400.838258362
401.299196482
401.299196482
401.299196482
402.148293018
400.858474946
400.401580143
400.365190291
400.858474946
402.572841287
401.278979897

Block: 10
======================================
400.369233608
400.332843757
405.524462581
400.344973707
400.773565292
402.079556632
405.095870996
404.691539311
400.757392025
400.349017024
403.878832626
405.132260847
400.769521976
405.148434114
405.112044263
407.166049218
2790.09482954
405.148434114
401.198113561
401.214286828
404.707712579
405.112044263
401.198113561
407.182222486
404.262947726
