
Block: 1
======================================
301.967714548
300.622203159
301.101871872
301.081546926
301.118131828
300.638463116
300.642528105
300.658788061
300.638463116
301.06528697
301.097806883
300.723827887
301.085611916
300.691307974
301.081546926
301.06528697
301.081546926
301.081546926
301.085611916
300.638463116
301.06528697
301.081546926
301.150651741
301.524630737
301.540890694
300.654723072
300.638463116
301.097806883
301.150651741
301.081546926
300.622203159
301.170976686
301.524630737
301.150651741
301.06528697
301.101871872
300.638463116
301.097806883
301.134391785
300.642528105
301.544955683
301.508370781
300.622203159
300.638463116
301.524630737
301.150651741
301.967714548
301.508370781
300.622203159
301.492110825
300.642528105
301.134391785
300.622203159
300.642528105
300.675048018
301.166911697
300.622203159
301.134391785
300.638463116
301.544955683
300.654723072
300.691307974
300.638463116
300.642528105
300.642528105
301.134391785
300.622203159
301.101871872
300.687242985
301.544955683
300.654723072
301.150651741
301.06528697
301.081546926
301.544955683
300.622203159
300.622203159
300.638463116
301.081546926
300.638463116
300.642528105
300.622203159
300.638463116
300.638463116
301.06528697
300.691307974
300.658788061
301.150651741
300.675048018
300.605943203
300.70756793
300.654723072
300.642528105
300.622203159
300.723827887
300.687242985
300.622203159
300.622203159
300.622203159
301.085611916

Average distance is : 300.935 cm
Average deviation is : 0.339 cm
Block: 2
======================================
300.622203159
301.06528697
300.638463116
300.638463116
301.134391785
300.605943203
300.622203159
300.622203159
300.654723072
300.622203159
300.605943203
300.703502941
300.638463116
300.622203159
300.622203159
300.622203159
300.601878214
300.605943203
301.101871872
301.101871872
300.622203159
300.70756793
300.622203159
301.06528697
301.508370781
300.622203159
301.524630737
300.622203159
301.951454592
301.06528697
300.691307974
301.134391785
300.622203159
301.508370781
300.605943203
300.691307974
301.492110825
301.049027014
300.605943203
300.61813817
301.134391785
301.508370781
300.622203159
300.70756793
300.638463116
301.049027014
301.508370781
301.06528697
301.508370781
301.101871872
301.508370781
301.528695726
301.524630737
301.524630737
300.638463116
300.687242985
300.622203159
301.524630737
300.654723072
301.081546926
300.622203159
301.081546926
301.508370781
301.032767057
300.70756793
300.622203159
300.622203159
300.70756793
301.081546926
301.508370781
300.638463116
300.638463116
300.622203159
300.622203159
300.605943203
300.642528105
300.622203159
300.675048018
301.528695726
300.622203159
300.638463116
301.081546926
301.134391785
301.06528697
301.508370781
300.605943203
300.622203159
300.638463116
301.508370781
300.622203159
301.134391785
300.638463116
300.622203159
300.622203159
300.605943203
300.642528105
300.622203159
300.638463116
300.638463116
300.622203159

Average distance is : 300.888 cm
Average deviation is : 0.357 cm
Block: 3
======================================
301.097806883
301.55715065
301.081546926
300.675048018
300.622203159
301.134391785
301.081546926
301.081546926
300.622203159
300.622203159
301.06528697
301.06528697
301.081546926
300.622203159
301.081546926
301.081546926
300.601878214
301.06528697
300.70756793
301.524630737
300.622203159
301.081546926
301.085611916
300.622203159
301.081546926
301.085611916
300.70756793
301.085611916
301.101871872
300.638463116
300.658788061
301.524630737
300.675048018
301.101871872
301.528695726
301.081546926
300.622203159
301.524630737
301.544955683
300.638463116
301.609995508
301.081546926
301.081546926
301.081546926
301.081546926
301.544955683
300.691307974
300.658788061
301.118131828
301.150651741
300.622203159
301.101871872
301.081546926
301.06528697
301.114066839
300.48399353
301.524630737
301.06528697
301.528695726
301.528695726
301.101871872
300.654723072
300.723827887
300.642528105
300.622203159
300.675048018
301.540890694
301.081546926
300.638463116
301.540890694
300.658788061
301.540890694
300.658788061
301.540890694
301.085611916
301.540890694
300.658788061
301.06528697
300.638463116
300.642528105
300.642528105
300.654723072
301.097806883
301.988039494
300.654723072
301.114066839
300.622203159
300.642528105
300.638463116
300.638463116
300.638463116
301.097806883
300.727892876
301.081546926
301.081546926
300.654723072
300.638463116
301.544955683
301.166911697
300.658788061

Average distance is : 300.989 cm
Average deviation is : 0.342 cm
Block: 4
======================================
300.670983028
301.085611916
301.114066839
301.983974504
301.130326796
300.723827887
300.675048018
300.658788061
300.70756793
300.658788061
300.740087843
301.166911697
300.670983028
301.183171654
301.081546926
300.670983028
301.540890694
301.097806883
301.118131828
301.561215639
301.187236643
300.658788061
301.166911697
301.06528697
301.55715065
301.097806883
301.118131828
300.744152832
301.55715065
300.654723072
301.544955683
300.670983028
301.097806883
300.658788061
300.723827887
300.723827887
300.675048018
301.540890694
300.654723072
301.150651741
300.723827887
300.670983028
300.675048018
300.658788061
300.691307974
300.70756793
301.097806883
300.740087843
300.740087843
301.097806883
301.55715065
301.544955683
300.675048018
301.081546926
300.675048018
301.118131828
300.723827887
300.654723072
301.561215639
301.528695726
301.561215639
301.577475595
301.097806883
300.658788061
300.642528105
301.561215639
300.654723072
300.638463116
301.540890694
301.081546926
301.097806883
301.101871872
301.561215639
301.524630737
301.085611916
300.727892876
301.118131828
301.609995508
301.097806883
301.540890694
301.114066839
301.081546926
301.085611916
301.101871872
300.638463116
300.691307974
301.540890694
300.638463116
301.081546926
301.081546926
301.118131828
301.118131828
300.642528105
300.638463116
301.561215639
301.114066839
300.740087843
300.723827887
300.740087843
300.654723072

Average distance is : 301.020 cm
Average deviation is : 0.348 cm
Block: 5
======================================
301.118131828
301.097806883
301.561215639
301.561215639
301.561215639
301.118131828
300.687242985
301.577475595
301.118131828
301.540890694
300.740087843
300.675048018
301.134391785
300.654723072
300.654723072
300.654723072
301.134391785
300.675048018
300.675048018
300.675048018
300.723827887
301.097806883
300.675048018
301.55715065
300.691307974
301.097806883
301.134391785
300.670983028
300.723827887
300.654723072
300.675048018
300.691307974
300.675048018
300.675048018
300.654723072
300.70756793
300.658788061
300.70756793
301.081546926
300.723827887
300.675048018
300.723827887
301.166911697
300.70756793
300.691307974
300.691307974
301.085611916
301.55715065
300.658788061
301.540890694
300.638463116
300.638463116
300.638463116
300.654723072
300.691307974
300.658788061
300.70756793
301.593735552
300.654723072
300.723827887
300.723827887
300.670983028
300.675048018
300.654723072
300.654723072
300.658788061
300.638463116
300.654723072
300.70756793
301.097806883
300.654723072
301.081546926
301.187236643
301.097806883
300.654723072
300.723827887
300.670983028
301.097806883
300.687242985
300.622203159
301.524630737
300.670983028
300.638463116
300.70756793
301.540890694
301.544955683
300.687242985
301.081546926
300.70756793
301.097806883
300.638463116
300.654723072
301.085611916
300.638463116
301.540890694
300.622203159
300.70756793
300.70756793
301.044962025
300.691307974

Average distance is : 300.881 cm
Average deviation is : 0.314 cm
Block: 6
======================================
301.561215639
301.508370781
300.654723072
300.70756793
300.638463116
300.70756793
301.150651741
301.150651741
300.654723072
300.70756793
300.70756793
301.540890694
301.524630737
300.70756793
301.524630737
301.085611916
301.06528697
300.691307974
301.097806883
300.654723072
301.081546926
300.691307974
300.638463116
300.638463116
301.081546926
300.70756793
300.687242985
300.638463116
300.691307974
300.642528105
301.561215639
300.654723072
300.654723072
300.70756793
300.658788061
300.622203159
300.654723072
301.524630737
301.085611916
300.622203159
301.101871872
300.622203159
301.06528697
301.081546926
301.06528697
301.06528697
301.097806883
301.081546926
300.622203159
300.622203159
301.06528697
301.081546926
301.081546926
300.638463116
300.622203159
300.691307974
300.638463116
300.740087843
301.06528697
301.081546926
301.150651741
301.06528697
301.097806883
301.081546926
300.605943203
300.638463116
300.638463116
300.622203159
300.605943203
300.658788061
301.101871872
300.723827887
300.622203159
301.081546926
301.55715065
300.622203159
300.638463116
300.658788061
300.622203159
300.687242985
301.544955683
301.085611916
301.081546926
301.081546926
301.097806883
300.601878214
301.524630737
301.06528697
300.638463116
301.101871872
300.638463116
301.150651741
301.06528697
300.622203159
301.540890694
301.524630737
301.508370781
301.081546926
300.638463116
301.081546926

Average distance is : 300.926 cm
Average deviation is : 0.311 cm
Block: 7
======================================
301.085611916
301.081546926
301.081546926
300.670983028
300.654723072
300.622203159
301.06528697
300.638463116
300.70756793
301.081546926
301.081546926
301.085611916
301.544955683
301.081546926
300.622203159
301.06528697
300.670983028
301.081546926
301.06528697
301.06528697
301.06528697
301.081546926
301.081546926
300.638463116
300.638463116
300.670983028
300.654723072
301.081546926
301.069351959
300.691307974
301.540890694
301.06528697
301.06528697
301.081546926
300.638463116
301.097806883
301.081546926
300.638463116
300.622203159
300.642528105
300.622203159
301.150651741
300.605943203
300.622203159
301.101871872
300.622203159
300.658788061
300.605943203
301.528695726
300.687242985
300.605943203
300.638463116
301.183171654
301.524630737
300.622203159
301.06528697
300.691307974
301.081546926
301.081546926
300.61813817
301.085611916
300.658788061
300.622203159
300.622203159
300.622203159
300.654723072
300.622203159
301.081546926
301.118131828
301.081546926
301.492110825
301.097806883
300.601878214
300.622203159
301.097806883
301.081546926
301.049027014
301.081546926
301.06528697
301.06528697
301.06528697
301.06528697
301.524630737
301.085611916
300.605943203
301.06528697
301.081546926
300.638463116
300.605943203
300.622203159
300.638463116
301.081546926
301.081546926
301.085611916
300.622203159
301.081546926
301.101871872
300.622203159
301.06528697
300.691307974

Average distance is : 300.914 cm
Average deviation is : 0.267 cm
Block: 8
======================================
301.081546926
301.06528697
301.081546926
301.06528697
301.524630737
300.622203159
300.605943203
301.51243577
301.06528697
300.622203159
301.06528697
301.06528697
300.622203159
301.097806883
300.642528105
301.049027014
300.638463116
301.06528697
300.589683247
301.081546926
301.06528697
300.601878214
300.70756793
301.134391785
301.06528697
300.70756793
301.049027014
301.971779537
301.081546926
301.540890694
300.638463116
301.06528697
300.691307974
300.638463116
300.70756793
300.622203159
300.658788061
301.081546926
300.70756793
300.638463116
301.524630737
300.638463116
301.524630737
300.687242985
301.540890694
301.540890694
301.081546926
301.540890694
301.544955683
301.081546926
300.622203159
301.081546926
301.081546926
301.101871872
301.524630737
301.114066839
300.638463116
300.638463116
300.723827887
300.638463116
300.691307974
300.691307974
301.528695726
300.654723072
300.622203159
300.670983028
300.638463116
300.703502941
300.622203159
301.544955683
301.097806883
301.528695726
301.081546926
300.638463116
300.723827887
301.081546926
301.524630737
301.081546926
301.540890694
300.658788061
301.06528697
301.561215639
300.642528105
300.723827887
301.524630737
300.70756793
301.55715065
301.150651741
301.528695726
300.622203159
300.642528105
300.675048018
300.658788061
300.622203159
301.081546926
301.118131828
301.55715065
301.544955683
301.081546926
301.540890694

Average distance is : 301.003 cm
Average deviation is : 0.359 cm
Block: 9
======================================
300.61813817
300.638463116
301.508370781
300.70756793
301.170976686
300.638463116
301.524630737
300.638463116
300.658788061
301.524630737
301.544955683
301.081546926
300.658788061
301.524630737
301.150651741
301.540890694
301.508370781
300.638463116
300.654723072
301.170976686
303.268511057
301.524630737
301.081546926
300.658788061
301.528695726
300.638463116
301.085611916
301.544955683
301.044962025
300.691307974
301.06528697
301.540890694
301.540890694
300.638463116
300.654723072
300.654723072
300.654723072
300.658788061
301.55715065
301.069351959
301.085611916
301.06528697
300.638463116
300.654723072
301.528695726
301.540890694
300.654723072
300.675048018
301.203496599
301.085611916
300.638463116
301.118131828
300.654723072
300.658788061
300.638463116
301.524630737
300.654723072
300.654723072
300.723827887
301.609995508
301.097806883
301.150651741
301.085611916
300.658788061
300.638463116
300.670983028
301.134391785
301.114066839
301.081546926
301.577475595
300.675048018
301.577475595
301.540890694
300.622203159
300.70756793
301.540890694
300.670983028
301.170976686
300.638463116
301.540890694
300.654723072
300.654723072
300.658788061
301.081546926
301.097806883
301.101871872
300.658788061
301.081546926
301.101871872
300.756347799
301.101871872
301.114066839
300.687242985
300.654723072
300.675048018
301.118131828
301.097806883
301.114066839
300.654723072
301.101871872

Average distance is : 301.023 cm
Average deviation is : 0.417 cm
Block: 10
======================================
301.561215639
301.540890694
301.561215639
300.654723072
300.70756793
300.723827887
300.658788061
300.675048018
301.130326796
300.70756793
300.670983028
300.670983028
300.670983028
301.19943161
300.670983028
300.723827887
300.638463116
300.675048018
300.658788061
300.675048018
300.654723072
301.118131828
301.544955683
300.658788061
300.638463116
301.55715065
301.081546926
300.670983028
301.118131828
301.097806883
301.118131828
301.097806883
300.654723072
300.670983028
300.654723072
301.561215639
301.085611916
300.658788061
300.658788061
301.118131828
300.723827887
301.561215639
300.723827887
300.675048018
300.70756793
301.012442112
301.081546926
301.081546926
301.183171654
301.55715065
301.544955683
300.727892876
300.654723072
301.187236643
301.101871872
300.654723072
301.183171654
300.654723072
301.540890694
301.081546926
300.670983028
301.544955683
301.561215639
301.118131828
300.723827887
300.675048018
301.544955683
301.06528697
301.114066839
300.658788061
300.723827887
301.097806883
301.101871872
301.097806883
300.638463116
301.097806883
301.101871872
301.097806883
301.097806883
301.097806883
301.540890694
301.097806883
301.544955683
301.561215639
300.675048018
300.727892876
300.723827887
301.55715065
301.06528697
301.544955683
301.150651741
300.638463116
301.183171654
300.70756793
301.118131828
300.670983028
300.670983028
301.081546926
301.097806883
301.06528697

Average distance is : 300.995 cm
Average deviation is : 0.328 cm