
Block: 1
======================================
401.384106135
400.959557867
403.927352428
401.432625937
400.927211332
400.9433846
400.567356133
400.975731134
400.991904402
401.41645267

Block: 2
======================================
401.469015789
401.469015789
401.028294253
400.63609252
400.619919252
401.469015789
400.619919252
401.044467521
400.623962569
401.873347473

Block: 3
======================================
401.080857372
400.668439054
401.076814055
400.603745985
401.060640788
400.652265787
400.619919252
400.603745985
401.080857372
401.060640788

Block: 4
======================================
401.909737325
401.044467521
400.619919252
400.603745985
400.63609252
401.469015789
401.469015789
401.485189056
401.008077669
401.044467521

Block: 5
======================================
400.163024449
400.619919252
400.603745985
400.619919252
402.770963812
401.040424204
400.142807865
400.583529401
400.603745985
401.893564057

Block: 6
======================================
400.603745985
401.044467521
401.452842522
400.587572718
401.028294253
401.028294253
401.044467521
401.044467521
401.432625937
401.008077669

Block: 7
======================================
400.603745985
401.040424204
401.448799205
400.991904402
401.889520741
401.464972472
401.028294253
401.008077669
400.57139945
401.889520741

Block: 8
======================================
400.979774451
403.130819011
401.436669254
401.012120986
400.991904402
402.301939058
400.975731134
401.028294253
401.452842522
400.975731134

Block: 9
======================================
401.873347473
400.995947719
400.975731134
402.706270742
401.893564057
403.163165545
400.991904402
401.893564057
401.024250937
401.41645267

Block: 10
======================================
401.873347473
400.555226183
401.87739079
400.991904402
404.400420499
401.008077669
400.991904402
401.448799205
401.448799205
401.432625937

Block: 1
======================================
403.81009624
403.385547972
403.353201437
2801.42420332
402.944826436
402.944826436
402.944826436
2798.04803376
402.079556632
402.960999703

Block: 2
======================================
401.266849947
2797.01698797
401.283023214
401.246633363
401.26280663
402.132119751
402.556668019
2794.7931637
402.132119751
402.132119751

Block: 3
======================================
404.299337578
402.589014554
403.02973609
402.552624702
402.572841287
402.128076434
402.56879797
403.013562822
402.977172971
402.977172971

Block: 4
======================================
402.148293018
403.417894506
401.703528166
401.691398215
403.826269507
401.707571483
401.655008364
402.115946484
402.960999703
402.5041049

Block: 5
======================================
2800.27185802
2809.27632463
2820.04367738
2815.93971078
2803.9148865
2823.87674174
2795.63821692
2811.69827142
2820.89277391
2820.38735931

Block: 6
======================================
400.737175441
401.177896976
401.145550442
401.994646978
402.026993513
401.602445245
400.737175441
401.145550442
400.757392025
400.721002173

Block: 7
======================================
401.214286828
401.198113561
2805.66564269
400.809955144
400.78973856
400.773565292
402.063383365
402.467715049
402.059340048
402.063383365

Block: 8
======================================
401.671181631
401.181940293
402.483888316
401.198113561
400.769521976
401.638835096
402.075513315
2818.03010559
401.63479178
2826.7960165

Block: 9
======================================
2798.92947683
402.536451435
2829.71124794
402.111903167
402.132119751
402.536451435
2827.79471576
401.671181631
401.703528166
403.401721239

Block: 10
======================================
401.72374475
402.589014554
403.470457625
401.703528166
405.099914312
403.858616042
402.144249701
402.605187821
401.283023214
401.739918017

Block: 1
======================================
402.233202672
401.367932868
401.363889551
402.249375939
400.923168015
401.347716284
400.927211332
401.367932868
402.233202672
401.351759601

Block: 2
======================================
403.50280416
401.792481136
401.772264552
401.792481136
402.212986088
401.772264552
402.690097475
401.347716284
401.331543016
402.673924208

Block: 3
======================================
401.772264552
400.906994748
401.331543016
401.331543016
401.367932868
401.772264552
401.772264552
402.212986088
403.486630893
400.906994748

Block: 4
======================================
401.756091285
401.299196482
401.299196482
401.72374475
401.331543016
401.315369749
401.299196482
401.299196482
400.858474946
400.858474946

Block: 5
======================================
401.707571483
401.739918017
401.756091285
401.72374475
401.739918017
402.164466286
403.858616042
401.72374475
401.246633363
401.687354898

Block: 6
======================================
400.41775341
400.397536826
401.315369749
400.381363559
401.719701433
400.433926678
400.826128411
400.858474946
400.433926678
402.128076434

Block: 7
======================================
401.739918017
400.858474946
401.756091285
400.858474946
400.838258362
401.756091285
401.315369749
402.605187821
401.331543016
400.858474946

Block: 8
======================================
401.278979897
401.772264552
401.756091285
401.772264552
401.315369749
401.760134602
402.19681282
403.02973609
401.299196482
401.756091285

Block: 9
======================================
402.19681282
401.788437819
403.045909357
401.772264552
401.788437819
401.367932868
400.906994748
400.906994748
401.776307869
400.923168015

Block: 10
======================================
401.788437819
402.19681282
401.335586333
401.363889551
400.923168015
403.062082624
400.939341283
401.347716284
400.927211332
400.466273212
