
Block: 1
======================================
401.719701433
403.470457625
402.19681282
403.078255892
402.160422969
402.637534356
402.621361089
402.605187821
401.756091285
402.621361089
401.315369749
401.295153165
401.315369749
401.739918017
401.295153165
401.739918017
401.760134602
401.739918017
402.180639553
401.739918017
401.295153165
401.739918017
401.760134602
400.870604897
402.621361089
402.621361089
401.756091285
400.890821481
400.906994748
403.890962577
400.450099945
401.756091285
401.299196482
402.637534356
401.772264552
400.854431629
400.433926678
400.450099945
400.433926678
403.062082624
400.927211332
400.433926678
401.331543016
400.870604897
400.874648213
400.858474946
400.433926678
400.429883361
400.874648213
401.756091285
400.906994748
400.894864798
401.331543016
401.756091285
401.331543016
400.874648213
402.180639553
401.315369749
401.772264552
402.19681282
402.217029405
402.19681282
401.331543016
403.062082624
401.315369749
401.315369749
402.19681282
402.19681282
401.335586333
401.315369749
401.756091285
401.295153165
401.756091285
403.078255892
401.315369749
401.772264552
401.772264552
403.082299209
401.295153165
403.486630893
401.331543016
401.331543016
401.335586333
403.045909357
401.299196482
401.347716284
401.756091285
404.319554162
401.735874701
401.772264552
401.331543016
401.331543016
401.299196482
401.315369749
401.331543016
401.315369749
401.335586333
401.315369749
401.772264552
402.180639553

Block: 2
======================================
401.756091285
402.605187821
401.735874701
401.756091285
400.433926678
401.739918017
400.842301679
403.895005894
402.601144505
401.315369749
401.739918017
400.433926678
400.433926678
400.401580143
400.874648213
403.02973609
400.890821481
401.347716284
400.450099945
400.906994748
400.433926678
399.993205142
400.854431629
400.450099945
401.331543016
401.347716284
402.176596236
403.470457625
401.331543016
401.315369749
400.874648213
401.331543016
400.450099945
401.315369749
401.756091285
400.466273212
400.890821481
400.433926678
400.890821481
401.756091285
400.433926678
403.470457625
401.315369749
400.874648213
400.433926678
401.756091285
405.572982383
400.450099945
400.890821481
402.212986088
401.299196482
400.433926678
400.433926678
400.433926678
400.433926678
400.890821481
401.331543016
400.870604897
400.450099945
401.772264552
401.315369749
400.890821481
400.450099945
400.874648213
400.433926678
400.470316529
400.450099945
400.874648213
401.315369749
401.335586333
400.450099945
400.454143262
400.433926678
400.890821481
401.351759601
401.331543016
400.025551677
400.48244648
400.9433846
400.466273212
400.923168015
400.041724944
400.025551677
401.347716284
400.9433846
400.057898211
400.911038065
400.498619747
401.400279403
401.384106135
400.9433846
400.502663064
400.502663064
401.384106135
401.367932868
401.384106135
401.824827671
400.502663064
400.502663064
400.9433846

Block: 3
======================================
400.975731134
400.518836331
402.281722474
400.959557867
401.400279403
401.380062819
400.959557867
401.400279403
400.959557867
400.959557867
401.400279403
401.384106135
401.380062819
401.824827671
401.841000938
400.927211332
401.384106135
401.804611087
401.804611087
402.229159355
401.384106135
401.824827671
401.351759601
401.367932868
401.808654404
400.911038065
401.792481136
403.114645743
402.233202672
402.249375939
401.363889551
401.380062819
402.229159355
403.943525696
404.388290548
401.808654404
402.229159355
401.331543016
402.653707623
402.653707623
401.331543016
402.229159355
402.669880891
401.331543016
401.772264552
402.245332623
401.351759601
401.351759601
401.331543016
401.788437819
402.249375939
402.285765791
401.808654404
401.804611087
401.347716284
400.927211332
400.927211332
400.906994748
401.351759601
400.906994748
401.367932868
402.233202672
401.384106135
404.368073964
402.249375939
400.906994748
401.367932868
400.890821481
401.351759601
400.894864798
400.9433846
400.927211332
401.347716284
401.380062819
400.923168015
400.911038065
403.094429159
400.466273212
401.804611087
400.466273212
401.792481136
401.808654404
401.331543016
401.367932868
401.788437819
400.890821481
401.367932868
402.212986088
401.351759601
400.874648213
401.331543016
403.50280416
403.523020744
402.212986088
405.168650699
402.212986088
402.217029405
401.347716284
402.212986088
402.637534356

Block: 4
======================================
401.788437819
401.41645267
401.315369749
401.351759601
400.433926678
401.351759601
400.450099945
401.367932868
400.466273212
400.890821481
400.890821481
401.315369749
400.450099945
400.450099945
400.450099945
401.367932868
403.50280416
401.331543016
401.772264552
400.870604897
403.02973609
401.315369749
401.299196482
401.315369749
400.874648213
401.315369749
400.854431629
401.739918017
400.842301679
401.331543016
401.315369749
401.299196482
401.299196482
401.283023214
401.299196482
403.450241041
401.335586333
400.874648213
401.72374475
401.707571483
402.572841287
401.299196482
403.454284358
401.703528166
401.707571483
401.283023214
401.739918017
401.26280663
401.283023214
404.675366044
402.552624702
402.148293018
403.02973609
401.26280663
403.842442775
401.295153165
401.283023214
401.72374475
401.719701433
401.739918017
402.19681282
401.739918017
401.283023214
401.772264552
402.176596236
401.739918017
402.180639553
402.19681282
402.19681282
401.299196482
402.19681282
402.212986088
403.045909357
401.315369749
401.756091285
401.315369749
401.331543016
401.772264552
401.315369749
401.756091285
401.756091285
400.906994748
400.890821481
400.890821481
401.772264552
401.792481136
402.653707623
402.621361089
401.788437819
401.756091285
400.906994748
401.792481136
401.772264552
402.176596236
400.858474946
401.315369749
401.331543016
404.303380895
400.858474946
400.854431629

Block: 5
======================================
401.315369749
400.858474946
405.540635848
401.299196482
401.283023214
400.874648213
402.605187821
401.739918017
400.842301679
400.858474946
402.164466286
401.299196482
401.278979897
402.601144505
400.874648213
402.605187821
401.299196482
401.756091285
401.299196482
401.72374475
401.719701433
401.295153165
400.874648213
400.858474946
403.895005894
401.739918017
400.41775341
400.41775341
401.315369749
401.295153165
400.854431629
400.41775341
2794.06132336
401.278979897
402.160422969
400.838258362
400.858474946
400.838258362
400.858474946
400.397536826
400.433926678
401.283023214
400.401580143
401.26280663
401.703528166
400.41775341
400.429883361
401.283023214
400.838258362
400.822085094
401.25067668
400.41775341
400.858474946
400.41775341
401.283023214
400.413710093
400.401580143
400.401580143
400.401580143
400.41775341
400.401580143
400.397536826
399.977031875
399.972988558
399.993205142
399.95681529
399.977031875
399.977031875
400.41775341
400.433926678
399.977031875
399.977031875
399.95681529
400.397536826
400.401580143
400.858474946
400.397536826
400.413710093
400.842301679
399.993205142
2804.22217858
400.41775341
401.26280663
2791.87388895
2807.76412413
2797.0978543
2788.9586575
2812.68484073
2793.09497063
404.740059114
404.760275698
406.013703918
403.045909357
404.315510845
402.621361089
403.045909357
401.756091285
402.212986088
405.180780649
401.739918017

Block: 6
======================================
402.621361089
401.772264552
402.212986088
402.637534356
405.217170501
401.772264552
401.788437819
401.772264552
401.331543016
403.098472476
401.808654404
401.776307869
402.229159355
402.212986088
402.653707623
403.110602427
403.114645743
401.792481136
401.808654404
401.788437819
402.26150589
402.233202672
402.249375939
401.788437819
402.265549207
401.384106135
402.245332623
401.367932868
401.824827671
403.571540546
401.363889551
401.824827671
401.824827671
401.41645267
401.841000938
401.380062819
402.297895741
401.857174206
401.841000938
402.281722474
401.41645267
402.738617277
402.281722474
402.314069009
402.301939058
402.297895741
401.432625937
402.314069009
401.436669254
401.432625937
401.432625937
402.281722474
401.41645267
401.861217523
401.41645267
401.420495987
401.400279403
401.41645267
401.436669254
401.41645267
403.146992278
401.41645267
400.975731134
401.41645267
401.857174206
401.432625937
401.436669254
400.991904402
401.857174206
400.975731134
401.436669254
400.959557867
400.555226183
400.991904402
401.008077669
401.432625937
401.857174206
402.281722474
401.41645267
401.400279403
401.384106135
400.991904402
401.41645267
401.41645267
400.959557867
401.41645267
403.130819011
401.436669254
401.41645267
401.400279403
401.41645267
401.841000938
400.975731134
400.518836331
400.975731134
401.824827671
400.959557867
401.857174206
401.400279403
400.979774451

Block: 7
======================================
400.975731134
400.979774451
401.367932868
400.9433846
402.245332623
400.991904402
402.249375939
402.249375939
402.669880891
401.41645267
401.841000938
402.249375939
400.959557867
400.995947719
401.384106135
401.400279403
400.979774451
401.841000938
400.979774451
401.400279403
400.995947719
401.432625937
401.841000938
400.959557867
400.975731134
401.436669254
400.551182866
401.012120986
400.995947719
400.991904402
400.995947719
400.518836331
402.245332623
400.975731134
401.841000938
401.380062819
400.979774451
400.975731134
400.959557867
400.959557867
401.824827671
400.959557867
400.535009599
400.975731134
400.959557867
400.959557867
400.514793015
400.502663064
401.400279403
400.518836331
400.535009599
400.535009599
401.824827671
400.975731134
400.975731134
400.555226183
401.824827671
400.9433846
402.249375939
400.975731134
400.959557867
400.979774451
400.959557867
400.991904402
400.9433846
400.9433846
400.959557867
401.808654404
400.9433846
403.082299209
401.367932868
401.363889551
403.110602427
401.384106135
401.367932868
401.367932868
401.363889551
401.824827671
401.788437819
401.788437819
401.384106135
403.094429159
401.804611087
403.518977427
403.518977427
402.653707623
402.217029405
401.772264552
403.062082624
402.229159355
402.229159355
401.760134602
402.637534356
401.776307869
402.65775094
402.673924208
402.229159355
402.229159355
403.082299209
402.653707623

Block: 8
======================================
402.233202672
402.180639553
403.486630893
401.756091285
404.315510845
401.756091285
401.315369749
403.470457625
402.229159355
401.315369749
401.315369749
401.756091285
401.772264552
401.756091285
401.351759601
401.772264552
402.653707623
402.217029405
401.756091285
400.906994748
401.788437819
401.351759601
402.212986088
401.351759601
401.351759601
402.673924208
401.347716284
402.233202672
401.367932868
402.229159355
401.788437819
400.890821481
401.788437819
401.808654404
400.911038065
400.923168015
401.367932868
403.50280416
403.50280416
402.233202672
400.927211332
400.939341283
403.04186604
400.923168015
400.470316529
400.466273212
400.9433846
401.824827671
401.351759601
401.772264552
403.078255892
401.363889551
400.906994748
401.351759601
400.502663064
400.48244648
400.498619747
403.094429159
401.367932868
401.804611087
401.808654404
402.249375939
401.788437819
401.351759601
403.518977427
401.804611087
401.808654404
401.792481136
402.245332623
401.808654404
401.824827671
400.906994748
401.367932868
401.804611087
401.400279403
400.9433846
400.923168015
401.792481136
401.824827671
401.380062819
400.927211332
401.804611087
401.367932868
400.939341283
400.927211332
401.804611087
401.367932868
401.808654404
400.906994748
401.808654404
402.245332623
401.351759601
400.890821481
400.927211332
401.363889551
400.927211332
401.331543016
401.788437819
401.363889551
401.776307869

Block: 9
======================================
401.315369749
401.331543016
401.772264552
402.249375939
401.347716284
401.792481136
401.331543016
401.739918017
402.65775094
402.637534356
401.776307869
401.331543016
403.470457625
401.756091285
401.776307869
403.911179161
401.331543016
403.470457625
402.200856137
402.621361089
402.212986088
401.808654404
403.062082624
401.347716284
402.217029405
401.315369749
401.315369749
401.299196482
401.331543016
401.756091285
401.315369749
401.315369749
402.19681282
401.776307869
403.062082624
403.890962577
402.19681282
401.756091285
401.351759601
402.233202672
403.078255892
401.347716284
401.335586333
401.367932868
401.792481136
401.331543016
401.788437819
401.347716284
401.351759601
401.772264552
401.331543016
401.351759601
401.335586333
401.347716284
401.351759601
401.351759601
401.347716284
401.347716284
401.331543016
401.792481136
401.347716284
401.792481136
401.792481136
401.347716284
401.788437819
402.233202672
405.180780649
402.233202672
401.367932868
402.19681282
401.772264552
401.331543016
401.315369749
401.792481136
402.212986088
402.212986088
402.217029405
402.19681282
401.367932868
402.212986088
402.229159355
402.229159355
402.19681282
402.212986088
402.245332623
401.315369749
401.792481136
402.229159355
402.229159355
401.808654404
403.094429159
401.367932868
401.367932868
401.363889551
400.927211332
400.906994748
401.804611087
401.347716284
400.9433846
400.927211332

Block: 10
======================================
401.756091285
402.653707623
402.233202672
402.669880891
402.249375939
401.792481136
402.249375939
401.792481136
402.212986088
402.19681282
401.792481136
403.114645743
401.772264552
401.760134602
402.180639553
403.078255892
403.110602427
403.943525696
403.094429159
403.943525696
402.637534356
403.098472476
404.792622232
403.062082624
403.094429159
403.098472476
402.653707623
403.078255892
402.249375939
402.217029405
402.673924208
403.959698963
402.233202672
402.233202672
402.233202672
402.690097475
402.65775094
403.126775694
403.110602427
401.824827671
401.792481136
401.788437819
402.229159355
402.233202672
402.249375939
401.824827671
402.245332623
401.363889551
401.804611087
401.363889551
401.363889551
401.367932868
401.824827671
400.959557867
401.400279403
401.841000938
401.804611087
401.384106135
401.804611087
402.669880891
402.686054158
401.367932868
401.400279403
401.384106135
401.347716284
401.820784354
401.363889551
401.347716284
400.927211332
401.824827671
400.975731134
401.824827671
401.824827671
401.384106135
401.824827671
401.384106135
401.804611087
400.979774451
400.959557867
401.384106135
400.9433846
400.959557867
401.824827671
400.959557867
400.959557867
400.975731134
401.400279403
402.265549207
401.400279403
401.41645267
401.400279403
400.9433846
400.502663064
400.518836331
400.959557867
400.959557867
400.975731134
400.959557867
401.622661829
400.959557867
