
Block: 1
======================================
199.701334
199.717622852
199.717622852
200.605365324
199.680972934
200.161494088
199.717622852
199.701334
199.685045147
201.427952385
199.685045147
200.589076471
199.257462764
199.273751616
200.145205235
200.161494088
199.257462764
199.717622852
199.717622852
199.664684081
200.177782941
199.717622852
200.141133022
199.717622852
200.11262753

Average distance is : 199.898 cm
Average deviation is : 0.475 cm
Block: 2
======================================
199.668756294
199.701334
199.648395228
199.733911705
199.737983918
199.701334
199.717622852
200.128916383
200.128916383
200.177782941
200.161494088
200.128916383
199.680972934
200.161494088
195.824587059
200.145205235
199.717622852
199.269679403
200.401754665
199.273751616
199.733911705
199.220812845
199.717622852
199.680972934
200.572787619

Average distance is : 199.681 cm
Average deviation is : 0.873 cm
Block: 3
======================================
199.237101698
200.181855154
199.701334
200.11262753
200.12484417
199.685045147
200.568715405
199.664684081
199.717622852
199.717622852
199.273751616
199.697261786
200.128916383
199.697261786
199.701334
200.589076471
200.556498766
199.241173911
200.996297789
199.241173911
199.717622852
199.701334
200.128916383
199.685045147
200.128916383

Average distance is : 199.888 cm
Average deviation is : 0.458 cm
Block: 4
======================================
199.717622852
199.680972934
199.664684081
199.680972934
199.697261786
199.257462764
199.680972934
200.572787619
175.410582423
199.733911705
201.000370002
200.128916383
199.701334
199.664684081
199.685045147
200.128916383
199.685045147
199.680972934
200.128916383
199.701334
199.685045147
200.145205235
200.552426553
200.128916383
199.717622852

Average distance is : 198.913 cm
Average deviation is : 4.911 cm
Block: 5
======================================
200.556498766
199.717622852
200.161494088
199.685045147
199.220812845
199.680972934
200.128916383
200.589076471
199.253390551
199.717622852
199.668756294
200.145205235
199.697261786
199.685045147
200.128916383
200.096338677
200.12484417
199.685045147
199.273751616
199.685045147
200.572787619
200.108555317
199.237101698
200.11262753
199.220812845

Average distance is : 199.846 cm
Average deviation is : 0.421 cm
Block: 6
======================================
200.11262753
199.685045147
200.145205235
199.680972934
200.556498766
200.589076471
199.717622852
199.685045147
199.717622852
199.701334
200.128916383
199.664684081
199.680972934
200.12484417
199.664684081
200.572787619
200.572787619
200.145205235
199.668756294
201.423880172
200.12484417
200.572787619
200.128916383
199.237101698
199.680972934

Average distance is : 200.039 cm
Average deviation is : 0.475 cm
Block: 7
======================================
200.128916383
200.128916383
199.701334
200.11262753
200.092266464
200.11262753
200.108555317
200.11262753
200.108555317
200.128916383
199.701334
200.092266464
199.652467442
199.701334
199.668756294
200.108555317
199.668756294
200.128916383
201.012586641
199.668756294
199.648395228
200.128916383
199.237101698
200.128916383
200.128916383

Average distance is : 199.976 cm
Average deviation is : 0.332 cm
Block: 8
======================================
199.685045147
200.108555317
200.096338677
200.572787619
199.220812845
199.680972934
200.572787619
200.128916383
199.685045147
199.685045147
200.128916383
200.128916383
199.680972934
200.556498766
199.668756294
199.701334
199.668756294
200.572787619
199.664684081
199.664684081
200.12484417
199.664684081
199.680972934
199.664684081
199.241173911

Average distance is : 199.890 cm
Average deviation is : 0.388 cm
Block: 9
======================================
199.664684081
199.269679403
199.224885058
199.273751616
199.664684081
199.701334
199.220812845
199.273751616
199.701334
199.257462764
200.145205235
200.128916383
201.012586641
199.701334
199.701334
200.108555317
201.423880172
199.717622852
199.257462764
200.145205235
200.605365324
199.685045147
199.701334
199.253390551
199.680972934

Average distance is : 199.781 cm
Average deviation is : 0.566 cm
Block: 10
======================================
199.652467442
199.701334
199.685045147
199.701334
199.241173911
199.685045147
200.589076471
199.733911705
199.257462764
199.664684081
200.12484417
200.108555317
199.717622852
199.697261786
199.224885058
199.257462764
199.664684081
199.701334
199.717622852
199.685045147
200.128916383
200.128916383
200.11262753
199.664684081
199.737983918

Average distance is : 199.743 cm
Average deviation is : 0.321 cm