
Block: 1
======================================
200.365104747
199.909016871
200.348815894
200.295877123
199.95788343
199.953811216
200.36917696
200.385465813
200.385465813
200.385465813
200.385465813
200.401754665
200.385465813
200.365104747
200.434332371
200.352888107
199.904944658
200.3813936
200.348815894
200.36917696
200.332527041
199.904944658
200.385465813
200.365104747
200.397682452
200.348815894
200.352888107
200.348815894
200.365104747
200.3813936
200.385465813
199.921233511
200.36917696
200.365104747
200.36917696
200.348815894
200.385465813
200.36917696
199.921233511
200.401754665
200.332527041
200.365104747
200.385465813
200.332527041
200.316238189
200.3813936
200.365104747
200.36917696
200.3813936
200.316238189

Average distance is : 200.305 cm
Average deviation is : 0.157 cm
Block: 2
======================================
200.365104747
200.808975983
200.79268713
200.332527041
200.348815894
200.348815894
199.904944658
200.36917696
200.352888107
200.79268713
200.36917696
200.776398277
200.348815894
200.365104747
200.348815894
200.3813936
200.365104747
200.776398277
200.348815894
200.365104747
199.909016871
199.872366953
200.316238189
200.332527041
200.332527041
200.385465813
200.348815894
200.332527041
200.348815894
200.36917696
200.316238189
200.332527041
200.332527041
200.365104747
200.348815894
200.352888107
200.3813936
200.365104747
200.385465813
200.365104747
200.332527041
200.316238189
200.332527041
200.519848847
200.312165976
200.365104747
200.332527041
200.316238189
200.295877123
200.316238189

Average distance is : 200.368 cm
Average deviation is : 0.182 cm
Block: 3
======================================
200.385465813
200.348815894
200.316238189
200.332527041
200.348815894
200.348815894
200.365104747
200.332527041
200.312165976
200.332527041
200.312165976
200.348815894
200.332527041
200.312165976
200.316238189
200.295877123
199.8560781
200.312165976
200.316238189
200.316238189
200.332527041
200.36917696
200.299949336
200.316238189
200.316238189
200.365104747
200.316238189
200.332527041
200.352888107
200.316238189
200.348815894
200.36917696
200.365104747
200.316238189
200.348815894
200.36917696
200.316238189
200.352888107
200.332527041
200.332527041
200.299949336
200.316238189
200.332527041
200.365104747
200.299949336
200.332527041
200.348815894
200.328454828
200.332527041
200.295877123

Average distance is : 200.323 cm
Average deviation is : 0.071 cm
Block: 4
======================================
200.348815894
200.3813936
200.348815894
200.352888107
200.332527041
200.295877123
200.365104747
200.397682452
200.332527041
200.332527041
200.348815894
200.365104747
200.385465813
199.888655806
200.352888107
200.332527041
200.36917696
200.365104747
200.332527041
200.365104747
200.352888107
200.312165976
200.295877123
200.36917696
200.332527041
200.316238189
199.888655806
200.348815894
200.365104747
200.348815894
200.328454828
200.332527041
200.299949336
200.552426553
200.348815894
200.332527041
200.348815894
200.352888107
200.332527041
200.332527041
200.332527041
200.332527041
200.352888107
200.365104747
200.352888107
200.36917696
200.3813936
200.348815894
199.941594577
200.3813936

Average distance is : 200.325 cm
Average deviation is : 0.113 cm
Block: 5
======================================
200.332527041
200.36917696
200.312165976
200.316238189
200.365104747
200.316238189
200.348815894
200.348815894
200.385465813
200.332527041
200.348815894
200.348815894
200.3813936
200.397682452
199.921233511
200.352888107
200.312165976
200.365104747
199.909016871
200.332527041
200.365104747
199.904944658
199.872366953
200.348815894
200.36917696
200.36917696
200.348815894
200.36917696
200.3813936
200.348815894
199.904944658
200.36917696
200.365104747
200.365104747
200.36917696
200.316238189
200.348815894
200.352888107
199.921233511
200.365104747
200.332527041
200.401754665
200.348815894
200.352888107
200.385465813
200.332527041
200.348815894
200.352888107
200.348815894
200.348815894

Average distance is : 200.300 cm
Average deviation is : 0.149 cm
Block: 6
======================================
200.401754665
200.316238189
200.299949336
200.332527041
199.921233511
199.904944658
200.36917696
200.36917696
200.348815894
200.316238189
200.332527041
200.348815894
199.888655806
199.941594577
200.365104747
200.3813936
199.904944658
200.332527041
200.365104747
200.348815894
200.348815894
199.921233511
200.397682452
199.888655806
200.365104747
200.352888107
200.3813936
200.332527041
200.348815894
200.401754665
199.941594577
200.36917696
200.348815894
200.352888107
200.365104747
200.348815894
200.365104747
200.3813936
200.365104747
200.401754665
200.401754665
200.36917696
200.401754665
199.921233511
200.3813936
200.3813936
200.352888107
199.904944658
200.3813936
200.316238189

Average distance is : 200.272 cm
Average deviation is : 0.182 cm
Block: 7
======================================
200.401754665
200.352888107
200.401754665
200.348815894
200.401754665
199.921233511
200.385465813
200.385465813
200.605365324
199.904944658
200.348815894
200.365104747
200.365104747
200.776398277
200.401754665
200.348815894
200.401754665
200.3813936
199.852005887
200.365104747
200.36917696
200.332527041
200.385465813
200.3813936
200.365104747
200.365104747
200.3813936
200.332527041
200.365104747
200.194071794
200.365104747
200.352888107
200.332527041
200.348815894
200.36917696
200.352888107
199.95788343
200.401754665
200.385465813
199.937522364
200.385465813
200.352888107
200.36917696
200.348815894
200.385465813
200.352888107
200.385465813
200.348815894
200.385465813
200.36917696

Average distance is : 200.334 cm
Average deviation is : 0.159 cm
Block: 8
======================================
200.352888107
200.401754665
200.3813936
200.3813936
200.348815894
200.385465813
200.401754665
200.365104747
199.888655806
200.348815894
200.418043518
199.872366953
200.36917696
200.365104747
199.904944658
200.365104747
200.36917696
200.3813936
199.921233511
200.365104747
200.36917696
200.418043518
200.385465813
200.348815894
200.418043518
200.365104747
200.418043518
200.332527041
199.953811216
199.941594577
199.937522364
200.36917696
200.365104747
200.418043518
199.937522364
200.348815894
200.385465813
200.365104747
200.401754665
199.925305724
200.397682452
200.36917696
200.385465813
200.365104747
200.3813936
200.385465813
200.3813936
200.348815894
199.941594577
200.3813936

Average distance is : 200.287 cm
Average deviation is : 0.185 cm
Block: 9
======================================
200.401754665
199.937522364
200.36917696
200.36917696
200.365104747
200.401754665
200.418043518
200.413971305
200.385465813
199.937522364
200.332527041
200.397682452
200.401754665
200.3813936
200.401754665
200.3813936
199.953811216
200.434332371
200.385465813
200.401754665
200.397682452
200.36917696
199.974172282
199.953811216
200.365104747
199.941594577
200.385465813
200.401754665
199.925305724
200.418043518
200.418043518
200.3813936
200.365104747
200.418043518
200.365104747
200.365104747
199.909016871
200.418043518
200.401754665
200.401754665
200.385465813
200.3813936
200.365104747
200.3813936
200.365104747
200.385465813
199.95788343
200.385465813
200.418043518
200.397682452

Average distance is : 200.309 cm
Average deviation is : 0.174 cm
Block: 10
======================================
200.385465813
200.418043518
200.397682452
199.937522364
200.3813936
200.332527041
199.941594577
200.3813936
200.3813936
199.95788343
200.401754665
200.385465813
200.401754665
200.418043518
200.385465813
200.418043518
200.401754665
200.385465813
200.418043518
200.401754665
200.365104747
200.401754665
199.941594577
200.3813936
200.418043518
200.36917696
200.397682452
200.348815894
200.36917696
200.3813936
200.36917696
158.229915047
200.418043518
200.365104747
200.385465813
200.418043518
200.418043518
200.348815894
200.605365324
200.36917696
200.397682452
200.36917696
200.401754665
200.365104747
200.418043518
200.385465813
200.397682452
200.365104747
200.385465813
200.36917696

Average distance is : 199.514 cm
Average deviation is : 5.959 cm