
Block: 1
======================================
200.348815894
200.365104747
200.332527041
200.332527041
200.332527041
200.365104747
200.332527041
200.348815894
200.332527041
200.385465813
200.352888107
200.295877123
200.332527041
200.332527041
199.904944658
200.332527041
200.365104747
200.316238189
199.888655806
199.86829474
200.312165976
200.316238189
200.36917696
200.36917696
200.365104747

Average distance is : 200.288 cm
Average deviation is : 0.153 cm
Block: 2
======================================
200.332527041
200.332527041
200.332527041
200.332527041
200.348815894
200.348815894
199.852005887
200.348815894
200.365104747
200.348815894
200.332527041
200.299949336
200.36917696
199.921233511
200.295877123
200.36917696
200.348815894
200.332527041
200.312165976
200.316238189
200.365104747
200.316238189
200.332527041
200.332527041
200.332527041

Average distance is : 200.301 cm
Average deviation is : 0.127 cm
Block: 3
======================================
200.332527041
200.299949336
200.299949336
200.299949336
200.332527041
200.352888107
200.332527041
200.316238189
200.299949336
200.299949336
200.365104747
200.332527041
199.888655806
200.299949336
199.835717034
200.365104747
200.27958827
200.299949336
200.332527041
200.283660483
200.316238189
200.332527041
200.365104747
200.299949336
200.348815894

Average distance is : 200.284 cm
Average deviation is : 0.130 cm
Block: 4
======================================
199.888655806
200.365104747
200.316238189
199.888655806
200.332527041
200.332527041
200.332527041
200.36917696
200.36917696
200.332527041
200.365104747
200.332527041
200.385465813
200.27958827
200.332527041
200.316238189
200.312165976
200.299949336
200.332527041
200.348815894
200.316238189
200.348815894
200.316238189
200.316238189
200.263299417

Average distance is : 200.296 cm
Average deviation is : 0.126 cm
Block: 5
======================================
200.332527041
200.332527041
200.348815894
200.332527041
199.852005887
200.365104747
200.312165976
200.299949336
200.365104747
200.332527041
200.332527041
200.316238189
199.835717034
199.8560781
200.316238189
200.332527041
200.299949336
200.316238189
200.299949336
199.888655806
200.316238189
199.904944658
204.791600466
200.332527041
200.316238189

Average distance is : 200.413 cm
Average deviation is : 0.931 cm
Block: 6
======================================
200.316238189
200.332527041
200.332527041
200.316238189
200.352888107
200.332527041
200.352888107
199.888655806
200.348815894
200.348815894
200.332527041
200.348815894
200.365104747
200.332527041
199.86829474
200.295877123
200.316238189
200.312165976
200.348815894
200.348815894
200.299949336
200.348815894
200.365104747
200.332527041
200.348815894

Average distance is : 200.299 cm
Average deviation is : 0.128 cm
Block: 7
======================================
200.332527041
200.36917696
200.295877123
200.365104747
200.348815894
200.352888107
200.332527041
200.36917696
200.3813936
199.904944658
200.348815894
200.348815894
200.352888107
199.909016871
200.36917696
200.36917696
200.365104747
200.385465813
199.921233511
200.365104747
200.348815894
200.365104747
200.316238189
200.3813936
200.385465813

Average distance is : 200.303 cm
Average deviation is : 0.149 cm
Block: 8
======================================
200.365104747
200.3813936
199.941594577
200.365104747
200.348815894
200.397682452
200.348815894
200.401754665
200.36917696
200.348815894
200.401754665
200.385465813
199.921233511
200.401754665
199.941594577
200.385465813
199.921233511
200.365104747
200.401754665
200.397682452
200.348815894
200.3813936
200.36917696
200.397682452
200.352888107

Average distance is : 200.306 cm
Average deviation is : 0.168 cm
Block: 9
======================================
200.36917696
200.365104747
200.36917696
200.348815894
200.401754665
200.401754665
200.401754665
199.941594577
200.365104747
200.348815894
200.348815894
200.385465813
200.397682452
199.974172282
200.385465813
200.418043518
199.937522364
200.36917696
200.348815894
200.418043518
200.401754665
200.401754665
200.3813936
200.434332371
200.3813936

Average distance is : 200.332 cm
Average deviation is : 0.145 cm
Block: 10
======================================
200.3813936
200.3813936
200.348815894
200.283660483
200.401754665
199.921233511
200.385465813
200.397682452
199.921233511
200.385465813
200.3813936
200.418043518
200.3813936
200.348815894
200.348815894
200.3813936
200.36917696
200.401754665
200.332527041
200.348815894
200.401754665
200.385465813
199.937522364
200.352888107
200.365104747

Average distance is : 200.319 cm
Average deviation is : 0.150 cm