
Block: 1
======================================
299.138482141
299.54498105
299.54904604
299.191327
299.154742098

Average distance is : 299.316 cm
Average deviation is : 0.212 cm
Block: 2
======================================
299.138482141
299.614085865
299.191327
299.171002054
299.187262011

Average distance is : 299.260 cm
Average deviation is : 0.199 cm
Block: 3
======================================
299.191327
299.581565952
299.597825909
299.601890898
299.581565952

Average distance is : 299.511 cm
Average deviation is : 0.179 cm
Block: 4
======================================
299.597825909
299.581565952
299.154742098
299.154742098
299.618150854

Average distance is : 299.421 cm
Average deviation is : 0.244 cm
Block: 5
======================================
299.585630941
299.618150854
299.618150854
299.154742098
299.646605778

Average distance is : 299.525 cm
Average deviation is : 0.208 cm
Block: 6
======================================
299.175067043
299.597825909
299.191327
299.240106869
299.175067043

Average distance is : 299.276 cm
Average deviation is : 0.182 cm
Block: 7
======================================
299.158807087
299.585630941
299.597825909
299.614085865
299.630345821

Average distance is : 299.517 cm
Average deviation is : 0.201 cm
Block: 8
======================================
299.63441081
299.614085865
299.618150854
299.122222185
299.630345821

Average distance is : 299.524 cm
Average deviation is : 0.225 cm
Block: 9
======================================
299.154742098
299.63441081
299.223846912
299.597825909
299.614085865

Average distance is : 299.445 cm
Average deviation is : 0.235 cm
Block: 10
======================================
299.138482141
299.154742098
299.191327
299.171002054
299.175067043

Average distance is : 299.166 cm
Average deviation is : 0.020 cm