
Block: 1
======================================
100.330231786
100.367401838
100.313711762
100.334361792
100.297191739
100.313711762
100.297191739
100.317841768
100.297191739
100.280671716
100.313711762
100.313711762
100.334361792
100.313711762
100.330231786
100.280671716
100.297191739
100.330231786
100.317841768
100.330231786
100.297191739
100.297191739
100.330231786
100.297191739
100.317841768
100.313711762
100.313711762
100.330231786
100.317841768
100.313711762
100.313711762
100.313711762
100.313711762
100.334361792
100.334361792
100.313711762
100.334361792
100.330231786
100.313711762
100.330231786
100.313711762
100.313711762
100.313711762
100.313711762
100.297191739
100.334361792
100.313711762
100.313711762
100.317841768
100.330231786
100.330231786
100.313711762
100.313711762
100.297191739
100.334361792
100.313711762
100.330231786
100.334361792
100.313711762
100.313711762
100.297191739
100.317841768
100.330231786
100.297191739
100.297191739
100.313711762
100.334361792
100.297191739
100.334361792
100.330231786
100.313711762
100.313711762
100.313711762
100.330231786
100.334361792

Block: 2
======================================
100.780402422
100.313711762
100.280671716
100.297191739
100.297191739
100.313711762
100.313711762
100.297191739
100.313711762
100.280671716
100.313711762
100.297191739
100.313711762
100.330231786
100.313711762
100.280671716
100.330231786
100.297191739
100.313711762
100.313711762
100.330231786
100.313711762
100.330231786
100.334361792
100.313711762
100.317841768
100.297191739
100.763882399
101.201663017
100.763882399
101.181012988
100.330231786
100.330231786
100.334361792
100.313711762
100.330231786
100.334361792
100.297191739
100.313711762
100.313711762
100.313711762
100.334361792
100.297191739
100.297191739
100.297191739
100.330231786
100.313711762
100.313711762
100.313711762
100.280671716
100.334361792
100.313711762
100.330231786
100.280671716
100.334361792
100.330231786
100.330231786
100.313711762
100.334361792
100.313711762
100.350881815
100.317841768
100.313711762
100.297191739
100.313711762
100.330231786
100.313711762
100.330231786
100.334361792
100.297191739
100.350881815
100.297191739
100.297191739
100.297191739
100.313711762

Block: 3
======================================
100.730842352
100.334361792
100.784532428
100.297191739
100.747362375
99.9337512255
100.313711762
100.297191739
100.313711762
100.313711762
100.317841768
100.297191739
100.297191739
100.313711762
100.313711762
100.313711762
100.313711762
100.313711762
100.313711762
100.313711762
100.317841768
100.330231786
99.9131011963
100.313711762
100.363271832
100.330231786
100.313711762
100.313711762
100.297191739
100.313711762
100.350881815
100.297191739
100.313711762
100.313711762
99.9172312021
100.330231786
100.297191739
100.350881815
100.330231786
100.350881815
100.297191739
100.313711762
100.350881815
100.317841768
100.313711762
100.330231786
100.350881815
100.313711762
100.330231786
100.330231786
100.350881815
100.346751809
100.297191739
100.346751809
100.317841768
100.330231786
99.9131011963
100.313711762
100.313711762
100.330231786
100.317841768
100.317841768
100.330231786
100.334361792
100.334361792
100.297191739
100.330231786
100.313711762
100.330231786
100.334361792
100.317841768
100.313711762
100.334361792
100.334361792
100.313711762

Block: 4
======================================
100.313711762
100.313711762
100.747362375
100.297191739
100.330231786
100.297191739
99.9131011963
100.297191739
100.350881815
100.330231786
100.313711762
100.297191739
100.313711762
100.334361792
100.317841768
100.313711762
100.313711762
100.313711762
100.297191739
100.313711762
100.297191739
100.330231786
100.313711762
100.334361792
100.346751809
100.297191739
100.297191739
100.313711762
100.297191739
100.330231786
100.313711762
100.313711762
100.334361792
100.313711762
100.313711762
100.297191739
100.334361792
100.330231786
100.297191739
100.297191739
100.313711762
100.330231786
100.297191739
100.297191739
100.334361792
100.313711762
100.330231786
100.313711762
100.297191739
100.297191739
100.297191739
100.313711762
100.297191739
100.313711762
100.297191739
100.334361792
100.317841768
100.313711762
100.313711762
100.280671716
100.297191739
100.297191739
100.301321745
100.313711762
100.297191739
100.317841768
100.297191739
100.317841768
100.280671716
100.313711762
100.334361792
100.297191739
100.297191739
100.297191739
100.313711762

Block: 5
======================================
100.330231786
100.350881815
99.9502712488
100.317841768
100.334361792
99.9544012547
100.297191739
100.317841768
100.313711762
100.313711762
100.297191739
100.313711762
100.297191739
100.313711762
100.350881815
100.317841768
100.317841768
100.317841768
100.297191739
100.730842352
100.313711762
100.313711762
99.9172312021
100.317841768
100.330231786
100.330231786
99.9172312021
99.9131011963
100.313711762
100.313711762
100.313711762
100.297191739
100.313711762
100.346751809
99.9172312021
100.297191739
100.313711762
100.313711762
100.334361792
100.297191739
100.330231786
100.313711762
100.313711762
100.27654171
100.313711762
100.710192323
100.677152276
100.297191739
100.280671716
100.313711762
100.297191739
100.297191739
100.297191739
100.297191739
100.297191739
100.313711762
100.313711762
100.280671716
100.313711762
100.313711762
100.334361792
100.297191739
100.313711762
100.297191739
100.297191739
100.346751809
100.313711762
100.297191739
100.334361792
100.330231786
100.317841768
100.313711762
100.330231786
100.280671716
100.297191739

Block: 6
======================================
100.27654171
100.330231786
100.714322329
100.317841768
100.280671716
100.260021687
99.8965811729
100.330231786
100.330231786
100.297191739
99.8965811729
99.9007111788
100.313711762
99.8841911554
100.313711762
100.313711762
100.313711762
100.280671716
100.313711762
100.334361792
100.317841768
100.330231786
100.313711762
100.330231786
100.330231786
100.297191739
100.334361792
100.313711762
100.297191739
100.313711762
100.297191739
100.297191739
100.313711762
100.383921862
100.313711762
100.313711762
100.297191739
100.313711762
100.297191739
99.9007111788
100.313711762
100.317841768
100.330231786
100.317841768
99.8965811729
100.297191739
100.313711762
100.330231786
100.313711762
100.313711762
100.313711762
100.346751809
100.313711762
100.313711762
100.330231786
100.313711762
100.313711762
100.297191739
100.330231786
100.313711762
100.280671716
100.313711762
100.317841768
100.297191739
100.330231786
100.297191739
100.313711762
100.346751809
100.334361792
100.330231786
100.313711762
100.350881815
100.317841768
100.297191739
100.350881815

Block: 7
======================================
100.730842352
100.280671716
100.297191739
101.181012988
100.313711762
100.260021687
100.714322329
100.313711762
100.280671716
100.297191739
100.297191739
100.280671716
100.297191739
100.313711762
100.313711762
100.280671716
100.297191739
100.297191739
100.313711762
100.297191739
100.330231786
100.313711762
100.313711762
100.297191739
100.297191739
100.317841768
100.280671716
100.297191739
100.280671716
100.297191739
100.280671716
100.313711762
100.330231786
100.330231786
100.313711762
100.297191739
100.280671716
100.313711762
100.297191739
100.27654171
100.313711762
100.297191739
100.313711762
100.297191739
100.297191739
100.313711762
100.313711762
100.297191739
100.313711762
100.313711762
100.280671716
100.297191739
100.317841768
100.334361792
100.297191739
100.297191739
100.280671716
100.313711762
100.297191739
100.313711762
100.330231786
99.970921278
100.297191739
100.317841768
100.301321745
100.297191739
100.317841768
100.297191739
100.297191739
100.313711762
100.313711762
100.297191739
100.297191739
100.334361792
100.334361792

Block: 8
======================================
101.164492965
100.334361792
100.297191739
100.334361792
100.763882399
100.346751809
100.313711762
100.297191739
100.313711762
100.313711762
100.297191739
100.297191739
100.280671716
100.330231786
100.313711762
100.313711762
100.317841768
100.334361792
100.313711762
100.297191739
100.313711762
100.297191739
100.313711762
100.313711762
100.280671716
100.317841768
100.334361792
100.334361792
100.313711762
100.297191739
100.297191739
100.280671716
100.297191739
100.297191739
100.297191739
100.297191739
100.330231786
100.280671716
100.297191739
100.334361792
100.297191739
100.317841768
100.330231786
100.313711762
100.313711762
100.334361792
100.313711762
100.313711762
100.313711762
100.313711762
100.317841768
100.297191739
100.313711762
100.313711762
100.297191739
100.330231786
100.313711762
100.313711762
100.280671716
100.330231786
100.313711762
100.330231786
100.297191739
100.313711762
100.297191739
100.317841768
100.280671716
100.280671716
100.297191739
100.313711762
100.330231786
100.317841768
100.313711762
100.313711762
100.330231786

Block: 9
======================================
100.280671716
100.350881815
99.9007111788
100.280671716
101.143842936
101.181012988
99.9007111788
100.297191739
100.297191739
100.297191739
100.297191739
99.9172312021
99.9172312021
100.297191739
100.317841768
100.317841768
100.297191739
100.313711762
100.317841768
100.313711762
100.313711762
100.313711762
100.313711762
100.313711762
100.313711762
100.313711762
100.313711762
100.334361792
100.334361792
100.313711762
100.313711762
100.313711762
100.280671716
100.313711762
100.330231786
100.330231786
100.297191739
100.313711762
100.317841768
99.9337512255
100.313711762
100.313711762
100.330231786
100.297191739
100.313711762
100.313711762
100.313711762
100.313711762
100.334361792
100.313711762
100.334361792
99.9172312021
100.297191739
100.330231786
100.297191739
100.297191739
100.280671716
100.317841768
100.313711762
100.330231786
100.330231786
100.313711762
100.297191739
100.317841768
100.313711762
100.330231786
100.313711762
100.334361792
99.9172312021
100.313711762
99.9172312021
99.9131011963
100.334361792
100.334361792
100.313711762

Block: 10
======================================
100.763882399
100.317841768
99.9172312021
100.313711762
99.8965811729
99.9337512255
100.297191739
100.280671716
100.330231786
100.330231786
100.297191739
100.313711762
100.330231786
100.313711762
100.297191739
100.301321745
100.297191739
100.313711762
100.297191739
100.297191739
100.710192323
100.730842352
100.280671716
101.160362959
100.297191739
100.313711762
100.313711762
100.297191739
100.297191739
100.330231786
100.313711762
100.313711762
100.297191739
100.297191739
100.280671716
100.297191739
100.313711762
100.297191739
100.280671716
100.297191739
100.317841768
100.317841768
100.317841768
100.317841768
100.297191739
100.313711762
100.330231786
100.297191739
100.313711762
100.297191739
100.350881815
100.334361792
100.334361792
100.317841768
100.330231786
100.313711762
100.317841768
100.297191739
100.330231786
100.334361792
100.330231786
100.313711762
100.297191739
100.313711762
100.264151692
100.297191739
100.313711762
100.297191739
99.8800611496
100.280671716
99.516620636
100.313711762
100.313711762
100.747362375
100.280671716
