
Block: 1
======================================
103.19232583
102.775195241
24.6354848146
101.907894015
101.961584091
58.3404624462
103.221235871
101.924414039
17.1312642097
102.395234704
102.378714681
45.4218041897
103.122115731
102.378714681
43.7037217617
103.65901649
102.808235288
55.4494583607
102.738025188
101.457723379
21.0465097427
102.320894599
101.928544044
60.8886760473
102.325024605
101.874853969
55.6229186058
101.912024021
101.891373992
13.1458085775
101.750953794
102.358064651
51.930693388
102.791715264
103.171675801
40.9159678221
102.341544628
101.907894015
47.8461176157
103.19232583
102.775195241
48.3128082752
101.957454085
102.742155194
45.7645946741
102.325024605
102.704985142
57.0808106661
102.304374576
103.225365877
67.8518658876
102.828885317
101.940934062
58.9847433567
102.395234704
102.391104698
56.4365297556
102.775195241
101.961584091
66.6541641951
103.208845854
101.945064068
58.8278031349
103.2418859
102.411754727
40.4823172092
103.675536513
101.928544044
42.1467095613
101.490763426
101.957454085
54.4458669424
102.374584675
101.924414039
53.8717961311

Block: 2
======================================
101.994624138
102.391104698
9.0777528286
102.378714681
102.374584675
47.2720468044
102.738025188
102.808235288
35.1628696918
102.758675218
101.994624138
102.775195241
101.511413455
31.3508743048
101.544453502
102.374584675
48.3293282986
102.341544628
101.907894015
53.5950857401
103.225365877
101.891373992
14.2733001709
102.374584675
101.928544044
6.96318984032
102.775195241
103.155155778
22.2566014528
102.758675218
101.940934062
61.528826952
103.675536513
102.378714681
14.2072200775
101.961584091
101.973974109
53.0747050047
101.973974109
102.325024605
46.8260061741
101.441203356
101.978104115
10.7214951515
102.411754727
102.411754727
46.5988558531
102.861925364
102.374584675
38.5412144661
101.544453502
101.973974109
13.4059989452
102.374584675
101.957454085
45.1781338453
101.907894015
102.015274167
43.6169916391
101.978104115
102.812365294
101.523803473
103.258405924
60.0048547983
101.961584091
102.424144745
15.6775021553
102.374584675
102.411754727
62.1565878391
101.907894015
102.395234704
58.4602326155
102.808235288
101.907894015

Block: 3
======================================
2.3541033268
101.961584091
101.940934062
60.0048547983
101.907894015
101.924414039
58.2537323236
102.758675218
102.758675218
62.1689778566
101.490763426
103.155155778
74.7283256054
103.638366461
102.362194657
63.0362790823
101.598143578
103.2418859
70.9865403175
103.26253593
101.945064068
70.0861990452
103.225365877
102.742155194
70.4331195354
101.924414039
101.457723379
60.5582755804
103.2418859
101.978104115
50.5264914036
102.374584675
101.957454085
37.760643363
101.907894015
101.945064068
36.5340316296
102.341544628
101.957454085
43.823491931
102.374584675
102.395234704
50.0969707966
102.374584675
102.407624722
51.1377322674
101.978104115
102.378714681
64.0068304539
103.692056537
103.671406507
59.8685646057
102.395234704
102.395234704
68.6489570141
102.808235288
102.374584675
90.1993274689
102.775195241
101.961584091
88.2582247257
102.791715264
101.924414039
28.843960762
102.395234704
101.907894015
32.7922463417
101.961584091
101.978104115
74.8687458038
101.907894015
102.374584675
74.3814051151
102.824755311
101.907894015

Block: 4
======================================
2.04435288906
100.677152276
101.494893432
39.9660664797
102.325024605
103.208845854
32.5155359507
102.391104698
102.374584675
65.7579529285
101.945064068
102.428274751
57.5805413723
102.011144161
102.824755311
6.51301920414
102.358064651
102.84540534
36.6703218222
102.444794774
101.940934062
103.2418859
101.994624138
66.4146238565
102.358064651
102.791715264
29.6575719118
101.924414039
102.411754727
44.8312133551
102.011144161
101.940934062
37.7812933922
102.341544628
102.738025188
35.513920188
102.374584675
102.395234704
6.83928966522
103.654886484
101.077762842
45.2442139387
102.391104698
101.994624138
10.1185142994
102.791715264
101.961584091
49.5931100845
101.961584091
101.924414039
41.1389881372
103.208845854
101.907894015
43.0098807812
101.544453502
101.940934062
51.8274432421
102.812365294
101.891373992
46.3014954329
102.411754727
102.771065235
37.1204924583
101.961584091
102.391104698
29.8103821278
102.341544628
102.341544628
23.4708231688
102.358064651
101.978104115
29.4675916433
103.621846437
101.961584091
21.013469696

Block: 5
======================================
103.671406507
100.433481932
102.738025188
101.924414039
102.824755311
101.978104115
102.358064651
101.490763426
29.2900013924
101.581623554
101.924414039
5.14598727226
102.791715264
101.961584091
20.2865886688
102.395234704
102.411754727
103.65901649
101.978104115
63.1560492516
102.828885317
102.428274751
101.961584091
102.808235288
29.2569613457
102.358064651
103.65901649
103.675536513
102.411754727
43.5798215866
102.341544628
101.527933478
23.8673037291
101.891373992
102.395234704
102.358064651
102.391104698
13.0962485075
103.725096583
102.411754727
102.411754727
97.976128459
102.771065235
102.411754727
102.791715264
103.258405924
8.95798265934
102.378714681
93.3876919746
102.374584675
101.457723379
101.854203939
102.828885317
103.2418859
102.407624722
102.411754727
101.961584091
102.775195241
102.391104698
103.072555661
102.391104698
103.2418859
101.957454085
101.957454085
103.258405924
102.411754727
101.961584091
101.957454085
102.775195241
24.2348742485
101.961584091
100.92082262
101.511413455
102.775195241
102.44892478

Block: 6
======================================
43.3072412014
102.791715264
101.940934062
102.411754727
103.279055953
103.258405924
89.2287760973
101.961584091
102.395234704
103.675536513
92.7103710175
102.791715264
92.0000100136
102.791715264
91.9834899902
102.395234704
101.978104115
102.395234704
99.1201400757
101.494893432
97.6292079687
101.978104115
93.7841725349
103.258405924
93.8874226809
101.978104115
97.3855376244
103.36165607
93.9369827509
102.374584675
100.17742157
102.808235288
101.181012988
103.692056537
96.9188469648
101.957454085
102.428274751
102.808235288
97.8026682138
101.994624138
90.7031881809
101.077762842
91.7067795992
102.358064651
87.3248434067
102.391104698
95.9854656458
102.362194657
100.904302597
101.940934062
96.9353669882
102.812365294
102.808235288
102.791715264
95.3783547878
101.973974109
96.8321168423
102.378714681
98.5130292177
103.675536513
90.4429978132
102.358064651
100.053521395
102.407624722
100.210461617
102.791715264
102.358064651
101.928544044
97.9596084356
103.654886484
87.4776536226
103.221235871
80.4483836889
102.411754727
81.5923953056

Block: 7
======================================
102.374584675
102.304374576
102.808235288
101.957454085
68.5085368156
102.378714681
59.9718147516
101.945064068
95.0644743443
101.928544044
58.8112831116
102.411754727
68.8058972359
102.808235288
100.99103272
103.258405924
94.6143037081
102.407624722
96.0019856691
103.258405924
86.6310024261
101.544453502
99.9667912722
102.775195241
101.924414039
101.961584091
67.5586354733
102.358064651
92.5369107723
101.940934062
91.3061690331
101.945064068
58.9640933275
102.411754727
79.8743128777
101.957454085
44.0836822987
101.887243986
76.9998288155
102.395234704
89.4187563658
103.2418859
85.5902409554
102.374584675
86.8746727705
102.378714681
89.8524069786
103.225365877
81.5882652998
101.912024021
55.9326690435
102.754545212
84.4999194145
103.188195825
96.3489061594
101.924414039
100.264151692
103.246015906
96.0887157917
103.70857656
99.7602909803
102.407624722
101.490763426
101.994624138
101.474243402
102.358064651
102.391104698
102.374584675
102.771065235
101.978104115
101.928544044
102.358064651
102.411754727
101.957454085
101.490763426

Block: 8
======================================
103.692056537
1.95762276649
103.208845854
101.928544044
101.507283449
102.395234704
102.378714681
101.924414039
102.395234704
102.84540534
102.411754727
103.692056537
101.560973525
103.2418859
9.90788400173
101.978104115
101.961584091
102.391104698
101.945064068
101.978104115
101.928544044
26.2296670675
102.358064651
102.411754727
101.940934062
101.961584091
13.3564388752
101.961584091
101.907894015
102.754545212
103.19232583
101.978104115
101.924414039
21.2199699879
101.924414039
101.957454085
101.912024021
103.2418859
102.775195241
101.961584091
102.808235288
102.395234704
102.358064651
101.474243402
102.341544628
102.395234704
101.907894015
101.494893432
20.4063588381
102.341544628
101.507283449
7.46292054653
103.675536513
101.474243402
101.940934062
102.358064651
26.2792271376
101.928544044
102.791715264
17.3253744841
101.114932895
101.928544044
11.3988161087
102.84540534
101.945064068
102.828885317
101.511413455
17.1312642097
102.428274751
103.258405924
101.527933478
103.204715848
24.5611447096
101.978104115
102.378714681

Block: 9
======================================
102.358064651
102.374584675
101.940934062
101.907894015
9.80463385582
102.411754727
101.957454085
102.374584675
101.924414039
103.279055953
102.824755311
22.0707511902
103.696186543
103.221235871
103.19232583
101.945064068
45.2276939154
103.225365877
102.411754727
19.1549670696
101.961584091
101.474243402
102.791715264
101.994624138
22.1037912369
101.994624138
101.928544044
103.2418859
102.428274751
102.395234704
102.411754727
46.5823358297
101.924414039
102.428274751
29.7938621044
102.341544628
102.791715264
5.33596754074
102.791715264
101.907894015
39.9123764038
103.208845854
101.994624138
30.6239932775
103.65901649
101.527933478
23.0206525326
103.274925947
101.527933478
13.7033593655
102.808235288
101.912024021
2.75471389294
102.374584675
102.411754727
0.586460828781
102.428274751
101.474243402
3.74178528786
101.994624138
101.945064068
11.8861567974
102.374584675
101.945064068
2.92817413807
102.808235288
103.675536513
102.808235288
101.474243402
38.3181941509
101.994624138
101.945064068
102.358064651
102.341544628
22.0872712135

Block: 10
======================================
101.961584091
68.8182872534
102.791715264
93.9576327801
102.391104698
102.444794774
102.424144745
101.924414039
0.156940221786
101.565103531
102.395234704
101.945064068
101.945064068
0.330400466919
101.907894015
101.978104115
4.88166689873
101.924414039
101.474243402
101.404033303
101.945064068
12.2991573811
101.945064068
101.544453502
101.527933478
101.957454085
28.8233107328
102.812365294
101.940934062
22.7976322174
102.011144161
101.907894015
32.9450565577
101.945064068
102.378714681
102.775195241
102.391104698
46.3882255554
103.65901649
101.978104115
102.84540534
102.391104698
102.395234704
102.395234704
102.374584675
102.395234704
4.50583636761
103.26253593
102.378714681
34.1262382269
102.828885317
102.374584675
55.7633388042
102.374584675
102.411754727
44.5173329115
102.791715264
101.907894015
23.9209938049
103.654886484
102.395234704
42.9272806644
101.957454085
101.907894015
40.6020873785
102.378714681
101.544453502
44.8477333784
101.907894015
101.945064068
25.7588464022
102.775195241
102.391104698
49.1966295242
102.378714681
