
Block: 1
======================================
100.813442469
100.383921862
100.416961908
101.441203356
100.383921862
100.813442469
100.813442469
100.796922445
100.801052451
100.801052451

Block: 2
======================================
100.383921862
100.801052451
100.383921862
101.284263134
100.383921862
100.383921862
100.796922445
100.801052451
100.780402422
100.801052451

Block: 3
======================================
100.416961908
100.784532428
100.801052451
100.454131961
100.817572474
100.383921862
100.834092498
101.234703064
100.768012404
101.251223087

Block: 4
======================================
100.813442469
100.801052451
100.834092498
101.214053035
100.383921862
100.834092498
100.796922445
100.780402422
101.267743111
100.780402422

Block: 5
======================================
100.404571891
100.801052451
100.796922445
100.557382107
100.796922445
100.817572474
100.817572474
100.801052451
100.784532428
100.520212054

Block: 6
======================================
100.400441885
100.817572474
100.834092498
100.817572474
100.817572474
100.416961908
100.763882399
100.383921862
100.801052451
100.801052451

Block: 7
======================================
100.350881815
100.796922445
100.834092498
100.801052451
100.383921862
100.801052451
100.796922445
101.251223087
100.768012404
100.784532428

Block: 8
======================================
100.796922445
100.784532428
100.367401838
101.267743111
100.350881815
100.763882399
100.817572474
100.801052451
101.251223087
100.801052451

Block: 9
======================================
100.416961908
100.817572474
100.796922445
101.214053035
100.367401838
100.801052451
100.834092498
100.763882399
100.433481932
101.251223087

Block: 10
======================================
100.817572474
100.784532428
100.834092498
100.768012404
100.850612521
100.404571891
100.801052451
100.784532428
100.801052451
100.817572474
