
Block: 1
======================================
100.817572474
100.834092498
100.813442469
101.804643869
100.813442469
100.400441885
100.784532428
100.780402422
100.780402422
100.801052451
100.817572474
101.267743111
100.784532428
100.801052451
100.813442469
100.784532428
100.780402422
100.801052451
100.763882399
100.763882399
100.801052451
100.784532428
100.817572474
100.780402422
100.768012404
101.247093081
100.780402422
100.780402422
100.796922445
101.251223087
100.796922445
100.817572474
100.780402422
100.784532428
100.817572474
100.780402422
100.801052451
101.251223087
101.6848737
101.218183041
101.247093081
100.801052451
100.801052451
101.247093081
100.817572474
100.763882399
100.817572474
100.796922445
100.817572474
100.796922445

Block: 2
======================================
100.383921862
100.801052451
100.834092498
100.817572474
100.416961908
100.367401838
100.780402422
101.251223087
100.763882399
100.801052451
100.796922445
100.763882399
100.784532428
100.780402422
100.801052451
100.801052451
100.768012404
100.796922445
100.796922445
100.801052451
100.780402422
100.780402422
100.817572474
100.834092498
100.817572474
100.817572474
100.801052451
100.817572474
100.801052451
100.784532428
100.784532428
100.780402422
100.817572474
100.801052451
100.801052451
100.817572474
100.817572474
100.796922445
101.284263134
100.801052451
101.664223671
100.796922445
100.780402422
100.801052451
100.780402422
100.784532428
100.784532428
100.763882399
100.796922445
100.801052451

Block: 3
======================================
100.433481932
100.801052451
100.850612521
101.6848737
100.416961908
100.817572474
100.817572474
100.796922445
100.763882399
100.801052451
100.796922445
100.801052451
100.784532428
100.784532428
100.817572474
100.763882399
100.796922445
100.817572474
100.801052451
101.263613105
101.267743111
100.801052451
100.817572474
100.784532428
101.251223087
101.267743111
100.801052451
100.780402422
100.784532428
100.784532428
100.784532428
100.801052451
100.784532428
100.763882399
100.780402422
100.801052451
100.780402422
100.834092498
100.801052451
100.784532428
100.796922445
100.784532428
100.817572474
101.6848737
100.784532428
100.817572474
100.801052451
100.817572474
100.817572474
101.267743111

Block: 4
======================================
100.383921862
100.817572474
100.784532428
100.780402422
100.383921862
101.43707335
100.784532428
100.801052451
100.813442469
100.801052451
100.801052451
100.780402422
101.247093081
100.801052451
100.817572474
100.796922445
100.834092498
100.801052451
100.813442469
100.796922445
100.768012404
100.780402422
100.796922445
100.784532428
100.780402422
100.383921862
100.780402422
100.801052451
100.780402422
100.801052451
100.784532428
100.817572474
100.813442469
100.801052451
101.214053035
100.817572474
100.801052451
100.780402422
100.796922445
100.400441885
100.796922445
100.801052451
100.817572474
100.780402422
100.780402422
100.780402422
100.784532428
100.796922445
100.784532428
100.784532428

Block: 5
======================================
100.383921862
100.780402422
100.817572474
100.801052451
100.400441885
100.454131961
100.817572474
101.251223087
100.763882399
100.780402422
100.784532428
100.801052451
100.784532428
100.796922445
100.817572474
100.801052451
100.801052451
100.796922445
100.801052451
100.780402422
100.796922445
100.817572474
100.780402422
100.796922445
100.801052451
100.780402422
100.796922445
100.763882399
100.801052451
100.817572474
100.796922445
100.796922445
100.801052451
100.801052451
100.801052451
100.503692031
100.784532428
100.817572474
100.838222504
100.784532428
100.784532428
100.780402422
100.817572474
100.784532428
100.796922445
101.267743111
100.784532428
101.664223671
100.780402422
100.784532428

Block: 6
======================================
100.433481932
100.780402422
100.796922445
100.768012404
100.416961908
100.400441885
100.796922445
100.801052451
100.784532428
100.784532428
100.780402422
100.801052451
100.780402422
100.780402422
100.780402422
100.784532428
100.763882399
100.780402422
101.267743111
100.817572474
100.801052451
100.817572474
100.784532428
100.784532428
101.6848737
100.796922445
100.801052451
100.817572474
100.801052451
100.801052451
100.801052451
100.801052451
100.796922445
100.784532428
100.817572474
100.796922445
101.251223087
100.784532428
100.801052451
101.284263134
100.784532428
100.768012404
101.664223671
100.780402422
100.801052451
100.784532428
100.801052451
100.784532428
100.784532428
100.817572474

Block: 7
======================================
100.834092498
100.817572474
100.801052451
100.817572474
100.421091914
100.850612521
100.817572474
100.817572474
100.780402422
100.784532428
100.817572474
100.801052451
100.801052451
100.784532428
100.801052451
100.801052451
100.801052451
100.780402422
100.768012404
100.796922445
100.796922445
100.784532428
100.801052451
100.780402422
100.784532428
100.796922445
100.780402422
100.801052451
100.784532428
101.267743111
101.267743111
100.780402422
100.801052451
100.784532428
100.796922445
100.801052451
100.780402422
100.796922445
100.784532428
100.817572474
100.817572474
100.780402422
100.780402422
100.768012404
100.801052451
100.801052451
100.817572474
100.780402422
100.801052451
100.784532428

Block: 8
======================================
101.247093081
101.251223087
100.817572474
101.267743111
100.796922445
100.780402422
100.817572474
100.780402422
101.6848737
101.251223087
101.247093081
100.768012404
100.780402422
101.251223087
100.730842352
100.433481932
100.768012404
100.784532428
100.784532428
101.267743111
100.801052451
101.247093081
101.251223087
101.680743694
101.267743111
101.247093081
101.284263134
101.267743111
101.668353677
100.784532428
101.234703064
100.780402422
100.780402422
100.801052451
101.234703064
100.796922445
100.817572474
100.801052451
101.197533011
100.780402422
100.780402422
100.801052451
100.817572474
100.796922445
101.251223087
100.780402422
100.796922445
100.768012404
101.664223671
100.796922445

Block: 9
======================================
100.801052451
100.784532428
100.383921862
100.421091914
100.796922445
100.780402422
100.796922445
100.763882399
100.367401838
100.780402422
100.817572474
100.400441885
100.780402422
100.780402422
101.230573058
101.230573058
100.801052451
100.784532428
100.780402422
100.780402422
100.796922445
100.796922445
100.780402422
101.284263134
100.801052451
100.784532428
100.784532428
100.801052451
101.251223087
101.230573058
101.263613105
101.680743694
101.267743111
100.801052451
100.801052451
100.801052451
100.768012404
100.801052451
100.784532428
101.230573058
100.801052451
100.801052451
100.780402422
100.796922445
100.780402422
100.747362375
100.780402422
100.763882399
100.780402422
100.796922445

Block: 10
======================================
100.367401838
100.363271832
100.383921862
100.817572474
100.817572474
100.768012404
101.267743111
101.251223087
100.763882399
100.780402422
100.780402422
100.796922445
100.817572474
100.817572474
101.197533011
100.801052451
100.801052451
100.763882399
100.801052451
100.780402422
100.796922445
100.801052451
100.801052451
100.780402422
100.801052451
100.801052451
100.780402422
100.780402422
100.784532428
101.680743694
101.251223087
100.796922445
100.780402422
101.247093081
100.796922445
100.763882399
100.780402422
101.234703064
100.817572474
100.780402422
100.780402422
101.651833653
100.801052451
100.780402422
100.763882399
100.801052451
100.780402422
100.801052451
100.796922445
100.780402422
