
Block: 1
======================================
301.356490803
300.511437583
301.376707387
301.392880654
300.968332386
300.52761085
302.666525459
301.392880654
300.511437583
300.52761085
301.376707387
300.531654167
300.968332386
301.376707387
301.376707387
301.396923971
301.376707387
301.392880654
301.392880654
300.531654167
300.511437583
300.98854897
300.495264316
301.817428923
300.935985851

Average distance is : 301.108 cm
Average deviation is : 0.525 cm
Block: 2
======================================
300.495264316
301.340317535
300.956202435
300.511437583
300.491220999
300.511437583
300.935985851
300.956202435
300.935985851
300.935985851
300.935985851
300.5154809
300.935985851
300.935985851
300.495264316
300.479091048
300.491220999
300.952159119
301.376707387
300.495264316
301.392880654
301.376707387
300.952159119
300.511437583
300.511437583

Average distance is : 300.817 cm
Average deviation is : 0.322 cm
Block: 3
======================================
300.887466049
301.328187585
300.935985851
300.495264316
301.797212338
300.495264316
300.491220999
300.919812584
301.817428923
301.83360219
300.935985851
301.36053412
301.817428923
301.801255655
300.495264316
300.495264316
300.968332386
300.495264316
300.495264316
301.36053412
300.935985851
302.205587339
301.356490803
300.935985851
301.356490803

Average distance is : 301.121 cm
Average deviation is : 0.534 cm
Block: 4
======================================
300.935985851
301.36053412
300.495264316
300.935985851
301.36053412
301.36053412
300.495264316
300.915769267
300.883422732
301.36053412
301.376707387
300.52761085
300.919812584
300.919812584
300.495264316
300.495264316
300.935985851
300.511437583
300.935985851
300.479091048
301.36053412
301.376707387
300.495264316
300.915769267
301.356490803

Average distance is : 300.928 cm
Average deviation is : 0.353 cm
Block: 5
======================================
301.376707387
300.458874464
300.479091048
300.919812584
300.903639317
300.475047731
300.511437583
300.935985851
300.511437583
300.495264316
300.495264316
300.952159119
300.495264316
300.491220999
300.475047731
300.511437583
300.479091048
300.952159119
300.475047731
300.952159119
300.511437583
300.495264316
300.495264316
301.376707387
300.915769267

Average distance is : 300.686 cm
Average deviation is : 0.288 cm
Block: 6
======================================
300.547827435
301.36053412
300.511437583
300.511437583
301.376707387
300.952159119
300.531654167
300.52761085
300.935985851
301.817428923
302.225803924
300.952159119
300.495264316
300.491220999
300.495264316
300.972375703
300.952159119
300.935985851
300.491220999
300.952159119
300.511437583
300.495264316
300.935985851
301.396923971
300.475047731

Average distance is : 300.874 cm
Average deviation is : 0.463 cm
Block: 7
======================================
301.376707387
300.935985851
300.547827435
300.52761085
302.205587339
300.511437583
300.495264316
300.952159119
300.491220999
300.495264316
300.495264316
300.495264316
300.5154809
300.935985851
300.495264316
300.52761085
301.413097239
300.952159119
300.511437583
300.511437583
300.491220999
300.935985851
300.935985851
301.376707387
301.376707387

Average distance is : 300.820 cm
Average deviation is : 0.441 cm
Block: 8
======================================
300.956202435
300.952159119
300.479091048
300.511437583
300.956202435
300.915769267
300.935985851
300.511437583
300.935985851
300.495264316
301.801255655
301.817428923
300.935985851
302.209630656
300.495264316
300.495264316
300.479091048
300.495264316
300.495264316
300.952159119
301.376707387
300.915769267
301.36053412
301.392880654
300.935985851

Average distance is : 300.952 cm
Average deviation is : 0.478 cm
Block: 9
======================================
301.376707387
301.356490803
300.952159119
300.919812584
301.36053412
300.475047731
301.36053412
300.52761085
300.511437583
300.479091048
300.511437583
300.919812584
301.781039071
300.972375703
300.495264316
300.511437583
300.935985851
301.36053412
300.495264316
300.495264316
300.919812584
301.396923971
300.070716047
301.781039071
300.952159119

Average distance is : 300.917 cm
Average deviation is : 0.457 cm
Block: 10
======================================
300.935985851
300.899596
300.479091048
300.495264316
301.36053412
300.475047731
300.495264316
300.935985851
300.495264316
300.952159119
300.495264316
300.479091048
300.915769267
300.511437583
300.511437583
300.495264316
300.479091048
300.458874464
300.479091048
301.356490803
301.801255655
301.340317535
302.205587339
300.935985851
300.915769267

Average distance is : 300.836 cm
Average deviation is : 0.467 cm