
Block: 1
======================================
100.400441885
100.400441885
100.817572474
100.801052451
100.801052451
100.817572474
100.834092498
100.817572474
100.796922445
100.834092498
100.404571891
100.404571891
100.834092498
100.437611938
100.813442469
100.817572474
100.801052451
100.404571891
100.817572474
100.780402422
100.784532428
100.817572474
100.834092498
100.801052451
100.400441885
100.817572474
100.817572474
100.400441885
100.383921862
100.834092498
100.780402422
100.813442469
100.801052451
100.801052451
100.817572474
101.354473233
100.817572474
100.817572474
100.817572474
100.834092498
100.813442469
100.867132545
100.834092498
100.796922445
100.817572474
100.834092498
100.834092498
100.796922445
100.817572474
100.817572474

Average distance is : 100.752 cm
Average deviation is : 0.182 cm
Block: 2
======================================
100.834092498
100.817572474
100.834092498
100.780402422
100.817572474
100.817572474
100.817572474
100.796922445
100.817572474
100.796922445
100.834092498
100.834092498
100.834092498
100.850612521
100.796922445
100.834092498
100.796922445
100.400441885
100.784532428
100.784532428
100.813442469
100.796922445
100.817572474
100.817572474
100.817572474
100.817572474
100.87126255
100.817572474
100.817572474
100.834092498
101.164492965
100.850612521
100.817572474
100.817572474
100.817572474
100.834092498
100.834092498
100.801052451
100.796922445
100.796922445
100.801052451
100.796922445
100.813442469
100.813442469
100.801052451
100.813442469
100.784532428
100.400441885
100.838222504
100.801052451

Average distance is : 100.806 cm
Average deviation is : 0.099 cm
Block: 3
======================================
100.817572474
100.817572474
100.834092498
100.817572474
100.367401838
100.817572474
100.796922445
100.813442469
100.850612521
100.817572474
100.817572474
100.813442469
100.850612521
100.834092498
100.817572474
100.834092498
100.817572474
100.801052451
100.383921862
100.400441885
100.801052451
100.383921862
100.383921862
100.834092498
100.817572474
100.817572474
101.664223671
101.284263134
100.796922445
100.834092498
100.817572474
100.834092498
100.813442469
100.796922445
100.817572474
100.437611938
100.834092498
100.817572474
100.834092498
100.834092498
100.817572474
100.834092498
100.834092498
100.817572474
100.383921862
100.834092498
100.817572474
100.437611938
100.850612521
100.834092498

Average distance is : 100.781 cm
Average deviation is : 0.216 cm
Block: 4
======================================
100.400441885
100.817572474
100.801052451
100.801052451
100.867132545
100.817572474
100.817572474
100.850612521
100.834092498
100.801052451
100.834092498
100.813442469
100.834092498
100.834092498
100.817572474
100.400441885
100.838222504
100.400441885
100.817572474
100.850612521
100.801052451
100.796922445
100.850612521
100.400441885
100.838222504
100.850612521
100.834092498
100.400441885
100.404571891
100.838222504
100.834092498
100.817572474
100.850612521
100.400441885
100.817572474
100.796922445
100.834092498
100.817572474
100.400441885
100.400441885
100.817572474
100.801052451
100.817572474
100.834092498
100.834092498
100.416961908
100.400441885
100.850612521
100.437611938
100.850612521

Average distance is : 100.726 cm
Average deviation is : 0.183 cm
Block: 5
======================================
100.433481932
100.437611938
100.784532428
100.383921862
100.813442469
100.796922445
100.817572474
100.817572474
100.817572474
100.801052451
100.796922445
100.817572474
100.780402422
100.784532428
100.421091914
100.784532428
100.817572474
100.834092498
100.796922445
100.817572474
100.817572474
100.796922445
100.801052451
100.817572474
100.437611938
100.400441885
100.850612521
100.784532428
100.796922445
100.854742527
100.801052451
100.867132545
100.796922445
100.834092498
100.817572474
100.813442469
100.854742527
100.834092498
100.400441885
100.834092498
100.801052451
100.416961908
101.494893432
100.801052451
100.796922445
100.383921862
100.817572474
100.780402422
100.383921862
100.817572474

Average distance is : 100.745 cm
Average deviation is : 0.196 cm
Block: 6
======================================
100.850612521
100.817572474
100.850612521
100.416961908
100.433481932
100.437611938
100.421091914
100.817572474
100.801052451
100.813442469
100.801052451
100.801052451
100.834092498
100.801052451
100.834092498
100.801052451
100.817572474
100.834092498
100.796922445
100.801052451
100.813442469
100.801052451
100.817572474
100.780402422
100.867132545
100.817572474
101.284263134
100.454131961
100.416961908
100.801052451
100.780402422
100.796922445
100.817572474
100.817572474
100.834092498
100.801052451
100.817572474
100.817572474
100.817572474
100.796922445
100.850612521
100.817572474
100.801052451
100.817572474
100.817572474
100.834092498
100.834092498
100.796922445
100.817572474
100.796922445

Average distance is : 100.778 cm
Average deviation is : 0.147 cm
Block: 7
======================================
100.437611938
100.817572474
100.850612521
100.834092498
100.801052451
100.801052451
100.801052451
100.817572474
100.834092498
100.784532428
100.383921862
100.801052451
100.801052451
100.817572474
100.801052451
100.796922445
100.817572474
100.796922445
100.817572474
100.817572474
100.817572474
100.796922445
100.796922445
100.813442469
100.801052451
100.850612521
100.834092498
100.813442469
100.850612521
100.834092498
100.854742527
100.363271832
100.817572474
100.850612521
100.383921862
100.817572474
100.817572474
100.801052451
100.801052451
100.834092498
100.834092498
100.867132545
100.817572474
100.817572474
100.383921862
100.437611938
100.834092498
100.801052451
100.801052451
100.801052451

Average distance is : 100.768 cm
Average deviation is : 0.139 cm
Block: 8
======================================
100.834092498
100.801052451
101.230573058
100.87126255
100.817572474
100.780402422
101.234703064
100.834092498
100.796922445
100.834092498
100.817572474
100.780402422
100.801052451
100.817572474
100.817572474
100.850612521
100.796922445
100.421091914
100.780402422
100.437611938
100.801052451
100.780402422
100.834092498
100.834092498
100.817572474
100.796922445
100.813442469
100.763882399
100.817572474
100.817572474
100.817572474
100.813442469
100.801052451
100.838222504
100.817572474
100.796922445
100.834092498
100.817572474
100.801052451
100.838222504
100.817572474
100.834092498
100.780402422
100.801052451
100.834092498
100.796922445
100.834092498
100.817572474
100.834092498
100.817572474

Average distance is : 100.816 cm
Average deviation is : 0.117 cm
Block: 9
======================================
100.400441885
100.367401838
100.813442469
100.937342644
100.834092498
100.854742527
100.854742527
100.834092498
100.796922445
100.854742527
100.813442469
100.801052451
100.817572474
100.834092498
100.834092498
100.817572474
100.834092498
100.801052451
100.834092498
100.813442469
100.817572474
100.817572474
100.801052451
100.817572474
100.817572474
100.854742527
100.817572474
101.300783157
101.284263134
101.284263134
100.817572474
100.834092498
100.780402422
100.796922445
100.834092498
100.796922445
100.834092498
100.850612521
100.834092498
100.817572474
100.383921862
100.817572474
100.416961908
100.801052451
100.416961908
100.416961908
100.796922445
100.404571891
100.796922445
100.801052451

Average distance is : 100.792 cm
Average deviation is : 0.196 cm
Block: 10
======================================
100.454131961
100.801052451
100.813442469
100.817572474
100.834092498
100.834092498
100.400441885
100.817572474
100.854742527
100.850612521
100.834092498
100.784532428
100.817572474
100.801052451
100.421091914
100.416961908
100.817572474
100.796922445
100.817572474
100.784532428
100.784532428
100.416961908
100.801052451
100.850612521
100.850612521
100.433481932
100.834092498
100.437611938
100.834092498
100.817572474
100.817572474
100.817572474
100.817572474
100.801052451
100.801052451
100.817572474
100.817572474
100.796922445
100.813442469
100.817572474
100.834092498
100.834092498
100.834092498
100.817572474
100.383921862
100.817572474
100.834092498
100.404571891
100.850612521
100.416961908

Average distance is : 100.740 cm
Average deviation is : 0.163 cm
Average distance for 10x50 is : 100.770 cm
Average deviation for 10x50 is : 0.164 cm
 Percentage of values that failed: 0.000