
Block: 1
======================================
100.416961908
100.854742527
100.817572474
100.813442469
100.780402422
100.817572474
100.834092498
100.817572474
100.817572474
100.383921862

Block: 2
======================================
100.433481932
100.400441885
100.801052451
100.780402422
100.817572474
100.817572474
100.817572474
100.834092498
100.796922445
100.817572474

Block: 3
======================================
100.817572474
100.796922445
101.664223671
100.400441885
100.367401838
100.796922445
100.784532428
100.817572474
100.817572474
100.817572474

Block: 4
======================================
100.834092498
100.813442469
100.801052451
100.383921862
101.424683332
100.801052451
100.404571891
100.780402422
100.834092498
100.834092498

Block: 5
======================================
100.813442469
100.850612521
100.834092498
100.834092498
100.796922445
100.813442469
100.817572474
100.404571891
100.400441885
100.400441885

Block: 6
======================================
100.433481932
100.416961908
100.834092498
100.817572474
100.801052451
100.817572474
100.834092498
100.801052451
100.850612521
100.850612521

Block: 7
======================================
100.416961908
100.796922445
100.801052451
100.813442469
100.801052451
100.796922445
100.850612521
100.747362375
100.796922445
100.817572474

Block: 8
======================================
100.416961908
100.854742527
100.817572474
100.796922445
100.834092498
100.817572474
100.400441885
100.817572474
100.416961908
100.817572474

Block: 9
======================================
100.383921862
100.854742527
100.784532428
100.834092498
100.817572474
100.817572474
100.801052451
100.834092498
100.817572474
100.763882399

Block: 10
======================================
100.768012404
100.796922445
100.801052451
100.817572474
100.817572474
100.834092498
101.251223087
101.251223087
100.416961908
100.801052451
