
Block: 1
======================================
50.4174697876
50.3846031189
50.4010364532
50.4010364532
50.3846031189
50.4010364532
15.1474259377
50.3681697845
50.4174697876
50.3846031189

Block: 2
======================================
50.0066364288
49.9696614265
49.9902030945
49.9860947609
50.3846031189
49.9737697601
50.4380114555
50.0230697632
49.9902030945
49.9860947609

Block: 3
======================================
50.4010364532
5.39013366699
50.0066364288
50.4010364532
50.4010364532
50.4010364532
50.4174697876
49.9902030945
50.4010364532
50.3846031189

Block: 4
======================================
50.4215781212
50.3846031189
50.0066364288
49.9696614265
50.4010364532
11.0308756828
49.9902030945
50.0025280952
49.9902030945
49.9902030945

Block: 5
======================================
49.9696614265
50.0230697632
50.0066364288
49.9573364258
50.0230697632
49.9737697601
50.4010364532
50.3887114525
50.4215781212
10.2872673035

Block: 6
======================================
50.0271780968
50.0230697632
50.0025280952
49.9902030945
50.0066364288
49.9902030945
50.4215781212
49.9902030945
49.9532280922
50.3887114525

Block: 7
======================================
50.4010364532
50.0025280952
50.4380114555
50.4010364532
6.94308376312
50.0066364288
49.9902030945
49.9902030945
49.9902030945
50.0230697632

Block: 8
======================================
50.0066364288
49.9696614265
49.9860947609
49.9902030945
49.9532280922
49.9860947609
49.9737697601
50.3846031189
7.78940048218
49.9902030945

Block: 9
======================================
50.4051447868
50.3846031189
49.9902030945
50.0230697632
50.0066364288
49.9532280922
49.9902030945
49.9902030945
49.9737697601
49.9860947609

Block: 10
======================================
50.4010364532
50.0066364288
50.4174697876
14.1491008759
50.0066364288
49.9696614265
50.0066364288
50.0025280952
49.9902030945
50.4010364532

Block: 1
======================================
50.3681697845
50.4051447868
50.3311947823
50.3846031189
50.3846031189
50.4010364532
3.44689188004
50.3681697845
50.3517364502
50.3846031189

Block: 2
======================================
50.3681697845
50.3681697845
50.3846031189
50.3476281166
50.3681697845
50.3846031189
50.3846031189
50.3681697845
50.4010364532
50.3846031189

Block: 3
======================================
50.3681697845
0.534083366394
50.3681697845
50.4010364532
50.3681697845
50.3887114525
50.3681697845
50.4051447868
50.3517364502
50.3846031189

Block: 4
======================================
50.3681697845
50.4051447868
50.4010364532
50.8488448143
50.3311947823
50.4215781212
16.2977593422
50.3476281166
50.3681697845
50.3846031189

Block: 5
======================================
50.3681697845
50.3517364502
50.3681697845
50.3846031189
50.3846031189
50.3517364502
50.3887114525
50.3476281166
50.3517364502
50.364061451

Block: 6
======================================
50.3846031189
50.8159781456
15.352842617
50.3353031158
50.3846031189
50.4215781212
50.3681697845
50.364061451
50.3846031189
50.3517364502

Block: 7
======================================
50.8693864822
50.8324114799
50.8324114799
50.3311947823
50.4010364532
50.4010364532
50.8365198135
18.1465094566
50.3846031189
50.3887114525

Block: 8
======================================
50.7666781425
50.3846031189
50.3681697845
50.3681697845
50.3517364502
50.3517364502
50.3846031189
50.3476281166
50.3681697845
50.3846031189

Block: 9
======================================
50.3681697845
50.3846031189
50.3681697845
50.3517364502
50.7461364746
20.1637012482
50.3681697845
50.4051447868
50.3846031189
50.4215781212

Block: 10
======================================
50.3846031189
50.3517364502
50.4174697876
50.3846031189
50.3517364502
50.3846031189
50.3681697845
50.3887114525
50.3681697845
1.19141674042

Block: 1
======================================
50.8324114799
50.8324114799
50.8488448143
50.8529531479
50.8159781456
50.9022531509
50.8652781487
50.3681697845
50.0230697632
50.4544447899

Block: 2
======================================
50.0436114311
0.13968334198
50.8324114799
50.8488448143
50.7995448112
50.4215781212
50.4174697876
50.8488448143
50.8324114799
50.8693864822

Block: 3
======================================
49.8505197525
50.4708781242
50.4544447899
50.8693864822
50.0271780968
5.11898365021
50.4544447899
50.0395030975
50.4174697876
50.0230697632

Block: 4
======================================
50.8693864822
50.8324114799
50.8159781456
49.0576113701
50.7461364746
50.8324114799
50.8324114799
50.4174697876
50.4544447899
4.2562335968

Block: 5
======================================
50.4215781212
50.4708781242
50.4174697876
50.4215781212
50.8324114799
50.4380114555
50.8529531479
50.8488448143
50.8858198166
50.8693864822

Block: 6
======================================
50.8159781456
50.8488448143
50.8529531479
50.8693864822
50.4380114555
50.4544447899
17.8178427696
50.0066364288
50.4174697876
50.4010364532

Block: 7
======================================
50.4051447868
50.3846031189
50.4215781212
50.3517364502
50.7831114769
50.8324114799
50.8488448143
50.4339031219
50.4380114555
50.4174697876

Block: 8
======================================
50.8159781456
7.0827671051
50.3681697845
50.8693864822
50.4010364532
50.4215781212
50.8324114799
50.9022531509
50.8529531479
50.881711483

Block: 9
======================================
50.8365198135
50.8858198166
50.4010364532
50.8324114799
50.3846031189
50.8693864822
18.3683594704
50.8693864822
50.4215781212
50.8858198166

Block: 10
======================================
50.8365198135
50.4174697876
50.4174697876
50.3846031189
50.4215781212
50.3681697845
50.8324114799
50.8488448143
50.8652781487
50.8488448143

Block: 1
======================================
50.0436114311
50.4215781212
50.4380114555
50.4339031219
50.4914197922
50.4873114586
50.0395030975
50.8858198166
11.7005340576
50.0230697632

Block: 2
======================================
50.0600447655
50.0066364288
50.4174697876
50.0271780968
50.0559364319
50.4339031219
50.0230697632
50.0395030975
50.4544447899
50.0230697632

Block: 3
======================================
50.0230697632
50.0395030975
0.599816703796
50.0395030975
50.0230697632
50.0395030975
50.4544447899
49.8176530838
50.0230697632
49.9902030945

Block: 4
======================================
49.8874947548
50.0230697632
50.0066364288
50.0436114311
50.4544447899
50.0066364288
20.3855512619
50.4380114555
50.4174697876
50.0230697632

Block: 5
======================================
50.0066364288
50.0436114311
50.0436114311
50.4380114555
50.4380114555
50.4010364532
50.4380114555
50.0066364288
50.4544447899
2.08292512894

Block: 6
======================================
49.9902030945
50.4215781212
50.4174697876
50.0066364288
50.0559364319
50.0436114311
49.9696614265
50.4051447868
50.4544447899
50.0230697632

Block: 7
======================================
50.4380114555
50.0230697632
50.0395030975
3.7919919014
50.0230697632
50.4380114555
50.0230697632
50.0230697632
50.4380114555
50.0230697632

Block: 8
======================================
50.0230697632
49.9902030945
50.0066364288
50.4380114555
50.4380114555
50.4380114555
2.53484182358
50.0436114311
50.0395030975
50.0066364288

Block: 9
======================================
50.4380114555
50.8488448143
50.4339031219
50.881711483
50.8488448143
50.4215781212
50.4339031219
50.4174697876
50.0436114311
50.4215781212

Block: 10
======================================
0.550516700745
50.0395030975
50.0066364288
50.0436114311
50.0230697632
49.9902030945
50.0395030975
50.0395030975
50.4380114555
50.0230697632

Block: 1
======================================
50.0395030975
3.03605852127
50.4380114555
50.4215781212
49.9902030945
50.0025280952
50.0066364288
50.4708781242
50.0395030975
50.0395030975

Block: 2
======================================
50.4708781242
50.4339031219
50.4544447899
50.0271780968
50.4174697876
6.32272539139
49.9902030945
50.0230697632
50.0230697632
50.0600447655

Block: 3
======================================
50.0395030975
50.8324114799
50.9022531509
50.8365198135
50.8858198166
50.4708781242
50.4380114555
50.4708781242
50.4339031219
50.0395030975

Block: 4
======================================
50.4544447899
50.0600447655
13.7177258492
50.8693864822
50.8324114799
50.8858198166
50.0230697632
50.0395030975
50.0066364288
50.0395030975

Block: 5
======================================
50.4380114555
50.8529531479
50.8365198135
50.8693864822
50.8652781487
50.8652781487
4.72458362579
50.4174697876
50.4339031219
50.4380114555

Block: 6
======================================
50.4544447899
50.8693864822
50.8652781487
50.8488448143
50.8693864822
50.8652781487
50.8858198166
50.8488448143
50.8693864822
50.4051447868

Block: 7
======================================
50.4544447899
12.5098757744
50.8488448143
50.8858198166
50.8652781487
50.8693864822
50.4380114555
50.0025280952
50.0395030975
50.0395030975

Block: 8
======================================
50.4708781242
50.0066364288
50.4380114555
50.4215781212
50.4544447899
4.23569192886
50.0066364288
50.0395030975
50.0395030975
50.0436114311

Block: 9
======================================
50.0066364288
50.0230697632
50.0230697632
50.0230697632
50.0230697632
50.0395030975
50.4215781212
50.4544447899
50.4544447899
19.0380178452

Block: 10
======================================
50.4544447899
49.9860947609
50.4544447899
49.9902030945
50.4544447899
50.4749864578
50.0559364319
50.4339031219
50.4544447899
50.0230697632

Block: 1
======================================
50.2654614449
50.2325947762
50.2449197769
50.2654614449
50.2983281136
50.2818947792
50.2490281105
50.6598614693
50.7091614723
50.6598614693

Block: 2
======================================
49.8669530869
50.3147614479
50.2818947792
50.2654614449
0.394400024414
50.2983281136
49.8505197525
49.9039280891
50.2654614449
50.692728138

Block: 3
======================================
50.2777864456
50.2490281105
50.2983281136
50.2284864426
50.2654614449
49.8135447502
50.2654614449
50.2654614449
4.77388362885
50.2490281105

Block: 4
======================================
50.2818947792
50.3024364471
50.2654614449
50.2325947762
50.2449197769
50.2654614449
50.2120531082
50.2284864426
50.2325947762
50.2284864426

Block: 5
======================================
49.8669530869
49.8340864182
49.8710614204
4.6547419548
50.2449197769
49.8505197525
49.8340864182
49.8669530869
49.8833864212
50.2654614449

Block: 6
======================================
49.8710614204
49.8710614204
49.8669530869
50.2818947792
49.8340864182
49.8505197525
50.2654614449
6.6185254097
50.2490281105
49.8710614204

Block: 7
======================================
49.8669530869
49.8874947548
49.8833864212
49.8669530869
49.8833864212
49.8710614204
49.8505197525
49.8340864182
50.2449197769
50.2983281136

Block: 8
======================================
50.2818947792
50.3353031158
5.30385866165
49.8874947548
49.8710614204
49.8505197525
49.8176530838
49.8505197525
49.8505197525
49.8505197525

Block: 9
======================================
49.8340864182
49.8669530869
49.8669530869
49.8710614204
49.8505197525
50.2490281105
9.78605060577
49.8669530869
49.8874947548
49.8833864212

Block: 10
======================================
49.8505197525
49.8669530869
49.8505197525
49.8176530838
49.8833864212
49.8340864182
50.2818947792
49.8340864182
49.9039280891
50.2490281105
