
Block: 1
======================================
301.016507101
300.996182156
300.557163334
302.341693544
300.585618258
300.553098345
301.028702068
300.569358301
301.016507101
300.585618258
300.996182156
301.016507101
300.996182156
301.455525923
301.000247145
301.016507101
300.589683247
301.902674723
301.012442112
301.06528697
300.57342329
300.996182156
301.012442112
300.605943203
301.016507101
300.536838388
301.032767057
300.589683247
301.016507101
300.585618258
300.553098345
300.553098345
300.553098345
300.557163334
301.012442112
300.569358301
300.569358301
301.455525923
300.557163334
300.57342329
301.471785879
301.032767057
301.012442112
300.553098345
301.028702068
300.605943203
300.589683247
300.12627449
300.557163334
301.475850868

Average distance is : 300.874 cm
Average deviation is : 0.396 cm
Block: 2
======================================
300.553098345
301.882349777
300.585618258
300.605943203
301.032767057
300.585618258
301.471785879
301.049027014
300.569358301
300.605943203
300.585618258
301.012442112
300.601878214
301.016507101
301.032767057
300.569358301
300.585618258
301.016507101
301.049027014
300.57342329
301.032767057
300.601878214
301.475850868
300.569358301
300.553098345
301.012442112
301.012442112
300.569358301
300.536838388
301.471785879
300.589683247
300.589683247
300.57342329
300.57342329
300.589683247
300.605943203
300.553098345
301.471785879
300.569358301
300.536838388
301.455525923
301.898609734
300.589683247
300.162859392
301.475850868
301.032767057
301.459590912
300.589683247
301.016507101
301.032767057

Average distance is : 300.864 cm
Average deviation is : 0.397 cm
Block: 3
======================================
301.488045835
300.557163334
301.016507101
300.569358301
300.589683247
300.569358301
301.866089821
300.996182156
300.557163334
301.012442112
300.569358301
300.996182156
300.589683247
301.902674723
300.589683247
300.57342329
300.585618258
301.032767057
300.57342329
301.455525923
300.585618258
301.012442112
300.557163334
301.012442112
300.553098345
300.553098345
301.455525923
301.016507101
300.996182156
301.459590912
301.455525923
301.459590912
300.996182156
300.536838388
300.536838388
301.016507101
300.569358301
300.589683247
301.028702068
301.459590912
300.57342329
300.57342329
301.016507101
300.553098345
301.012442112
301.886414766
300.557163334
300.553098345
301.898609734
301.012442112

Average distance is : 300.932 cm
Average deviation is : 0.427 cm
Block: 4
======================================
300.996182156
301.016507101
300.569358301
301.439265966
300.553098345
301.459590912
301.016507101
300.569358301
301.012442112
301.455525923
300.979922199
300.569358301
300.996182156
300.553098345
301.439265966
300.553098345
301.439265966
300.536838388
301.439265966
301.459590912
300.536838388
300.557163334
300.553098345
301.471785879
300.536838388
300.557163334
300.536838388
300.569358301
301.406746054
300.996182156
301.882349777
300.569358301
301.439265966
300.536838388
301.032767057
301.443330956
300.569358301
301.439265966
301.443330956
300.536838388
300.536838388
300.979922199
301.42300601
301.42300601
300.979922199
300.520578432
300.979922199
300.536838388
300.569358301
301.42300601

Average distance is : 300.961 cm
Average deviation is : 0.410 cm
Block: 5
======================================
300.57342329
301.459590912
302.329498577
300.536838388
300.536838388
300.979922199
300.536838388
300.536838388
300.996182156
301.439265966
300.536838388
300.963662243
301.443330956
300.979922199
300.996182156
300.536838388
300.996182156
301.443330956
300.569358301
300.520578432
300.553098345
302.292913675
300.979922199
300.979922199
300.536838388
300.536838388
300.996182156
301.406746054
301.443330956
300.979922199
300.979922199
300.536838388
301.42300601
300.520578432
300.520578432
301.849829865
301.42300601
300.963662243
301.439265966
300.553098345
300.979922199
300.996182156
300.963662243
300.516513443
301.833569908
301.42300601
301.42300601
300.536838388
300.536838388
300.520578432

Average distance is : 300.991 cm
Average deviation is : 0.478 cm
Block: 6
======================================
300.520578432
300.553098345
300.979922199
301.439265966
300.569358301
300.536838388
300.516513443
300.996182156
300.520578432
301.42300601
301.849829865
301.000247145
300.996182156
300.536838388
302.309173632
301.439265966
300.520578432
301.012442112
300.536838388
301.439265966
300.979922199
300.536838388
300.520578432
300.553098345
300.963662243
300.553098345
300.979922199
300.979922199
301.000247145
300.553098345
300.520578432
300.557163334
300.569358301
300.996182156
300.536838388
300.979922199
302.309173632
300.996182156
301.42300601
300.996182156
300.516513443
301.000247145
301.406746054
300.536838388
301.42300601
300.536838388
301.42300601
300.536838388
300.536838388
301.866089821

Average distance is : 300.940 cm
Average deviation is : 0.476 cm
Block: 7
======================================
301.459590912
300.979922199
300.57342329
300.996182156
300.569358301
300.536838388
301.439265966
300.553098345
300.979922199
300.569358301
301.032767057
301.016507101
300.536838388
300.553098345
300.553098345
300.536838388
300.536838388
300.536838388
301.42300601
300.996182156
301.42300601
300.996182156
300.553098345
300.996182156
300.553098345
301.427070999
300.553098345
300.569358301
301.000247145
300.979922199
301.016507101
300.536838388
300.996182156
301.000247145
301.439265966
301.439265966
301.42300601
301.012442112
300.996182156
300.553098345
302.309173632
301.42300601
300.57342329
300.553098345
300.553098345
300.57342329
301.459590912
300.996182156
300.553098345
301.439265966

Average distance is : 300.926 cm
Average deviation is : 0.402 cm
Block: 8
======================================
301.42300601
301.443330956
300.536838388
300.553098345
300.996182156
302.292913675
301.016507101
300.996182156
300.553098345
300.979922199
301.439265966
300.979922199
301.439265966
301.439265966
300.536838388
300.996182156
301.886414766
300.553098345
301.439265966
300.979922199
300.57342329
302.276653719
300.996182156
300.979922199
301.455525923
300.569358301
300.57342329
300.996182156
300.553098345
301.000247145
300.553098345
300.553098345
300.996182156
301.42300601
300.569358301
301.882349777
300.553098345
301.016507101
300.996182156
301.439265966
300.996182156
301.439265966
301.012442112
301.42300601
300.569358301
300.536838388
301.032767057
301.000247145
300.979922199
300.589683247

Average distance is : 301.040 cm
Average deviation is : 0.452 cm
Block: 9
======================================
300.553098345
300.569358301
301.866089821
300.979922199
300.996182156
300.520578432
300.585618258
300.536838388
300.996182156
300.996182156
301.882349777
301.012442112
301.012442112
300.996182156
301.016507101
300.553098345
301.439265966
301.886414766
300.996182156
300.557163334
300.569358301
300.536838388
300.589683247
301.886414766
300.557163334
300.57342329
301.000247145
300.996182156
300.557163334
300.57342329
301.443330956
300.979922199
300.996182156
300.57342329
300.57342329
301.012442112
300.569358301
300.996182156
300.57342329
301.012442112
301.443330956
301.882349777
301.439265966
300.57342329
301.000247145
300.589683247
301.032767057
301.439265966
302.309173632
300.553098345

Average distance is : 300.976 cm
Average deviation is : 0.464 cm
Block: 10
======================================
300.569358301
300.569358301
300.585618258
301.032767057
300.57342329
300.569358301
300.57342329
301.902674723
301.475850868
300.569358301
301.016507101
300.57342329
300.553098345
302.329498577
301.455525923
302.735997486
300.569358301
300.536838388
301.012442112
300.996182156
300.569358301
300.996182156
300.996182156
300.996182156
301.42300601
300.553098345
300.979922199
301.012442112
300.553098345
301.012442112
301.455525923
300.979922199
300.996182156
301.012442112
301.016507101
301.882349777
301.016507101
300.569358301
300.996182156
300.536838388
300.585618258
300.557163334
300.979922199
300.996182156
300.996182156
300.553098345
300.57342329
300.553098345
301.459590912
301.012442112

Average distance is : 300.960 cm
Average deviation is : 0.481 cm