
Block: 1
======================================
301.032767057
300.536838388
300.996182156
300.553098345
300.536838388
301.886414766
301.012442112
300.979922199
301.000247145
301.439265966

Block: 2
======================================
300.557163334
300.553098345
300.979922199
300.569358301
300.57342329
301.459590912
300.536838388
300.536838388
300.996182156
300.996182156

Block: 3
======================================
300.979922199
301.849829865
301.406746054
301.866089821
300.585618258
300.467733574
300.553098345
300.536838388
300.979922199
300.553098345

Block: 4
======================================
300.569358301
301.455525923
300.589683247
300.569358301
301.032767057
300.553098345
300.553098345
301.016507101
300.553098345
301.866089821

Block: 5
======================================
300.569358301
300.536838388
300.569358301
301.016507101
300.569358301
301.000247145
301.443330956
301.459590912
300.569358301
300.557163334

Block: 6
======================================
300.536838388
301.439265966
301.032767057
300.585618258
300.57342329
300.585618258
301.455525923
300.589683247
300.553098345
300.553098345

Block: 7
======================================
300.536838388
300.585618258
300.557163334
301.439265966
300.589683247
300.553098345
301.439265966
300.553098345
301.032767057
301.866089821

Block: 8
======================================
300.589683247
301.439265966
300.996182156
300.142534447
301.028702068
300.553098345
300.996182156
301.044962025
301.475850868
300.585618258

Block: 9
======================================
300.553098345
300.589683247
301.016507101
300.585618258
301.455525923
301.016507101
300.57342329
300.585618258
300.12627449
301.032767057

Block: 10
======================================
301.012442112
301.866089821
300.57342329
300.569358301
301.012442112
301.028702068
300.589683247
300.557163334
300.589683247
300.57342329
