
Block: 1
======================================
200.503559995
200.043399906
200.059688759
200.059688759
199.990461135

Block: 2
======================================
200.039327693
199.59952867
200.947431231
200.947431231
200.059688759

Block: 3
======================================
199.615817523
200.931142378
200.947431231
200.059688759
200.027111053

Block: 4
======================================
200.02303884
199.579167604
200.470982289
200.487271142
200.931142378

Block: 5
======================================
200.454693437
200.454693437
199.994533348
200.503559995
200.043399906

Block: 6
======================================
200.947431231
200.914853525
200.914853525
200.027111053
200.470982289

Block: 7
======================================
200.006749988
200.039327693
200.043399906
200.043399906
200.043399906

Block: 8
======================================
200.043399906
199.990461135
200.963720083
200.434332371
200.027111053

Block: 9
======================================
199.990461135
200.039327693
200.454693437
108.100970888
199.171946287

Block: 10
======================================
200.043399906
200.043399906
110.935231256
198.349359226
200.910781312
