
Block: 1
======================================
100.140251517
100.144381523
100.17742157
100.210461617
100.730842352
100.160901546
100.17742157
100.173291564
100.160901546
100.231111646
100.156771541
100.17742157
100.17742157
100.210461617
100.17742157
99.743770957
100.173291564
100.156771541
100.193941593
100.210461617
100.140251517
100.17742157
100.17742157
100.144381523
99.743770957
100.123731494
100.144381523
100.1278615
100.090691447
100.107211471
100.090691447
100.173291564
100.053521395
100.144381523
100.144381523
100.140251517
100.123731494
100.156771541
100.123731494
100.156771541
100.123731494
100.17742157
100.123731494
100.17742157
99.8098510504
100.210461617
100.160901546
100.140251517
100.160901546
100.107211471
100.156771541
100.140251517
100.160901546
100.144381523
100.123731494
100.144381523
100.140251517
99.7602909803
100.123731494
100.17742157
100.123731494
100.107211471
100.210461617
100.22698164
100.140251517
100.17742157
100.123731494
100.173291564
100.189811587
100.140251517
100.156771541
100.210461617
100.107211471
100.140251517
100.160901546
100.140251517
100.144381523
100.140251517
100.17742157
100.144381523
100.140251517
99.7602909803
100.144381523
99.743770957
100.123731494
100.144381523
100.193941593
100.140251517
100.140251517
100.17742157
100.123731494
100.123731494
100.140251517
100.140251517
100.160901546
100.17742157
100.173291564
100.17742157
100.160901546
100.140251517

Average distance is : 100.136 cm
Average deviation is : 0.116 cm
Block: 2
======================================
100.140251517
100.17742157
100.173291564
100.17742157
99.7066009045
100.173291564
100.107211471
100.17742157
100.107211471
100.140251517
100.156771541
100.156771541
100.140251517
100.17742157
100.123731494
100.160901546
100.17742157
100.193941593
100.140251517
100.123731494
100.17742157
100.193941593
100.17742157
100.107211471
100.173291564
100.160901546
100.193941593
100.160901546
100.140251517
100.140251517
99.7602909803
100.193941593
100.160901546
99.7768110037
100.173291564
100.140251517
99.743770957
100.210461617
99.7231209278
100.210461617
100.156771541
100.140251517
100.193941593
100.210461617
100.210461617
99.7602909803
100.17742157
100.156771541
100.210461617
100.193941593
100.140251517
100.193941593
100.140251517
100.173291564
100.140251517
100.17742157
100.140251517
100.193941593
100.123731494
100.17742157
100.210461617
99.743770957
100.140251517
100.140251517
100.193941593
100.123731494
100.17742157
100.156771541
100.193941593
100.193941593
100.193941593
100.189811587
100.160901546
100.160901546
100.156771541
100.140251517
100.17742157
100.123731494
100.160901546
100.160901546
100.193941593
100.123731494
100.140251517
100.173291564
100.247631669
100.156771541
100.17742157
100.140251517
100.160901546
100.160901546
100.160901546
100.140251517
100.140251517
100.17742157
100.173291564
100.123731494
100.156771541
100.140251517
100.156771541
100.140251517

Average distance is : 100.134 cm
Average deviation is : 0.111 cm
Block: 3
======================================
100.17742157
100.160901546
100.173291564
100.123731494
100.156771541
100.144381523
100.156771541
100.140251517
100.173291564
100.173291564
100.193941593
100.17742157
100.107211471
100.22698164
100.210461617
100.140251517
100.193941593
100.231111646
100.160901546
100.156771541
100.160901546
100.140251517
100.160901546
100.123731494
100.123731494
100.156771541
100.123731494
100.156771541
100.22698164
100.070041418
100.140251517
100.243501663
100.22698164
100.193941593
100.17742157
100.140251517
100.193941593
100.140251517
100.156771541
100.160901546
100.156771541
100.156771541
100.22698164
100.160901546
100.193941593
100.140251517
100.17742157
100.160901546
100.140251517
100.173291564
100.189811587
100.193941593
100.144381523
100.107211471
99.7768110037
100.144381523
100.140251517
100.193941593
100.156771541
100.193941593
100.144381523
100.156771541
100.123731494
100.173291564
100.160901546
100.156771541
99.7602909803
100.144381523
100.156771541
99.9337512255
100.156771541
100.160901546
100.156771541
99.743770957
100.210461617
100.156771541
100.140251517
100.173291564
100.173291564
100.173291564
100.173291564
100.156771541
100.140251517
100.156771541
100.140251517
100.193941593
100.193941593
100.140251517
100.660632253
100.193941593
100.193941593
100.123731494
100.17742157
100.156771541
100.160901546
100.160901546
100.140251517
100.193941593
100.17742157
100.173291564

Average distance is : 100.155 cm
Average deviation is : 0.093 cm
Block: 4
======================================
100.123731494
100.160901546
100.210461617
100.17742157
100.140251517
100.193941593
100.193941593
100.173291564
100.144381523
100.17742157
100.193941593
100.140251517
99.7272509336
100.140251517
100.156771541
100.17742157
100.123731494
100.144381523
100.160901546
100.160901546
100.156771541
100.193941593
100.144381523
100.160901546
99.7272509336
100.140251517
100.160901546
100.17742157
100.140251517
100.17742157
100.17742157
100.17742157
100.140251517
100.156771541
100.160901546
100.107211471
100.173291564
100.17742157
100.173291564
100.156771541
100.140251517
100.160901546
100.193941593
100.193941593
100.17742157
100.17742157
100.144381523
100.160901546
100.140251517
100.160901546
100.160901546
100.17742157
100.140251517
100.173291564
100.156771541
100.193941593
100.140251517
100.160901546
100.193941593
100.103081465
100.17742157
100.1278615
100.156771541
100.210461617
100.160901546
100.193941593
100.156771541
100.160901546
100.123731494
100.243501663
100.17742157
100.140251517
99.7396409512
100.156771541
100.156771541
100.156771541
100.140251517
100.140251517
100.156771541
100.156771541
100.17742157
100.140251517
100.140251517
100.144381523
99.7272509336
100.156771541
100.123731494
100.17742157
100.123731494
100.140251517
99.7066009045
100.107211471
100.173291564
100.144381523
100.156771541
100.140251517
100.193941593
100.193941593
100.193941593
100.173291564

Average distance is : 100.139 cm
Average deviation is : 0.098 cm
Block: 5
======================================
99.743770957
100.156771541
100.140251517
100.123731494
100.160901546
100.160901546
100.17742157
100.156771541
100.156771541
100.160901546
100.189811587
100.140251517
100.17742157
100.22698164
100.160901546
100.189811587
100.17742157
100.17742157
100.156771541
100.160901546
100.210461617
100.160901546
100.144381523
100.140251517
100.17742157
100.17742157
100.140251517
100.140251517
100.107211471
100.144381523
100.210461617
100.156771541
100.160901546
100.160901546
100.173291564
100.173291564
100.173291564
100.156771541
100.144381523
100.140251517
100.140251517
100.17742157
100.173291564
100.193941593
100.160901546
100.123731494
100.17742157
100.17742157
100.160901546
100.17742157
100.173291564
100.156771541
100.173291564
100.160901546
100.160901546
100.123731494
100.144381523
100.156771541
100.193941593
100.123731494
100.156771541
100.193941593
100.193941593
99.7602909803
100.140251517
100.193941593
100.17742157
100.140251517
100.193941593
100.17742157
100.160901546
100.140251517
100.193941593
100.156771541
100.156771541
100.193941593
100.210461617
100.160901546
100.189811587
100.193941593
100.140251517
100.17742157
100.123731494
100.107211471
99.7231209278
100.140251517
100.156771541
100.123731494
100.107211471
100.173291564
100.193941593
100.140251517
100.140251517
100.144381523
100.160901546
100.156771541
100.210461617
100.160901546
100.160901546
100.107211471

Average distance is : 100.150 cm
Average deviation is : 0.076 cm
Block: 6
======================================
100.156771541
100.17742157
99.7602909803
100.156771541
100.156771541
100.17742157
100.160901546
100.17742157
100.17742157
100.140251517
100.156771541
100.193941593
100.123731494
100.144381523
100.156771541
100.17742157
100.156771541
100.144381523
100.140251517
100.160901546
100.210461617
100.1278615
100.156771541
100.123731494
99.7602909803
100.140251517
100.140251517
100.17742157
100.231111646
100.156771541
100.140251517
100.193941593
100.22698164
100.140251517
100.160901546
100.17742157
100.156771541
100.17742157
100.193941593
100.160901546
100.156771541
100.454131961
100.160901546
100.210461617
100.156771541
100.17742157
100.17742157
100.17742157
100.17742157
100.156771541
100.156771541
100.140251517
100.17742157
100.210461617
100.210461617
100.160901546
100.140251517
100.160901546
100.160901546
100.160901546
100.144381523
100.144381523
100.144381523
100.140251517
100.17742157
100.123731494
100.156771541
100.156771541
100.173291564
100.123731494
100.193941593
100.107211471
100.123731494
100.160901546
100.140251517
100.140251517
100.17742157
100.231111646
100.140251517
100.123731494
100.193941593
100.123731494
100.123731494
100.156771541
100.173291564
100.193941593
100.17742157
100.123731494
100.156771541
100.17742157
100.193941593
99.743770957
100.17742157
100.123731494
100.1278615
100.173291564
99.7602909803
100.193941593
100.123731494
100.1278615

Average distance is : 100.148 cm
Average deviation is : 0.089 cm
Block: 7
======================================
100.140251517
100.107211471
100.144381523
100.160901546
100.144381523
100.140251517
100.140251517
100.17742157
100.193941593
100.156771541
100.17742157
100.160901546
100.160901546
100.144381523
100.193941593
99.7231209278
100.140251517
100.103081465
100.156771541
100.17742157
100.160901546
100.17742157
100.140251517
100.090691447
100.123731494
100.193941593
100.17742157
100.160901546
100.243501663
100.107211471
100.160901546
100.107211471
100.17742157
100.123731494
100.140251517
100.140251517
100.193941593
100.17742157
100.140251517
100.144381523
100.193941593
99.7231209278
100.160901546
100.210461617
100.156771541
100.156771541
100.144381523
100.160901546
100.17742157
99.7272509336
100.107211471
100.123731494
100.140251517
100.140251517
100.156771541
100.144381523
100.140251517
100.123731494
100.144381523
100.160901546
100.144381523
100.173291564
100.210461617
100.160901546
100.160901546
99.7066009045
100.156771541
100.123731494
100.144381523
100.123731494
100.140251517
100.123731494
100.156771541
100.193941593
100.144381523
100.193941593
100.123731494
100.123731494
100.107211471
100.173291564
100.156771541
100.17742157
99.7272509336
100.160901546
100.156771541
100.17742157
100.193941593
100.156771541
100.17742157
100.140251517
100.123731494
100.173291564
100.160901546
100.173291564
100.140251517
100.193941593
100.140251517
99.7231209278
99.7602909803
100.140251517

Average distance is : 100.125 cm
Average deviation is : 0.113 cm
Block: 8
======================================
100.160901546
100.123731494
100.193941593
100.156771541
100.140251517
100.103081465
100.156771541
100.17742157
100.140251517
100.140251517
100.189811587
100.144381523
100.17742157
100.140251517
99.743770957
100.140251517
100.17742157
100.189811587
100.173291564
100.17742157
100.17742157
100.160901546
100.173291564
100.156771541
100.193941593
100.160901546
100.193941593
100.140251517
100.140251517
100.140251517
100.160901546
100.173291564
100.193941593
100.1278615
100.17742157
100.140251517
100.140251517
100.193941593
100.140251517
100.140251517
100.160901546
100.173291564
100.17742157
100.123731494
100.123731494
100.156771541
100.140251517
99.7231209278
100.140251517
100.140251517
100.144381523
100.144381523
100.140251517
100.173291564
100.123731494
100.107211471
100.123731494
99.7602909803
100.123731494
99.743770957
100.090691447
100.144381523
100.193941593
100.160901546
100.140251517
100.144381523
100.140251517
100.193941593
100.140251517
100.140251517
100.123731494
100.17742157
100.140251517
100.140251517
100.173291564
100.140251517
100.123731494
100.123731494
100.17742157
100.17742157
99.743770957
100.156771541
100.17742157
100.156771541
100.156771541
99.7809410095
100.173291564
100.123731494
100.160901546
100.160901546
100.140251517
99.7396409512
100.144381523
100.156771541
100.107211471
100.210461617
100.17742157
100.17742157
100.144381523
99.7768110037

Average distance is : 100.122 cm
Average deviation is : 0.112 cm
Block: 9
======================================
100.144381523
100.144381523
100.193941593
100.140251517
100.173291564
100.123731494
100.107211471
100.210461617
99.7272509336
100.123731494
100.123731494
100.123731494
100.156771541
100.193941593
100.160901546
100.140251517
100.140251517
100.156771541
100.156771541
100.156771541
100.156771541
100.17742157
100.123731494
100.140251517
100.193941593
100.144381523
100.17742157
100.140251517
100.144381523
100.173291564
100.123731494
100.156771541
100.140251517
99.7066009045
100.17742157
100.144381523
100.144381523
100.156771541
100.156771541
100.160901546
100.156771541
100.17742157
100.144381523
100.193941593
100.193941593
100.160901546
100.193941593
100.140251517
100.123731494
100.140251517
100.193941593
100.140251517
100.144381523
99.7602909803
100.107211471
100.123731494
100.140251517
100.123731494
100.156771541
100.156771541
100.173291564
99.7066009045
100.17742157
100.17742157
99.7809410095
100.123731494
100.173291564
100.193941593
100.156771541
100.156771541
100.173291564
100.17742157
100.107211471
99.7272509336
100.140251517
100.160901546
100.123731494
99.7272509336
100.189811587
100.17742157
100.193941593
100.231111646
100.173291564
100.144381523
100.193941593
100.144381523
100.123731494
99.743770957
100.160901546
100.140251517
100.214591622
100.189811587
100.17742157
100.123731494
100.17742157
100.123731494
100.193941593
100.160901546
100.156771541
100.123731494

Average distance is : 100.123 cm
Average deviation is : 0.118 cm
Block: 10
======================================
100.173291564
100.123731494
100.173291564
100.160901546
100.140251517
100.144381523
99.743770957
100.160901546
100.193941593
100.140251517
100.17742157
100.123731494
100.123731494
99.7231209278
100.144381523
100.17742157
100.17742157
100.17742157
100.123731494
100.693672299
100.160901546
100.140251517
100.140251517
100.173291564
100.140251517
100.173291564
100.193941593
99.7107309103
99.743770957
100.173291564
100.107211471
100.140251517
100.156771541
100.156771541
100.210461617
100.189811587
100.17742157
100.17742157
100.144381523
100.140251517
100.140251517
99.6900808811
100.140251517
100.123731494
100.22698164
99.7231209278
100.1278615
100.144381523
100.1278615
100.160901546
100.140251517
100.107211471
100.160901546
100.144381523
99.9833112955
100.140251517
100.17742157
100.210461617
100.160901546
100.156771541
100.156771541
100.1278615
100.156771541
100.210461617
100.123731494
100.784532428
100.123731494
100.17742157
100.140251517
100.173291564
100.156771541
100.193941593
100.193941593
100.193941593
99.7272509336
100.611072183
100.214591622
100.140251517
100.140251517
100.156771541
100.123731494
100.193941593
100.193941593
100.140251517
100.123731494
100.160901546
100.123731494
100.210461617
100.140251517
100.156771541
100.140251517
100.107211471
100.140251517
100.210461617
100.193941593
100.140251517
100.123731494
100.160901546
100.156771541
100.140251517

Average distance is : 100.141 cm
Average deviation is : 0.152 cm
Average distance for 10x100 is : 100.172 cm
Average deviation for 10x100 is : 0.119 cm
 Percentage of values that failed: 0.000