
Block: 1
======================================
301.488045835
301.492110825
301.032767057
300.622203159
301.951454592
300.622203159
300.605943203
300.622203159
301.06528697
300.601878214
301.049027014
300.179119349
301.049027014
300.589683247
301.06528697
301.028702068
301.049027014
300.622203159
301.902674723
301.032767057
301.471785879
300.622203159
301.044962025
301.492110825
301.049027014
300.622203159
301.935194635
300.622203159
300.605943203
300.605943203
300.601878214
301.044962025
300.605943203
301.508370781
301.028702068
300.589683247
300.605943203
301.492110825
300.601878214
301.028702068
300.589683247
301.049027014
302.378278446
302.345758533
300.605943203
300.605943203
301.06528697
301.049027014
300.179119349
301.049027014
301.475850868
301.028702068
302.752257442
301.049027014
301.044962025
301.902674723
301.06528697
301.918934679
300.605943203
300.601878214
300.601878214
300.589683247
300.605943203
301.06528697
300.605943203
300.601878214
301.049027014
300.162859392
300.638463116
300.605943203
301.016507101
300.642528105
300.162859392
301.492110825
300.622203159

Average distance is : 300.982 cm
Average deviation is : 0.526 cm
Block: 2
======================================
300.605943203
300.622203159
301.028702068
301.028702068
300.589683247
301.488045835
300.585618258
301.049027014
300.605943203
300.585618258
301.492110825
300.162859392
300.601878214
300.553098345
301.016507101
301.032767057
301.049027014
301.471785879
301.492110825
300.589683247
301.044962025
300.585618258
300.601878214
300.601878214
301.028702068
301.032767057
301.918934679
299.431161356
300.622203159
300.605943203
300.622203159
300.179119349
301.049027014
301.032767057
300.585618258
300.589683247
300.585618258
301.492110825
300.175054359
301.028702068
300.605943203
301.049027014
300.622203159
300.601878214
301.918934679
301.049027014
300.622203159
301.044962025
301.032767057
301.028702068
301.886414766
301.06528697
300.589683247
301.032767057
301.044962025
301.918934679
300.605943203
301.492110825
300.605943203
300.605943203
301.508370781
301.049027014
300.622203159
300.622203159
300.605943203
302.768517399
301.492110825
301.032767057
300.605943203
301.475850868
300.638463116
301.049027014
300.605943203
301.028702068
300.622203159

Average distance is : 300.915 cm
Average deviation is : 0.491 cm
Block: 3
======================================
300.589683247
301.081546926
301.06528697
300.622203159
301.471785879
301.492110825
300.199444294
300.605943203
300.605943203
300.162859392
300.162859392
300.601878214
300.589683247
301.918934679
301.028702068
300.622203159
300.605943203
300.601878214
301.918934679
301.032767057
301.049027014
301.951454592
300.605943203
300.179119349
300.622203159
301.032767057
300.162859392
301.06528697
300.162859392
301.049027014
300.585618258
300.809192657
300.605943203
301.898609734
301.032767057
300.585618258
300.130339479
301.06528697
300.585618258
301.049027014
301.049027014
301.032767057
300.622203159
301.492110825
301.032767057
301.51243577
301.032767057
301.032767057
301.032767057
300.605943203
301.049027014
300.622203159
300.622203159
300.589683247
300.589683247
301.882349777
301.882349777
300.605943203
301.471785879
300.605943203
301.028702068
301.06528697
300.585618258
301.492110825
300.605943203
300.605943203
300.658788061
302.325433588
300.605943203
301.044962025
300.589683247
301.492110825
300.589683247
300.605943203
301.028702068

Average distance is : 300.905 cm
Average deviation is : 0.487 cm
Block: 4
======================================
301.06528697
301.492110825
301.91486969
301.049027014
300.601878214
301.032767057
301.492110825
300.605943203
301.049027014
301.475850868
301.492110825
301.488045835
301.049027014
301.049027014
301.044962025
300.605943203
300.622203159
300.589683247
300.601878214
301.492110825
300.622203159
300.589683247
300.605943203
301.492110825
301.488045835
300.622203159
300.601878214
301.049027014
300.569358301
300.601878214
301.081546926
301.016507101
300.585618258
301.028702068
301.06528697
300.601878214
300.57342329
301.049027014
301.049027014
301.044962025
300.605943203
300.589683247
300.638463116
300.585618258
301.06528697
301.918934679
301.06528697
300.605943203
300.162859392
300.589683247
300.589683247
301.032767057
300.162859392
301.049027014
301.049027014
300.605943203
301.492110825
301.044962025
300.622203159
300.589683247
301.049027014
301.032767057
300.601878214
301.049027014
300.589683247
301.508370781
300.605943203
300.605943203
300.605943203
301.028702068
300.605943203
301.049027014
301.049027014
300.589683247
300.589683247

Average distance is : 300.904 cm
Average deviation is : 0.373 cm
Block: 5
======================================
301.032767057
300.605943203
301.028702068
301.016507101
300.589683247
302.341693544
300.605943203
301.012442112
301.032767057
300.57342329
300.601878214
300.589683247
300.585618258
300.589683247
301.032767057
301.032767057
300.601878214
300.605943203
300.589683247
301.475850868
301.032767057
300.146599436
301.032767057
300.589683247
300.569358301
301.028702068
301.000247145
301.471785879
300.57342329
301.032767057
300.605943203
300.589683247
301.032767057
301.028702068
301.012442112
300.589683247
301.475850868
300.179119349
300.589683247
301.049027014
301.918934679
301.049027014
301.032767057
301.032767057
301.049027014
300.585618258
301.028702068
300.589683247
300.605943203
301.016507101
301.492110825
300.158794403
301.032767057
300.622203159
300.605943203
301.902674723
300.605943203
301.475850868
300.589683247
302.768517399
301.471785879
301.918934679
301.918934679
300.589683247
301.049027014
301.012442112
300.162859392
301.012442112
300.605943203
300.569358301
301.049027014
300.589683247
300.601878214
300.589683247
301.032767057

Average distance is : 300.927 cm
Average deviation is : 0.482 cm
Block: 6
======================================
301.902674723
300.585618258
300.589683247
300.622203159
300.179119349
301.492110825
301.049027014
301.028702068
300.605943203
300.622203159
300.589683247
301.902674723
301.049027014
300.569358301
300.601878214
301.012442112
301.455525923
300.605943203
300.605943203
301.028702068
301.049027014
301.032767057
300.585618258
301.049027014
301.06528697
300.605943203
300.605943203
300.585618258
300.589683247
301.028702068
300.605943203
301.488045835
300.601878214
301.012442112
300.569358301
301.016507101
301.049027014
300.585618258
301.016507101
301.455525923
301.492110825
301.902674723
300.589683247
301.492110825
302.341693544
301.028702068
300.601878214
301.455525923
301.935194635
300.585618258
301.06528697
301.016507101
300.585618258
301.032767057
301.012442112
300.622203159
301.439265966
301.049027014
301.492110825
301.032767057
300.585618258
301.049027014
301.049027014
300.601878214
300.585618258
301.492110825
301.016507101
301.044962025
300.622203159
301.032767057
301.049027014
301.475850868
301.049027014
301.028702068
301.032767057

Average distance is : 300.989 cm
Average deviation is : 0.417 cm
Block: 7
======================================
301.049027014
301.06528697
300.605943203
300.622203159
300.622203159
301.049027014
300.589683247
300.638463116
300.605943203
300.638463116
301.032767057
300.158794403
301.06528697
300.605943203
301.044962025
300.601878214
300.605943203
301.898609734
301.492110825
301.06528697
301.06528697
301.488045835
301.049027014
300.622203159
301.049027014
301.492110825
301.049027014
300.585618258
300.622203159
300.622203159
301.492110825
301.032767057
300.638463116
301.918934679
301.044962025
300.605943203
301.032767057
300.605943203
301.044962025
300.622203159
301.882349777
300.605943203
301.049027014
301.049027014
301.049027014
301.06528697
301.049027014
301.475850868
300.585618258
301.049027014
301.06528697
301.049027014
301.032767057
301.06528697
301.898609734
300.622203159
301.492110825
300.601878214
301.049027014
301.06528697
301.028702068
301.049027014
300.589683247
300.605943203
301.475850868
300.585618258
301.049027014
300.622203159
301.935194635
300.605943203
301.902674723
301.049027014
301.492110825
300.605943203
301.049027014

Average distance is : 300.989 cm
Average deviation is : 0.400 cm
Block: 8
======================================
300.605943203
300.622203159
301.492110825
300.589683247
300.622203159
301.06528697
302.768517399
301.049027014
301.492110825
300.605943203
300.622203159
300.605943203
300.585618258
300.585618258
300.622203159
301.049027014
301.492110825
300.605943203
301.028702068
301.028702068
301.935194635
300.589683247
300.162859392
301.492110825
300.605943203
300.195379305
300.585618258
301.049027014
301.049027014
301.471785879
301.492110825
300.622203159
300.601878214
300.589683247
301.06528697
300.605943203
300.622203159
301.935194635
301.028702068
300.605943203
301.032767057
300.585618258
300.622203159
300.638463116
300.622203159
300.158794403
301.049027014
300.622203159
301.049027014
300.601878214
300.622203159
300.585618258
300.589683247
301.081546926
301.06528697
300.605943203
300.605943203
300.179119349
301.898609734
301.492110825
301.049027014
301.898609734
301.049027014
300.638463116
300.158794403
301.508370781
300.162859392
301.049027014
300.622203159
301.032767057
301.06528697
301.492110825
301.044962025
300.605943203
300.601878214

Average distance is : 300.895 cm
Average deviation is : 0.485 cm
Block: 9
======================================
300.601878214
300.195379305
301.049027014
300.179119349
300.585618258
300.601878214
301.06528697
300.179119349
300.605943203
301.06528697
301.028702068
300.605943203
300.622203159
301.049027014
300.605943203
301.06528697
301.049027014
300.605943203
301.06528697
300.642528105
301.032767057
301.488045835
300.605943203
301.508370781
300.179119349
300.162859392
301.06528697
300.179119349
300.61813817
300.605943203
300.622203159
301.508370781
300.601878214
300.605943203
301.081546926
300.654723072
301.044962025
300.605943203
300.146599436
301.049027014
300.605943203
300.658788061
300.585618258
301.508370781
301.049027014
300.622203159
301.06528697
301.049027014
300.638463116
301.918934679
300.605943203
300.179119349
301.06528697
300.622203159
300.622203159
301.492110825
300.589683247
300.601878214
300.642528105
301.508370781
300.622203159
301.508370781
301.06528697
301.06528697
300.622203159
301.524630737
301.06528697
301.06528697
301.081546926
301.528695726
301.06528697
301.06528697
300.638463116
301.06528697
301.492110825

Average distance is : 300.853 cm
Average deviation is : 0.401 cm
Block: 10
======================================
301.049027014
300.601878214
300.589683247
301.081546926
301.951454592
300.638463116
300.622203159
301.049027014
300.622203159
301.951454592
301.049027014
300.601878214
300.622203159
300.601878214
301.935194635
300.622203159
300.605943203
301.049027014
300.622203159
300.622203159
300.162859392
300.605943203
300.585618258
301.049027014
301.049027014
301.492110825
300.605943203
301.044962025
300.146599436
300.605943203
301.049027014
300.162859392
300.589683247
301.06528697
300.622203159
300.605943203
300.179119349
300.605943203
301.06528697
300.605943203
300.589683247
301.081546926
301.049027014
301.049027014
300.589683247
300.158794403
300.175054359
301.902674723
301.06528697
300.622203159
300.605943203
300.622203159
301.488045835
301.044962025
300.605943203
301.049027014
301.06528697
300.179119349
300.605943203
300.605943203
300.622203159
300.605943203
301.049027014
301.902674723
300.589683247
300.162859392
300.638463116
300.622203159
301.898609734
301.492110825
301.044962025
301.044962025
300.195379305
300.601878214
300.605943203

Average distance is : 300.822 cm
Average deviation is : 0.454 cm