
Block: 1
======================================
300.543784118
300.52761085
300.580173969
300.511437583
301.429270506
300.972375703
300.984505653
301.004722238
300.52761085
301.429270506

Block: 2
======================================
301.429270506
300.511437583
300.135409117
300.495264316
300.972375703
300.972375703
300.968332386
300.972375703
301.837645507
300.543784118

Block: 3
======================================
300.511437583
300.52761085
302.237933874
301.340317535
300.511437583
301.356490803
300.479091048
302.225803924
300.956202435
300.935985851

Block: 4
======================================
300.479091048
302.225803924
301.36053412
300.919812584
300.475047731
301.376707387
301.376707387
301.356490803
301.36053412
300.935985851

Block: 5
======================================
300.919812584
300.887466049
300.899596
301.356490803
300.899596
301.748692536
301.768909121
300.915769267
300.903639317
300.887466049

Block: 6
======================================
300.915769267
301.768909121
301.291797733
300.903639317
301.344360852
301.578873229
300.899596
301.768909121
300.919812584
301.768909121

Block: 7
======================================
301.36053412
302.193457389
301.324144268
301.328187585
301.801255655
301.36053412
301.748692536
302.61396234
302.205587339
302.189414072

Block: 8
======================================
300.458874464
300.495264316
300.903639317
300.883422732
301.344360852
302.630135608
300.919812584
301.36053412
300.475047731
300.883422732

Block: 9
======================================
300.883422732
301.748692536
300.903639317
300.495264316
300.475047731
300.479091048
301.356490803
301.324144268
301.324144268
301.340317535

Block: 10
======================================
301.376707387
300.919812584
300.887466049
301.376707387
300.903639317
300.915769267
300.935985851
300.903639317
302.177284122
301.36053412
