
Block: 1
======================================
300.511437583
300.935985851
300.919812584
300.952159119
301.36053412
300.931942534
302.650352192
300.495264316
301.376707387
301.392880654
301.376707387
300.935985851
300.919812584
300.511437583
300.475047731
300.458874464
300.511437583
301.376707387
300.479091048
302.221760607
301.376707387
301.344360852
301.785082388
300.475047731
300.491220999
300.479091048
300.479091048
301.392880654
300.952159119
300.495264316
300.935985851
302.225803924
300.495264316
300.935985851
301.376707387
301.801255655
300.952159119
300.935985851
300.915769267
301.817428923
300.479091048
301.817428923
300.935985851
300.915769267
300.935985851
302.225803924
300.952159119
301.392880654
300.475047731
300.952159119
300.52761085
300.935985851
300.952159119
301.376707387
300.952159119
300.935985851
300.952159119
301.83360219
301.801255655
300.511437583
300.952159119
300.511437583
301.392880654
301.392880654
301.413097239
300.52761085
301.413097239
301.396923971
300.543784118
301.392880654
301.396923971
300.543784118
302.290496993
301.413097239
301.392880654

Block: 2
======================================
300.935985851
300.919812584
300.495264316
300.919812584
300.968332386
300.564000702
301.817428923
300.547827435
301.413097239
301.425227189
300.543784118
301.413097239
300.52761085
300.547827435
301.409053922
302.258150458
300.531654167
301.409053922
301.409053922
300.543784118
300.52761085
300.984505653
300.52761085
300.52761085
300.52761085
300.952159119
301.392880654
301.376707387
300.52761085
300.547827435
300.935985851
302.258150458
300.935985851
300.931942534
300.952159119
300.968332386
300.952159119
300.952159119
300.968332386
300.511437583
300.952159119
300.952159119
300.935985851
301.817428923
300.491220999
300.511437583
302.682698727
300.935985851
300.52761085
300.511437583
301.376707387
300.956202435
300.952159119
300.475047731
300.495264316
301.801255655
301.376707387
300.935985851
300.952159119
301.376707387
301.376707387
301.392880654
300.935985851
300.935985851
300.935985851
301.376707387
300.52761085
301.376707387
301.392880654
300.919812584
300.952159119
301.498006892
300.968332386
300.935985851
300.935985851

Block: 3
======================================
300.462917781
300.952159119
300.511437583
300.511437583
300.935985851
300.956202435
300.479091048
300.475047731
300.935985851
300.935985851
300.935985851
300.495264316
300.935985851
300.935985851
300.495264316
300.935985851
300.935985851
300.935985851
300.495264316
300.479091048
301.785082388
300.479091048
300.479091048
300.935985851
300.915769267
300.511437583
300.479091048
300.511437583
300.479091048
300.511437583
300.479091048
301.36053412
300.491220999
300.495264316
300.495264316
300.495264316
301.376707387
300.968332386
301.36053412
301.376707387
300.903639317
301.36053412
301.36053412
300.511437583
301.356490803
300.511437583
300.495264316
301.36053412
302.225803924
300.495264316
300.491220999
300.919812584
300.479091048
300.495264316
300.495264316
302.221760607
300.491220999
300.475047731
300.495264316
300.511437583
300.495264316
300.491220999
300.495264316
300.495264316
300.915769267
300.495264316
300.495264316
300.511437583
300.495264316
300.495264316
300.495264316
301.376707387
300.915769267
300.935985851
300.479091048

Block: 4
======================================
300.479091048
300.479091048
300.462917781
301.817428923
300.491220999
300.931942534
300.935985851
301.376707387
300.495264316
300.915769267
300.919812584
300.935985851
300.479091048
300.919812584
300.935985851
300.919812584
300.495264316
300.931942534
300.935985851
300.479091048
300.495264316
300.952159119
300.935985851
300.935985851
300.479091048
300.935985851
300.915769267
300.495264316
300.935985851
300.919812584
300.479091048
300.479091048
300.935985851
301.785082388
300.479091048
300.495264316
300.495264316
300.479091048
300.952159119
300.899596
300.479091048
300.479091048
300.903639317
300.919812584
300.475047731
301.768909121
300.495264316
301.36053412
300.919812584
300.479091048
300.495264316
301.801255655
300.462917781
300.458874464
300.915769267
300.919812584
300.935985851
300.479091048
300.495264316
300.479091048
300.919812584
300.915769267
300.915769267
300.475047731
300.479091048
300.479091048
300.919812584
302.61396234
300.475047731
300.475047731
300.956202435
300.952159119
300.475047731
301.340317535
301.340317535

Block: 5
======================================
300.511437583
301.307971001
300.475047731
301.36053412
301.36053412
300.479091048
301.36053412
301.36053412
301.340317535
300.475047731
300.931942534
302.225803924
301.376707387
301.376707387
301.36053412
301.356490803
301.36053412
301.36053412
300.495264316
301.356490803
300.919812584
300.491220999
300.475047731
300.462917781
301.36053412
300.495264316
300.479091048
300.479091048
300.903639317
300.935985851
300.479091048
300.495264316
300.931942534
300.919812584
301.376707387
300.919812584
300.458874464
301.376707387
300.919812584
300.919812584
300.462917781
301.797212338
300.458874464
300.495264316
300.495264316
300.935985851
301.785082388
300.479091048
300.479091048
300.462917781
300.919812584
301.36053412
301.801255655
300.462917781
300.479091048
301.344360852
301.36053412
302.193457389
301.36053412
301.36053412
300.952159119
302.189414072
301.356490803
300.919812584
302.205587339
300.458874464
300.462917781
301.36053412
300.495264316
300.887466049
301.36053412
300.479091048
301.344360852
300.479091048
300.462917781

Block: 6
======================================
300.458874464
300.919812584
300.446744514
300.935985851
300.919812584
300.458874464
301.36053412
300.919812584
301.36053412
300.479091048
300.935985851
300.495264316
300.935985851
300.462917781
300.479091048
301.801255655
300.458874464
300.479091048
300.919812584
300.479091048
301.785082388
300.919812584
300.935985851
300.935985851
300.935985851
300.919812584
300.495264316
300.935985851
301.376707387
301.376707387
300.935985851
300.935985851
300.935985851
300.952159119
301.392880654
300.935985851
300.495264316
300.935985851
300.915769267
301.36053412
301.392880654
300.935985851
300.935985851
301.376707387
300.919812584
300.935985851
300.935985851
301.36053412
301.376707387
300.495264316
301.376707387
301.376707387
300.495264316
301.36053412
301.36053412
301.376707387
300.935985851
300.935985851
300.475047731
300.935985851
300.495264316
300.511437583
300.919812584
302.205587339
301.376707387
301.376707387
301.376707387
300.935985851
300.919812584
301.392880654
300.935985851
301.376707387
300.935985851
300.52761085
302.258150458

Block: 7
======================================
300.952159119
301.392880654
300.479091048
300.952159119
302.662482142
300.479091048
301.396923971
301.817428923
301.376707387
300.935985851
300.931942534
300.475047731
301.413097239
300.952159119
300.935985851
301.376707387
301.392880654
301.396923971
300.919812584
300.935985851
300.919812584
300.511437583
301.356490803
300.935985851
300.915769267
300.479091048
300.495264316
301.817428923
300.952159119
300.511437583
300.479091048
301.376707387
300.479091048
300.479091048
300.915769267
301.801255655
300.462917781
300.935985851
300.935985851
300.935985851
300.935985851
300.956202435
300.919812584
300.479091048
302.209630656
300.935985851
301.801255655
300.956202435
300.919812584
300.495264316
300.935985851
300.495264316
301.376707387
300.495264316
300.968332386
301.376707387
300.511437583
300.479091048
301.392880654
303.087030411
301.376707387
301.376707387
301.376707387
300.511437583
300.511437583
301.396923971
301.376707387
301.392880654
300.52761085
301.392880654
301.392880654
300.511437583
301.376707387
300.52761085
301.392880654

Block: 8
======================================
300.968332386
300.52761085
300.919812584
300.935985851
301.392880654
300.52761085
301.849775457
301.376707387
300.956202435
301.392880654
300.543784118
300.968332386
301.376707387
301.817428923
300.495264316
300.952159119
300.972375703
300.972375703
302.258150458
300.511437583
302.241977191
301.396923971
301.396923971
301.392880654
301.392880654
300.511437583
300.52761085
301.376707387
301.413097239
300.52761085
300.52761085
300.52761085
300.511437583
300.984505653
302.241977191
300.511437583
300.956202435
300.52761085
300.511437583
300.968332386
300.52761085
300.531654167
301.83360219
300.952159119
300.935985851
300.511437583
300.495264316
300.52761085
301.392880654
300.52761085
300.52761085
300.511437583
300.52761085
300.511437583
300.543784118
300.968332386
300.531654167
301.849775457
300.972375703
300.495264316
300.972375703
300.968332386
300.98854897
300.511437583
300.511437583
301.396923971
301.392880654
300.52761085
301.413097239
301.409053922
301.413097239
300.52761085
300.52761085
301.392880654
300.5154809

Block: 9
======================================
300.935985851
300.968332386
302.225803924
300.479091048
300.479091048
300.52761085
300.935985851
300.935985851
300.495264316
300.5154809
300.935985851
300.952159119
300.935985851
300.935985851
301.376707387
300.935985851
302.650352192
301.376707387
301.801255655
300.935985851
300.919812584
301.396923971
300.919812584
300.919812584
301.376707387
300.52761085
300.935985851
300.935985851
300.511437583
302.650352192
300.952159119
300.495264316
300.495264316
301.376707387
301.376707387
301.396923971
301.376707387
300.935985851
300.935985851
300.495264316
301.392880654
300.511437583
301.376707387
301.376707387
300.952159119
302.258150458
300.919812584
301.376707387
300.511437583
301.396923971
300.956202435
300.511437583
301.392880654
300.479091048
300.511437583
300.935985851
300.495264316
300.968332386
300.495264316
301.376707387
301.376707387
300.495264316
301.376707387
301.376707387
301.376707387
301.376707387
301.376707387
300.495264316
300.952159119
300.495264316
300.511437583
300.511437583
300.495264316
300.968332386
301.413097239

Block: 10
======================================
300.475047731
300.495264316
301.716346002
300.495264316
301.36053412
300.935985851
301.376707387
300.495264316
301.392880654
301.36053412
301.392880654
300.511437583
301.817428923
300.968332386
300.511437583
300.511437583
300.495264316
301.36053412
300.495264316
300.952159119
300.495264316
300.495264316
300.495264316
302.258150458
300.495264316
300.495264316
302.225803924
300.956202435
300.952159119
300.479091048
300.931942534
300.935985851
301.376707387
300.495264316
300.479091048
301.376707387
301.356490803
301.376707387
300.935985851
300.479091048
302.209630656
300.495264316
301.36053412
300.475047731
301.801255655
300.495264316
300.495264316
302.221760607
300.919812584
300.495264316
301.36053412
300.495264316
302.630135608
301.376707387
301.376707387
301.36053412
302.630135608
300.495264316
300.935985851
300.442701197
300.919812584
301.36053412
300.899596
300.511437583
300.935985851
300.919812584
301.376707387
300.479091048
300.935985851
300.495264316
301.781039071
301.340317535
301.392880654
300.495264316
300.479091048
