
Block: 1
======================================
200.760109425
200.348815894
200.397682452
201.631563044
199.904944658
199.941594577
199.941594577
199.921233511
199.921233511
199.925305724
199.921233511
200.829337049
199.904944658
199.904944658
199.95788343
199.941594577
199.921233511
199.921233511
200.79268713
199.95788343
199.921233511
199.95788343
199.95788343
200.401754665
199.937522364
200.401754665
199.95788343
200.808975983
200.36917696
200.776398277
199.95788343
199.937522364
200.796759343
200.825264835
200.365104747
200.808975983
200.813048196
200.808975983
199.941594577
201.256919432
200.829337049
199.921233511
200.385465813
200.79268713
200.808975983
199.904944658
199.921233511
200.332527041
200.365104747
200.365104747
200.352888107
199.921233511
200.36917696
200.3813936
200.348815894
200.385465813
200.348815894
200.385465813
200.808975983
199.941594577
200.365104747
200.36917696
199.921233511
199.921233511
199.904944658
200.36917696
199.904944658
200.332527041
199.8560781
200.348815894
200.316238189
199.888655806
200.365104747
200.36917696
201.236558366
200.36917696
200.808975983
200.348815894
200.79268713
200.332527041
200.36917696
200.365104747
200.348815894
199.95788343
200.365104747
201.220269513
200.79268713
200.348815894
199.925305724
199.921233511
200.78047049
200.79268713
200.776398277
199.937522364
200.348815894
200.79268713
199.888655806
200.352888107
200.348815894
200.352888107

Average distance is : 200.327 cm
Average deviation is : 0.390 cm
Block: 2
======================================
200.796759343
200.348815894
200.352888107
199.904944658
200.352888107
200.332527041
200.36917696
200.352888107
200.365104747
199.904944658
200.348815894
199.888655806
199.909016871
200.332527041
200.365104747
200.365104747
199.888655806
199.921233511
199.925305724
199.904944658
199.884583592
199.888655806
199.904944658
199.921233511
199.904944658
200.316238189
200.348815894
199.888655806
200.348815894
200.332527041
200.332527041
199.904944658
200.79268713
200.79268713
200.332527041
199.888655806
201.631563044
199.904944658
200.332527041
199.888655806
200.332527041
201.615274191
199.904944658
199.904944658
200.79268713
199.904944658
199.904944658
199.921233511
199.904944658
199.888655806
200.3813936
201.631563044
199.925305724
200.332527041
199.888655806
200.79268713
200.760109425
199.925305724
199.904944658
200.332527041
199.888655806
199.888655806
199.888655806
199.888655806
199.884583592
200.385465813
200.348815894
199.904944658
200.332527041
200.352888107
200.316238189
200.348815894
199.904944658
200.348815894
200.79268713
199.925305724
200.348815894
200.36917696
200.36917696
199.888655806
199.888655806
200.36917696
199.904944658
200.348815894
200.760109425
200.332527041
200.332527041
200.316238189
199.904944658
200.352888107
200.332527041
199.904944658
200.332527041
199.888655806
200.332527041
199.872366953
199.888655806
199.872366953
200.316238189
200.348815894

Average distance is : 200.214 cm
Average deviation is : 0.375 cm
Block: 3
======================================
200.743820572
200.316238189
199.904944658
199.86829474
200.348815894
200.796759343
200.348815894
200.776398277
200.348815894
199.872366953
199.8560781
200.332527041
200.776398277
199.904944658
200.348815894
200.332527041
200.332527041
200.332527041
200.348815894
200.332527041
200.776398277
200.348815894
200.332527041
200.316238189
200.776398277
200.760109425
199.904944658
200.332527041
200.760109425
200.332527041
200.79268713
200.348815894
199.8560781
200.776398277
200.332527041
200.365104747
199.888655806
200.776398277
200.813048196
200.332527041
200.776398277
200.299949336
199.888655806
200.5361377
200.332527041
200.776398277
200.79268713
200.316238189
200.352888107
199.925305724
200.316238189
199.904944658
199.86829474
200.79268713
200.808975983
199.904944658
200.776398277
200.776398277
200.760109425
199.872366953
200.776398277
199.904944658
200.743820572
200.739748359
200.332527041
200.332527041
200.760109425
199.872366953
200.79268713
200.760109425
200.808975983
199.888655806
200.316238189
199.909016871
200.328454828
200.348815894
199.888655806
200.332527041
199.904944658
200.332527041
200.332527041
200.332527041
200.332527041
199.872366953
200.760109425
200.79268713
199.921233511
199.888655806
200.332527041
200.332527041
200.332527041
200.760109425
200.760109425
200.760109425
201.187691808
200.760109425
199.904944658
199.921233511
200.316238189
200.352888107

Average distance is : 200.380 cm
Average deviation is : 0.346 cm
Block: 4
======================================
200.743820572
200.743820572
200.776398277
199.904944658
201.668212962
199.904944658
200.316238189
200.79268713
200.743820572
200.348815894
201.20398066
200.760109425
200.776398277
200.760109425
200.776398277
200.776398277
200.776398277
200.760109425
200.776398277
200.776398277
199.904944658
199.888655806
200.776398277
200.78047049
200.78047049
200.796759343
200.79268713
200.776398277
199.888655806
200.776398277
200.299949336
200.352888107
200.332527041
200.332527041
200.776398277
199.872366953
201.20398066
199.888655806
200.312165976
200.796759343
200.332527041
200.348815894
199.8560781
200.79268713
200.760109425
200.332527041
200.776398277
200.760109425
200.348815894
200.756037211
200.760109425
199.904944658
200.776398277
199.921233511
200.316238189
200.316238189
200.348815894
199.904944658
199.872366953
200.796759343
199.884583592
199.921233511
199.904944658
200.332527041
200.348815894
199.8560781
199.904944658
200.312165976
200.316238189
199.839789248
199.904944658
199.872366953
200.316238189
200.332527041
199.872366953
200.312165976
200.796759343
199.872366953
199.904944658
200.332527041
200.316238189
200.332527041
200.78047049
200.316238189
200.316238189
200.776398277
200.316238189
200.316238189
200.128916383
200.295877123
200.295877123
200.316238189
199.852005887
200.332527041
201.187691808
201.167330742
200.332527041
199.872366953
200.299949336
200.332527041

Average distance is : 200.414 cm
Average deviation is : 0.399 cm
Block: 5
======================================
199.888655806
199.872366953
199.888655806
199.86829474
199.872366953
199.888655806
199.872366953
200.316238189
200.332527041
199.835717034
200.295877123
200.332527041
199.884583592
200.332527041
199.888655806
201.187691808
199.888655806
199.888655806
199.888655806
199.904944658
199.904944658
199.872366953
199.852005887
199.904944658
199.888655806
199.86829474
200.332527041
200.299949336
200.352888107
199.888655806
200.316238189
199.872366953
199.872366953
199.904944658
200.352888107
199.888655806
199.904944658
199.872366953
199.888655806
200.776398277
199.904944658
199.921233511
200.760109425
200.79268713
199.888655806
199.888655806
200.332527041
199.888655806
200.776398277
199.86829474
199.8560781
199.888655806
201.20398066
200.348815894
199.852005887
199.8560781
200.332527041
199.888655806
200.332527041
200.316238189
199.888655806
201.20398066
199.888655806
199.888655806
199.86829474
199.872366953
199.904944658
199.888655806
199.888655806
199.86829474
199.904944658
199.904944658
199.86829474
199.86829474
199.888655806
199.909016871
200.348815894
200.743820572
200.332527041
199.888655806
200.365104747
200.348815894
200.348815894
199.884583592
199.904944658
201.220269513
200.352888107
200.79268713
200.365104747
199.909016871
200.332527041
200.776398277
199.925305724
199.925305724
200.332527041
200.348815894
200.813048196
200.79268713
199.921233511
200.813048196

Average distance is : 200.141 cm
Average deviation is : 0.370 cm
Block: 6
======================================
199.925305724
200.813048196
199.937522364
199.888655806
200.776398277
199.921233511
199.937522364
200.385465813
199.937522364
199.904944658
199.941594577
199.904944658
199.921233511
199.904944658
199.95788343
199.925305724
199.937522364
199.937522364
199.921233511
200.808975983
199.925305724
200.79268713
199.904944658
199.904944658
200.776398277
199.95788343
199.909016871
199.921233511
199.95788343
199.921233511
199.937522364
199.921233511
200.365104747
199.888655806
199.921233511
199.904944658
199.904944658
199.937522364
199.921233511
199.921233511
200.401754665
200.365104747
199.921233511
200.385465813
199.921233511
199.941594577
199.925305724
199.921233511
199.937522364
200.365104747
200.3813936
199.941594577
200.365104747
200.348815894
200.365104747
199.941594577
200.352888107
200.348815894
199.921233511
200.365104747
199.888655806
199.921233511
200.385465813
200.365104747
199.921233511
200.385465813
200.348815894
199.921233511
199.941594577
199.904944658
199.904944658
199.888655806
199.937522364
199.888655806
199.888655806
199.888655806
200.385465813
199.904944658
199.904944658
200.352888107
199.904944658
199.941594577
199.888655806
200.808975983
200.332527041
200.348815894
199.921233511
200.401754665
199.888655806
199.904944658
200.348815894
201.647851896
199.904944658
199.921233511
200.776398277
200.79268713
200.808975983
199.904944658
200.365104747
199.937522364

Average distance is : 200.123 cm
Average deviation is : 0.327 cm
Block: 7
======================================
200.3813936
199.888655806
200.332527041
199.921233511
200.348815894
199.888655806
199.904944658
200.365104747
199.888655806
199.921233511
200.365104747
200.348815894
201.647851896
199.904944658
199.904944658
200.385465813
200.385465813
199.937522364
199.888655806
199.904944658
200.332527041
199.937522364
199.904944658
199.904944658
199.925305724
200.796759343
199.904944658
199.921233511
199.921233511
199.925305724
199.904944658
199.921233511
200.36917696
200.348815894
199.904944658
199.904944658
199.904944658
199.921233511
199.941594577
199.904944658
199.921233511
199.925305724
199.925305724
199.925305724
200.79268713
200.825264835
199.904944658
199.925305724
200.79268713
200.808975983
199.904944658
199.937522364
199.925305724
199.95788343
200.813048196
200.385465813
199.888655806
199.888655806
201.647851896
199.904944658
199.921233511
199.921233511
199.909016871
199.888655806
199.921233511
200.3813936
199.904944658
199.904944658
200.776398277
199.937522364
199.888655806
199.904944658
199.909016871
199.888655806
199.904944658
199.925305724
199.904944658
200.365104747
199.921233511
200.352888107
200.348815894
199.921233511
200.36917696
199.904944658
199.888655806
199.921233511
199.904944658
199.904944658
199.904944658
200.808975983
199.925305724
200.365104747
200.79268713
199.925305724
200.401754665
201.631563044
200.813048196
199.904944658
199.941594577
200.365104747

Average distance is : 200.144 cm
Average deviation is : 0.398 cm
Block: 8
======================================
200.36917696
199.921233511
200.316238189
199.925305724
200.776398277
199.925305724
199.921233511
199.904944658
199.921233511
199.888655806
199.925305724
199.937522364
199.937522364
200.796759343
199.904944658
199.909016871
200.808975983
199.925305724
200.79268713
200.796759343
200.776398277
200.348815894
200.348815894
200.776398277
199.937522364
199.904944658
200.776398277
200.776398277
199.904944658
200.332527041
199.904944658
200.776398277
200.776398277
200.365104747
200.756037211
200.776398277
200.808975983
200.79268713
200.79268713
200.348815894
200.332527041
200.829337049
199.921233511
199.904944658
199.921233511
200.348815894
199.904944658
199.95788343
200.78047049
199.921233511
200.79268713
200.385465813
199.904944658
199.941594577
199.904944658
199.904944658
199.925305724
199.921233511
199.888655806
200.796759343
199.921233511
199.925305724
200.79268713
201.664140749
199.941594577
200.79268713
200.760109425
200.332527041
199.925305724
201.236558366
200.776398277
199.941594577
200.796759343
200.332527041
200.365104747
200.316238189
200.332527041
199.872366953
200.796759343
200.796759343
199.95788343
200.332527041
200.348815894
199.904944658
199.888655806
200.829337049
200.79268713
200.776398277
199.904944658
200.756037211
200.79268713
199.925305724
199.904944658
200.365104747
199.909016871
199.921233511
199.884583592
200.776398277
200.79268713
199.904944658

Average distance is : 200.321 cm
Average deviation is : 0.422 cm
Block: 9
======================================
199.904944658
199.872366953
200.487271142
199.921233511
200.348815894
199.921233511
200.365104747
200.79268713
199.921233511
200.776398277
200.776398277
199.921233511
199.904944658
199.888655806
199.941594577
200.776398277
200.79268713
200.796759343
200.79268713
200.79268713
199.941594577
199.937522364
199.925305724
200.385465813
199.921233511
199.888655806
200.813048196
199.925305724
199.904944658
199.888655806
199.937522364
199.909016871
199.925305724
199.921233511
199.888655806
200.332527041
200.348815894
199.921233511
199.888655806
199.925305724
199.904944658
199.941594577
199.904944658
200.756037211
199.904944658
199.937522364
199.909016871
199.888655806
200.401754665
200.332527041
200.348815894
200.365104747
200.36917696
201.220269513
200.3813936
199.909016871
200.365104747
200.365104747
199.921233511
200.385465813
199.921233511
199.888655806
199.921233511
199.904944658
199.904944658
199.937522364
199.888655806
200.348815894
199.904944658
199.888655806
199.904944658
199.904944658
199.921233511
200.365104747
200.348815894
200.352888107
200.332527041
200.385465813
199.904944658
200.79268713
199.921233511
200.365104747
200.365104747
200.36917696
199.904944658
199.904944658
200.365104747
201.236558366
199.921233511
199.904944658
200.365104747
200.36917696
200.36917696
199.921233511
199.904944658
201.252847219
199.941594577
200.3813936
199.941594577
200.36917696

Average distance is : 200.185 cm
Average deviation is : 0.355 cm
Block: 10
======================================
199.888655806
200.365104747
200.813048196
199.921233511
200.3813936
200.365104747
199.925305724
199.904944658
200.365104747
199.95788343
200.36917696
200.348815894
200.348815894
199.921233511
200.813048196
199.921233511
199.921233511
200.348815894
199.95788343
200.813048196
201.220269513
200.401754665
199.909016871
199.937522364
199.904944658
199.925305724
201.252847219
200.348815894
199.937522364
200.365104747
199.904944658
200.385465813
200.365104747
201.647851896
200.3813936
199.904944658
199.546589899
199.937522364
199.921233511
200.3813936
199.941594577
200.401754665
200.825264835
200.365104747
200.365104747
200.825264835
199.904944658
199.941594577
199.921233511
200.36917696
199.921233511
200.348815894
199.925305724
200.365104747
200.401754665
200.3813936
200.36917696
200.365104747
199.974172282
200.385465813
201.252847219
200.813048196
199.937522364
200.365104747
200.36917696
200.348815894
200.348815894
200.829337049
200.385465813
200.365104747
200.813048196
200.397682452
200.813048196
200.3813936
199.941594577
200.365104747
200.813048196
199.904944658
200.401754665
200.829337049
199.937522364
199.888655806
200.3813936
200.36917696
200.3813936
199.937522364
200.397682452
199.937522364
199.941594577
199.921233511
200.348815894
200.385465813
200.348815894
199.974172282
199.925305724
199.925305724
200.3813936
199.941594577
201.680429602
199.925305724

Average distance is : 200.291 cm
Average deviation is : 0.397 cm