
Block: 1
======================================
200.365104747
200.332527041
200.813048196
200.385465813
200.3813936

Block: 2
======================================
200.861914754
200.401754665
200.385465813
199.925305724
199.937522364

Block: 3
======================================
200.845625901
199.95788343
200.829337049
200.434332371
200.385465813

Block: 4
======================================
200.825264835
200.808975983
200.385465813
199.904944658
199.941594577

Block: 5
======================================
200.385465813
200.348815894
199.904944658
200.401754665
199.941594577

Block: 6
======================================
200.397682452
200.36917696
200.385465813
200.385465813
199.941594577

Block: 7
======================================
200.332527041
200.401754665
200.36917696
200.79268713
199.953811216

Block: 8
======================================
200.401754665
200.348815894
198.947974563
200.348815894
199.904944658

Block: 9
======================================
199.921233511
200.79268713
199.941594577
199.937522364
200.79268713

Block: 10
======================================
200.348815894
199.941594577
200.365104747
200.332527041
200.385465813
