
Block: 1
======================================
200.385465813
200.36917696
199.925305724
199.904944658
199.925305724
201.236558366
200.813048196
200.385465813
200.808975983
200.385465813
199.909016871
200.401754665
200.36917696
199.888655806
200.385465813
199.921233511
199.904944658
200.36917696
200.401754665
199.937522364
199.921233511
199.921233511
199.884583592
199.904944658
199.941594577

Block: 2
======================================
200.36917696
199.904944658
199.904944658
199.921233511
199.937522364
201.220269513
201.252847219
200.36917696
199.921233511
199.904944658
199.921233511
199.921233511
200.348815894
199.888655806
200.813048196
199.904944658
200.776398277
200.79268713
200.79268713
200.348815894
199.937522364
200.348815894
200.348815894
199.904944658
200.365104747

Block: 3
======================================
200.312165976
199.925305724
199.925305724
200.79268713
199.937522364
199.925305724
200.79268713
200.365104747
199.909016871
199.921233511
200.829337049
200.79268713
200.813048196
200.365104747
200.760109425
199.941594577
199.921233511
199.921233511
200.385465813
199.941594577
199.925305724
199.921233511
199.925305724
199.921233511
201.631563044

Block: 4
======================================
199.904944658
201.240630579
200.352888107
200.316238189
200.332527041
200.3813936
199.904944658
200.776398277
199.904944658
199.904944658
200.352888107
200.365104747
200.348815894
200.332527041
200.332527041
200.776398277
199.8560781
200.760109425
199.904944658
200.776398277
200.808975983
200.79268713
200.332527041
200.776398277
200.760109425

Block: 5
======================================
200.776398277
199.921233511
200.365104747
199.904944658
199.925305724
200.776398277
200.776398277
200.79268713
200.365104747
200.808975983
199.904944658
200.813048196
200.776398277
199.888655806
200.316238189
200.36917696
199.921233511
200.348815894
200.332527041
199.904944658
200.776398277
200.79268713
200.776398277
200.348815894
200.813048196

Block: 6
======================================
199.937522364
199.904944658
199.921233511
200.36917696
201.167330742
199.888655806
200.332527041
199.888655806
200.808975983
200.332527041
200.776398277
200.776398277
200.36917696
199.888655806
200.365104747
200.776398277
199.904944658
200.760109425
199.904944658
199.904944658
199.921233511
199.872366953
199.888655806
199.904944658
199.937522364

Block: 7
======================================
200.348815894
199.925305724
199.925305724
199.941594577
199.925305724
200.79268713
200.79268713
200.79268713
200.79268713
199.921233511
200.808975983
200.776398277
200.776398277
199.921233511
200.776398277
199.925305724
199.921233511
199.921233511
199.921233511
199.921233511
200.776398277
199.921233511
199.904944658
199.888655806
199.904944658

Block: 8
======================================
199.904944658
200.365104747
199.909016871
199.904944658
199.925305724
200.3813936
199.904944658
200.808975983
199.904944658
199.921233511
199.904944658
199.888655806
199.888655806
201.664140749
199.904944658
199.921233511
199.921233511
199.888655806
199.904944658
199.904944658
199.888655806
199.904944658
199.921233511
199.937522364
200.776398277

Block: 9
======================================
199.904944658
199.888655806
200.332527041
199.904944658
199.904944658
200.316238189
200.825264835
200.776398277
200.316238189
200.316238189
200.312165976
200.776398277
200.776398277
200.813048196
199.904944658
199.941594577
200.79268713
200.776398277
200.348815894
200.776398277
199.921233511
200.808975983
200.312165976
200.776398277
200.776398277

Block: 10
======================================
200.3813936
200.36917696
199.941594577
200.825264835
200.808975983
199.937522364
200.813048196
199.941594577
199.904944658
199.941594577
200.813048196
200.813048196
200.365104747
199.941594577
199.904944658
199.937522364
200.36917696
199.925305724
200.776398277
200.776398277
199.888655806
200.776398277
200.79268713
200.365104747
199.904944658
