
Block: 1
======================================
300.589683247
300.110014534
300.57342329
301.012442112
301.000247145
300.569358301
301.012442112
301.016507101
300.605943203
301.000247145

Average distance is : 300.749 cm
Average deviation is : 0.308 cm
Block: 2
======================================
300.622203159
300.585618258
300.146599436
300.077494621
301.049027014
301.866089821
300.569358301
300.996182156
301.016507101
302.71973753

Average distance is : 300.965 cm
Average deviation is : 0.801 cm
Block: 3
======================================
300.605943203
301.475850868
301.000247145
301.012442112
301.886414766
300.605943203
301.471785879
300.589683247
301.012442112
300.553098345

Average distance is : 301.021 cm
Average deviation is : 0.461 cm
Block: 4
======================================
300.589683247
301.882349777
300.130339479
300.146599436
301.028702068
301.016507101
301.049027014
300.605943203
300.638463116
300.57342329

Average distance is : 300.766 cm
Average deviation is : 0.512 cm
Block: 5
======================================
301.000247145
301.439265966
300.585618258
301.012442112
300.12627449
301.455525923
300.146599436
300.57342329
300.589683247
301.475850868

Average distance is : 300.840 cm
Average deviation is : 0.515 cm
Block: 6
======================================
300.520578432
301.000247145
300.601878214
301.459590912
301.032767057
301.016507101
300.569358301
301.000247145
301.475850868
300.57342329

Average distance is : 300.925 cm
Average deviation is : 0.356 cm
Block: 7
======================================
301.012442112
301.012442112
300.557163334
300.557163334
301.032767057
301.492110825
300.589683247
300.979922199
301.42300601
300.589683247

Average distance is : 300.925 cm
Average deviation is : 0.349 cm
Block: 8
======================================
300.996182156
300.553098345
301.012442112
300.57342329
300.553098345
300.553098345
300.996182156
301.455525923
301.000247145
301.459590912

Average distance is : 300.915 cm
Average deviation is : 0.354 cm
Block: 9
======================================
300.569358301
300.553098345
300.585618258
300.57342329
301.000247145
300.553098345
300.605943203
300.57342329
301.866089821
300.996182156

Average distance is : 300.788 cm
Average deviation is : 0.418 cm
Block: 10
======================================
300.569358301
301.016507101
300.553098345
300.996182156
300.553098345
300.996182156
301.016507101
300.996182156
300.569358301
301.012442112

Average distance is : 300.828 cm
Average deviation is : 0.230 cm