
Block: 1
======================================
300.749993277
300.309271741
301.599089813
300.74594996
301.190714812
301.190714812
300.749993277
301.190714812
300.766166544
300.293098474
300.293098474
300.729776692
300.749993277
300.293098474
300.309271741
301.190714812
301.174541545
300.749993277
302.444143033
300.733820009
301.174541545
300.729776692
300.729776692
301.190714812
300.749993277
301.20688808
301.190714812
301.190714812
301.170498228
300.729776692
300.345661592
301.190714812
301.190714812
300.341618276
300.325445008
300.749993277
300.325445008
301.615263081
301.190714812
302.4603163
300.74594996
300.749993277
300.289055157
300.74594996
300.74594996
301.190714812
300.766166544
300.309271741
301.190714812
302.035768032
301.190714812
300.733820009
300.733820009
300.733820009
300.749993277
301.190714812
301.190714812
300.325445008
301.174541545
300.717646742
301.190714812
301.190714812
300.749993277
300.305228424
300.325445008
301.190714812
300.733820009
300.749993277
302.444143033
301.20688808
300.733820009
301.595046496
301.611219764
300.309271741
300.305228424

Block: 2
======================================
300.749993277
300.293098474
300.749993277
302.019594765
300.749993277
301.174541545
300.293098474
301.158368278
301.174541545
301.595046496
300.749993277
300.729776692
300.289055157
300.289055157
300.766166544
301.611219764
300.74594996
300.729776692
300.289055157
300.305228424
300.766166544
301.615263081
300.733820009
300.729776692
300.74594996
300.733820009
301.599089813
300.749993277
300.256708622
301.20688808
300.749993277
300.729776692
300.74594996
300.749993277
300.272881889
302.035768032
300.276925206
300.293098474
300.733820009
300.289055157
300.729776692
300.256708622
300.309271741
301.158368278
300.293098474
300.272881889
301.170498228
300.272881889
301.138151693
300.68125689
301.14219501
300.733820009
301.158368278
301.154324961
301.138151693
300.729776692
300.309271741
300.733820009
301.174541545
300.729776692
300.74594996
300.713603425
300.717646742
300.733820009
302.444143033
302.4603163
300.733820009
300.733820009
300.733820009
300.717646742
301.190714812
300.749993277
300.733820009
300.733820009
300.729776692

Block: 3
======================================
300.325445008
300.782339811
302.905081153
301.631436348
301.651652932
302.039811349
301.190714812
301.190714812
301.190714812
302.92125442
302.901037836
301.20688808
301.631436348
300.749993277
300.325445008
301.647609615
300.749993277
301.190714812
300.766166544
301.227104664
301.190714812
300.357791543
301.227104664
301.223061347
301.20688808
300.766166544
300.357791543
301.20688808
300.357791543
301.20688808
301.20688808
302.072157884
300.341618276
301.615263081
301.223061347
300.357791543
301.20688808
301.227104664
301.239234614
300.766166544
301.663782883
301.243277931
301.239234614
301.223061347
301.223061347
300.802556396
300.782339811
300.786383128
300.782339811
300.786383128
301.223061347
300.798513079
301.683999467
300.341618276
301.20688808
301.243277931
300.357791543
300.818729663
301.227104664
300.37396481
301.227104664
300.782339811
301.239234614
300.818729663
301.700172734
300.341618276
300.798513079
302.953600955
301.663782883
300.814686346
301.243277931
302.104504418
300.786383128
301.243277931
300.357791543

Block: 4
======================================
300.378008127
301.275624466
300.798513079
301.223061347
300.818729663
300.802556396
300.341618276
300.378008127
301.239234614
301.223061347
300.390138078
301.243277931
300.378008127
301.239234614
301.67995615
301.239234614
302.104504418
300.37396481
300.798513079
301.243277931
301.259451199
301.223061347
300.378008127
300.83490293
301.20688808
300.378008127
300.390138078
300.37396481
301.227104664
300.798513079
300.798513079
301.239234614
300.782339811
301.239234614
300.782339811
300.798513079
300.782339811
301.239234614
300.798513079
301.243277931
300.766166544
300.378008127
300.798513079
301.255407882
300.378008127
300.798513079
301.239234614
302.104504418
301.223061347
301.239234614
301.223061347
300.782339811
300.766166544
301.223061347
300.766166544
300.782339811
300.798513079
301.227104664
300.782339811
301.239234614
300.766166544
300.749993277
300.766166544
300.766166544
302.496706152
300.782339811
300.798513079
300.786383128
300.766166544
300.798513079
302.051941299
300.309271741
300.798513079
300.766166544
300.766166544

Block: 5
======================================
302.035768032
300.345661592
300.341618276
300.293098474
300.749993277
300.341618276
300.766166544
301.20688808
300.341618276
300.74594996
300.74594996
300.74594996
301.186671495
300.74594996
301.186671495
300.749993277
300.713603425
300.74594996
301.599089813
300.749993277
300.749993277
300.733820009
300.733820009
301.154324961
300.749993277
300.733820009
301.190714812
300.749993277
300.729776692
300.729776692
300.749993277
302.480532885
300.749993277
301.154324961
300.713603425
300.749993277
301.174541545
301.174541545
300.733820009
300.713603425
302.444143033
301.174541545
300.782339811
301.158368278
301.158368278
300.309271741
300.293098474
301.170498228
301.611219764
300.305228424
302.884864569
301.158368278
301.615263081
300.325445008
300.293098474
301.174541545
301.595046496
300.289055157
301.190714812
301.174541545
300.309271741
302.039811349
301.174541545
301.615263081
301.190714812
300.749993277
301.170498228
300.309271741
300.766166544
301.174541545
301.190714812
300.325445008
300.309271741
300.309271741
300.309271741

Block: 6
======================================
300.733820009
300.309271741
301.595046496
302.035768032
300.293098474
301.174541545
301.158368278
300.309271741
300.293098474
300.74594996
300.74594996
300.309271741
301.170498228
301.190714812
300.309271741
300.309271741
301.158368278
301.170498228
301.154324961
300.309271741
300.309271741
300.749993277
300.713603425
301.154324961
300.309271741
301.170498228
301.158368278
301.158368278
300.325445008
300.713603425
300.74594996
300.289055157
300.309271741
301.174541545
300.733820009
300.289055157
300.309271741
300.309271741
300.749993277
300.293098474
300.309271741
300.289055157
300.289055157
301.154324961
300.293098474
301.170498228
300.713603425
301.158368278
300.293098474
301.158368278
301.174541545
300.309271741
300.272881889
301.174541545
300.293098474
301.158368278
300.289055157
300.272881889
300.717646742
301.170498228
300.309271741
301.158368278
300.325445008
300.733820009
300.272881889
300.749993277
300.289055157
300.289055157
301.170498228
301.174541545
300.729776692
300.717646742
300.293098474
300.272881889
301.170498228

Block: 7
======================================
300.325445008
301.190714812
300.293098474
300.325445008
300.729776692
300.293098474
300.309271741
301.190714812
301.154324961
300.729776692
300.717646742
301.190714812
300.733820009
300.293098474
301.174541545
302.444143033
301.190714812
301.174541545
300.305228424
301.154324961
300.74594996
301.190714812
301.174541545
301.190714812
300.293098474
301.174541545
301.170498228
301.170498228
300.293098474
300.309271741
301.158368278
300.309271741
300.733820009
300.309271741
301.154324961
300.305228424
300.713603425
301.170498228
301.190714812
300.293098474
300.309271741
300.293098474
301.174541545
300.713603425
300.309271741
300.289055157
300.309271741
301.190714812
301.190714812
300.729776692
300.293098474
301.174541545
301.170498228
300.713603425
300.749993277
300.293098474
301.174541545
300.293098474
301.154324961
300.293098474
300.749993277
300.749993277
300.293098474
300.309271741
302.019594765
300.309271741
301.595046496
301.170498228
302.039811349
301.174541545
300.325445008
301.627393031
300.766166544
300.766166544
300.733820009

Block: 8
======================================
301.615263081
301.190714812
302.035768032
300.36183486
300.749993277
300.766166544
302.476489568
300.786383128
300.749993277
301.223061347
300.782339811
302.476489568
301.227104664
302.476489568
302.051941299
300.341618276
301.20688808
301.223061347
300.766166544
300.749993277
301.223061347
302.055984616
300.782339811
301.223061347
300.802556396
302.512879419
300.341618276
301.20688808
300.325445008
301.190714812
301.20688808
300.782339811
300.341618276
301.20688808
300.325445008
300.325445008
300.341618276
300.766166544
300.766166544
300.341618276
300.341618276
300.782339811
300.782339811
301.243277931
300.782339811
300.782339811
300.341618276
300.782339811
300.782339811
300.782339811
300.786383128
302.937427688
300.341618276
301.647609615
301.243277931
300.782339811
300.798513079
300.802556396
300.782339811
300.36183486
302.072157884
300.766166544
300.798513079
300.782339811
300.798513079
300.357791543
300.341618276
300.802556396
300.357791543
301.239234614
300.357791543
300.357791543
301.243277931
300.341618276
300.341618276

Block: 9
======================================
300.786383128
300.766166544
301.243277931
301.6678262
301.223061347
301.6678262
302.917211103
300.782339811
301.223061347
300.37396481
300.802556396
300.782339811
300.802556396
300.782339811
300.782339811
300.802556396
301.239234614
300.341618276
302.529052687
301.223061347
302.072157884
301.223061347
300.798513079
300.798513079
300.782339811
300.798513079
301.683999467
301.239234614
300.357791543
300.36183486
300.325445008
300.357791543
300.378008127
300.802556396
301.239234614
300.814686346
300.818729663
301.255407882
300.818729663
300.782339811
300.798513079
300.798513079
301.239234614
300.345661592
300.357791543
300.802556396
300.341618276
300.378008127
300.798513079
300.802556396
301.223061347
300.802556396
300.814686346
300.802556396
300.782339811
300.798513079
300.766166544
300.798513079
300.341618276
300.802556396
300.782339811
300.782339811
302.492662835
300.782339811
301.223061347
300.37396481
300.798513079
301.239234614
301.223061347
301.20688808
300.390138078
300.798513079
301.239234614
302.108547735
301.259451199

Block: 10
======================================
301.239234614
301.275624466
300.818729663
302.108547735
301.255407882
300.36183486
302.104504418
300.378008127
300.36183486
300.830859613
300.357791543
300.37396481
301.259451199
300.394181395
302.088331151
301.239234614
301.259451199
300.798513079
300.818729663
300.357791543
300.37396481
300.378008127
300.798513079
302.529052687
300.390138078
300.341618276
300.814686346
300.802556396
300.798513079
300.798513079
300.802556396
301.663782883
300.802556396
300.798513079
300.798513079
300.394181395
301.259451199
300.36183486
300.357791543
300.36183486
301.259451199
300.36183486
300.818729663
300.341618276
302.529052687
300.802556396
301.243277931
300.357791543
300.782339811
300.818729663
300.798513079
300.36183486
300.37396481
301.239234614
300.357791543
301.275624466
300.37396481
300.394181395
301.255407882
300.357791543
301.259451199
300.814686346
300.782339811
300.36183486
300.802556396
300.341618276
300.802556396
300.341618276
300.357791543
300.37396481
300.357791543
300.36183486
300.357791543
300.818729663
301.647609615
