
Block: 1
======================================
99.1738301516
99.1160100698
99.136660099
99.1738301516
99.1531801224
99.1531801224
99.136660099
99.1160100698
99.136660099
99.136660099
99.136660099
99.1201400757
99.1531801224
99.1531801224
99.136660099
99.1160100698
99.136660099
99.1201400757
99.087100029
99.136660099
99.1160100698
99.1201400757
99.1201400757
99.136660099
99.1201400757
99.1160100698
99.1201400757
99.1160100698
99.136660099
99.1738301516
99.1738301516
99.087100029
99.1036200523
99.1697001457
99.1697001457
99.1036200523
99.136660099
99.0994900465
99.516620636
99.5372706652
99.1738301516
99.5372706652
99.1738301516
99.1531801224
99.1036200523
99.0994900465
99.1531801224
99.5331406593
99.0994900465
99.136660099
99.5537906885
99.5372706652
99.1531801224
99.5372706652
99.5331406593
99.1036200523
99.5868307352
99.1697001457
99.1697001457
99.5001006126
99.1697001457
99.5496606827
99.516620636
99.1531801224
99.5537906885
99.5537906885
99.1738301516
99.1531801224
99.1697001457
99.1036200523
99.5331406593
99.1862201691
99.136660099
99.1201400757
99.1697001457

Block: 2
======================================
99.1573101282
99.5868307352
99.1903501749
99.1531801224
99.1531801224
99.2068701982
99.6033507586
99.5537906885
99.5868307352
99.5537906885
99.1531801224
99.5537906885
99.1738301516
99.136660099
99.1036200523
99.1573101282
99.5331406593
99.1531801224
99.1738301516
99.5537906885
99.1697001457
99.1531801224
99.5703107119
99.1531801224
99.1201400757
99.1201400757
99.5331406593
99.5331406593
99.1903501749
99.1697001457
99.1531801224
99.1903501749
99.5537906885
99.5372706652
99.1201400757
99.1036200523
99.1903501749
99.5703107119
99.1201400757
99.5537906885
99.516620636
99.5537906885
99.1862201691
99.1903501749
99.1697001457
99.136660099
99.5331406593
99.1738301516
99.1160100698
99.1697001457
99.1201400757
99.1738301516
99.5372706652
99.5537906885
99.136660099
99.5496606827
99.5331406593
99.1862201691
99.1531801224
99.136660099
99.136660099
99.136660099
99.5207506418
99.136660099
99.1201400757
99.5372706652
99.5372706652
99.6033507586
99.5207506418
99.5372706652
99.5331406593
99.5537906885
99.136660099
99.5331406593
99.5537906885

Block: 3
======================================
100.003961325
99.5331406593
99.6405208111
99.566180706
99.1862201691
99.0994900465
99.1697001457
99.136660099
99.1036200523
99.5537906885
99.5331406593
99.5537906885
99.1531801224
99.1201400757
99.0994900465
99.1201400757
99.1531801224
99.516620636
99.5331406593
99.5331406593
99.5537906885
99.5537906885
99.5537906885
99.5372706652
99.5331406593
99.516620636
99.1903501749
99.1160100698
99.1201400757
99.5331406593
99.1531801224
99.136660099
99.5372706652
99.1531801224
99.566180706
99.5372706652
99.5331406593
99.5331406593
99.5496606827
99.5331406593
99.5331406593
99.1201400757
99.1036200523
99.1160100698
99.516620636
99.5372706652
99.516620636
99.566180706
99.5372706652
99.5372706652
99.516620636
99.5331406593
99.566180706
99.5331406593
99.5372706652
99.1697001457
99.1862201691
99.1531801224
99.1160100698
99.1697001457
99.5703107119
99.136660099
99.5537906885
99.5537906885
99.136660099
99.5331406593
99.5331406593
99.1160100698
99.1697001457
99.5372706652
99.1201400757
99.5207506418
99.1201400757
99.1738301516
99.5331406593

Block: 4
======================================
99.1201400757
99.5372706652
99.5207506418
99.1531801224
99.0994900465
99.1862201691
99.1697001457
99.136660099
99.1903501749
99.5001006126
99.136660099
99.5372706652
99.1201400757
99.1738301516
99.1862201691
99.1903501749
99.5372706652
99.5331406593
99.1697001457
99.1738301516
99.1201400757
99.1036200523
99.516620636
99.5537906885
99.1697001457
99.1531801224
99.5331406593
99.1903501749
99.136660099
99.5372706652
99.5537906885
99.5496606827
99.136660099
99.1201400757
99.1862201691
99.1531801224
99.1201400757
99.5372706652
99.1201400757
99.1697001457
99.516620636
99.5331406593
99.1201400757
99.136660099
99.5703107119
99.1201400757
99.136660099
99.1903501749
99.1697001457
99.1738301516
99.5537906885
99.1738301516
99.1738301516
99.1036200523
99.5331406593
99.1531801224
99.136660099
99.1738301516
99.1697001457
99.516620636
99.1738301516
99.1201400757
99.5331406593
99.5537906885
99.5207506418
99.136660099
99.1201400757
99.1160100698
99.1531801224
99.136660099
99.0994900465
99.1201400757
99.1531801224
99.136660099
99.1903501749

Block: 5
======================================
99.1738301516
99.1697001457
99.5703107119
99.516620636
99.516620636
99.5331406593
99.1531801224
99.136660099
99.1697001457
99.136660099
99.516620636
99.1531801224
99.136660099
99.5372706652
99.6033507586
99.516620636
99.1697001457
99.1201400757
99.5331406593
99.1573101282
99.1531801224
99.1531801224
99.1903501749
99.1697001457
99.1697001457
99.2068701982
99.5331406593
99.6074807644
99.136660099
99.1862201691
99.1738301516
99.1531801224
99.1697001457
99.5331406593
99.0994900465
99.1697001457
99.1862201691
99.1697001457
99.5331406593
99.1201400757
99.5372706652
99.1738301516
99.1862201691
99.0994900465
99.136660099
99.5207506418
99.0994900465
99.1036200523
99.0994900465
99.1531801224
99.136660099
99.1697001457
99.1531801224
99.590960741
99.1531801224
99.5372706652
99.136660099
99.1201400757
99.1697001457
99.1697001457
99.1201400757
99.1738301516
99.5703107119
99.0994900465
99.136660099
99.136660099
99.2068701982
99.136660099
99.516620636
99.0994900465
99.1201400757
99.5537906885
99.6074807644
99.5331406593
99.1531801224

Block: 6
======================================
99.1036200523
99.1201400757
99.1531801224
99.0829700232
99.1036200523
99.5331406593
99.1573101282
99.1697001457
99.1201400757
99.136660099
99.1697001457
99.5537906885
99.1201400757
99.1531801224
99.0829700232
99.1036200523
99.136660099
99.1862201691
99.5331406593
99.1697001457
99.1201400757
99.5207506418
99.5372706652
99.5537906885
99.5537906885
99.1160100698
99.5703107119
99.1160100698
99.087100029
99.136660099
99.1201400757
99.6033507586
99.136660099
99.1036200523
99.5703107119
99.1201400757
99.5496606827
99.136660099
99.1531801224
99.5537906885
99.1201400757
99.5537906885
98.8929897547
99.5331406593
99.136660099
99.136660099
99.1531801224
99.1531801224
99.1531801224
99.136660099
99.1201400757
99.1160100698
99.136660099
99.1697001457
99.136660099
99.136660099
99.1201400757
99.1160100698
99.1531801224
99.136660099
99.1160100698
99.1573101282
99.136660099
99.1531801224
99.136660099
99.1201400757
99.1201400757
99.136660099
99.136660099
99.1201400757
99.1201400757
99.1531801224
99.1201400757
99.5496606827
99.1036200523

Block: 7
======================================
99.1201400757
99.516620636
99.1903501749
99.516620636
99.0994900465
99.5703107119
99.5537906885
99.1201400757
99.136660099
99.1201400757
99.1573101282
99.1201400757
99.1531801224
99.1160100698
99.5496606827
99.136660099
99.136660099
99.1201400757
99.1531801224
99.5331406593
99.5207506418
99.5496606827
99.136660099
99.0829700232
99.5372706652
99.1201400757
99.1531801224
99.1531801224
99.6033507586
99.5207506418
99.1201400757
99.0994900465
99.1160100698
99.0994900465
99.5207506418
99.1036200523
99.5868307352
99.136660099
99.1036200523
99.1036200523
99.5537906885
99.1201400757
99.136660099
99.136660099
99.1531801224
99.5537906885
99.5331406593
99.1160100698
99.5537906885
99.136660099
99.136660099
99.5372706652
99.2068701982
99.0994900465
99.1201400757
99.1738301516
99.1697001457
99.1036200523
99.5537906885
99.1201400757
99.136660099
99.1201400757
99.0994900465
99.1201400757
99.1201400757
99.136660099
99.5001006126
99.1531801224
99.1201400757
99.136660099
99.516620636
99.1036200523
99.1201400757
99.5496606827
99.1738301516

Block: 8
======================================
99.1201400757
99.1573101282
99.5001006126
99.516620636
99.5537906885
99.5207506418
99.1531801224
99.5372706652
99.1903501749
99.5372706652
99.1036200523
99.1201400757
99.5372706652
99.0829700232
99.5331406593
99.1201400757
99.2068701982
99.0994900465
99.1036200523
99.1531801224
99.136660099
99.5331406593
99.1201400757
99.0829700232
99.1738301516
99.5372706652
99.5372706652
99.1201400757
99.136660099
99.1036200523
99.0829700232
99.1036200523
99.136660099
99.516620636
99.136660099
99.1036200523
99.5001006126
99.0994900465
99.1160100698
99.1531801224
99.1407901049
99.5331406593
99.5001006126
99.516620636
99.1201400757
99.5331406593
99.2068701982
99.1036200523
99.1903501749
99.1036200523
99.5331406593
99.5372706652
99.5331406593
99.1531801224
99.1201400757
99.5207506418
99.1201400757
99.1036200523
99.136660099
99.1531801224
99.1903501749
99.516620636
99.5331406593
99.1201400757
99.2068701982
99.1201400757
99.1738301516
99.5537906885
99.5331406593
99.5496606827
99.136660099
99.1903501749
99.136660099
99.1531801224
99.1531801224

Block: 9
======================================
99.5372706652
99.5868307352
99.136660099
99.5703107119
99.1201400757
99.0994900465
99.5496606827
99.1201400757
99.1573101282
99.5331406593
99.5207506418
99.5372706652
99.5372706652
99.1697001457
99.0994900465
99.1160100698
99.5703107119
99.5537906885
99.136660099
99.1573101282
99.136660099
99.1738301516
99.1531801224
98.8434296846
99.1160100698
99.1697001457
99.136660099
99.5703107119
99.1160100698
99.1036200523
99.1531801224
99.1036200523
99.1531801224
99.136660099
99.1201400757
99.1201400757
99.0994900465
99.1531801224
99.1036200523
99.0829700232
99.1201400757
99.136660099
99.5496606827
99.5703107119
99.136660099
99.3596804142
99.136660099
99.136660099
99.136660099
99.1201400757
99.1573101282
99.5868307352
99.136660099
99.136660099
99.0994900465
99.5331406593
99.136660099
99.136660099
99.0994900465
99.136660099
99.1531801224
99.2068701982
99.136660099
99.1697001457
99.136660099
99.5703107119
99.1201400757
99.3968504667
99.5703107119
99.1201400757
99.5372706652
99.136660099
99.136660099
99.1573101282
99.136660099

Block: 10
======================================
99.5331406593
99.4835805893
99.1036200523
99.5496606827
99.516620636
99.1201400757
99.1036200523
99.1531801224
99.5372706652
99.1036200523
99.0994900465
99.1036200523
99.1697001457
99.136660099
99.136660099
99.5372706652
99.1697001457
99.5372706652
99.5537906885
99.5207506418
99.136660099
99.0829700232
99.136660099
99.1160100698
99.1903501749
99.1531801224
99.5207506418
99.1573101282
99.1697001457
99.516620636
99.1531801224
99.5703107119
99.516620636
99.1531801224
99.136660099
99.1201400757
99.516620636
99.1201400757
99.1531801224
99.1201400757
99.5372706652
99.5331406593
99.516620636
99.5496606827
99.1201400757
99.5703107119
99.1697001457
99.1201400757
99.5207506418
99.5372706652
99.5868307352
99.1036200523
99.1201400757
99.1531801224
99.1201400757
99.516620636
99.5372706652
99.5331406593
99.4835805893
99.1531801224
99.1531801224
99.5372706652
99.1201400757
99.5703107119
99.1201400757
99.1862201691
99.1903501749
99.0994900465
99.136660099
99.1201400757
99.1201400757
99.1201400757
99.1201400757
99.5703107119
99.136660099
