
Block: 1
======================================
49.9696614265
49.9696614265
49.9860947609
50.3681697845
49.9737697601
49.9367947578
50.4010364532
50.4010364532
50.364061451
50.3846031189
50.3681697845
49.9532280922
49.9696614265
50.4010364532
49.9902030945
49.9696614265
50.3681697845
50.3681697845
49.9573364258
49.9532280922
49.9696614265
50.3887114525
50.3846031189
49.9737697601
50.4051447868
50.4051447868
50.0066364288
50.1463197708
50.4010364532
49.9860947609
49.9573364258
50.364061451
49.9696614265
49.9737697601
49.9860947609
49.9737697601
49.9860947609
49.9737697601
50.3846031189
49.9860947609
50.3846031189
50.3887114525
50.3681697845
50.3846031189
49.9573364258
50.4051447868
49.9860947609
50.3846031189
49.9532280922
49.9696614265

Average distance is : 50.157 cm
Average deviation is : 0.206 cm
Block: 2
======================================
50.4010364532
50.0066364288
49.9737697601
49.9902030945
50.3681697845
49.9573364258
49.9532280922
49.9902030945
49.9860947609
49.9902030945
49.9573364258
50.4174697876
50.3681697845
50.4010364532
50.3681697845
50.3846031189
50.3846031189
49.9902030945
50.3846031189
49.9532280922
50.3846031189
50.3846031189
50.3681697845
50.3681697845
50.3681697845
50.4010364532
49.9532280922
50.3846031189
50.3846031189
50.3681697845
50.364061451
49.9532280922
50.3846031189
49.9696614265
50.364061451
50.3846031189
50.3846031189
50.3681697845
49.9532280922
50.3681697845
49.9532280922
50.4010364532
49.9532280922
49.9532280922
50.3846031189
50.4051447868
50.4051447868
50.3681697845
50.3681697845
49.9737697601

Average distance is : 50.225 cm
Average deviation is : 0.203 cm
Block: 3
======================================
24.2638181686
50.4051447868
50.3681697845
50.3517364502
50.4051447868
50.3681697845
50.364061451
50.4051447868
50.3846031189
50.4380114555
50.0066364288
50.4215781212
50.3681697845
50.0025280952
50.3846031189
49.9737697601
50.3681697845
50.3681697845
50.3681697845
50.4010364532
50.3681697845
50.4010364532
50.3517364502
50.3846031189
50.3846031189
50.3846031189
50.3517364502
50.4010364532
49.9737697601
50.3846031189
49.9737697601
50.3846031189
49.9696614265
49.9902030945
49.9902030945
50.3846031189
49.9902030945
49.9696614265
50.4051447868
50.4051447868
50.3517364502
50.3846031189
49.9532280922
50.3681697845
50.3846031189
50.4010364532
40.3931358337
50.4051447868
50.3846031189
49.9532280922

Average distance is : 49.565 cm
Average deviation is : 3.914 cm
Block: 4
======================================
50.3517364502
50.3517364502
50.4010364532
50.0066364288
50.3846031189
49.9860947609
50.4174697876
49.9902030945
50.0066364288
50.4215781212
50.4051447868
49.9737697601
50.3681697845
50.3887114525
49.9902030945
50.3887114525
50.3517364502
50.4010364532
50.4010364532
50.3846031189
49.9573364258
50.3681697845
50.3681697845
50.3846031189
49.9532280922
50.4010364532
32.7557436943
50.4051447868
50.364061451
50.3681697845
50.3681697845
50.3517364502
50.3846031189
50.3681697845
50.3887114525
49.9696614265
50.3887114525
50.4051447868
50.4051447868
50.3681697845
50.3681697845
50.3681697845
50.3846031189
50.3517364502
50.3681697845
50.3681697845
50.3681697845
50.364061451
50.3846031189
50.3681697845

Average distance is : 49.956 cm
Average deviation is : 2.487 cm
Block: 5
======================================
50.3681697845
49.9532280922
49.9737697601
49.9902030945
50.3887114525
49.9902030945
50.3887114525
50.4215781212
49.9737697601
50.0066364288
50.3846031189
50.3681697845
49.9860947609
38.3759440422
50.3846031189
50.3681697845
50.3846031189
50.3681697845
50.3846031189
50.3846031189
49.9573364258
49.9573364258
50.4051447868
50.4051447868
49.9532280922
50.4051447868
49.9696614265
49.9696614265
50.3846031189
50.4010364532
50.3846031189
49.9902030945
49.9696614265
50.3681697845
49.9902030945
49.9860947609
50.3681697845
50.3681697845
49.9532280922
50.3681697845
50.3846031189
40.0973358154
50.3846031189
50.3681697845
50.3846031189
49.9532280922
49.9532280922
49.9902030945
49.9696614265
50.4051447868

Average distance is : 49.766 cm
Average deviation is : 2.187 cm
Block: 6
======================================
49.9573364258
49.9532280922
50.4051447868
49.9737697601
50.4051447868
49.9696614265
50.4010364532
49.9532280922
50.4051447868
50.3846031189
49.9532280922
50.3846031189
49.9737697601
49.9737697601
50.3887114525
50.3846031189
28.6926017761
50.3681697845
49.9737697601
50.3681697845
50.4010364532
50.3517364502
50.3517364502
50.3846031189
50.3846031189
50.4010364532
50.3517364502
50.3846031189
49.5588280678
50.3681697845
50.3887114525
50.3517364502
50.3846031189
50.4010364532
50.0066364288
50.3846031189
50.4010364532
49.9532280922
50.3681697845
50.3681697845
50.3681697845
50.3681697845
50.3846031189
50.3681697845
35.9602438927
50.3846031189
50.3846031189
50.3846031189
50.3846031189
50.3681697845

Average distance is : 49.551 cm
Average deviation is : 3.632 cm
Block: 7
======================================
50.4051447868
50.3681697845
50.3846031189
50.3846031189
50.3517364502
49.9902030945
50.4010364532
50.3846031189
50.3846031189
49.9532280922
50.0066364288
50.3846031189
50.4010364532
50.4051447868
50.364061451
50.4051447868
50.3681697845
49.9532280922
49.9696614265
50.4010364532
50.3846031189
49.9860947609
50.3681697845
50.4010364532
50.3517364502
50.3846031189
50.4010364532
50.4010364532
50.3887114525
50.4010364532
50.3846031189
50.3846031189
50.3681697845
50.3846031189
50.364061451
50.4010364532
50.3681697845
50.3846031189
50.3846031189
50.3681697845
50.3681697845
50.3846031189
50.3681697845
50.3846031189
50.4051447868
50.3681697845
50.3846031189
49.9902030945
50.3681697845
49.9696614265

Average distance is : 50.318 cm
Average deviation is : 0.151 cm
Block: 8
======================================
6.42954206467
50.3846031189
50.4051447868
49.9696614265
49.9532280922
50.3681697845
49.9737697601
49.9696614265
49.9902030945
49.9696614265
49.9696614265
50.3681697845
49.9902030945
49.9737697601
49.9696614265
49.9860947609
49.9902030945
50.3846031189
49.9860947609
50.4010364532
50.3517364502
50.3887114525
49.9367947578
50.3887114525
50.3681697845
49.9902030945
50.4051447868
49.9573364258
50.3681697845
50.4051447868
50.3681697845
50.3846031189
49.9737697601
50.3846031189
49.9696614265
50.3846031189
49.9532280922
49.9532280922
49.9367947578
50.3681697845
50.3846031189
49.9532280922
50.3887114525
50.3681697845
50.3517364502
50.3517364502
49.9737697601
50.3681697845
49.9696614265
50.3681697845

Average distance is : 49.303 cm
Average deviation is : 6.190 cm
Block: 9
======================================
50.4010364532
50.4380114555
50.0066364288
50.4339031219
50.3846031189
50.4051447868
50.4010364532
49.9367947578
50.3846031189
50.3846031189
49.9860947609
49.9902030945
49.9737697601
49.9902030945
50.3887114525
50.3681697845
50.3476281166
50.3846031189
50.3846031189
50.3846031189
50.3887114525
50.3846031189
50.3846031189
50.0066364288
50.4010364532
50.3846031189
29.8265018463
50.3681697845
49.9902030945
50.4010364532
49.9532280922
50.4010364532
50.3887114525
49.9696614265
50.3846031189
49.9367947578
50.3846031189
50.3846031189
50.3846031189
50.3887114525
50.3681697845
50.3846031189
49.9532280922
50.3846031189
50.3681697845
49.9737697601
50.3681697845
49.9696614265
49.9860947609
49.9902030945

Average distance is : 49.845 cm
Average deviation is : 2.895 cm
Block: 10
======================================
50.4051447868
49.9902030945
50.3846031189
50.3681697845
49.9696614265
50.3681697845
50.3846031189
49.9737697601
50.3353031158
50.3846031189
49.9902030945
50.3681697845
49.9696614265
49.9696614265
50.3846031189
50.3681697845
50.3476281166
50.8324114799
50.3846031189
50.3517364502
50.4010364532
50.4051447868
50.3887114525
50.3681697845
49.9573364258
50.3681697845
49.9573364258
49.9737697601
49.9902030945
50.3846031189
50.4174697876
49.9860947609
50.0066364288
49.9902030945
50.3846031189
49.9902030945
49.9737697601
50.3681697845
49.9696614265
49.9860947609
49.9737697601
49.9737697601
49.9860947609
49.9696614265
49.9532280922
49.9737697601
49.9532280922
49.9902030945
49.9573364258
49.9737697601

Average distance is : 50.170 cm
Average deviation is : 0.222 cm