Block: 1
======================================
100.6784
100.7996
100.765
100.661
100.6437
100.661
100.6957
100.713
100.7477
100.765
100.6957
100.6437
100.2453
100.661
100.661
100.765
100.7823
100.2626
100.661
100.2626
100.661
100.6437
100.7477
100.765
100.713
100.661
100.661
100.6784
100.661
100.765
100.3839
100.661
100.713
100.661
100.6437
100.6437
100.765
100.7996
100.2799
100.661
100.661
100.661
100.661
100.7996
100.3492
100.2453
100.661
100.661
100.2453
100.6957
100.6437
100.3492
100.765
100.6437
100.661
100.228
100.6437
100.2453
100.765
100.817
100.661
100.713
100.6957
100.661
100.661
100.817
100.7996
100.661
100.6437
100.661
100.661
100.6957
100.817
100.765
100.6437
100.6957
100.6437
100.6437
100.661
100.765
100.817
100.661
100.661
100.2453
100.661
100.6784
100.817
100.7477
100.228
100.661
100.661
100.713
100.6957
100.7823
100.765
100.2453
100.2453
100.713
100.661
100.661
100.7477
100.765
100.661
100.6784
100.6957
100.6957
100.661
100.7477
100.7477
100.661
100.6437
100.661
100.661
100.661
100.3492
100.7996
100.6437
100.661
100.6957
100.6437
100.7303
100.765
100.713
100.661
100.6437
100.228
100.228
100.2453
100.7477
100.817
100.6957
100.6437
100.661
100.661
100.6957
100.765
100.765
100.2453
100.661
100.6957
100.6957
100.6957
100.7996
100.3319
100.228
100.228
100.2453
100.228
100.228
100.661
100.7477
100.7996
100.713
100.661
100.6957
100.661
100.6957
100.7477
100.7996
100.661
100.6437
100.6437
100.6957
100.7477
100.765
100.6784
100.661
100.6437
100.6957
100.6437
100.7477
100.3666
100.6957
100.6957
100.2799
100.2453
100.713
100.2799
100.3839
100.3492
100.6437
100.6957
100.661
100.6957
100.661
100.7477
100.7477
100.713
100.713
100.6957
100.6957
100.661
100.7477
100.7996
100.6437
100.713
100.713
100.713
100.765
100.3666
100.7996
100.713
100.713
100.661
100.6957
100.3319
100.7996
100.7303
100.713
100.6957
100.6957
100.2626
100.2799
100.817
100.7477
100.6957
100.2799
100.6957
100.6957
100.6437
100.765
100.765
100.713
100.713
100.713
100.713
100.7477
100.7996
100.713
100.6437
100.6957
100.6437
100.6957
100.765
100.7996
100.6957
100.6437
100.228
100.661
100.6437
100.7477
100.7477
100.6957
100.2626
100.6437
100.713
100.2453
100.6957
100.7477
100.6437

Block: 2
======================================
100.7996
100.661
100.6957
100.713
100.6957
100.661
100.817
100.7996
100.6957
100.2453
100.6437
100.6437
100.6437
100.7477
100.7477
100.5918
100.228
100.6957
100.228
100.6437
100.3319
100.7477
100.6437
100.6437
100.228
100.6264
100.2453
100.7477
100.7477
100.6437
100.228
100.6437
100.661
100.5918
100.6437
100.7477
100.6437
100.6437
100.6784
100.661
100.6437
100.7996
100.7996
100.6957
100.6957
100.661
100.6437
100.6437
100.765
100.3319
100.3146
100.228
100.661
100.2453
100.6437
100.6437
100.7823
100.7996
100.6437
100.661
100.6437
100.6437
100.228
100.765
100.765
100.6437
100.6437
100.6437
100.2453
100.6437
100.765
100.765
100.6784
100.228
100.6784
100.6091
100.6437
100.7477
100.6957
100.5918
100.5918
100.5918
100.5918
100.6264
100.7477
100.765
100.2107
100.6264
100.6264
100.6264
100.6264
100.7303
100.3146
100.228
100.2107
100.2107
100.6264
100.6264
100.765
100.2973
100.7477
100.2107
100.228
100.6437
100.6437
100.6437
100.7477
100.765
100.661
100.6437
100.6437
100.6957
100.661
100.7477
100.765
100.6437
100.661
100.6264
100.661
100.6784
100.7477
100.7303
100.228
100.2626
100.6264
100.6437
100.6264
100.7477
100.765
100.661
100.6437
100.661
100.661
100.2453
100.765
100.3492
100.228
100.228
100.661
100.6437
100.228
100.2453
100.3319
100.7477
100.6437
100.6437
100.6437
100.228
100.661
100.7823
100.7477
100.2107
100.228
100.6437
100.661
100.6437
100.7477
100.3319
100.6437
100.6437
100.661
100.2453
100.6437
100.7303
100.7477
100.6437
100.6957
100.661
100.661
100.6437
100.765
100.7996
100.6437
100.661
100.6437
100.661
100.661
100.7996
100.7477
100.661
100.713
100.6957
100.6957
100.6957
100.7823
100.3319
100.6957
100.6957
100.6437
100.661
100.661
100.817
100.817
100.6957
100.6957
100.6437
100.6957
100.6437
100.7303
100.817
100.6957
100.6784
100.6957
100.713
100.6957
100.817
100.661
100.661
100.6784
100.6957
100.6437
100.7477
100.7996
100.6957
100.6437
100.6437
100.6957
100.6957
100.817
100.817
100.6437
100.6957
100.6437
100.6437
100.6437
100.7477
100.7477
100.661
100.6437
100.6957
100.6957
100.6957
100.765
100.7477
100.2453
100.6437
100.6437
100.6437
100.6437
100.765
100.7996
100.6784
100.713
100.2799
100.661
100.6437
100.7477
100.7996
100.6437
100.6957

Block: 3
======================================
100.817
100.765
100.6957
100.228
100.6957
100.6957
100.6437
100.765
100.3492
100.7996
100.713
100.661
100.6957
100.713
100.765
100.765
100.661
100.661
100.6437
100.713
100.713
100.817
100.817
100.661
100.6957
100.6437
100.713
100.661
100.817
100.765
100.6784
100.6957
100.6437
100.2799
100.661
100.7823
100.7477
100.6957
100.6437
100.2626
100.2799
100.713
100.7477
100.817
100.661
100.6957
100.6437
100.661
100.2799
100.7477
100.3666
100.7303
100.6437
100.2453
100.6437
100.661
100.661
100.3319
100.3492
100.228
100.228
100.6784
100.2453
100.2453
100.765
100.7477
100.713
100.2799
100.713
100.2453
100.661
100.661
100.3492
100.7477
100.661
100.661
100.6784
100.713
100.713
100.765
100.765
100.2799
100.2453
100.661
100.661
100.6437
100.765
100.7477
100.661
100.661
100.2453
100.6437
100.6957
100.7477
100.3492
100.6437
100.2626
100.6957
100.6437
100.2626
100.3319
100.3666
100.6784
100.661
100.6437
100.228
100.6437
100.7823
100.7996
100.661
100.6437
100.6437
100.661
100.6784
100.3492
100.3492
100.765
100.228
100.6437
100.2453
100.661
100.661
100.765
100.3492
100.6957
100.2453
100.661
100.2453
100.6437
100.765
100.7477
100.2453
100.6437
100.6437
100.6437
100.6437
100.7477
100.817
100.661
100.661
100.713
100.2453
100.661
100.3492
100.765
100.6437
100.713
100.661
100.6957
100.661
100.765
100.3492
100.6784
100.6437
100.228
100.7477
100.6437
100.6437
100.228
100.228
100.6437
100.6264
100.7477
100.765
100.6957
100.661
100.2626
100.661
100.713
100.7477
100.765
100.6957
100.6437
100.6957
100.2626
100.6437
100.765
100.817
100.6437
100.6957
100.6957
100.661
100.7303
100.3492
100.7477
100.6437
100.6437
100.2453
100.6437
100.6437
100.7477
100.765
100.6437
100.6957
100.6437
100.661
100.2626
100.7477
100.765
100.6437
100.6957
100.661
100.661
100.661
100.817
100.765
100.6437
100.6437
100.6437
100.6957
100.7996
100.765
100.661
100.713
100.6957
100.6957
100.6437
100.7477
100.3492
100.6437
100.6957
100.6437
100.6437
100.661
100.765
100.7477
100.6957
100.6957
100.6437
100.2626
100.661
100.3492
100.7996
100.6437
100.6957
100.2453
100.661
100.6957
100.3146
100.7477
100.765
100.228
100.6437
100.6264
100.6437
100.661
100.7996
100.765
100.6437
100.2453

Block: 4
======================================
100.3666
100.6957
100.2799
100.6957
100.6957
100.2973
100.3839
100.4012
100.765
100.6957
100.2799
100.6784
100.713
100.7477
100.3666
100.3839
100.2626
100.6784
100.2799
100.6784
100.6957
100.7823
100.7996
100.6957
100.713
100.713
100.2626
100.6784
100.7996
100.7996
100.6784
100.6957
100.6957
100.6784
100.7823
100.3839
100.7823
100.713
100.713
100.2626
100.2626
100.2453
100.7823
100.7823
100.713
100.6784
100.6784
100.6784
100.3319
100.7823
100.7823
100.6784
100.6957
100.6784
100.6784
100.7303
100.6784
100.6784
100.6784
100.7303
100.4185
100.8343
100.6784
100.713
100.7303
100.7303
100.7303
100.817
100.8343
100.7477
100.713
100.7303
100.7303
100.8343
100.7823
100.7303
100.6784
100.713
100.7303
100.2799
100.8343
100.8343
100.713
100.661
100.6957
100.713
100.6957
100.817
100.8343
100.713
100.7303
100.713
100.7303
100.7303
100.7996
100.8343
100.6784
100.6957
100.2973
100.7303
100.7303
100.8343
100.817
100.7303
100.7303
100.7303
100.7303
100.8343
100.817
100.713
100.7303
100.7303
100.6957
100.713
100.817
100.8343
100.713
100.7303
100.7303
100.713
100.713
100.8343
100.7823
100.2626
100.713
100.7303
100.6784
100.713
100.8343
100.7823
100.7303
100.7303
100.713
100.713
100.765
100.8343
100.713
100.6784
100.2626
100.6784
100.6437
100.765
100.7823
100.6784
100.6784
100.661
100.6784
100.6784
100.765
100.7477
100.2453
100.228
100.817
100.7996
100.2626
100.2453
100.6784
100.6784
100.661
100.7823
100.765
100.661
100.661
100.713
100.661
100.661
100.817
100.765
100.661
100.2453
100.661
100.661
100.661
100.7477
100.765
100.713
100.6784
100.6437
100.2453
100.6437
100.7477
100.3492
100.2799
100.228
100.6957
100.2453
100.2626
100.6437
100.765
100.7823
100.661
100.2453
100.661
100.661
100.2453
100.3492
100.7477
100.6957
100.6784
100.661
100.661
100.713
100.765
100.765
100.6784
100.6437
100.2453
100.6784
100.661
100.765
100.3492
100.661
100.661
100.661
100.713
100.713
100.765
100.3666
100.6784
100.6784
100.661
100.2453
100.6957
100.7477
100.3319
100.6437
100.2626
100.661
100.228
100.6784
100.7823
100.765
100.6437
100.6437
100.6437
100.2453
100.661
100.7823
100.3666
100.765
100.661
100.6957
100.6437
100.661
100.713
100.7477
100.661
100.6784
100.661
100.228

Block: 5
======================================
100.2453
100.661
100.661
100.661
100.661
100.3666
100.3666
100.6784
100.661
100.6957
100.2626
100.661
100.7823
100.765
100.661
100.661
100.661
100.6437
100.6437
100.7823
100.3666
100.661
100.2626
100.661
100.2453
100.661
100.7477
100.765
100.6437
100.2453
100.6437
100.6437
100.6437
100.7823
100.765
100.2453
100.2453
100.6957
100.2453
100.6784
100.228
100.3492
100.7823
100.6437
100.2453
100.2453
100.6437
100.661
100.7477
100.3492
100.6437
100.2453
100.2453
100.6437
100.661
100.3666
100.817
100.661
100.661
100.6957
100.6784
100.6437
100.7823
100.7477
100.6437
100.661
100.661
100.661
100.228
100.765
100.3319
100.7823
100.661
100.6437
100.2626
100.2453
100.2453
100.765
100.7477
100.228
100.6957
100.661
100.6784
100.2453
100.3492
100.765
100.661
100.661
100.6264
100.713
100.661
100.765
100.3492
100.2453
100.6957
100.661
100.6437
100.6784
100.765
100.3492
100.2453
100.661
100.6784
100.6784
100.6784
100.7477
100.3492
100.6957
100.661
100.2453
100.2453
100.661
100.661
100.765
100.765
100.661
100.6784
100.2453
100.6784
100.6437
100.765
100.765
100.661
100.6437
100.6437
100.661
100.661
100.765
100.7823
100.661
100.2453
100.2453
100.2453
100.713
100.765
100.7823
100.6784
100.661
100.6437
100.6437
100.2453
100.765
100.765
100.2453
100.661
100.661
100.6437
100.2453
100.765
100.765
100.661
100.661
100.6784
100.661
100.661
100.7823
100.3492
100.2453
100.661
100.661
100.228
100.661
100.765
100.3492
100.7477
100.6437
100.661
100.228
100.661
100.661
100.7996
100.3319
100.228
100.661
100.661
100.661
100.6437
100.765
100.765
100.2453
100.6784
100.6784
100.661
100.6437
100.765
100.7823
100.661
100.661
100.661
100.661
100.6437
100.7477
100.7477
100.661
100.661
100.2453
100.2453
100.661
100.765
100.7823
100.6957
100.6437
100.661
100.7477
100.765
100.228
100.2453
100.2453
100.2453
100.2453
100.3492
100.7823
100.6437
100.661
100.2453
100.6784
100.6437
100.765
100.7477
100.661
100.661
100.661
100.661
100.6437
100.765
100.7823
100.3492
100.661
100.6957
100.6957
100.661
100.7477
100.765
100.6957
100.228
100.661
100.228
100.228
100.6437
100.3319
100.765
100.6437
100.6437
100.6784
100.661
100.661
100.7477
100.765
100.6784
100.661

Block: 6
======================================
100.765
100.661
100.6437
100.6437
100.228
100.661
100.765
100.765
100.6784
100.6437
100.228
100.661
100.6437
100.765
100.3492
100.7477
100.661
100.6437
100.661
100.228
100.228
100.765
100.765
100.6437
100.661
100.228
100.6437
100.6437
100.7477
100.7477
100.2453
100.6437
100.661
100.228
100.6437
100.765
100.3319
100.6437
100.6264
100.661
100.228
100.6437
100.3492
100.765
100.713
100.2453
100.661
100.2453
100.228
100.228
100.3492
100.765
100.661
100.661
100.6437
100.6437
100.661
100.765
100.7477
100.6437
100.6437
100.6437
100.661
100.6784
100.7303
100.765
100.2107
100.661
100.7477
100.3146
100.228
100.6091
100.228
100.228
100.228
100.6264
100.3319
100.765
100.228
100.2107
100.661
100.228
100.6437
100.661
100.765
100.3146
100.661
100.6437
100.228
100.6437
100.6437
100.7477
100.3319
100.228
100.6784
100.6091
100.6437
100.6264
100.765
100.3492
101.0595
100.6784
101.1114
100.661
101.0768
101.1807
100.661
100.6437
100.6437
100.6437
101.0595
100.765
100.7477
101.0768
100.6437
100.6437
100.6437
101.0768
101.1807
101.1807
100.6437
101.0768
100.6437
101.0768
101.1807
101.198
101.0768
101.0595
101.0941
100.6437
100.7477
100.765
100.6437
101.0768
101.0595
101.0768
101.0941
100.7477
101.1461
101.0768
101.0941
101.0768
100.6437
100.7303
101.198
101.0941
101.0941
100.6437
101.0768
101.1807
100.765
101.0768
100.661
101.0421
101.0768
100.661
100.7477
101.0941
101.0768
101.0941
100.6437
100.6437
100.7477
101.1807
101.0595
101.0421
101.0768
100.6437
101.198
101.1807
101.0768
100.6437
101.0941
101.0941
100.7303
101.1807
100.6264
101.0421
100.6437
101.0768
101.0421
100.765
100.765
100.6437
101.0768
101.0768
101.0941
101.1634
101.1807
100.6437
101.0595
100.6437
100.6437
100.7303
100.7477
100.6437
100.6437
100.661
101.0768
101.0941
101.1807
101.198
101.0768
100.661
101.0768
100.6437
101.1807
101.2154
101.0768
101.0768
101.0768
100.6437
100.6784
100.7477
101.0768
100.661
100.6437
100.6437
100.661
101.1807
100.765
100.661
101.0768
101.0941
101.0768
101.0768
101.1807
100.6437
100.6437
101.0595
101.0768
101.0768
101.1807
100.7477
101.0595
100.6437
101.0768
100.6437
101.1807
101.198
101.0595
100.6437
101.0768
100.6437
101.0768
101.1807
101.0421
101.0768
101.0941
101.0595

Block: 7
======================================
101.0595
100.6264
101.0768
101.1807
101.198
101.0768
100.6437
101.0248
101.0595
100.6437
101.1807
100.6437
100.6437
100.6437
101.0595
101.0768
101.1807
101.1461
101.0768
101.0768
101.0421
100.6437
101.198
100.7477
100.6437
101.0768
100.6437
100.6264
101.0768
101.1807
100.6437
101.0421
101.0768
101.0768
100.6264
101.1807
101.1288
101.0248
101.0075
101.0421
101.0075
101.1114
101.1114
101.0248
101.0768
101.0248
101.0248
101.198
101.1461
101.0768
101.0768
101.0595
101.0248
101.1288
101.1114
101.0075
101.0248
101.0248
101.0941
101.1807
101.1807
100.6437
101.0768
101.0768
101.0768
101.1634
101.1288
101.0248
101.0075
101.0075
101.0248
101.0248
101.1807
101.0768
101.0768
101.0421
101.0248
101.0768
101.1288
101.0768
101.0595
101.0421
100.6091
101.0421
101.1288
101.0595
101.0768
101.0768
101.0768
101.0768
101.1807
101.1807
101.0768
101.0768
101.0768
101.0941
101.1807
101.1807
100.661
101.0768
101.0941
101.0941
101.1807
101.198
101.0941
101.0941
101.0941
101.0768
101.1807
101.1807
101.0421
100.6437
101.0768
101.0941
101.1807
101.198
100.6437
100.6437
101.0941
101.0768
101.1634
100.765
100.6437
101.0595
101.0941
101.0248
101.0941
101.1807
100.661
100.6437
101.0595
101.0595
101.0768
100.7477
101.198
100.6437
101.0768
101.0941
101.0768
101.1807
101.1634
101.0768
101.0595
101.0595
101.0421
101.1807
101.1634
100.6437
101.0595
101.0595
100.6437
101.0768
101.1807
100.6437
101.0941
101.0941
101.0595
100.6437
101.1634
101.0941
101.0768
100.6437
100.6437
101.0768
101.1807
101.1634
101.0768
101.0768
100.6437
100.661
101.0075
101.1114
101.1634
101.0075
101.0075
101.0421
101.0248
101.1634
101.1114
101.0595
101.1288
100.6957
101.0595
101.0248
100.5918
100.5918
101.1634
101.1114
100.9902
101.0075
101.0595
101.0075
101.0595
101.1634
101.0595
100.6091
101.0595
101.0421
101.0595
101.1634
101.0421
101.0595
101.0075
101.0075
101.0768
101.1114
101.0075
100.6264
101.0595
101.0075
101.0595
101.1634
101.1114
101.0595
101.0595
101.0768
101.0248
101.1634
101.1634
101.0595
101.0595
101.0595
101.0595
101.0941
101.1114
101.0075
101.0595
100.5744
100.9902
101.0941
100.6957
101.0595
101.0248
101.0075
101.0595
101.0075
101.1114
101.0075
101.0075
101.0421
101.0075
101.0075
101.1114
101.1114
101.0075
100.6091
101.0248
101.0075
101.1114
101.1114

Block: 8
======================================
101.0075
101.0075
101.1114
101.0421
101.0595
101.0595
101.0075
101.0421
101.1114
101.1114
100.5918
101.0421
101.0595
100.5918
101.1114
101.1288
101.0075
100.6091
101.0248
101.0421
101.1461
101.1114
101.0075
101.0075
100.9902
101.0248
101.0595
101.1114
101.0421
101.0595
101.0075
101.0075
101.0595
101.1634
100.9902
100.9902
101.0075
101.0075
101.0595
101.1114
100.713
101.0248
101.0595
101.0421
101.0595
101.1634
101.1461
101.0248
101.0075
101.0075
101.0075
101.1461
101.1114
101.0248
101.0075
101.0075
101.0595
101.0595
100.713
101.0421
101.0248
101.0595
100.9902
101.0075
101.1114
101.0075
101.0595
101.0075
101.0768
101.0768
101.1634
101.1114
101.0595
101.0421
101.0595
101.0075
101.0941
101.1114
101.0421
101.0595
101.0075
101.0595
101.1634
101.1807
101.0595
101.0421
100.5918
101.0595
100.713
101.1634
100.5918
101.0421
101.0075
101.0421
101.0075
100.6784
101.1288
101.0075
101.0421
101.0248
101.0595
101.1114
101.1288
100.9902
101.0075
101.0075
101.0595
101.0941
101.1114
100.9902
101.0248
101.0595
101.0075
101.1634
101.1114
101.0421
101.0075
101.0075
101.0248
101.1114
101.1114
101.0075
100.5918
101.0595
100.9902
100.5918
101.1114
101.0075
101.0595
101.0421
101.0075
100.6091
101.1634
101.1114
101.0075
101.0075
101.0075
101.0075
101.1634
101.1114
100.6091
101.0595
101.0075
101.0248
101.1114
101.1114
101.0075
101.0595
100.5918
100.5918
101.0075
100.713
101.1114
101.0595
101.0075
101.0075
100.5918
101.1114
101.1114
101.0075
101.0075
101.0075
100.5918
100.6264
101.1114
100.9902
101.0595
101.0595
101.0595
100.9902
101.1114
101.0075
101.0421
101.0075
100.9902
100.5571
100.6784
101.1114
101.0075
101.0075
100.9902
100.9902
101.1461
101.0941
101.0595
101.0075
101.0075
101.0595
100.9902
101.1114
101.0595
100.5918
100.9902
101.0595
100.9902
101.1114
101.0075
101.0595
100.9902
101.0595
101.0248
101.1634
101.1114
100.5918
100.9902
101.0075
100.9902
101.1634
100.713
100.9902
101.0421
101.0075
101.0768
101.0075
101.1114
101.0075
101.0595
101.0075
101.0075
100.9902
101.1288
101.0075
101.0595
101.0421
101.0075
101.0248
101.0941
100.713
101.0075
101.0075
100.5918
101.0075
101.0075
101.1114
101.0075
101.0595
101.0075
100.5744
100.6091
101.1114
101.1114
100.9902
101.0075
101.0075
100.9902
101.1114
101.1634
100.9902
101.0595
101.0075

Block: 9
======================================
101.1114
100.5918
100.9902
101.0075
101.0075
101.0075
101.1634
101.0248
101.0075
101.0075
101.0075
101.0075
101.1114
101.0075
101.0595
101.0075
101.0075
101.0075
101.0941
100.6957
100.5918
101.0421
101.0595
101.0075
101.0075
100.6957
100.5918
101.0421
101.0075
101.0075
101.0075
101.0941
101.1634
101.0075
101.0248
101.0075
101.0075
101.1461
101.1114
101.0075
101.0075
101.0248
100.5918
101.1634
101.1114
101.0768
101.0595
101.0421
101.0421
101.0595
101.1634
101.0248
101.0595
101.0075
101.0595
101.0595
101.1634
101.0595
101.0595
101.0421
101.0075
101.0768
101.1807
101.0248
101.0595
101.0595
101.0768
101.0595
101.1634
101.0421
101.0421
101.0595
101.0248
101.0595
101.1634
101.1288
101.0248
101.0248
101.0595
101.0595
101.1634
101.0595
101.0768
101.0595
101.0595
101.0421
101.1288
101.1634
100.6264
101.0768
100.6264
101.0595
101.1634
101.1634
101.0248
101.0768
101.0768
101.0595
100.7477
101.1634
101.0595
101.0595
101.0595
101.0075
101.0595
101.1807
101.0595
101.0595
101.0595
101.0595
101.0595
101.1288
101.0248
101.0248
101.0595
101.0595
101.0595
101.1807
101.0595
101.0768
101.0248
101.0595
101.0595
101.1634
101.0768
101.0768
101.0075
101.0595
101.0075
101.1807
100.7477
101.0768
101.0595
101.0595
101.0595
101.1634
100.713
100.5918
101.0075
101.0075
101.0595
101.1807
101.1634
101.0768
101.0768
101.0768
101.0768
101.0421
101.1288
101.0595
101.0595
101.0595
101.0768
101.0248
101.1807
101.0248
101.0595
101.0075
101.0768
101.0248
101.1634
101.0768
101.0421
101.0421
101.0075
101.0595
101.1807
101.0595
101.0248
101.0595
101.0421
101.0075
101.1634
101.1114
101.0075
101.0595
101.0248
101.0075
101.1288
101.1634
101.0075
101.0768
101.0595
101.0075
101.1114
101.1807
100.6091
101.0248
101.0595
101.0075
101.0595
101.1634
101.0248
101.0248
101.0248
101.0248
101.0768
101.1288
101.0768
101.0768
101.0595
101.0768
101.0595
101.1634
101.0075
101.0595
101.0075
101.0595
101.0075
101.1634
101.0075
101.0595
101.0595
101.0595
101.0768
100.7303
101.1807
101.0595
101.0595
101.0768
101.0248
101.1288
101.1634
101.0595
101.0595
101.0595
101.0595
101.1634
101.1288
101.0075
101.0075
101.0075
101.0768
101.1114
101.1634
101.0768
101.0595
101.0075
101.0768
101.1807
101.1288
101.0248
101.0595
101.0248
101.0595
101.1114
101.1634
101.0248
101.0075
101.0595

Block: 10
======================================
101.1634
101.0595
101.0768
101.0768
101.0248
101.1634
101.1807
101.0595
101.0595
101.0595
101.0768
101.1807
101.1807
101.0595
101.0595
101.0248
101.0768
101.0595
101.1288
101.0248
101.0075
101.0595
101.0595
101.0595
101.1807
101.0595
101.0768
101.0595
101.0768
100.6264
101.1807
101.0421
101.0595
101.0595
101.0768
101.0595
101.1634
101.0595
101.0595
101.0595
101.0768
101.0768
101.1807
101.1807
100.6264
101.0768
100.6264
101.0595
101.1634
101.1634
101.0768
101.0248
101.0595
101.0768
101.1288
101.1634
101.0595
101.0768
100.6091
100.6264
101.0595
101.1807
101.0248
100.6264
101.0595
101.0595
101.0595
101.1634
101.0595
101.0768
101.0595
101.0595
101.0595
101.1634
100.7303
101.0768
100.6264
101.0768
101.0595
101.1807
101.198
101.0595
101.0595
101.0595
101.0595
101.1634
101.1807
101.0075
101.0248
101.0595
101.0768
100.7477
100.7303
101.0595
101.0595
101.0248
101.0768
100.6437
101.1807
101.0421
101.0768
101.0595
101.0768
101.0595
100.7303
100.7303
101.0768
100.6264
101.0768
101.0768
101.1634
101.1807
101.0595
101.0768
101.0595
101.0768
100.7303
100.7303
101.0248
101.0768
101.0421
101.0768
101.0421
100.7303
101.1634
101.0595
101.0595
101.0595
101.0248
101.1634
101.1634
101.0595
100.6264
101.0595
101.0768
101.1807
100.7303
101.0768
101.0595
100.6264
101.0768
100.7477
101.1807
100.6437
100.6264
101.0248
101.0768
101.0595
101.1807
100.7303
101.0248
101.0768
101.0248
101.0595
101.1807
101.1634
101.0595
101.0248
101.0595
101.0595
101.1634
101.1807
101.0595
101.0768
101.0768
101.0595
101.1634
101.1634
100.6264
101.0768
100.6264
101.0595
101.1288
100.7303
101.0595
101.0248
101.0075
101.0768
101.0595
101.1807
101.0595
101.0768
101.0595
101.0248
101.0595
101.1634
100.7303
101.0768
101.0595
101.0768
101.0248
101.1634
101.1461
101.0595
101.0768
101.0595
101.0768
101.1634
101.1634
100.6264
101.0595
101.0768
101.0248
100.7477
101.1807
101.0595
101.0595
101.0768
101.0595
101.1807
101.1634
101.0595
101.0768
100.6264
101.0595
101.1634
101.1634
101.0768
101.0595
101.0768
101.0768
101.1634
101.1634
101.0595
101.0768
101.0768
101.0595
101.1807
101.1807
101.0595
101.0768
101.0768
101.0595
101.1807
101.1634
100.6437
101.0595
100.6264
101.0595
101.0595
101.1634
101.0768
101.0075
101.0595
101.0595
101.0595
101.1634
101.0248
101.0595
101.0768
