
Block: 1
======================================
100.661
100.661
100.6784
100.765
100.713
100.6957
100.6957
100.661
100.713
100.7996
100.3839
100.6957
100.6437
100.661
100.661
100.6784
100.817
100.7996
100.661
100.713
100.713
100.6437
100.661
100.7477
100.817
100.713
100.661
100.2626
100.713
100.2626
100.3839
100.817
100.713
100.661
100.713
100.661
100.6437
100.3666
100.817
100.713
100.6784
100.713
100.713
100.713
100.817
100.3492
100.6957
100.6957
100.713
100.6437
100.713
100.7996
100.765
100.713
100.713
100.6784
100.713
100.713
100.3839
100.7996
100.3146
100.6437
100.6437
100.713
100.6437
100.817
100.3492
100.7303
100.713
100.2626
100.2799
100.6957
100.713
100.7477
100.3492
100.6437
100.661
100.6957
100.6957
100.6957
100.7823
100.3319
100.6437
100.6437
100.6437
100.713
100.661
100.7996
100.765
100.661
100.6957
100.661
100.661
100.765
100.7823
100.6957
100.6437
100.661
100.661
100.713

Average distance is : 100.658 cm
Average deviation is : 0.138 cm
Block: 2
======================================
100.3839
100.7823
100.6784
100.661
100.2626
100.661
100.713
100.7996
100.7996
100.6437
100.6957
100.6437
100.661
100.817
100.765
100.661
100.713
100.2799
100.6957
100.661
100.3492
100.7477
100.3492
100.661
100.6264
100.228
100.6264
100.661
100.765
100.817
100.661
100.661
100.713
100.713
100.713
100.7996
100.3839
100.2626
100.2799
100.661
100.661
100.6437
100.7477
100.3839
100.6957
100.6437
100.713
100.6957
100.6957
100.765
100.3319
100.661
100.6784
100.661
100.6437
100.6957
100.817
100.7996
100.661
100.6784
100.2626
100.713
100.661
100.3666
100.7477
100.2626
100.2626
100.6957
100.713
100.661
100.7996
100.7477
100.6957
100.6957
100.661
100.6957
100.6957
100.817
100.7823
100.6437
100.2973
100.713
100.2799
100.6957
100.765
100.7996
100.6437
100.6957
100.6957
100.661
100.661
100.3492
100.7477
100.661
100.6437
100.2453
100.661
100.6957
100.765
100.7996

Average distance is : 100.630 cm
Average deviation is : 0.166 cm
Block: 3
======================================
100.6957
100.713
100.713
100.661
100.3492
100.817
100.713
100.661
100.713
100.6957
100.6437
100.7477
100.7823
100.661
100.713
100.661
100.661
100.713
100.765
100.817
100.661
100.6437
100.6957
100.661
100.6437
100.765
100.817
100.6957
100.661
100.661
100.2453
100.6957
100.7477
100.765
100.6957
100.2626
100.6957
100.2626
100.6437
100.817
100.3492
100.6957
100.713
100.713
100.2453
100.713
100.765
100.7996
100.6784
100.661
100.6437
100.661
100.6957
100.3492
100.3492
100.661
100.6957
100.713
100.661
100.661
100.765
100.7477
100.6957
100.661
100.6957
100.661
100.6957
100.7996
100.7303
100.661
100.661
100.6957
100.713
100.7823
100.817
100.661
100.661
100.661
100.6957
100.713
100.3839
100.817
100.765
100.713
100.6957
100.713
100.6957
100.817
100.817
100.2626
100.6957
100.713
100.6957
100.6957
100.7477
100.765
100.6957
100.713
100.2799
100.713

Average distance is : 100.666 cm
Average deviation is : 0.138 cm
Block: 4
======================================
100.817
100.7996
100.6784
100.2626
100.713
100.6437
100.6957
100.817
100.817
100.661
100.6957
100.713
100.661
100.2799
100.817
100.7996
100.713
100.713
100.6957
100.6957
100.6957
100.765
100.817
100.661
100.713
100.661
100.661
100.713
100.7996
100.7996
100.6957
100.713
100.6437
100.661
100.6957
100.7996
100.7996
100.661
100.713
100.661
100.661
100.6437
100.765
100.765
100.6437
100.661
100.713
100.661
100.6437
100.765
100.7477
100.6437
100.661
100.661
100.661
100.6437
100.7477
100.7477
100.6437
100.2453
100.6957
100.6784
100.6437
100.7477
100.7477
100.6437
100.713
100.661
100.713
100.765
100.4012
100.817
100.2799
100.713
100.2626
100.713
100.661
100.7996
100.7996
100.661
100.6957
100.713
100.713
100.713
100.7996
100.713
100.713
100.713
100.6957
100.713
100.3839
100.765
100.713
100.6957
100.6957
100.713
100.713
100.817
100.765
100.713

Average distance is : 100.686 cm
Average deviation is : 0.119 cm
Block: 5
======================================
100.661
100.713
100.2799
100.3492
100.7996
100.817
100.6957
100.6437
100.713
100.2453
100.713
100.765
100.6784
100.661
100.661
100.6957
100.6957
100.817
100.7477
100.6957
100.6437
100.6437
100.6437
100.6437
100.765
100.3319
100.3319
100.228
100.661
100.6784
100.228
100.661
100.765
100.3492
100.228
100.6437
100.661
100.661
100.6437
100.7477
100.765
100.2626
100.661
100.6437
100.661
100.6784
100.765
100.765
100.661
100.661
100.2453
100.661
100.713
100.7996
100.817
100.661
100.661
100.6437
100.6957
100.661
100.765
100.817
100.713
100.661
100.661
100.661
100.661
100.817
100.765
100.6784
100.661
100.661
100.6437
100.6957
100.817
100.765
100.6957
100.6437
100.6437
100.661
100.713
100.765
100.3492
100.661
100.6437
100.228
100.661
100.6437
100.3492
100.765
100.6437
100.6784
100.6437
100.228
100.6437
100.3319
100.7996
100.6437
100.6784
100.6437

Average distance is : 100.631 cm
Average deviation is : 0.161 cm
Block: 6
======================================
100.228
100.3492
100.7477
100.228
100.2453
100.661
100.6957
100.6437
100.7477
100.765
100.3492
100.661
100.6957
100.6957
100.6437
100.7477
100.3492
100.713
100.6437
100.661
100.661
100.661
100.661
100.7477
100.661
100.228
100.6437
100.2107
100.6437
100.6264
100.7477
100.7996
100.661
100.6784
100.661
100.661
100.6784
100.3319
100.3319
100.6437
100.228
100.228
100.228
100.6437
100.7477
100.7477
100.6437
100.6957
100.661
100.713
100.6957
100.7996
100.817
100.661
100.6437
100.661
100.6957
100.6437
100.7477
100.7477
100.661
100.6437
100.661
100.661
100.713
100.765
100.3492
100.6957
100.713
100.6957
100.713
100.713
100.817
100.817
100.713
100.2453
100.6784
100.6784
100.661
100.817
100.817
100.6437
100.713
100.2453
100.6784
100.6437
100.7477
100.4012
100.2626
100.713
100.661
100.6957
100.6957
100.817
100.7823
100.6437
100.713
100.661
100.661
100.6957

Average distance is : 100.624 cm
Average deviation is : 0.171 cm
Block: 7
======================================
100.817
100.661
100.661
100.661
100.6957
100.2453
100.7996
100.7477
100.6437
100.6957
100.6437
100.2453
100.6437
100.817
100.765
100.2799
100.6264
100.6437
100.6957
100.713
100.765
100.765
100.6957
100.661
100.6957
100.661
100.7477
100.765
100.6437
100.6437
100.713
100.661
100.661
100.7477
100.765
100.6437
100.6957
100.6957
100.661
100.6437
100.7477
100.7477
100.2453
100.6437
100.228
100.661
100.6437
100.6957
100.765
100.7477
100.6957
100.6264
100.6957
100.2799
100.7303
100.7823
100.6437
100.661
100.661
100.6957
100.713
100.7477
100.7996
100.661
100.6784
100.228
100.6437
100.6957
100.765
100.7996
100.6437
100.6957
100.661
100.713
100.6437
100.3666
100.7996
100.3319
100.6437
100.6437
100.661
100.6437
100.7303
100.3666
100.7477
100.2626
100.228
100.713
100.6957
100.661
100.7477
100.765
100.6437
100.2453
100.2453
100.661
100.661
100.765
100.817
100.6437

Average distance is : 100.640 cm
Average deviation is : 0.159 cm
Block: 8
======================================
100.6437
100.713
100.6437
100.765
100.765
100.713
100.661
100.713
100.6957
100.713
100.817
100.7477
100.661
100.713
100.6957
100.6437
100.6437
100.7996
100.713
100.6957
100.6957
100.713
100.713
100.7996
100.765
100.6437
100.661
100.661
100.6957
100.661
100.765
100.817
100.713
100.6784
100.661
100.661
100.713
100.765
100.765
100.661
100.2453
100.661
100.661
100.2453
100.765
100.7477
100.713
100.6957
100.2626
100.661
100.661
100.6957
100.7477
100.6437
100.661
100.2453
100.713
100.6437
100.661
100.765
100.765
100.661
100.2799
100.6437
100.661
100.713
100.765
100.765
100.661
100.661
100.6437
100.6437
100.2626
100.3666
100.765
100.6437
100.6957
100.6957
100.2453
100.6437
100.7996
100.765
100.661
100.6957
100.661
100.661
100.661
100.3319
100.7477
100.2799
100.661
100.661
100.228
100.661
100.7996
100.765
100.661
100.2453
100.661
100.2453

Average distance is : 100.645 cm
Average deviation is : 0.154 cm
Block: 9
======================================
100.3666
100.765
100.7477
100.661
100.2626
100.661
100.6437
100.2453
100.3666
100.765
100.6437
100.6437
100.2453
100.6437
100.6437
100.7477
100.7996
100.6784
100.713
100.661
100.661
100.6957
100.3492
100.765
100.228
100.6784
100.228
100.6437
100.661
100.3492
100.3319
100.661
100.6784
100.2453
100.6437
100.6437
100.713
100.765
100.713
100.661
100.661
100.661
100.6957
100.7303
100.3492
100.3319
100.661
100.6437
100.6784
100.228
100.661
100.7477
100.765
100.228
100.2453
100.228
100.6437
100.6437
100.7303
100.765
100.661
100.2799
100.661
100.661
100.6437
100.7477
100.3492
100.7823
100.2453
100.713
100.661
100.6784
100.2453
100.765
100.3492
100.6437
100.6784
100.661
100.661
100.6437
100.7477
100.3666
100.661
100.6957
100.6957
100.2453
100.228
100.765
100.7823
100.661
100.661
100.6784
100.2453
100.661
100.765
100.3492
100.6437
100.661
100.2453
100.661

Average distance is : 100.577 cm
Average deviation is : 0.189 cm
Block: 10
======================================
100.765
100.4012
100.661
100.661
100.2453
100.661
100.661
100.661
100.7996
100.3319
100.2453
100.661
100.661
100.6437
100.6957
100.3839
100.7477
100.2973
100.228
100.228
100.661
100.661
100.765
100.765
100.2453
100.6437
100.661
100.2626
100.2453
100.661
100.7477
100.3492
100.661
100.2626
100.661
100.661
100.661
100.3319
100.765
100.2453
100.6784
100.2799
100.6437
100.6437
100.3492
100.765
100.2453
100.228
100.661
100.6957
100.713
100.713
100.7823
100.765
100.6957
100.6784
100.228
100.6784
100.2453
100.765
100.7477
100.6437
100.228
100.228
100.228
100.228
100.7823
100.3319
100.6437
100.6437
100.6437
100.2453
100.228
100.6437
100.765
100.3492
100.6437
100.6957
100.6957
100.6437
100.6437
100.765
100.3492
100.661
100.661
100.6784
100.6437
100.6437
100.7823
100.765
100.6437
100.6437
100.2453
100.661
100.228
100.3492
100.765
100.6437
100.661
100.661

Average distance is : 100.554 cm
Average deviation is : 0.202 cm
Average distance for 10x100 is : 100.635 cm
Average deviation for 10x100 is : 0.154 cm
 Percentage of values that failed: 0.000