
Block: 1
======================================
100.6784
100.6784
100.6784
100.3839
100.7823
100.6784
100.2626
100.6957
100.6957
100.6784

Block: 2
======================================
100.7823
100.6264
100.661
100.6784
100.6264
100.713
100.7996
100.7996
100.2626
100.6957

Block: 3
======================================
100.2626
100.2626
100.2626
100.3492
100.7823
100.6784
100.2453
100.6784
100.6784
100.2453

Block: 4
======================================
100.7996
100.6784
100.6784
100.6437
100.6784
100.2453
100.7477
100.7477
100.6784
100.6784

Block: 5
======================================
100.6957
100.2626
100.3666
100.7996
100.2626
100.6784
100.2626
100.2626
100.2626
100.3492

Block: 6
======================================
100.713
100.2626
100.6957
100.6957
100.6957
100.661
100.3666
100.7996
100.2626
100.2453

Block: 7
======================================
100.6957
100.2626
100.765
100.7996
100.6957
100.6957
100.6437
100.6437
100.6957
100.7996

Block: 8
======================================
100.6784
100.6957
100.6957
100.6957
100.6957
100.7996
100.7477
100.661
100.6784
100.6784

Block: 9
======================================
100.7996
100.3839
100.3666
100.661
100.6957
100.6957
100.713
100.6957
100.7996
100.7477

Block: 10
======================================
100.6784
100.6957
100.6957
100.7996
100.765
100.3666
100.713
100.6957
100.6957
100.2626
