
Block: 1
======================================
298.9677526
299.345796585
299.362056541
298.935232687
299.410836411
298.914907742
299.362056541
298.935232687
299.394576454
299.357991552
299.378316498
299.394576454
299.378316498
299.374251509
299.410836411
298.918972731
299.410836411
299.394576454
299.378316498
299.410836411
299.341731596
299.374251509
299.378316498
299.394576454
299.357991552

Block: 2
======================================
299.374251509
299.378316498
299.362056541
299.394576454
299.357991552
298.898647785
298.951492643
299.378316498
299.378316498
299.394576454
299.410836411
299.341731596
299.378316498
298.935232687
299.410836411
299.357991552
299.394576454
299.378316498
299.410836411
299.345796585
298.935232687
299.362056541
299.394576454
298.951492643
298.9677526

Block: 3
======================================
299.362056541
299.443356323
299.378316498
299.345796585
299.394576454
298.914907742
299.394576454
299.378316498
299.4149014
299.357991552
299.362056541
299.378316498
299.394576454
298.47588892
299.357991552
299.410836411
299.378316498
299.378316498
298.931167698
299.362056541
298.951492643
298.971817589
299.362056541
299.394576454
299.378316498

Block: 4
======================================
299.362056541
299.357991552
298.9677526
299.394576454
299.410836411
299.394576454
299.362056541
299.410836411
299.004337502
299.394576454
299.394576454
298.918972731
299.357991552
299.378316498
299.394576454
298.918972731
298.947427654
299.362056541
298.935232687
299.378316498
299.374251509
299.378316498
299.357991552
298.918972731
299.410836411

Block: 5
======================================
299.362056541
299.410836411
299.378316498
299.341731596
299.394576454
299.374251509
299.378316498
299.378316498
299.374251509
299.362056541
299.394576454
299.341731596
299.362056541
299.32547164
298.9677526
298.914907742
299.378316498
299.357991552
299.378316498
299.357991552
299.378316498
299.394576454
298.951492643
299.378316498
299.374251509

Block: 6
======================================
299.378316498
299.394576454
299.374251509
299.345796585
299.374251509
299.4149014
298.935232687
299.394576454
299.362056541
299.362056541
299.374251509
298.951492643
299.341731596
299.362056541
298.9677526
299.378316498
299.329536629
299.378316498
299.394576454
298.951492643
299.357991552
299.378316498
299.378316498
299.394576454
299.362056541

Block: 7
======================================
299.4149014
298.882387829
299.362056541
298.914907742
299.394576454
299.394576454
299.410836411
299.394576454
299.341731596
299.394576454
299.357991552
299.410836411
299.394576454
298.935232687
298.935232687
299.378316498
298.935232687
299.378316498
299.427096367
299.410836411
299.410836411
299.378316498
299.431161356
299.427096367
299.394576454

Block: 8
======================================
298.882387829
299.378316498
299.374251509
299.394576454
299.410836411
299.378316498
299.362056541
299.362056541
299.394576454
299.4149014
298.902712774
299.374251509
299.378316498
299.427096367
299.394576454
299.362056541
299.341731596
299.427096367
299.378316498
299.378316498
299.341731596
299.378316498
299.378316498
299.357991552
299.427096367

Block: 9
======================================
299.378316498
298.898647785
299.394576454
299.357991552
299.357991552
299.394576454
299.394576454
298.935232687
299.362056541
299.410836411
299.357991552
299.378316498
299.427096367
299.394576454
299.394576454
299.394576454
299.394576454
299.357991552
299.394576454
299.394576454
299.431161356
298.931167698
299.362056541
299.362056541
299.394576454

Block: 10
======================================
299.357991552
299.394576454
299.378316498
299.378316498
299.410836411
299.362056541
298.951492643
299.378316498
298.918972731
299.362056541
299.357991552
299.394576454
299.362056541
299.341731596
299.362056541
299.341731596
298.898647785
299.357991552
299.378316498
299.394576454
299.394576454
299.394576454
299.394576454
299.357991552
298.935232687
