
Block: 1
======================================
299.362056541
298.935232687
298.918972731
299.394576454
299.378316498
299.394576454
299.378316498
299.362056541
299.378316498
299.378316498
299.362056541
299.394576454
299.378316498
299.362056541
299.362056541
299.394576454
299.341731596
298.935232687
299.394576454
299.410836411
299.378316498
298.914907742
299.374251509
299.394576454
298.918972731
299.345796585
299.357991552
298.914907742
299.341731596
298.882387829
299.394576454
299.378316498
298.935232687
299.374251509
299.4149014
298.951492643
299.374251509
298.951492643
299.362056541
298.898647785
299.410836411
298.951492643
299.410836411
298.882387829
299.378316498
299.357991552
299.394576454
299.362056541
298.935232687
299.362056541
299.394576454
299.410836411
299.394576454
299.394576454
298.918972731
299.394576454
299.378316498
299.394576454
299.378316498
299.357991552
299.345796585
298.914907742
298.984012556
298.914907742
298.951492643
299.410836411
299.394576454
299.4149014
299.357991552
299.378316498
298.931167698
299.394576454
298.914907742
299.374251509
299.394576454
299.378316498
299.394576454
299.394576454
299.374251509
299.394576454
298.935232687
299.410836411
299.378316498
299.54904604
298.914907742
299.345796585
299.362056541
299.32547164
299.378316498
299.394576454
299.394576454
298.951492643
299.345796585
299.394576454
299.394576454
299.394576454
299.345796585
299.345796585
299.362056541
299.378316498

Average distance is : 299.273 cm
Average deviation is : 0.197 cm
Block: 2
======================================
298.902712774
299.394576454
299.357991552
299.357991552
299.394576454
298.914907742
298.935232687
298.931167698
299.374251509
299.410836411
299.394576454
299.394576454
299.362056541
299.374251509
299.378316498
298.918972731
299.427096367
298.935232687
299.410836411
299.374251509
299.410836411
299.394576454
299.410836411
299.427096367
298.951492643
299.378316498
299.378316498
299.374251509
299.378316498
299.410836411
299.378316498
299.394576454
299.394576454
299.394576454
299.394576454
298.951492643
299.362056541
299.394576454
298.557188702
299.410836411
299.362056541
299.378316498
299.394576454
299.4149014
299.410836411
299.374251509
299.378316498
299.394576454
299.341731596
299.394576454
299.357991552
299.362056541
299.378316498
299.374251509
298.951492643
299.345796585
299.374251509
298.9677526
298.918972731
299.357991552
299.362056541
299.394576454
299.378316498
298.935232687
299.390511465
298.914907742
298.898647785
298.918972731
299.357991552
298.935232687
299.374251509
298.918972731
299.341731596
299.378316498
299.394576454
299.357991552
299.394576454
299.394576454
299.378316498
299.374251509
299.378316498
298.935232687
298.918972731
299.410836411
299.341731596
299.394576454
299.345796585
299.341731596
298.935232687
299.004337502
298.951492643
299.345796585
299.394576454
299.410836411
298.935232687
299.341731596
298.935232687
299.357991552
299.410836411
299.357991552

Average distance is : 299.266 cm
Average deviation is : 0.206 cm
Block: 3
======================================
299.427096367
299.341731596
298.918972731
298.951492643
299.410836411
298.935232687
299.378316498
299.357991552
298.918972731
298.931167698
299.394576454
299.410836411
299.362056541
299.362056541
298.9677526
299.378316498
298.947427654
299.362056541
299.394576454
298.931167698
298.935232687
298.9677526
299.394576454
299.378316498
299.357991552
299.394576454
298.918972731
299.394576454
299.357991552
299.362056541
299.345796585
299.357991552
299.362056541
298.492148876
298.914907742
299.378316498
299.410836411
299.341731596
299.341731596
298.951492643
299.357991552
298.951492643
299.378316498
298.984012556
299.378316498
299.378316498
298.931167698
298.951492643
299.378316498
299.345796585
299.394576454
299.410836411
299.362056541
298.9677526
299.410836411
298.971817589
299.394576454
299.410836411
299.410836411
299.357991552
298.951492643
298.951492643
299.410836411
298.951492643
299.394576454
299.427096367
298.951492643
298.931167698
299.410836411
298.914907742
299.378316498
299.378316498
298.951492643
299.378316498
299.410836411
299.374251509
299.374251509
299.394576454
299.394576454
298.951492643
299.410836411
299.394576454
299.394576454
298.935232687
298.935232687
298.971817589
299.394576454
299.378316498
299.362056541
298.935232687
299.362056541
299.410836411
298.947427654
299.410836411
299.394576454
298.931167698
298.971817589
298.935232687
298.951492643
298.951492643

Average distance is : 299.212 cm
Average deviation is : 0.225 cm
Block: 4
======================================
299.378316498
299.378316498
299.004337502
299.378316498
299.378316498
299.378316498
298.9677526
298.951492643
298.9677526
299.410836411
299.362056541
299.374251509
299.394576454
298.935232687
299.394576454
299.362056541
299.431161356
299.410836411
298.951492643
298.9677526
298.988077545
298.951492643
299.410836411
299.394576454
298.918972731
299.378316498
299.362056541
298.947427654
298.984012556
299.410836411
298.951492643
299.394576454
299.394576454
299.410836411
299.362056541
298.988077545
298.951492643
298.9677526
299.378316498
299.410836411
299.357991552
299.004337502
299.394576454
299.410836411
299.362056541
299.394576454
299.394576454
299.378316498
299.394576454
299.410836411
299.374251509
298.951492643
299.374251509
299.410836411
299.394576454
299.374251509
298.951492643
299.378316498
299.394576454
299.378316498
299.431161356
299.394576454
299.378316498
299.410836411
298.898647785
298.918972731
298.9677526
299.362056541
299.394576454
298.988077545
299.394576454
299.378316498
299.378316498
298.931167698
299.4149014
299.394576454
299.394576454
299.362056541
298.951492643
299.374251509
299.378316498
299.427096367
299.390511465
298.9677526
298.898647785
299.410836411
299.394576454
299.394576454
298.935232687
298.935232687
299.394576454
299.374251509
299.378316498
299.394576454
299.362056541
299.374251509
299.394576454
299.357991552
298.935232687
299.378316498

Average distance is : 299.258 cm
Average deviation is : 0.201 cm
Block: 5
======================================
299.427096367
299.394576454
299.394576454
298.931167698
299.394576454
299.394576454
299.378316498
299.362056541
299.410836411
299.378316498
299.362056541
299.357991552
299.378316498
299.394576454
299.394576454
299.357991552
298.935232687
298.935232687
299.394576454
298.918972731
299.357991552
299.362056541
299.378316498
298.902712774
299.362056541
299.374251509
299.378316498
298.918972731
299.362056541
299.394576454
299.362056541
298.918972731
299.374251509
299.394576454
298.902712774
299.410836411
299.410836411
299.362056541
299.378316498
299.394576454
299.394576454
299.394576454
298.935232687
299.394576454
299.362056541
299.394576454
298.9677526
298.492148876
299.378316498
299.378316498
299.410836411
298.9677526
299.378316498
298.898647785
299.378316498
299.341731596
299.394576454
298.914907742
299.362056541
299.378316498
299.378316498
299.357991552
299.341731596
299.357991552
299.4149014
299.378316498
299.378316498
298.951492643
299.378316498
299.378316498
298.898647785
299.345796585
299.374251509
299.357991552
299.394576454
299.378316498
298.931167698
299.394576454
299.394576454
299.357991552
299.341731596
299.345796585
299.4149014
299.374251509
299.410836411
298.984012556
299.378316498
299.378316498
299.410836411
299.004337502
299.345796585
298.935232687
299.357991552
299.378316498
299.362056541
299.374251509
299.357991552
298.951492643
299.362056541
299.374251509

Average distance is : 299.281 cm
Average deviation is : 0.196 cm
Block: 6
======================================
299.357991552
299.362056541
299.362056541
298.918972731
299.378316498
298.935232687
299.394576454
299.378316498
299.394576454
299.378316498
299.374251509
299.394576454
299.374251509
299.374251509
299.394576454
299.394576454
299.362056541
299.374251509
299.378316498
299.378316498
299.394576454
298.935232687
299.362056541
299.394576454
299.329536629
299.4149014
299.394576454
298.931167698
299.345796585
299.374251509
298.914907742
299.378316498
299.309211683
299.394576454
299.394576454
299.362056541
299.345796585
299.357991552
298.9677526
299.410836411
299.378316498
299.394576454
299.4149014
299.378316498
299.378316498
299.394576454
299.394576454
298.951492643
298.9677526
298.935232687
299.410836411
299.378316498
298.931167698
299.362056541
299.378316498
299.410836411
299.378316498
299.362056541
299.394576454
299.410836411
299.410836411
299.394576454
298.935232687
299.378316498
299.357991552
299.394576454
298.984012556
299.427096367
299.378316498
299.362056541
298.951492643
299.394576454
299.378316498
299.394576454
299.4149014
299.374251509
299.4149014
299.357991552
299.378316498
299.362056541
299.410836411
298.951492643
299.394576454
299.357991552
299.394576454
299.378316498
299.4149014
299.345796585
299.378316498
298.951492643
299.431161356
299.394576454
299.378316498
299.4149014
299.374251509
298.918972731
299.394576454
299.394576454
298.951492643
299.394576454

Average distance is : 299.308 cm
Average deviation is : 0.168 cm
Block: 7
======================================
299.341731596
298.882387829
299.410836411
299.357991552
299.357991552
298.898647785
299.341731596
299.362056541
299.378316498
299.345796585
298.914907742
299.410836411
299.357991552
299.341731596
299.394576454
298.918972731
299.378316498
299.362056541
299.362056541
298.914907742
299.378316498
299.341731596
299.378316498
299.362056541
299.394576454
298.882387829
299.345796585
299.378316498
299.378316498
299.362056541
299.394576454
299.32547164
299.390511465
299.374251509
299.357991552
299.341731596
298.971817589
299.378316498
299.394576454
299.374251509
299.378316498
298.898647785
299.378316498
299.329536629
298.914907742
298.935232687
299.394576454
299.341731596
299.374251509
299.345796585
299.341731596
299.394576454
298.882387829
299.345796585
299.362056541
299.362056541
299.378316498
299.378316498
298.935232687
299.394576454
299.394576454
298.902712774
299.362056541
299.378316498
298.898647785
299.378316498
299.394576454
299.394576454
299.378316498
299.345796585
298.935232687
299.378316498
298.935232687
298.898647785
299.378316498
299.378316498
299.341731596
299.378316498
299.341731596
299.378316498
299.357991552
299.362056541
298.918972731
298.882387829
299.394576454
299.378316498
299.378316498
299.394576454
299.394576454
299.390511465
299.341731596
299.362056541
299.410836411
298.914907742
298.882387829
299.362056541
299.410836411
299.362056541
298.918972731
298.898647785

Average distance is : 299.265 cm
Average deviation is : 0.196 cm
Block: 8
======================================
299.394576454
299.394576454
298.951492643
299.394576454
299.357991552
299.357991552
299.410836411
299.837660265
299.394576454
299.394576454
299.362056541
299.378316498
299.378316498
299.394576454
299.394576454
299.394576454
299.394576454
299.394576454
299.374251509
299.362056541
298.914907742
299.410836411
299.374251509
299.410836411
299.362056541
299.378316498
299.378316498
299.378316498
299.394576454
299.378316498
299.329536629
299.378316498
299.374251509
299.394576454
298.898647785
299.378316498
298.882387829
299.378316498
299.410836411
299.362056541
299.378316498
299.394576454
299.394576454
299.341731596
299.357991552
299.394576454
299.341731596
298.935232687
298.898647785
299.357991552
299.374251509
299.410836411
299.378316498
299.378316498
299.357991552
299.345796585
299.374251509
299.394576454
299.378316498
299.394576454
299.362056541
299.410836411
299.4149014
299.394576454
299.374251509
299.345796585
299.431161356
299.374251509
299.394576454
299.431161356
299.378316498
299.357991552
298.951492643
299.427096367
298.898647785
299.341731596
298.898647785
299.410836411
298.935232687
299.362056541
298.914907742
299.378316498
298.951492643
298.882387829
299.394576454
299.374251509
299.394576454
299.378316498
299.357991552
299.341731596
299.341731596
299.378316498
299.394576454
299.345796585
298.914907742
299.394576454
299.410836411
299.4149014
298.951492643
299.362056541

Average distance is : 299.316 cm
Average deviation is : 0.175 cm
Block: 9
======================================
299.357991552
298.898647785
299.378316498
299.374251509
299.378316498
299.394576454
299.378316498
299.378316498
299.410836411
299.378316498
299.431161356
299.394576454
299.390511465
299.427096367
299.394576454
299.410836411
299.374251509
299.378316498
299.378316498
299.410836411
299.378316498
299.394576454
298.918972731
299.394576454
299.410836411
299.394576454
299.410836411
299.357991552
299.374251509
299.341731596
299.410836411
299.357991552
298.902712774
299.378316498
298.935232687
299.394576454
299.345796585
299.394576454
299.394576454
299.4149014
298.935232687
299.362056541
298.918972731
299.410836411
299.394576454
299.374251509
299.394576454
299.345796585
299.357991552
299.362056541
299.394576454
299.374251509
298.918972731
299.362056541
298.902712774
299.378316498
299.394576454
299.394576454
299.32547164
298.935232687
299.357991552
299.394576454
299.362056541
299.394576454
299.341731596
299.378316498
299.341731596
299.394576454
298.882387829
299.378316498
299.378316498
299.345796585
299.394576454
299.378316498
299.341731596
299.357991552
299.378316498
299.374251509
299.378316498
298.914907742
299.345796585
299.341731596
299.362056541
299.357991552
299.345796585
299.374251509
299.357991552
298.882387829
299.378316498
299.329536629
299.394576454
299.394576454
299.394576454
299.378316498
299.374251509
299.378316498
299.32547164
298.931167698
299.378316498
299.341731596

Average distance is : 299.317 cm
Average deviation is : 0.158 cm
Block: 10
======================================
299.362056541
299.357991552
299.394576454
299.410836411
299.378316498
299.378316498
299.341731596
298.935232687
299.357991552
299.394576454
299.357991552
299.378316498
299.394576454
299.378316498
299.394576454
299.374251509
299.362056541
299.4149014
299.410836411
299.394576454
299.394576454
299.394576454
299.345796585
299.410836411
299.378316498
299.378316498
299.410836411
299.378316498
299.374251509
298.935232687
299.394576454
299.427096367
299.362056541
299.378316498
298.935232687
299.374251509
299.394576454
299.821400309
299.410836411
299.394576454
299.378316498
299.394576454
299.394576454
299.378316498
299.443356323
299.378316498
299.378316498
299.378316498
299.394576454
299.821400309
299.374251509
299.394576454
299.4149014
299.410836411
299.362056541
299.378316498
299.837660265
299.378316498
299.4149014
298.898647785
299.362056541
299.410836411
299.362056541
299.357991552
299.378316498
299.410836411
298.951492643
299.378316498
299.410836411
299.357991552
299.410836411
299.374251509
299.345796585
299.394576454
299.427096367
299.410836411
299.378316498
299.378316498
299.394576454
299.394576454
299.837660265
299.362056541
299.357991552
299.821400309
299.374251509
299.394576454
299.345796585
299.394576454
299.329536629
299.345796585
299.394576454
299.410836411
299.378316498
299.378316498
299.378316498
298.898647785
299.394576454
299.345796585
299.410836411
299.341731596

Average distance is : 299.379 cm
Average deviation is : 0.152 cm