
Block: 1
======================================
100.313711762
100.313711762
99.9131011963
100.297191739
100.763882399
101.197533011
101.164492965
99.9502712488
100.350881815
100.280671716
100.313711762
100.317841768
100.313711762
100.313711762
100.280671716
100.313711762
100.297191739
100.313711762
100.297191739
100.350881815
100.313711762
100.313711762
100.313711762
100.346751809
100.313711762
100.330231786
100.280671716
100.313711762
100.334361792
100.330231786
100.334361792
100.330231786
100.780402422
100.334361792
100.747362375
100.313711762
100.334361792
100.330231786
100.297191739
100.313711762
100.317841768
100.313711762
100.334361792
100.297191739
100.297191739
100.346751809
100.317841768
100.297191739
100.334361792
100.317841768
100.297191739
100.313711762
100.297191739
100.330231786
100.317841768
100.330231786
100.297191739
100.317841768
100.346751809
100.313711762
100.330231786
100.317841768
100.346751809
100.350881815
100.313711762
100.313711762
100.297191739
100.297191739
100.280671716
100.297191739
100.313711762
101.197533011
100.693672299
100.313711762
100.334361792

Average distance is : 100.364 cm
Average deviation is : 0.207 cm
Block: 2
======================================
100.297191739
100.297191739
100.346751809
100.297191739
100.780402422
100.367401838
100.350881815
100.768012404
100.313711762
100.313711762
100.297191739
100.280671716
100.313711762
100.280671716
100.334361792
100.297191739
100.313711762
100.334361792
100.297191739
100.313711762
100.313711762
100.346751809
100.627592206
100.334361792
100.297191739
100.297191739
100.297191739
100.346751809
100.330231786
100.334361792
100.330231786
100.297191739
100.330231786
100.297191739
100.330231786
100.313711762
100.334361792
100.313711762
100.330231786
100.313711762
100.280671716
100.313711762
101.218183041
100.801052451
99.9172312021
100.317841768
100.297191739
100.313711762
100.317841768
100.297191739
100.330231786
100.334361792
100.297191739
100.730842352
100.313711762
100.317841768
100.297191739
100.313711762
100.313711762
100.317841768
100.297191739
100.297191739
100.334361792
100.297191739
100.346751809
100.280671716
100.334361792
100.297191739
100.313711762
100.317841768
100.297191739
100.313711762
100.350881815
101.181012988
100.313711762

Average distance is : 100.362 cm
Average deviation is : 0.184 cm
Block: 3
======================================
100.367401838
100.297191739
100.280671716
100.330231786
101.181012988
100.747362375
101.164492965
100.730842352
100.297191739
100.297191739
100.313711762
100.334361792
100.297191739
100.334361792
100.317841768
100.367401838
100.297191739
100.297191739
100.334361792
100.350881815
100.714322329
100.334361792
100.350881815
100.313711762
100.297191739
100.297191739
100.297191739
100.330231786
100.297191739
100.334361792
100.313711762
100.297191739
100.313711762
100.280671716
100.330231786
100.313711762
100.297191739
101.181012988
100.297191739
100.297191739
100.313711762
100.297191739
100.334361792
100.297191739
100.346751809
100.313711762
100.297191739
100.313711762
100.330231786
100.313711762
100.334361792
100.330231786
100.350881815
100.346751809
100.367401838
100.313711762
101.197533011
101.197533011
100.297191739
100.313711762
100.297191739
100.330231786
100.297191739
100.313711762
100.330231786
100.280671716
100.313711762
101.181012988
100.763882399
100.317841768
100.714322329
100.730842352
100.313711762
100.330231786
100.346751809

Average distance is : 100.420 cm
Average deviation is : 0.254 cm
Block: 4
======================================
100.297191739
100.346751809
101.164492965
100.317841768
101.181012988
100.763882399
101.197533011
101.197533011
100.317841768
100.313711762
100.730842352
100.297191739
100.297191739
100.297191739
100.313711762
100.710192323
100.297191739
100.677152276
100.313711762
100.313711762
100.313711762
100.330231786
100.313711762
100.313711762
100.313711762
100.313711762
100.297191739
100.330231786
100.313711762
100.313711762
100.334361792
100.334361792
100.317841768
100.297191739
100.297191739
100.313711762
100.297191739
100.313711762
100.330231786
100.280671716
100.334361792
100.334361792
100.334361792
100.297191739
100.280671716
100.714322329
100.297191739
100.317841768
100.297191739
100.313711762
100.313711762
100.313711762
101.181012988
101.176882982
100.330231786
100.334361792
100.330231786
100.313711762
100.334361792
100.313711762
100.730842352
100.297191739
100.346751809
99.9172312021
99.9502712488
100.280671716
100.334361792
100.301321745
100.313711762
100.297191739
100.313711762
100.280671716
100.297191739
100.297191739
100.297191739

Average distance is : 100.404 cm
Average deviation is : 0.266 cm
Block: 5
======================================
100.363271832
100.350881815
100.317841768
100.280671716
100.714322329
100.297191739
100.726712346
100.297191739
100.330231786
100.313711762
100.714322329
100.714322329
100.714322329
101.164492965
100.350881815
100.317841768
100.313711762
100.297191739
100.313711762
100.330231786
100.730842352
100.330231786
100.330231786
100.334361792
100.313711762
100.280671716
101.181012988
101.164492965
100.297191739
100.313711762
100.313711762
100.280671716
100.313711762
100.297191739
100.330231786
100.346751809
100.313711762
100.313711762
100.317841768
100.330231786
100.297191739
100.297191739
100.313711762
100.350881815
100.334361792
100.313711762
100.297191739
100.297191739
100.334361792
100.189811587
100.330231786
100.330231786
100.297191739
100.714322329
100.330231786
100.297191739
100.313711762
100.297191739
100.330231786
100.313711762
100.297191739
100.313711762
100.317841768
100.313711762
100.346751809
100.350881815
100.317841768
100.297191739
100.330231786
100.280671716
100.367401838
100.297191739
99.9502712488
101.181012988
100.334361792

Average distance is : 100.394 cm
Average deviation is : 0.226 cm
Block: 6
======================================
100.334361792
100.264151692
101.160362959
100.313711762
100.784532428
100.330231786
100.763882399
100.747362375
100.297191739
100.330231786
100.297191739
100.313711762
100.313711762
100.747362375
100.334361792
100.330231786
100.714322329
100.313711762
100.297191739
100.313711762
100.297191739
100.297191739
100.313711762
100.330231786
100.317841768
100.350881815
100.330231786
100.334361792
100.313711762
100.330231786
100.334361792
100.330231786
100.334361792
100.330231786
100.350881815
100.313711762
100.334361792
100.330231786
100.297191739
100.313711762
100.330231786
100.330231786
100.346751809
100.334361792
100.297191739
100.350881815
100.313711762
100.313711762
100.297191739
100.334361792
100.313711762
100.317841768
100.280671716
100.297191739
100.334361792
100.330231786
100.330231786
100.330231786
100.350881815
100.297191739
100.346751809
100.297191739
100.313711762
100.317841768
100.330231786
100.346751809
100.330231786
100.330231786
100.330231786
100.350881815
100.317841768
100.297191739
100.313711762
100.350881815
100.313711762

Average distance is : 100.361 cm
Average deviation is : 0.144 cm
Block: 7
======================================
100.367401838
100.313711762
100.313711762
100.313711762
101.164492965
99.9172312021
100.714322329
99.9131011963
100.330231786
100.330231786
100.330231786
100.297191739
100.730842352
100.350881815
100.334361792
100.297191739
100.313711762
100.334361792
100.346751809
100.350881815
100.350881815
99.6900808811
100.297191739
100.313711762
100.330231786
100.313711762
100.334361792
100.334361792
100.350881815
100.313711762
100.297191739
100.313711762
100.330231786
100.313711762
100.297191739
100.317841768
100.313711762
100.313711762
100.330231786
100.317841768
100.297191739
100.313711762
100.297191739
100.350881815
100.330231786
100.313711762
100.350881815
100.313711762
100.313711762
100.346751809
100.317841768
100.317841768
100.330231786
100.330231786
100.346751809
100.334361792
100.313711762
100.334361792
100.297191739
100.297191739
100.330231786
100.297191739
100.297191739
100.346751809
100.330231786
100.297191739
100.313711762
100.330231786
100.317841768
100.350881815
100.297191739
101.181012988
100.334361792
100.330231786
100.313711762

Average distance is : 100.337 cm
Average deviation is : 0.184 cm
Block: 8
======================================
100.313711762
99.9337512255
100.297191739
100.280671716
100.730842352
101.181012988
101.164492965
99.9337512255
100.280671716
100.334361792
100.297191739
100.334361792
100.297191739
100.313711762
100.330231786
100.297191739
100.297191739
100.297191739
100.313711762
100.313711762
100.317841768
100.313711762
100.330231786
100.313711762
100.334361792
100.297191739
100.330231786
100.350881815
100.313711762
100.280671716
100.297191739
100.297191739
100.334361792
100.313711762
100.297191739
100.334361792
100.334361792
100.313711762
100.313711762
100.313711762
100.313711762
100.330231786
100.313711762
100.346751809
100.313711762
100.330231786
100.313711762
100.313711762
100.317841768
100.313711762
100.317841768
100.330231786
100.313711762
101.197533011
100.280671716
100.313711762
100.27654171
99.9544012547
100.297191739
100.726712346
100.780402422
100.747362375
100.367401838
100.313711762
100.330231786
100.313711762
100.350881815
100.313711762
100.313711762
100.346751809
99.9296212196
100.710192323
100.317841768
100.297191739
101.214053035

Average distance is : 100.370 cm
Average deviation is : 0.242 cm
Block: 9
======================================
100.363271832
100.330231786
100.677152276
100.747362375
99.9337512255
100.313711762
100.780402422
100.330231786
100.297191739
100.330231786
100.747362375
99.9337512255
100.330231786
100.313711762
100.297191739
100.297191739
100.350881815
100.334361792
100.330231786
100.330231786
100.317841768
100.330231786
100.313711762
100.313711762
100.334361792
100.330231786
100.313711762
100.313711762
100.330231786
100.297191739
100.297191739
100.346751809
100.317841768
100.350881815
100.330231786
100.334361792
100.297191739
100.714322329
100.317841768
100.330231786
99.9502712488
100.710192323
101.131452918
100.297191739
100.363271832
100.330231786
100.710192323
100.346751809
100.784532428
100.334361792
100.330231786
100.334361792
101.214053035
100.330231786
100.313711762
101.201663017
100.334361792
100.297191739
100.330231786
100.297191739
101.181012988
100.280671716
100.313711762
100.313711762
100.330231786
100.297191739
100.346751809
100.313711762
100.334361792
100.297191739
100.313711762
100.297191739
100.317841768
100.313711762
100.313711762

Average distance is : 100.396 cm
Average deviation is : 0.243 cm
Block: 10
======================================
100.313711762
100.297191739
100.313711762
100.317841768
100.313711762
100.714322329
101.201663017
101.181012988
100.280671716
100.313711762
100.334361792
100.730842352
100.313711762
100.330231786
100.313711762
100.330231786
100.313711762
100.297191739
100.334361792
100.297191739
100.768012404
100.730842352
100.313711762
100.280671716
100.313711762
100.313711762
101.164492965
100.297191739
100.313711762
100.330231786
100.346751809
100.330231786
100.330231786
100.297191739
100.313711762
100.317841768
100.350881815
100.313711762
100.313711762
100.297191739
100.330231786
100.313711762
100.313711762
100.313711762
100.297191739
100.317841768
100.313711762
100.313711762
100.317841768
100.297191739
100.297191739
100.297191739
100.317841768
100.317841768
100.313711762
100.317841768
100.330231786
100.334361792
100.334361792
100.313711762
100.334361792
100.330231786
100.313711762
100.330231786
100.334361792
100.297191739
100.313711762
100.297191739
100.313711762
100.313711762
100.313711762
100.297191739
100.317841768
100.334361792
100.330231786

Average distance is : 100.373 cm
Average deviation is : 0.192 cm
Average distance for 10x75 is : 100.378 cm
Average deviation for 10x75 is : 0.214 cm
 Percentage of values that failed: 0.000