
Block: 1
======================================
301.577475595
300.638463116
301.097806883
301.150651741
300.654723072
300.691307974
301.55715065
301.134391785
301.577475595
300.675048018
301.118131828
301.577475595
301.114066839
301.130326796
300.691307974
301.118131828
300.670983028
300.654723072
301.118131828
302.00429945
302.020559406
300.691307974
301.114066839
301.134391785
300.691307974
300.691307974
301.114066839
300.691307974
300.654723072
300.670983028
300.658788061
301.573410606
301.118131828
300.654723072
301.130326796
300.654723072
301.134391785
301.561215639
301.55715065
300.654723072
300.70756793
301.988039494
300.70756793
301.55715065
300.691307974
300.670983028
301.150651741
301.561215639
300.691307974
302.000234461
300.70756793
300.70756793
301.540890694
300.654723072
301.118131828
301.134391785
301.988039494
300.691307974
300.675048018
300.691307974
300.670983028
300.670983028
301.118131828
300.670983028
300.670983028
300.691307974
301.577475595
300.675048018
300.675048018
301.561215639
300.670983028
300.691307974
300.654723072
301.561215639
302.431123304
301.544955683
301.118131828
301.55715065
302.463643217
301.114066839
300.691307974
300.675048018
300.687242985
301.114066839
301.118131828
300.675048018
301.971779537
301.114066839
301.55715065
300.687242985
300.723827887
301.134391785
301.593735552
300.675048018
300.675048018
300.70756793
301.134391785
300.670983028
301.134391785
301.55715065

Average distance is : 301.068 cm
Average deviation is : 0.458 cm
Block: 2
======================================
300.675048018
301.130326796
300.723827887
301.134391785
300.642528105
300.675048018
301.118131828
301.114066839
301.55715065
300.658788061
301.983974504
301.114066839
302.410798359
302.427058315
300.691307974
301.134391785
301.097806883
300.691307974
301.118131828
300.723827887
300.691307974
300.675048018
301.097806883
301.577475595
301.561215639
301.101871872
301.577475595
301.118131828
300.675048018
300.670983028
300.70756793
301.134391785
300.687242985
301.118131828
301.118131828
300.70756793
301.577475595
300.675048018
301.55715065
300.670983028
300.675048018
302.431123304
301.573410606
300.675048018
302.447383261
301.118131828
301.150651741
301.097806883
300.675048018
300.691307974
300.675048018
300.675048018
301.55715065
300.654723072
300.675048018
301.55715065
301.101871872
301.130326796
301.134391785
301.118131828
302.443318272
300.691307974
301.134391785
301.118131828
301.130326796
301.114066839
301.988039494
300.691307974
301.134391785
300.70756793
300.691307974
300.70756793
300.691307974
300.691307974
300.687242985
302.414863348
301.577475595
300.670983028
301.988039494
300.675048018
302.000234461
300.654723072
301.118131828
300.654723072
301.130326796
301.150651741
301.544955683
300.654723072
300.670983028
301.150651741
301.544955683
301.577475595
302.410798359
301.114066839
300.658788061
300.691307974
302.427058315
301.577475595
300.675048018
302.443318272

Average distance is : 301.151 cm
Average deviation is : 0.543 cm
Block: 3
======================================
300.691307974
301.577475595
301.097806883
301.134391785
300.691307974
300.691307974
300.691307974
301.577475595
301.561215639
300.642528105
302.414863348
301.085611916
301.150651741
301.118131828
301.118131828
301.134391785
301.097806883
301.097806883
300.687242985
301.097806883
300.691307974
301.130326796
301.118131828
300.687242985
300.691307974
301.55715065
301.097806883
300.675048018
301.55715065
300.687242985
300.691307974
300.691307974
301.130326796
301.097806883
301.134391785
302.020559406
300.675048018
301.544955683
300.675048018
300.675048018
301.577475595
300.675048018
301.573410606
300.691307974
301.097806883
300.658788061
300.675048018
301.114066839
300.670983028
300.691307974
300.691307974
301.134391785
302.020559406
300.654723072
301.134391785
301.118131828
300.691307974
300.675048018
300.670983028
301.134391785
300.675048018
300.675048018
301.118131828
301.577475595
300.70756793
301.114066839
301.577475595
301.118131828
302.447383261
301.983974504
301.561215639
300.70756793
300.691307974
302.020559406
301.593735552
300.691307974
302.00429945
301.118131828
301.097806883
301.130326796
300.654723072
300.691307974
301.134391785
302.00429945
300.675048018
300.670983028
300.675048018
300.691307974
301.134391785
300.675048018
301.118131828
301.544955683
300.670983028
301.540890694
301.114066839
300.691307974
301.114066839
301.150651741
300.675048018
301.577475595

Average distance is : 301.078 cm
Average deviation is : 0.441 cm
Block: 4
======================================
300.670983028
301.146586752
301.118131828
300.691307974
301.577475595
300.670983028
302.431123304
301.134391785
300.658788061
301.540890694
301.118131828
300.654723072
301.097806883
300.675048018
300.675048018
300.654723072
301.118131828
301.114066839
300.658788061
301.561215639
301.134391785
301.114066839
301.118131828
301.118131828
300.675048018
301.134391785
300.675048018
300.675048018
300.691307974
300.654723072
300.654723072
301.118131828
301.544955683
301.118131828
301.101871872
301.544955683
301.561215639
301.540890694
301.114066839
300.691307974
300.654723072
300.675048018
300.670983028
300.675048018
300.675048018
301.55715065
302.410798359
301.097806883
301.101871872
301.134391785
301.114066839
300.654723072
301.101871872
300.691307974
300.654723072
300.675048018
300.670983028
301.118131828
300.638463116
300.675048018
301.118131828
300.675048018
301.951454592
301.967714548
301.988039494
301.577475595
300.670983028
301.971779537
300.654723072
300.658788061
300.654723072
301.134391785
300.687242985
301.561215639
300.658788061
301.097806883
301.097806883
300.658788061
300.670983028
301.134391785
300.654723072
302.000234461
301.097806883
301.118131828
300.654723072
301.544955683
301.540890694
300.654723072
300.658788061
301.134391785
300.691307974
301.967714548
301.118131828
301.540890694
300.691307974
301.134391785
300.670983028
301.544955683
300.675048018
300.675048018

Average distance is : 301.050 cm
Average deviation is : 0.441 cm
Block: 5
======================================
301.097806883
300.687242985
301.134391785
300.670983028
300.691307974
300.670983028
301.544955683
301.118131828
301.983974504
301.101871872
300.675048018
300.654723072
300.670983028
300.654723072
301.101871872
301.561215639
301.988039494
300.658788061
301.544955683
300.675048018
301.55715065
301.118131828
300.658788061
300.658788061
301.544955683
300.675048018
301.540890694
302.447383261
300.691307974
301.130326796
301.118131828
301.134391785
302.443318272
301.988039494
301.134391785
301.55715065
300.642528105
300.675048018
301.55715065
301.540890694
301.561215639
300.642528105
300.691307974
301.540890694
300.675048018
301.118131828
300.654723072
301.114066839
301.544955683
300.670983028
302.431123304
301.118131828
301.55715065
301.118131828
300.654723072
300.703502941
300.670983028
301.544955683
301.097806883
300.670983028
301.118131828
300.691307974
300.687242985
301.561215639
300.670983028
300.675048018
301.097806883
300.675048018
301.55715065
301.114066839
300.658788061
302.431123304
301.967714548
301.540890694
301.097806883
300.654723072
301.118131828
300.670983028
301.118131828
301.55715065
300.675048018
301.544955683
301.577475595
300.654723072
300.691307974
301.577475595
300.675048018
300.654723072
301.561215639
301.101871872
301.561215639
300.675048018
300.658788061
301.55715065
301.101871872
300.654723072
301.101871872
301.114066839
301.118131828
301.118131828

Average distance is : 301.125 cm
Average deviation is : 0.479 cm
Block: 6
======================================
301.114066839
300.670983028
300.670983028
301.114066839
300.654723072
300.70756793
301.524630737
300.654723072
301.130326796
301.528695726
301.540890694
300.658788061
300.638463116
300.691307974
301.561215639
302.431123304
301.971779537
301.114066839
300.638463116
301.577475595
301.101871872
300.670983028
300.670983028
300.691307974
301.114066839
302.00429945
301.55715065
300.670983028
301.593735552
301.118131828
300.670983028
301.114066839
300.654723072
300.675048018
301.097806883
300.675048018
300.675048018
301.561215639
300.675048018
301.134391785
300.654723072
301.55715065
302.431123304
301.118131828
302.841687202
301.097806883
301.101871872
302.00429945
301.544955683
301.540890694
300.691307974
300.675048018
301.544955683
301.085611916
301.55715065
301.097806883
300.675048018
301.577475595
300.670983028
301.101871872
300.670983028
301.150651741
300.654723072
300.691307974
300.654723072
300.675048018
300.691307974
300.638463116
301.55715065
301.097806883
301.544955683
301.544955683
300.675048018
301.540890694
300.675048018
300.654723072
301.988039494
301.130326796
301.134391785
300.691307974
301.540890694
300.70756793
300.658788061
300.675048018
300.675048018
301.118131828
300.638463116
301.134391785
301.540890694
300.670983028
300.675048018
301.577475595
302.427058315
300.691307974
301.561215639
301.118131828
300.70756793
300.691307974
300.654723072
301.130326796

Average distance is : 301.099 cm
Average deviation is : 0.498 cm
Block: 7
======================================
300.675048018
300.675048018
300.654723072
301.561215639
300.691307974
301.134391785
301.118131828
300.675048018
300.691307974
301.983974504
300.675048018
300.675048018
301.114066839
300.670983028
301.55715065
302.427058315
301.573410606
302.447383261
301.561215639
301.114066839
301.130326796
301.540890694
301.097806883
301.114066839
300.670983028
301.540890694
301.561215639
301.577475595
301.540890694
300.675048018
301.544955683
302.410798359
300.691307974
301.55715065
301.561215639
300.670983028
300.691307974
301.118131828
301.55715065
301.540890694
301.561215639
300.675048018
301.114066839
300.691307974
301.561215639
301.097806883
301.524630737
300.670983028
300.687242985
300.670983028
301.561215639
300.675048018
301.573410606
300.670983028
301.561215639
301.134391785
301.134391785
301.988039494
300.675048018
301.134391785
300.687242985
301.097806883
301.114066839
301.118131828
301.540890694
301.114066839
301.114066839
300.658788061
300.654723072
301.130326796
300.670983028
300.675048018
300.675048018
300.687242985
301.114066839
302.85388217
301.577475595
301.150651741
301.101871872
300.654723072
300.691307974
301.118131828
300.670983028
301.134391785
301.097806883
301.134391785
301.114066839
300.687242985
300.691307974
300.691307974
300.691307974
301.55715065
301.577475595
301.577475595
301.134391785
300.691307974
302.463643217
300.691307974
301.577475595
301.134391785

Average distance is : 301.153 cm
Average deviation is : 0.490 cm
Block: 8
======================================
301.114066839
301.55715065
300.691307974
301.114066839
301.097806883
300.670983028
301.150651741
300.691307974
301.577475595
300.691307974
301.561215639
300.670983028
300.691307974
300.654723072
300.675048018
300.670983028
302.00429945
301.577475595
301.134391785
301.114066839
301.577475595
301.134391785
300.675048018
300.675048018
300.675048018
301.55715065
302.443318272
301.561215639
301.577475595
302.427058315
301.130326796
300.691307974
302.410798359
301.114066839
301.134391785
300.691307974
300.691307974
301.134391785
300.675048018
301.134391785
300.70756793
301.118131828
301.150651741
301.561215639
301.561215639
301.134391785
301.55715065
301.134391785
301.134391785
300.691307974
300.675048018
301.134391785
300.70756793
300.675048018
301.118131828
301.609995508
302.447383261
301.134391785
301.114066839
300.670983028
300.687242985
300.691307974
301.134391785
300.691307974
301.561215639
300.70756793
300.675048018
301.577475595
300.70756793
301.561215639
300.691307974
300.691307974
302.020559406
301.577475595
301.561215639
301.577475595
302.00429945
301.118131828
301.134391785
301.573410606
301.150651741
301.134391785
301.134391785
301.577475595
301.130326796
300.654723072
302.000234461
300.687242985
300.70756793
300.691307974
301.130326796
301.577475595
301.561215639
300.670983028
301.134391785
301.150651741
300.70756793
300.70756793
300.70756793
302.00429945

Average distance is : 301.154 cm
Average deviation is : 0.475 cm
Block: 9
======================================
300.670983028
301.134391785
301.130326796
302.020559406
300.723827887
301.101871872
301.577475595
302.447383261
301.593735552
301.118131828
301.118131828
301.55715065
301.130326796
301.983974504
300.691307974
301.118131828
301.150651741
300.70756793
300.691307974
301.561215639
300.675048018
300.675048018
301.134391785
301.577475595
300.691307974
300.70756793
300.670983028
300.687242985
301.150651741
300.675048018
301.134391785
300.658788061
301.577475595
301.134391785
301.118131828
301.593735552
301.118131828
300.691307974
300.691307974
300.70756793
301.561215639
300.670983028
301.134391785
301.118131828
301.561215639
302.85388217
301.134391785
301.593735552
301.097806883
301.577475595
301.134391785
300.670983028
301.118131828
301.573410606
301.118131828
301.561215639
300.687242985
301.134391785
300.675048018
301.573410606
300.691307974
300.691307974
301.130326796
301.55715065
300.691307974
301.118131828
300.691307974
300.654723072
301.577475595
301.561215639
301.134391785
302.447383261
300.670983028
301.150651741
301.150651741
301.118131828
300.691307974
301.130326796
301.114066839
301.150651741
301.114066839
301.561215639
301.114066839
300.687242985
301.114066839
300.658788061
300.675048018
301.114066839
301.130326796
301.118131828
300.670983028
300.691307974
301.134391785
300.70756793
300.670983028
301.150651741
301.134391785
301.150651741
300.670983028
301.577475595

Average distance is : 301.118 cm
Average deviation is : 0.434 cm
Block: 10
======================================
300.70756793
300.70756793
300.691307974
301.55715065
301.130326796
300.675048018
301.561215639
302.874207115
301.967714548
300.675048018
301.150651741
301.524630737
301.130326796
301.561215639
301.577475595
300.687242985
301.150651741
301.118131828
302.020559406
300.658788061
301.573410606
300.70756793
300.654723072
301.577475595
301.118131828
300.691307974
301.150651741
301.097806883
301.118131828
300.691307974
301.134391785
300.670983028
300.70756793
300.691307974
302.85388217
302.431123304
301.134391785
300.691307974
300.670983028
300.670983028
300.675048018
301.561215639
300.691307974
301.134391785
301.118131828
300.691307974
300.691307974
301.577475595
300.70756793
302.431123304
301.150651741
301.097806883
300.675048018
301.988039494
301.988039494
301.114066839
300.691307974
300.691307974
301.134391785
300.70756793
301.967714548
300.691307974
300.675048018
300.670983028
301.983974504
301.114066839
301.134391785
300.675048018
300.670983028
301.118131828
302.00429945
300.691307974
300.691307974
301.561215639
301.134391785
300.687242985
300.670983028
300.70756793
302.00429945
300.675048018
300.670983028
301.114066839
302.000234461
301.101871872
301.134391785
301.577475595
300.670983028
300.687242985
302.447383261
300.654723072
301.134391785
301.561215639
300.675048018
301.134391785
300.691307974
301.577475595
300.654723072
302.020559406
301.577475595
300.691307974

Average distance is : 301.150 cm
Average deviation is : 0.552 cm
Block: 1
======================================
300.845777559
300.84171257
300.366108847
301.715685225
300.382368803
300.825452614
300.878297472
300.845777559
301.28886137
300.845777559
300.414888716
300.845777559
300.84171257
300.418953705
300.845777559
300.84171257
300.382368803
301.28886137
300.862037516
301.28886137
300.845777559
301.301056337
301.727880192
300.862037516
300.862037516
301.305121326
300.398628759
301.284796381
300.435213661
300.402693748
300.418953705
300.862037516
300.845777559
300.829517603
300.862037516
300.845777559
300.435213661
300.414888716
301.305121326
300.862037516
300.418953705
300.435213661
300.84171257
302.187223959
300.435213661
300.857972527
300.402693748
301.731945181
300.435213661
300.418953705
300.398628759
301.28886137
301.711620235
300.845777559
301.305121326
300.418953705
300.414888716
300.402693748
301.28886137
300.878297472
300.862037516
300.435213661
300.894557428
301.28886137
300.862037516
301.301056337
300.862037516
300.862037516
300.402693748
301.305121326
300.418953705
300.857972527
300.845777559
301.28886137
300.84171257
300.857972527
300.418953705
301.305121326
301.28886137
301.731945181
300.894557428
303.024611712
300.418953705
300.84171257
300.418953705
300.435213661
300.431148672
300.862037516
300.845777559
300.431148672
302.158769035
300.862037516
300.878297472
300.435213661
300.894557428
300.862037516
300.418953705
301.711620235
300.451473618
300.857972527

Average distance is : 300.882 cm
Average deviation is : 0.472 cm
Block: 2
======================================
301.305121326
300.862037516
300.894557428
300.451473618
300.418953705
300.418953705
300.451473618
301.748205137
300.435213661
300.451473618
300.862037516
300.435213661
300.431148672
300.435213661
300.451473618
300.878297472
300.862037516
300.435213661
300.878297472
300.414888716
300.84171257
300.878297472
300.451473618
300.878297472
300.894557428
300.431148672
300.451473618
300.862037516
301.305121326
300.878297472
300.402693748
301.305121326
301.321381283
300.894557428
300.414888716
301.321381283
301.321381283
300.402693748
300.414888716
300.398628759
300.862037516
300.451473618
300.414888716
301.337641239
300.418953705
300.862037516
301.760400105
300.435213661
300.878297472
301.321381283
301.301056337
300.862037516
301.321381283
300.418953705
300.435213661
300.431148672
300.894557428
301.305121326
301.321381283
301.727880192
300.435213661
300.418953705
300.857972527
301.321381283
300.435213661
300.862037516
300.435213661
300.431148672
300.435213661
300.857972527
300.878297472
300.418953705
300.862037516
300.431148672
300.845777559
300.414888716
300.431148672
300.862037516
300.451473618
302.191288948
300.414888716
300.862037516
300.431148672
300.845777559
302.581527901
300.435213661
300.857972527
301.305121326
301.305121326
300.435213661
300.862037516
300.435213661
300.857972527
300.878297472
300.894557428
300.435213661
300.451473618
300.874232483
300.862037516
300.894557428

Average distance is : 300.795 cm
Average deviation is : 0.427 cm
Block: 3
======================================
300.418953705
300.435213661
301.301056337
300.414888716
300.862037516
300.435213661
301.731945181
300.862037516
302.175028992
300.809192657
300.451473618
300.435213661
300.418953705
300.435213661
300.451473618
300.874232483
300.435213661
301.305121326
300.451473618
300.418953705
300.878297472
301.301056337
300.435213661
300.435213661
300.878297472
301.321381283
301.321381283
300.435213661
300.435213661
300.927077341
300.418953705
302.207548904
300.418953705
300.435213661
300.894557428
301.305121326
300.414888716
300.857972527
300.418953705
300.435213661
300.414888716
300.878297472
300.402693748
301.321381283
300.435213661
300.878297472
300.431148672
300.467733574
300.418953705
300.402693748
300.402693748
300.451473618
301.321381283
300.431148672
300.402693748
300.402693748
300.878297472
300.418953705
300.414888716
300.402693748
300.857972527
300.845777559
300.414888716
301.731945181
300.857972527
300.418953705
300.398628759
300.386433792
301.727880192
300.435213661
300.398628759
301.748205137
300.84171257
301.711620235
300.414888716
300.84171257
300.862037516
302.154704046
300.435213661
300.435213661
301.284796381
301.28886137
300.435213661
300.862037516
302.175028992
301.272601414
302.597787857
300.451473618
301.305121326
300.857972527
300.414888716
300.845777559
300.414888716
300.845777559
300.435213661
301.321381283
300.857972527
301.284796381
300.874232483
301.305121326

Average distance is : 300.819 cm
Average deviation is : 0.515 cm
Block: 4
======================================
300.382368803
300.398628759
300.398628759
300.398628759
301.284796381
300.845777559
301.301056337
300.418953705
301.305121326
300.857972527
300.414888716
301.28886137
300.418953705
301.727880192
301.699425268
300.857972527
300.402693748
300.84171257
300.402693748
300.857972527
300.418953705
300.862037516
300.382368803
300.402693748
300.829517603
301.305121326
301.272601414
300.825452614
300.386433792
300.84171257
301.305121326
300.386433792
300.829517603
300.857972527
300.414888716
300.435213661
300.418953705
301.28886137
300.402693748
300.862037516
300.845777559
301.321381283
300.845777559
300.398628759
300.862037516
300.418953705
300.398628759
300.418953705
300.398628759
300.857972527
300.435213661
300.845777559
300.825452614
301.305121326
301.305121326
300.809192657
300.414888716
300.862037516
300.451473618
300.84171257
300.862037516
300.862037516
300.862037516
300.34984889
300.857972527
301.321381283
300.435213661
300.402693748
302.154704046
301.731945181
300.862037516
301.305121326
300.435213661
300.878297472
300.414888716
301.321381283
300.414888716
301.301056337
300.418953705
300.898622417
300.418953705
300.878297472
300.878297472
301.321381283
300.451473618
300.878297472
300.878297472
300.894557428
300.894557428
300.414888716
301.321381283
300.435213661
301.748205137
301.321381283
300.862037516
300.435213661
300.467733574
300.435213661
300.451473618
301.321381283

Average distance is : 300.809 cm
Average deviation is : 0.407 cm
Block: 5
======================================
300.894557428
300.418953705
300.414888716
300.84171257
300.862037516
300.435213661
300.878297472
301.764465094
300.418953705
300.418953705
300.451473618
301.305121326
301.321381283
300.878297472
301.321381283
300.857972527
300.878297472
300.435213661
300.414888716
300.878297472
300.435213661
302.158769035
301.321381283
300.878297472
301.727880192
302.187223959
300.451473618
302.170964003
300.414888716
300.862037516
300.451473618
301.317316294
301.321381283
300.451473618
300.431148672
300.435213661
300.862037516
300.894557428
300.467733574
300.894557428
300.414888716
300.431148672
300.894557428
301.321381283
301.321381283
300.451473618
300.878297472
300.398628759
300.435213661
300.878297472
300.894557428
301.321381283
300.845777559
300.451473618
300.862037516
300.845777559
300.418953705
300.451473618
300.862037516
301.321381283
300.451473618
300.435213661
301.301056337
300.431148672
300.894557428
300.435213661
301.748205137
301.748205137
300.878297472
300.857972527
300.874232483
300.414888716
301.748205137
300.878297472
300.418953705
301.305121326
300.862037516
300.418953705
300.878297472
301.305121326
300.857972527
301.337641239
301.321381283
300.878297472
300.435213661
300.894557428
300.862037516
300.894557428
300.435213661
300.878297472
300.845777559
300.435213661
300.435213661
300.435213661
300.862037516
300.878297472
300.910817385
300.857972527
300.878297472
301.748205137

Average distance is : 300.873 cm
Average deviation is : 0.445 cm
Block: 6
======================================
300.414888716
301.305121326
300.878297472
300.857972527
300.414888716
300.398628759
300.84171257
300.418953705
300.862037516
301.305121326
300.414888716
300.878297472
302.170964003
300.418953705
300.862037516
300.862037516
301.305121326
301.764465094
300.862037516
300.874232483
301.321381283
300.451473618
301.305121326
300.418953705
300.857972527
300.435213661
300.845777559
302.601852846
300.402693748
300.414888716
300.418953705
301.268536425
300.878297472
300.402693748
300.414888716
301.748205137
300.878297472
301.748205137
300.435213661
300.862037516
300.862037516
301.305121326
302.170964003
301.321381283
300.435213661
301.321381283
300.878297472
300.435213661
300.84171257
300.418953705
300.435213661
300.451473618
300.435213661
300.431148672
301.337641239
301.321381283
300.435213661
300.418953705
300.414888716
300.398628759
300.862037516
301.301056337
300.845777559
300.435213661
300.878297472
301.731945181
300.878297472
300.435213661
301.305121326
300.435213661
300.84171257
300.451473618
300.862037516
300.857972527
301.321381283
300.414888716
301.748205137
300.435213661
300.418953705
300.878297472
300.862037516
300.418953705
301.748205137
300.414888716
300.418953705
300.451473618
302.207548904
300.414888716
301.321381283
300.451473618
300.898622417
300.878297472
300.894557428
300.451473618
300.451473618
301.337641239
300.894557428
300.878297472
301.341706228
301.337641239

Average distance is : 300.877 cm
Average deviation is : 0.497 cm
Block: 7
======================================
300.914882374
300.451473618
300.93114233
300.894557428
301.353901196
301.357966185
300.894557428
300.471798563
301.321381283
300.93114233
301.321381283
300.878297472
300.467733574
301.390486097
300.451473618
300.467733574
301.78072505
300.894557428
300.435213661
301.764465094
300.471798563
301.341706228
300.894557428
300.451473618
301.353901196
300.894557428
300.435213661
300.451473618
300.467733574
300.894557428
301.337641239
301.357966185
301.337641239
300.878297472
300.894557428
300.418953705
300.48399353
302.207548904
302.650632715
300.857972527
300.914882374
300.435213661
300.451473618
300.894557428
301.337641239
300.435213661
300.914882374
300.914882374
300.910817385
300.910817385
300.878297472
301.353901196
300.451473618
301.337641239
300.914882374
300.451473618
300.451473618
300.467733574
300.894557428
300.914882374
300.451473618
301.353901196
300.451473618
300.894557428
301.353901196
300.914882374
300.488058519
300.451473618
300.894557428
301.341706228
300.451473618
301.337641239
301.78072505
301.321381283
300.451473618
300.451473618
300.435213661
301.321381283
301.748205137
300.894557428
300.910817385
301.353901196
300.878297472
300.435213661
300.467733574
300.435213661
301.337641239
300.451473618
300.874232483
300.451473618
301.321381283
300.435213661
300.451473618
300.451473618
300.451473618
301.337641239
300.914882374
300.451473618
300.878297472
301.305121326

Average distance is : 300.901 cm
Average deviation is : 0.451 cm
Block: 8
======================================
300.862037516
300.451473618
300.894557428
302.207548904
301.321381283
300.451473618
300.878297472
300.894557428
301.337641239
300.451473618
301.321381283
300.894557428
300.451473618
300.451473618
301.337641239
300.451473618
300.451473618
301.337641239
300.435213661
302.614047813
300.878297472
300.894557428
300.418953705
300.451473618
300.451473618
300.894557428
301.317316294
300.878297472
300.451473618
300.435213661
300.862037516
302.191288948
300.878297472
300.451473618
300.414888716
300.418953705
300.878297472
300.878297472
300.418953705
300.878297472
300.878297472
300.451473618
300.857972527
300.878297472
300.402693748
300.414888716
300.451473618
300.84171257
300.878297472
300.894557428
300.418953705
300.878297472
300.418953705
300.878297472
300.435213661
300.435213661
300.878297472
300.414888716
300.878297472
300.435213661
301.301056337
301.301056337
300.874232483
300.418953705
300.894557428
300.894557428
300.862037516
300.878297472
300.435213661
301.305121326
301.731945181
300.862037516
301.321381283
301.305121326
301.305121326
300.435213661
300.431148672
300.878297472
300.418953705
300.435213661
300.857972527
300.894557428
300.435213661
300.862037516
301.28886137
300.862037516
300.874232483
300.418953705
300.435213661
300.874232483
300.862037516
300.418953705
300.862037516
300.857972527
300.418953705
300.398628759
301.764465094
300.845777559
300.862037516
300.894557428

Average distance is : 300.821 cm
Average deviation is : 0.426 cm
Block: 9
======================================
300.862037516
300.435213661
301.305121326
300.862037516
300.451473618
300.451473618
300.825452614
301.731945181
300.414888716
300.862037516
300.418953705
300.418953705
302.170964003
300.862037516
300.862037516
300.862037516
301.284796381
301.748205137
300.862037516
300.878297472
300.878297472
301.321381283
300.84171257
300.862037516
301.301056337
300.878297472
300.878297472
301.301056337
302.58559289
300.84171257
300.857972527
300.862037516
301.305121326
300.862037516
301.272601414
300.845777559
300.845777559
300.84171257
301.321381283
300.894557428
301.305121326
301.305121326
300.414888716
300.862037516
301.284796381
300.878297472
301.748205137
300.862037516
300.857972527
301.28886137
300.862037516
301.305121326
300.435213661
300.418953705
300.862037516
300.874232483
300.857972527
300.435213661
301.321381283
302.597787857
300.451473618
300.418953705
300.878297472
300.862037516
300.878297472
301.301056337
301.321381283
300.878297472
301.28886137
302.187223959
300.874232483
301.305121326
301.301056337
300.898622417
301.337641239
300.894557428
300.435213661
301.321381283
300.862037516
300.878297472
300.435213661
300.878297472
300.435213661
301.28886137
300.414888716
300.894557428
301.321381283
301.321381283
301.301056337
300.878297472
300.878297472
300.862037516
300.418953705
301.321381283
300.878297472
301.321381283
300.857972527
301.321381283
300.862037516
300.894557428

Average distance is : 301.003 cm
Average deviation is : 0.433 cm
Block: 10
======================================
302.597787857
301.305121326
301.305121326
300.398628759
300.857972527
301.305121326
300.878297472
300.845777559
302.154704046
300.862037516
301.252276468
300.878297472
300.894557428
301.321381283
301.301056337
301.28886137
301.305121326
301.305121326
300.878297472
300.894557428
301.764465094
301.764465094
300.418953705
302.191288948
301.748205137
300.862037516
302.959571886
301.305121326
300.878297472
300.845777559
302.581527901
300.878297472
300.418953705
301.305121326
302.618112803
301.78072505
300.878297472
300.862037516
300.894557428
302.191288948
300.878297472
300.878297472
301.305121326
300.84171257
301.305121326
301.305121326
301.28886137
301.305121326
300.435213661
301.744140148
300.857972527
302.175028992
300.451473618
300.878297472
300.862037516
300.894557428
300.414888716
300.878297472
301.305121326
301.28886137
300.878297472
301.284796381
301.321381283
300.418953705
300.862037516
303.044936657
300.857972527
300.857972527
300.418953705
300.435213661
301.321381283
300.878297472
301.321381283
300.874232483
301.305121326
302.154704046
300.451473618
300.857972527
301.321381283
300.857972527
301.764465094
303.040871668
301.305121326
300.857972527
301.305121326
301.317316294
300.418953705
300.418953705
300.878297472
300.894557428
300.431148672
300.398628759
300.414888716
301.748205137
300.431148672
301.305121326
300.418953705
300.878297472
302.154704046
302.211613894

Average distance is : 301.186 cm
Average deviation is : 0.627 cm