
Block: 1
======================================
300.84171257
300.48399353
300.451473618
300.431148672
300.451473618

Block: 2
======================================
300.467733574
301.353901196
300.451473618
300.910817385
300.910817385

Block: 3
======================================
300.504318476
301.374226141
301.353901196
300.894557428
300.435213661

Block: 4
======================================
300.451473618
300.467733574
300.467733574
300.435213661
300.451473618

Block: 5
======================================
300.471798563
300.894557428
301.321381283
301.321381283
300.878297472

Block: 6
======================================
301.337641239
300.418953705
301.321381283
301.337641239
300.431148672

Block: 7
======================================
300.84171257
300.414888716
300.451473618
300.862037516
300.862037516

Block: 8
======================================
300.418953705
301.305121326
300.418953705
300.414888716
300.402693748

Block: 9
======================================
300.386433792
300.402693748
301.28886137
300.862037516
302.154704046

Block: 10
======================================
300.414888716
300.414888716
300.418953705
300.382368803
300.809192657
