
Block: 1
======================================
401.469015789
401.909737325
400.619919252
400.652265787
400.619919252

Average distance is : 401.054 cm
Average deviation is : 0.601 cm
Block: 2
======================================
401.501362324
400.211544251
399.786995983
399.770822716
400.215587568

Average distance is : 400.297 cm
Average deviation is : 0.707 cm
Block: 3
======================================
400.672482371
400.63609252
399.754649448
400.619919252
400.652265787

Average distance is : 400.467 cm
Average deviation is : 0.399 cm
Block: 4
======================================
399.754649448
399.774866033
400.619919252
401.060640788
400.619919252

Average distance is : 400.366 cm
Average deviation is : 0.578 cm
Block: 5
======================================
400.163024449
400.179197717
400.179197717
401.469015789
400.603745985

Average distance is : 400.519 cm
Average deviation is : 0.563 cm
Block: 6
======================================
400.567356133
400.567356133
400.555226183
400.146851182
401.448799205

Average distance is : 400.657 cm
Average deviation is : 0.478 cm
Block: 7
======================================
400.979774451
400.599702668
400.603745985
401.008077669
401.024250937

Average distance is : 400.843 cm
Average deviation is : 0.221 cm
Block: 8
======================================
401.432625937
401.420495987
401.012120986
400.551182866
401.008077669

Average distance is : 401.085 cm
Average deviation is : 0.364 cm
Block: 9
======================================
400.567356133
400.975731134
401.008077669
401.400279403
400.126634598

Average distance is : 400.816 cm
Average deviation is : 0.485 cm
Block: 10
======================================
400.11046133
401.857174206
400.587572718
400.57139945
400.11046133

Average distance is : 400.647 cm
Average deviation is : 0.716 cm