
Block: 1
======================================
200.723459506
200.743820572
200.723459506
201.167330742
200.723459506
200.711242867
200.743820572
200.739748359
200.739748359
200.247010565

Block: 2
======================================
201.167330742
200.739748359
201.20398066
200.776398277
201.151041889
200.263299417
200.263299417
200.723459506
200.247010565
200.707170653

Block: 3
======================================
200.743820572
200.723459506
200.743820572
200.723459506
201.171402955
201.167330742
201.151041889
201.611201978
201.167330742
200.707170653

Block: 4
======================================
200.727531719
201.183619595
200.739748359
200.247010565
200.299949336
200.727531719
200.727531719
200.743820572
200.316238189
200.707170653

Block: 5
======================================
200.247010565
200.707170653
200.743820572
200.707170653
201.171402955
200.267371631
200.813048196
200.283660483
200.743820572
200.723459506

Block: 6
======================================
200.263299417
200.711242867
200.743820572
200.739748359
200.825264835
201.134753036
201.155114102
201.171402955
201.187691808
201.187691808

Block: 7
======================================
200.723459506
200.723459506
200.723459506
200.263299417
200.263299417
200.743820572
200.27958827
200.743820572
200.27958827
200.316238189

Block: 8
======================================
200.348815894
200.263299417
200.776398277
200.348815894
201.183619595
200.845625901
200.743820572
200.299949336
201.187691808
200.723459506

Block: 9
======================================
200.36917696
201.20398066
200.743820572
201.183619595
201.187691808
200.723459506
200.352888107
200.723459506
200.263299417
202.038784361

Block: 10
======================================
200.723459506
200.267371631
200.27958827
200.739748359
200.743820572
200.727531719
201.187691808
201.20398066
200.743820572
200.312165976
