
Block: 1
======================================
200.743820572
200.263299417
200.27958827
200.727531719
200.283660483
200.739748359
200.299949336
200.348815894
201.20398066
201.187691808
201.187691808
200.283660483
201.187691808
200.295877123
200.739748359
200.348815894
200.707170653
200.247010565
201.187691808
201.183619595
201.167330742
200.776398277
201.155114102
200.299949336
201.183619595
200.348815894
201.187691808
200.36917696
200.365104747
201.171402955
200.707170653
200.723459506
201.187691808
200.707170653
200.295877123
200.723459506
200.312165976
200.316238189
200.283660483
200.283660483
200.283660483
200.316238189
200.295877123
201.183619595
200.707170653
200.808975983
200.723459506
200.299949336
200.295877123
201.615274191

Block: 2
======================================
200.727531719
200.743820572
200.707170653
200.295877123
200.283660483
201.155114102
200.365104747
200.743820572
200.707170653
200.707170653
201.187691808
200.707170653
201.183619595
201.187691808
201.155114102
201.187691808
200.796759343
201.167330742
200.316238189
200.316238189
200.316238189
200.707170653
201.187691808
200.727531719
201.171402955
201.167330742
200.348815894
200.711242867
200.813048196
200.813048196
200.743820572
201.187691808
200.348815894
200.348815894
200.316238189
201.167330742
200.283660483
201.187691808
200.808975983
200.711242867
201.187691808
200.760109425
200.312165976
200.723459506
200.348815894
201.183619595
200.723459506
200.348815894
200.808975983
200.808975983

Block: 3
======================================
200.723459506
201.236558366
201.220269513
200.707170653
201.183619595
200.299949336
200.263299417
200.299949336
200.316238189
201.183619595
200.36917696
200.316238189
200.295877123
200.316238189
200.743820572
200.283660483
200.36917696
200.316238189
200.36917696
200.299949336
200.316238189
200.36917696
200.316238189
200.312165976
200.365104747
200.316238189
200.316238189
200.295877123
200.316238189
200.365104747
200.739748359
200.27958827
200.743820572
200.316238189
200.316238189
200.295877123
200.36917696
200.299949336
200.760109425
200.36917696
200.283660483
200.776398277
200.36917696
200.365104747
200.776398277
200.295877123
201.20398066
200.316238189
200.845625901
200.316238189

Block: 4
======================================
200.723459506
200.760109425
201.20398066
200.739748359
200.760109425
200.743820572
200.263299417
200.727531719
201.20398066
200.707170653
201.183619595
201.187691808
201.20398066
201.187691808
201.167330742
200.365104747
201.20398066
200.743820572
201.183619595
201.20398066
201.183619595
200.723459506
200.727531719
200.743820572
200.739748359
200.707170653
200.743820572
200.727531719
200.283660483
200.723459506
200.27958827
200.723459506
200.739748359
200.707170653
200.723459506
200.263299417
200.743820572
201.187691808
200.707170653
200.743820572
200.760109425
200.743820572
200.723459506
200.723459506
200.723459506
200.707170653
201.187691808
200.813048196
200.723459506
201.167330742

Block: 5
======================================
200.727531719
200.299949336
200.727531719
200.707170653
200.776398277
201.187691808
201.183619595
201.151041889
201.631563044
200.739748359
200.267371631
200.739748359
201.183619595
201.20398066
201.187691808
200.723459506
200.723459506
201.20398066
200.739748359
200.27958827
200.723459506
200.727531719
200.727531719
201.20398066
200.723459506
201.187691808
201.171402955
200.743820572
200.348815894
201.187691808
201.20398066
201.187691808
200.727531719
201.187691808
200.727531719
200.299949336
200.723459506
200.365104747
201.183619595
201.187691808
200.299949336
200.332527041
200.299949336
200.299949336
201.20398066
200.299949336
200.743820572
200.316238189
200.332527041
200.727531719

Block: 6
======================================
200.739748359
200.263299417
200.829337049
200.295877123
200.299949336
200.760109425
201.167330742
200.723459506
201.183619595
201.171402955
201.187691808
200.739748359
201.183619595
201.167330742
201.183619595
201.187691808
200.727531719
201.171402955
200.348815894
200.263299417
200.27958827
200.283660483
200.743820572
200.743820572
200.743820572
200.267371631
200.365104747
200.707170653
201.187691808
201.20398066
201.20398066
201.187691808
200.247010565
200.723459506
200.727531719
201.187691808
200.739748359
200.739748359
201.20398066
200.707170653
201.187691808
200.267371631
200.263299417
200.316238189
200.723459506
201.171402955
200.723459506
201.183619595
200.365104747
201.187691808

Block: 7
======================================
200.316238189
200.283660483
200.263299417
200.523921061
201.20398066
200.743820572
201.20398066
201.171402955
201.183619595
201.167330742
201.171402955
201.167330742
201.183619595
201.20398066
201.187691808
200.352888107
200.299949336
201.171402955
201.187691808
200.723459506
200.739748359
200.743820572
200.723459506
200.739748359
200.247010565
200.739748359
200.707170653
200.283660483
200.36917696
200.36917696
200.27958827
200.723459506
200.727531719
201.20398066
200.723459506
200.3813936
201.167330742
201.187691808
200.727531719
201.20398066
201.187691808
201.20398066
200.723459506
201.183619595
201.187691808
200.365104747
200.299949336
200.348815894
200.723459506
200.299949336

Block: 8
======================================
200.743820572
201.171402955
200.247010565
200.707170653
200.36917696
200.299949336
201.167330742
200.825264835
200.756037211
200.27958827
200.707170653
201.20398066
201.187691808
200.727531719
201.187691808
201.199908447
201.187691808
200.829337049
200.348815894
200.365104747
200.316238189
201.20398066
200.295877123
201.20398066
201.167330742
200.348815894
200.332527041
201.187691808
201.171402955
201.187691808
201.187691808
201.183619595
201.187691808
201.187691808
201.187691808
201.220269513
201.187691808
200.723459506
201.167330742
200.267371631
200.760109425
200.263299417
200.27958827
200.711242867
201.187691808
200.739748359
200.707170653
200.263299417
200.723459506
200.743820572

Block: 9
======================================
200.739748359
200.690881801
200.707170653
200.723459506
200.27958827
200.263299417
201.187691808
201.171402955
201.187691808
201.171402955
200.348815894
200.813048196
200.813048196
201.20398066
201.183619595
200.27958827
201.187691808
201.171402955
201.171402955
200.739748359
200.79268713
201.183619595
201.171402955
200.707170653
200.829337049
200.723459506
201.187691808
201.187691808
201.20398066
200.365104747
200.299949336
200.756037211
200.808975983
201.171402955
201.187691808
200.332527041
200.348815894
201.199908447
200.332527041
201.187691808
200.743820572
201.187691808
201.20398066
201.167330742
200.739748359
200.743820572
201.187691808
201.187691808
200.723459506
200.743820572

Block: 10
======================================
200.760109425
200.299949336
200.316238189
200.796759343
200.27958827
200.723459506
201.183619595
200.348815894
201.187691808
200.727531719
200.739748359
200.760109425
200.760109425
200.27958827
200.263299417
200.348815894
200.27958827
200.27958827
200.27958827
200.283660483
200.283660483
200.332527041
200.739748359
201.183619595
200.723459506
201.187691808
200.743820572
201.183619595
200.723459506
200.743820572
200.723459506
200.760109425
200.727531719
200.727531719
201.187691808
200.365104747
200.739748359
200.743820572
200.727531719
201.183619595
200.739748359
201.183619595
201.187691808
200.727531719
200.263299417
200.739748359
200.743820572
200.727531719
201.20398066
201.187691808
