
Block: 1
======================================
50.3681697845
50.3517364502
50.3353031158
50.1422114372
50.3517364502
50.4010364532
50.8324114799
50.8159781456
50.3681697845
20.4019845963
50.3311947823
50.8324114799
50.7995448112
50.3681697845
42.0282526016
50.4174697876
50.4051447868
50.3846031189
50.3681697845
50.3476281166
21.5892930031
50.4380114555
50.3681697845
50.7790031433
50.3846031189
50.7666781425
21.4372846603
49.9737697601
49.9532280922
50.4174697876
50.8488448143
50.8488448143
22.5752930641
50.4010364532
50.6269948006
50.8159781456
50.8365198135
50.8365198135
20.4184179306
50.3311947823
50.7790031433
50.8159781456
50.8159781456
50.3681697845
17.6288594246
50.4010364532
50.8159781456
50.7461364746
50.3681697845
50.7995448112

Block: 2
======================================
50.4051447868
50.3517364502
50.3476281166
50.3517364502
50.3681697845
19.4200928688
50.3846031189
50.8159781456
50.8159781456
50.8488448143
50.7995448112
19.7487595558
50.0066364288
50.3681697845
50.3887114525
50.3681697845
50.3353031158
22.6944347382
50.3846031189
50.3517364502
50.3517364502
50.7790031433
50.8159781456
21.539993
49.9532280922
50.8159781456
50.7995448112
50.8159781456
50.8159781456
20.7306512833
49.9902030945
50.3681697845
50.8324114799
50.7666781425
50.8324114799
21.3838763237
50.8365198135
50.8159781456
50.8324114799
50.7995448112
50.8159781456
20.7306512833
49.9902030945
49.9860947609
50.7831114769
50.762569809
50.7831114769
21.7125430107
49.9860947609
50.8365198135

Block: 3
======================================
50.3517364502
50.7666781425
50.7995448112
50.3681697845
50.4010364532
50.8159781456
50.8324114799
50.8324114799
19.4200928688
50.0066364288
50.8365198135
50.8159781456
50.8159781456
50.7995448112
20.9196346283
50.4215781212
50.4174697876
50.8159781456
50.7831114769
50.8324114799
21.0552096367
49.9367947578
50.7995448112
50.8324114799
50.8529531479
50.4215781212
22.0905097008
50.3353031158
49.9737697601
50.8324114799
50.7995448112
50.8488448143
21.022342968
50.4174697876
50.3681697845
50.8324114799
50.7995448112
50.8159781456
21.092184639
49.9203614235
50.8159781456
50.8324114799
50.7831114769
50.7995448112
21.6262680054
49.9367947578
50.4010364532
50.8365198135
50.3681697845
50.3846031189

Block: 4
======================================
49.9367947578
50.3353031158
50.4010364532
50.8159781456
50.762569809
22.5752930641
49.9902030945
50.8159781456
50.8324114799
50.7995448112
50.8324114799
20.434851265
50.4174697876
50.3681697845
50.7831114769
50.7790031433
50.7995448112
50.4339031219
51.5924531937
50.3846031189
50.7790031433
50.7954364777
20.6772429466
49.9860947609
49.9573364258
50.8529531479
50.4010364532
50.7995448112
21.938501358
50.7831114769
50.4174697876
50.8529531479
50.7831114769
50.8159781456
20.8662262917
49.9532280922
49.9902030945
50.8159781456
50.3846031189
50.7995448112
20.553992939
49.9203614235
50.8488448143
50.8365198135
50.8324114799
50.7831114769
20.2458679199
49.9902030945
50.3311947823
50.4051447868

Block: 5
======================================
50.8324114799
50.8324114799
49.9203614235
50.4010364532
50.8159781456
50.8365198135
50.8324114799
25.5004265785
50.4051447868
50.8159781456
50.3517364502
50.8159781456
50.3846031189
21.0059096336
50.3846031189
50.8324114799
50.3846031189
50.4010364532
50.7995448112
21.4372846603
49.9696614265
49.9532280922
50.8324114799
50.7831114769
50.7995448112
23.4339347839
50.4380114555
50.8159781456
50.7995448112
50.8159781456
50.8159781456
20.0404512405
50.0066364288
50.4010364532
50.8159781456
50.8159781456
50.8324114799
22.9491514206
49.9532280922
49.9696614265
50.8324114799
50.8159781456
50.8159781456
21.7618430138
50.4010364532
50.4010364532
50.7995448112
50.8159781456
50.8159781456
22.3822013855

Block: 6
======================================
50.3846031189
50.7461364746
50.8324114799
50.3846031189
50.3846031189
50.4010364532
50.8324114799
50.8324114799
50.8159781456
50.8324114799
19.0749928474
50.4051447868
50.7790031433
50.8159781456
50.7790031433
50.8529531479
20.9894762993
50.8324114799
50.3846031189
50.4010364532
50.7954364777
50.4010364532
22.0042346954
50.3517364502
50.4010364532
49.9737697601
50.0066364288
49.9902030945
23.4175014496
50.4174697876
50.7995448112
50.4174697876
50.4380114555
50.3681697845
22.4150680542
49.9902030945
50.0066364288
50.4010364532
50.4215781212
50.8488448143
23.5037764549
49.9902030945
50.0230697632
50.3846031189
50.8324114799
50.8159781456
23.1258097649
50.4215781212
50.4380114555
50.4051447868

Block: 7
======================================
49.9860947609
50.8159781456
49.9573364258
50.4174697876
50.7995448112
50.8365198135
50.8159781456
27.5710267067
50.3353031158
50.0066364288
50.8159781456
50.8324114799
50.8365198135
21.3674429893
50.8159781456
49.9737697601
50.8324114799
50.4174697876
49.9573364258
50.4380114555
50.3681697845
50.7995448112
50.8159781456
50.7995448112
21.7289763451
49.9696614265
49.9532280922
50.4010364532
50.4010364532
50.4010364532
23.6763264656
49.9737697601
50.3517364502
50.7995448112
50.8159781456
50.7995448112
22.5218847275
49.9532280922
50.7831114769
50.4010364532
50.762569809
50.3887114525
20.1965679169
50.3846031189
50.3846031189
50.7995448112
50.7831114769
50.7995448112
21.7782763481
50.3517364502

Block: 8
======================================
50.3681697845
50.3846031189
50.4010364532
50.8529531479
49.9367947578
50.8488448143
50.4010364532
50.4215781212
50.4174697876
21.2647346497
50.3846031189
50.8159781456
50.4010364532
50.7790031433
50.0066364288
23.3846347809
49.9203614235
50.4051447868
49.9902030945
50.4215781212
50.3846031189
24.091268158
50.3846031189
50.8324114799
49.9902030945
49.9737697601
50.4174697876
22.5711847305
50.0230697632
50.4010364532
50.0066364288
49.9696614265
50.3846031189
25.4881015778
50.7995448112
50.4174697876
50.4174697876
50.0066364288
50.364061451
22.9162847519
50.4010364532
50.3147614479
50.4215781212
50.0066364288
49.9737697601
23.7790348053
50.4380114555
50.3846031189
49.9860947609
50.3681697845

Block: 9
======================================
50.4010364532
49.9203614235
50.8324114799
50.8488448143
50.4010364532
50.7995448112
21.0059096336
50.3353031158
49.9902030945
50.5242864609
49.9860947609
50.3846031189
23.9187181473
50.3681697845
50.4010364532
50.4051447868
49.9902030945
50.0230697632
24.1775431633
50.3681697845
49.9737697601
50.6434281349
50.3846031189
50.4051447868
23.7297348022
50.0066364288
49.9902030945
50.4010364532
50.0066364288
50.8159781456
23.1422430992
49.9696614265
50.4010364532
50.3846031189
50.8159781456
50.4010364532
23.3682014465
49.9696614265
50.8159781456
50.9556614876
50.7995448112
50.8488448143
21.281167984
49.9203614235
50.8324114799
50.4051447868
50.4051447868
50.3681697845
23.0189930916
49.9902030945

Block: 10
======================================
50.4051447868
50.4010364532
50.3846031189
50.4380114555
49.9860947609
50.3846031189
49.9902030945
50.4174697876
50.4010364532
27.9654267311
49.9737697601
50.4174697876
50.4215781212
50.3846031189
45.0602027893
49.9696614265
50.8159781456
50.3887114525
50.0066364288
50.4051447868
22.2794930458
50.364061451
50.0271780968
49.9902030945
50.3887114525
49.9902030945
23.0559680939
49.9860947609
50.4380114555
50.3846031189
50.4215781212
50.4010364532
23.0025597572
49.9367947578
49.9860947609
50.0066364288
50.4010364532
50.4339031219
22.4561513901
50.3517364502
50.3846031189
49.9696614265
49.9860947609
49.9902030945
23.5736181259
50.4010364532
50.4010364532
50.3846031189
50.4215781212
50.4010364532
