
Block: 1
======================================
299.410836411
299.427096367
299.378316498
299.394576454
299.394576454

Block: 2
======================================
299.357991552
299.427096367
299.378316498
299.431161356
299.4149014

Block: 3
======================================
299.427096367
299.410836411
299.410836411
299.427096367
299.427096367

Block: 4
======================================
299.443356323
299.394576454
299.394576454
299.394576454
299.4149014

Block: 5
======================================
299.427096367
299.447421312
299.394576454
299.410836411
299.394576454

Block: 6
======================================
299.427096367
298.918972731
298.971817589
299.410836411
299.410836411

Block: 7
======================================
299.431161356
299.410836411
298.984012556
299.378316498
299.463681269

Block: 8
======================================
299.378316498
299.431161356
299.036857414
299.427096367
298.9677526

Block: 9
======================================
299.427096367
299.394576454
299.410836411
299.447421312
299.410836411

Block: 10
======================================
299.4149014
299.410836411
299.410836411
298.9677526
299.341731596
