
Block: 1
======================================
50.4032347918
50.4032347918
50.4032347918
50.4073503494
50.3908881187
50.4196970224
50.3867725611
50.0081412554
50.4196970224
50.3867725611

Average distance is : 50.363 cm
Average deviation is : 0.125 cm
Block: 2
======================================
50.3703103304
50.3867725611
50.4196970224
50.4196970224
50.4567370415
50.3703103304
50.4238125801
50.4196970224
50.4196970224
50.3703103304

Average distance is : 50.406 cm
Average deviation is : 0.029 cm
Block: 3
======================================
50.8888705969
50.9053328276
50.8559461355
50.8518305779
50.8024438858
50.4402748108
50.7983283281
50.3867725611
50.0781057358
50.8189061165

Average distance is : 50.683 cm
Average deviation is : 0.281 cm
Block: 4
======================================
50.8353683472
50.8024438858
50.7859816551
50.8024438858
50.4238125801
50.4032347918
50.8189061165
50.4073503494
50.8024438858
50.3908881187

Average distance is : 50.647 cm
Average deviation is : 0.208 cm
Block: 5
======================================
50.4073503494
50.8394839048
50.8518305779
50.8024438858
50.8024438858
50.8189061165
50.8518305779
50.8024438858
50.8518305779
50.8724083662

Average distance is : 50.790 cm
Average deviation is : 0.137 cm
Block: 6
======================================
50.3867725611
50.4032347918
50.4402748108
50.3867725611
50.4073503494
50.3703103304
50.4032347918
50.4238125801
50.4032347918
50.4032347918

Average distance is : 50.403 cm
Average deviation is : 0.020 cm
Block: 7
======================================
50.4073503494
50.4238125801
50.7983283281
50.4196970224
50.4073503494
50.8559461355
50.4402748108
50.4238125801
50.4402748108
50.8518305779

Average distance is : 50.547 cm
Average deviation is : 0.200 cm
Block: 8
======================================
50.8189061165
50.4238125801
50.4196970224
50.4032347918
50.4196970224
50.3867725611
50.4032347918
50.4402748108
50.3867725611
50.8024438858

Average distance is : 50.490 cm
Average deviation is : 0.170 cm
Block: 9
======================================
50.8682928085
50.8888705969
50.8559461355
50.8559461355
50.8682928085
50.8559461355
50.8518305779
50.8518305779
50.8724083662
50.8682928085

Average distance is : 50.864 cm
Average deviation is : 0.012 cm
Block: 10
======================================
50.4402748108
50.4032347918
50.3703103304
50.3867725611
50.4032347918
50.4073503494
50.4361592531
50.4032347918
50.4196970224
50.3867725611

Average distance is : 50.406 cm
Average deviation is : 0.022 cm