
Block: 1
======================================
400.773565292
400.757392025
400.78973856
399.908295488
400.32880044
400.32880044
399.924468756
400.344973707
400.385406876
400.809955144
400.773565292
401.671181631
400.773565292
400.349017024
399.908295488
400.365190291
399.908295488
401.246633363
399.908295488
400.773565292
399.908295488
400.805911827
399.908295488
400.78973856
401.655008364
400.78973856
400.365190291
400.78973856
400.365190291
400.349017024
399.928512073
400.349017024
400.349017024
399.908295488
399.924468756
400.365190291
401.230460095
399.924468756
399.924468756
400.78973856
400.381363559
399.928512073
400.773565292
400.349017024
400.349017024
399.924468756
399.924468756
401.655008364
399.888078904
399.908295488
400.365190291
400.332843757
401.655008364
399.888078904
399.892122221
399.908295488
399.904252172
399.908295488
400.332843757
399.924468756
400.349017024
399.892122221
400.78973856
399.908295488
400.349017024
399.892122221
401.214286828
399.871905637
400.316670489
401.606488562
399.908295488
400.296453905
402.047210097
400.757392025
399.892122221
401.198113561
401.638835096
400.332843757
400.32880044
400.32880044
400.32880044
401.177896976
400.32880044
400.332843757
400.296453905
400.332843757
400.312627172
401.214286828
400.757392025
400.773565292
400.332843757
401.618618512
400.757392025
400.753348708
401.198113561
402.079556632
400.349017024
401.214286828
400.332843757
401.618618512

Average distance is : 400.507 cm
Average deviation is : 0.567 cm
Block: 2
======================================
400.737175441
402.047210097
400.78973856
400.78973856
402.04316678
402.059340048
401.622661829
401.618618512
400.753348708
400.737175441
402.063383365
400.312627172
402.026993513
400.769521976
400.332843757
401.622661829
401.638835096
400.349017024
401.602445245
400.332843757
400.753348708
402.467715049
400.332843757
402.047210097
400.32880044
400.316670489
401.602445245
400.769521976
400.332843757
400.332843757
401.602445245
400.312627172
400.312627172
400.349017024
400.316670489
400.757392025
400.753348708
400.344973707
400.300497222
400.312627172
400.753348708
402.04316678
400.773565292
400.757392025
400.316670489
400.753348708
400.332843757
400.332843757
400.32880044
400.757392025
400.316670489
400.757392025
400.349017024
400.32880044
400.332843757
400.349017024
399.892122221
400.332843757
399.908295488
399.908295488
401.606488562
400.757392025
400.312627172
400.757392025
400.332843757
400.32880044
400.332843757
400.332843757
400.332843757
400.737175441
401.198113561
400.349017024
400.757392025
400.332843757
400.300497222
399.875948954
400.753348708
400.753348708
400.757392025
400.332843757
399.892122221
400.773565292
400.773565292
400.769521976
400.753348708
400.757392025
400.332843757
400.741218758
400.312627172
399.875948954
401.618618512
400.296453905
401.622661829
402.047210097
400.316670489
400.300497222
400.753348708
400.296453905
400.757392025
401.214286828

Average distance is : 400.740 cm
Average deviation is : 0.606 cm
Block: 3
======================================
400.312627172
400.280280638
400.312627172
401.177896976
400.737175441
400.773565292
402.026993513
401.177896976
401.129377174
402.451541781
400.316670489
400.32880044
401.177896976
400.280280638
402.026993513
400.280280638
402.026993513
400.300497222
402.026993513
400.757392025
400.312627172
400.316670489
401.586271977
400.296453905
400.316670489
402.467715049
402.010820246
400.280280638
400.312627172
400.737175441
400.312627172
400.332843757
400.757392025
401.618618512
400.741218758
400.316670489
400.316670489
400.757392025
400.284323955
400.296453905
400.737175441
400.72504549
401.549882126
400.300497222
400.737175441
402.026993513
402.010820246
402.435368514
401.606488562
400.737175441
400.296453905
402.010820246
402.010820246
401.161723709
400.741218758
400.737175441
400.72504549
401.161723709
400.721002173
400.737175441
402.892263317
401.165767026
400.737175441
402.451541781
400.753348708
402.026993513
400.757392025
402.483888316
401.194070244
400.773565292
401.618618512
401.194070244
400.757392025
400.312627172
402.04316678
400.773565292
400.757392025
400.773565292
401.63479178
400.757392025
402.026993513
400.773565292
400.332843757
400.773565292
401.214286828
401.214286828
400.78973856
400.349017024
400.773565292
400.365190291
402.079556632
401.230460095
402.059340048
400.349017024
400.78973856
400.773565292
400.349017024
402.079556632
400.809955144
400.365190291

Average distance is : 401.028 cm
Average deviation is : 0.698 cm
Block: 4
======================================
401.198113561
400.349017024
400.737175441
401.198113561
401.214286828
401.198113561
401.198113561
401.25067668
400.773565292
400.757392025
401.198113561
402.047210097
401.177896976
401.210243511
401.214286828
402.059340048
400.769521976
401.198113561
402.059340048
400.757392025
400.773565292
402.04316678
401.198113561
400.773565292
400.757392025
400.757392025
401.214286828
400.773565292
400.805911827
402.059340048
400.78973856
400.349017024
402.095729899
400.769521976
400.773565292
400.78973856
400.805911827
400.349017024
400.349017024
400.365190291
401.214286828
400.78973856
400.773565292
402.5041049
401.230460095
400.332843757
400.78973856
400.78973856
400.365190291
400.773565292
400.349017024
400.369233608
400.773565292
401.214286828
400.78973856
400.805911827
400.349017024
400.826128411
400.349017024
401.638835096
400.805911827
400.365190291
400.349017024
400.365190291
400.365190291
400.78973856
400.349017024
399.924468756
402.075513315
401.655008364
400.385406876
402.095729899
401.655008364
400.78973856
400.332843757
399.940642023
400.365190291
400.365190291
400.369233608
400.381363559
400.349017024
399.892122221
400.349017024
400.385406876
399.924468756
400.365190291
400.349017024
399.924468756
400.349017024
399.924468756
400.78973856
399.928512073
401.650965047
400.78973856
400.78973856
401.230460095
399.908295488
400.349017024
399.924468756
400.365190291

Average distance is : 400.804 cm
Average deviation is : 0.589 cm
Block: 5
======================================
399.924468756
400.737175441
400.773565292
400.822085094
399.888078904
400.332843757
400.349017024
400.349017024
400.332843757
400.769521976
401.198113561
400.365190291
400.773565292
400.773565292
400.757392025
401.63479178
401.177896976
401.606488562
400.78973856
400.344973707
400.78973856
400.78973856
400.365190291
400.773565292
400.365190291
400.385406876
400.773565292
400.349017024
400.381363559
400.78973856
400.78973856
400.365190291
400.78973856
400.385406876
400.78973856
400.809955144
400.369233608
402.500061584
400.316670489
401.655008364
400.349017024
400.78973856
400.809955144
400.809955144
400.78973856
401.638835096
400.365190291
400.78973856
401.638835096
400.805911827
401.655008364
400.349017024
400.365190291
400.344973707
400.773565292
400.769521976
399.924468756
399.924468756
400.385406876
401.618618512
399.940642023
399.924468756
399.940642023
400.805911827
400.365190291
400.349017024
400.349017024
399.924468756
402.5041049
401.214286828
399.908295488
400.78973856
400.365190291
400.349017024
400.826128411
400.349017024
399.892122221
399.924468756
399.924468756
399.924468756
400.365190291
400.78973856
399.924468756
400.805911827
400.365190291
399.908295488
402.063383365
399.908295488
399.924468756
399.892122221
399.924468756
399.940642023
400.349017024
400.349017024
399.908295488
400.78973856
399.908295488
399.924468756
399.924468756
399.908295488

Average distance is : 400.556 cm
Average deviation is : 0.571 cm
Block: 6
======================================
400.757392025
402.467715049
400.381363559
400.72504549
400.32880044
400.753348708
400.773565292
400.753348708
401.198113561
402.063383365
400.316670489
402.04316678
402.04316678
401.63479178
400.32880044
400.349017024
401.198113561
400.773565292
402.026993513
400.741218758
401.586271977
400.316670489
400.757392025
401.181940293
402.451541781
400.316670489
402.047210097
401.586271977
401.181940293
402.026993513
400.721002173
401.161723709
400.753348708
400.721002173
401.149593759
401.606488562
401.129377174
402.010820246
401.129377174
401.553925443
401.553925443
401.978473711
401.57009871
402.41515193
402.823526931
401.521578908
402.398978662
401.974430394
401.958257127
402.839700198
402.382805395
403.672623467
402.382805395
402.398978662
402.839700198
402.823526931
404.517676687
402.403021979
401.533708858
401.962300444
401.958257127
401.946127176
402.403021979
402.839700198
401.974430394
402.382805395
401.962300444
401.962300444
402.419195247
401.537752175
402.419195247
401.958257127
401.553925443
402.419195247
401.553925443
401.978473711
404.574283123
402.419195247
403.688796735
402.419195247
401.57009871
403.672623467
401.553925443
403.704970002
401.57009871
401.994646978
401.145550442
401.57009871
402.010820246
402.006776929
401.57009871
401.57009871
401.145550442
401.549882126
401.57009871
401.57009871
402.010820246
401.57009871
401.990603662
401.586271977

Average distance is : 401.783 cm
Average deviation is : 0.863 cm
Block: 7
======================================
402.467715049
402.451541781
403.704970002
401.145550442
402.026993513
401.161723709
401.57009871
402.435368514
402.04316678
401.129377174
401.177896976
401.165767026
401.161723709
402.467715049
401.586271977
401.602445245
401.161723709
402.467715049
401.602445245
401.586271977
401.181940293
401.177896976
402.026993513
402.859916782
401.177896976
401.602445245
401.177896976
401.602445245
401.161723709
401.161723709
401.618618512
401.181940293
400.757392025
403.316811585
401.165767026
400.737175441
403.725186586
401.181940293
401.161723709
401.165767026
403.316811585
401.161723709
402.026993513
402.026993513
401.181940293
401.165767026
401.177896976
400.737175441
401.177896976
400.757392025
401.161723709
401.161723709
400.704828906
400.721002173
401.161723709
402.435368514
402.010820246
401.622661829
401.145550442
400.704828906
401.586271977
400.737175441
401.57009871
401.57009871
401.181940293
401.129377174
401.161723709
401.129377174
401.145550442
401.145550442
401.990603662
401.145550442
401.145550442
401.177896976
401.129377174
401.145550442
401.145550442
402.859916782
401.57009871
403.300638318
402.419195247
401.149593759
402.04316678
402.419195247
402.843743515
401.57009871
403.300638318
401.994646978
402.010820246
402.419195247
401.590315294
402.403021979
401.553925443
401.978473711
402.435368514
401.57009871
402.892263317
403.316811585
401.566055393
401.57009871

Average distance is : 401.668 cm
Average deviation is : 0.731 cm
Block: 8
======================================
401.161723709
400.78973856
401.618618512
402.467715049
400.757392025
401.165767026
401.198113561
400.737175441
400.721002173
400.316670489
401.181940293
400.737175441
401.181940293
401.177896976
400.737175441
400.773565292
400.737175441
401.181940293
400.300497222
400.757392025
400.741218758
400.757392025
400.737175441
402.026993513
400.721002173
402.03103683
400.316670489
402.87609005
401.161723709
401.181940293
401.181940293
401.194070244
400.753348708
401.606488562
400.316670489
400.721002173
401.622661829
403.33702817
400.737175441
401.161723709
401.198113561
400.721002173
402.026993513
401.622661829
400.737175441
401.177896976
400.737175441
401.165767026
400.737175441
401.618618512
401.177896976
400.737175441
401.181940293
401.161723709
400.737175441
400.741218758
402.87609005
400.741218758
400.773565292
400.737175441
401.177896976
401.177896976
400.349017024
401.161723709
400.773565292
402.047210097
400.773565292
400.332843757
400.349017024
400.741218758
400.737175441
401.618618512
401.194070244
400.312627172
400.773565292
401.181940293
401.181940293
400.721002173
401.161723709
401.602445245
400.757392025
400.737175441
401.602445245
402.435368514
400.737175441
401.177896976
401.165767026
402.03103683
401.586271977
401.161723709
402.026993513
401.994646978
401.602445245
401.586271977
401.586271977
401.145550442
401.194070244
401.586271977
401.181940293
401.177896976

Average distance is : 401.153 cm
Average deviation is : 0.581 cm
Block: 9
======================================
401.161723709
401.181940293
400.741218758
401.165767026
400.757392025
401.161723709
402.026993513
400.721002173
400.741218758
401.161723709
402.431325197
400.741218758
401.194070244
401.448799205
401.606488562
401.618618512
400.757392025
400.757392025
400.753348708
400.773565292
400.737175441
400.332843757
400.773565292
400.753348708
400.741218758
400.737175441
401.161723709
401.198113561
401.181940293
402.487931633
401.161723709
401.181940293
402.047210097
400.753348708
400.769521976
400.741218758
401.194070244
401.177896976
400.753348708
401.181940293
402.03103683
402.04316678
402.026993513
401.194070244
400.721002173
400.737175441
400.316670489
402.467715049
401.602445245
400.741218758
401.181940293
400.280280638
401.177896976
400.757392025
400.316670489
401.161723709
402.04316678
400.312627172
400.737175441
402.010820246
401.181940293
402.451541781
400.316670489
400.737175441
401.161723709
401.177896976
401.181940293
401.161723709
400.753348708
400.753348708
400.741218758
400.757392025
400.753348708
400.741218758
401.177896976
402.047210097
400.757392025
400.773565292
400.773565292
400.773565292
400.78973856
401.194070244
400.332843757
400.753348708
402.026993513
400.349017024
400.316670489
400.753348708
400.312627172
400.332843757
400.741218758
401.194070244
400.32880044
400.316670489
400.753348708
400.757392025
400.316670489
401.177896976
401.194070244
400.32880044

Average distance is : 401.023 cm
Average deviation is : 0.548 cm
Block: 10
======================================
400.757392025
400.757392025
400.332843757
400.721002173
400.349017024
400.769521976
400.32880044
400.312627172
400.316670489
402.04316678
402.026993513
400.332843757
401.622661829
400.312627172
400.737175441
400.773565292
401.194070244
400.312627172
400.296453905
400.737175441
401.194070244
400.737175441
400.737175441
400.332843757
400.32880044
400.316670489
400.769521976
400.316670489
400.757392025
400.349017024
401.638835096
400.773565292
400.757392025
401.177896976
400.369233608
400.78973856
400.332843757
400.349017024
400.757392025
401.214286828
400.757392025
401.210243511
401.622661829
401.638835096
401.214286828
401.198113561
401.194070244
401.230460095
402.5041049
401.230460095
402.500061584
400.78973856
401.230460095
400.769521976
400.78973856
400.757392025
402.500061584
401.194070244
401.606488562
400.822085094
400.769521976
401.198113561
400.809955144
400.78973856
402.063383365
400.146851182
400.741218758
402.063383365
400.757392025
402.063383365
400.78973856
400.757392025
400.344973707
401.194070244
402.059340048
400.349017024
401.194070244
400.349017024
400.349017024
401.230460095
400.753348708
401.618618512
400.349017024
400.753348708
400.332843757
401.230460095
401.198113561
400.773565292
402.026993513
401.194070244
400.757392025
400.32880044
402.483888316
401.618618512
400.757392025
400.773565292
401.194070244
400.757392025
400.757392025
401.210243511

Average distance is : 400.967 cm
Average deviation is : 0.583 cm