
Block: 1
======================================
400.312627172
400.300497222
400.296453905
399.888078904
400.57139945
400.316670489
401.177896976
400.300497222
400.312627172
400.316670489

Average distance is : 400.379 cm
Average deviation is : 0.325 cm
Block: 2
======================================
400.284323955
400.721002173
401.161723709
400.721002173
401.181940293
401.566055393
400.737175441
400.312627172
400.737175441
400.280280638

Average distance is : 400.770 cm
Average deviation is : 0.428 cm
Block: 3
======================================
401.57009871
400.721002173
402.026993513
400.704828906
401.57009871
400.284323955
402.435368514
400.280280638
400.704828906
400.704828906

Average distance is : 401.100 cm
Average deviation is : 0.748 cm
Block: 4
======================================
401.161723709
400.721002173
401.57009871
400.72504549
401.57009871
401.165767026
400.721002173
400.312627172
400.737175441
401.161723709

Average distance is : 400.985 cm
Average deviation is : 0.408 cm
Block: 5
======================================
400.280280638
400.72504549
400.72504549
401.161723709
401.161723709
400.704828906
400.704828906
400.704828906
401.145550442
401.129377174

Average distance is : 400.844 cm
Average deviation is : 0.294 cm
Block: 6
======================================
401.129377174
400.704828906
400.721002173
401.113203907
401.145550442
401.57009871
400.688655639
401.994646978
400.737175441
402.419195247

Average distance is : 401.222 cm
Average deviation is : 0.598 cm
Block: 7
======================================
400.741218758
401.549882126
401.145550442
401.113203907
402.827570248
401.129377174
401.092987323
401.10916059
403.264248466
401.113203907

Average distance is : 401.509 cm
Average deviation is : 0.839 cm
Block: 8
======================================
401.978473711
401.553925443
400.688655639
401.553925443
401.161723709
401.129377174
401.978473711
401.129377174
401.129377174
401.994646978

Average distance is : 401.430 cm
Average deviation is : 0.453 cm
Block: 9
======================================
400.668439054
401.990603662
401.586271977
401.586271977
401.129377174
402.398978662
400.704828906
401.549882126
401.129377174
401.129377174

Average distance is : 401.387 cm
Average deviation is : 0.545 cm
Block: 10
======================================
402.435368514
400.280280638
400.26410737
400.284323955
400.704828906
402.010820246
401.145550442
400.721002173
402.431325197
400.72504549

Average distance is : 401.100 cm
Average deviation is : 0.873 cm