
Block: 1
======================================
401.092987323
401.57009871
401.09703064
401.533708858
400.704828906
401.125333858
401.129377174
400.721002173
400.72504549
401.974430394
400.721002173
400.704828906
400.704828906
401.113203907
400.704828906
402.431325197
401.113203907
400.688655639
400.688655639
401.978473711
401.962300444
400.704828906
402.827570248
401.145550442
401.586271977
403.672623467
400.688655639
401.145550442
400.704828906
401.129377174
400.704828906
401.57009871
400.688655639
400.672482371
401.537752175
402.41515193
401.129377174
400.688655639
401.57009871
403.248075199
401.10916059
401.113203907
402.843743515
400.704828906
401.129377174
400.704828906
400.704828906
401.129377174
400.704828906
400.688655639
400.684612322
400.721002173
401.553925443
400.704828906
401.161723709
401.129377174
400.708872223
401.145550442
401.553925443
400.26410737
401.994646978
400.721002173
400.688655639
400.704828906
400.280280638
400.26410737
400.721002173
400.704828906
400.247934103
400.688655639
401.145550442
402.823526931
400.704828906
400.688655639
400.704828906

Average distance is : 401.145 cm
Average deviation is : 0.703 cm
Block: 2
======================================
401.537752175
402.026993513
401.553925443
401.549882126
400.300497222
402.435368514
401.161723709
400.737175441
400.312627172
400.704828906
400.312627172
400.688655639
401.145550442
400.26410737
400.280280638
400.280280638
401.994646978
400.296453905
401.181940293
400.737175441
400.737175441
400.300497222
400.316670489
401.165767026
400.332843757
400.737175441
401.145550442
400.704828906
402.026993513
400.704828906
402.010820246
401.161723709
400.316670489
401.161723709
400.312627172
400.753348708
400.737175441
400.721002173
401.165767026
400.737175441
402.026993513
402.435368514
401.145550442
400.704828906
401.165767026
401.994646978
402.855873466
400.72504549
401.125333858
400.721002173
401.161723709
400.721002173
400.704828906
400.688655639
401.113203907
401.57009871
402.010820246
401.978473711
401.145550442
400.704828906
402.026993513
400.721002173
401.145550442
402.843743515
401.129377174
401.113203907
402.435368514
401.113203907
402.823526931
401.974430394
401.57009871
401.974430394
401.553925443
401.553925443
401.553925443

Average distance is : 401.186 cm
Average deviation is : 0.689 cm
Block: 3
======================================
401.10916059
401.57009871
401.978473711
402.419195247
401.549882126
401.974430394
401.517535591
401.092987323
401.958257127
401.076814055
401.978473711
401.092987323
401.09703064
401.080857372
402.386848712
401.521578908
403.692840052
401.521578908
403.688796735
401.549882126
401.553925443
402.419195247
401.129377174
401.57009871
402.026993513
401.57009871
401.129377174
402.431325197
401.145550442
402.010820246
402.010820246
400.704828906
401.149593759
401.57009871
402.03103683
400.704828906
401.161723709
401.165767026
400.741218758
401.145550442
401.602445245
401.161723709
402.03103683
403.300638318
401.606488562
401.149593759
401.586271977
401.57009871
402.026993513
401.566055393
401.586271977
401.129377174
401.586271977
403.725186586
401.57009871
402.026993513
402.010820246
401.145550442
402.026993513
401.145550442
401.145550442
402.026993513
401.57009871
401.161723709
401.618618512
401.602445245
402.87609005
402.892263317
401.63479178
402.483888316
400.737175441
401.606488562
400.757392025
401.177896976
400.757392025

Average distance is : 401.664 cm
Average deviation is : 0.678 cm
Block: 4
======================================
400.78973856
400.809955144
400.773565292
400.773565292
402.063383365
402.079556632
401.655008364
400.773565292
400.757392025
400.332843757
400.78973856
401.214286828
400.773565292
401.214286828
400.773565292
400.805911827
401.214286828
400.769521976
401.230460095
400.78973856
400.78973856
401.214286828
402.059340048
401.198113561
401.198113561
402.487931633
401.230460095
401.230460095
401.671181631
401.246633363
400.785695243
402.059340048
400.805911827
400.805911827
400.805911827
401.230460095
401.230460095
400.805911827
400.385406876
400.397536826
400.381363559
401.246633363
400.822085094
400.838258362
400.349017024
400.385406876
401.25067668
400.842301679
400.401580143
401.266849947
400.805911827
400.381363559
400.365190291
400.381363559
400.369233608
401.691398215
400.365190291
402.111903167
402.500061584
401.214286828
400.78973856
400.385406876
402.111903167
401.246633363
402.520278168
402.095729899
401.230460095
400.365190291
400.365190291
401.655008364
401.230460095
401.675224948
401.671181631
402.516234851
400.349017024

Average distance is : 401.096 cm
Average deviation is : 0.610 cm
Block: 5
======================================
400.32880044
400.78973856
400.349017024
400.822085094
400.773565292
400.332843757
402.487931633
400.78973856
401.246633363
400.773565292
400.332843757
400.385406876
400.773565292
401.671181631
400.773565292
400.365190291
400.78973856
400.332843757
400.78973856
400.773565292
401.655008364
400.78973856
400.773565292
400.365190291
400.349017024
399.924468756
400.805911827
401.638835096
400.78973856
400.78973856
399.924468756
399.924468756
399.908295488
400.32880044
399.924468756
400.773565292
399.924468756
401.655008364
400.78973856
400.332843757
400.773565292
402.487931633
400.773565292
400.78973856
399.908295488
399.892122221
400.332843757
400.773565292
399.908295488
399.875948954
401.618618512
401.181940293
400.332843757
399.908295488
399.924468756
399.875948954
400.32880044
400.316670489
400.773565292
400.312627172
400.312627172
399.892122221
400.769521976
400.773565292
400.332843757
399.875948954
400.316670489
399.888078904
400.753348708
399.871905637
400.32880044
399.908295488
400.757392025
400.769521976
401.177896976

Average distance is : 400.572 cm
Average deviation is : 0.577 cm
Block: 6
======================================
399.892122221
401.177896976
400.316670489
400.741218758
400.753348708
400.741218758
400.300497222
400.296453905
400.296453905
400.737175441
400.741218758
399.871905637
400.312627172
400.280280638
400.296453905
401.586271977
400.737175441
400.280280638
399.892122221
399.855732369
399.871905637
400.737175441
400.721002173
400.737175441
400.300497222
400.704828906
402.03103683
401.57009871
400.32880044
400.280280638
399.871905637
400.296453905
400.757392025
401.177896976
402.451541781
400.721002173
400.296453905
400.312627172
400.737175441
401.602445245
400.737175441
400.316670489
400.316670489
401.618618512
400.741218758
402.026993513
400.300497222
401.586271977
400.280280638
400.741218758
400.296453905
400.296453905
401.177896976
401.149593759
401.161723709
400.280280638
401.618618512
400.312627172
400.332843757
400.26410737
400.300497222
400.741218758
401.586271977
401.177896976
401.177896976
400.300497222
400.300497222
400.721002173
400.280280638
400.741218758
400.741218758
400.753348708
400.737175441
400.296453905
400.312627172

Average distance is : 400.671 cm
Average deviation is : 0.553 cm
Block: 7
======================================
401.149593759
400.773565292
400.773565292
400.753348708
400.737175441
400.72504549
400.741218758
403.316811585
401.181940293
400.773565292
400.741218758
402.467715049
402.063383365
401.214286828
400.78973856
401.214286828
401.214286828
400.753348708
402.063383365
400.78973856
400.741218758
400.349017024
400.773565292
400.773565292
402.063383365
401.198113561
400.757392025
402.059340048
400.32880044
400.300497222
400.773565292
400.78973856
400.773565292
401.214286828
400.773565292
400.78973856
400.312627172
400.332843757
400.773565292
400.773565292
401.198113561
401.638835096
402.04316678
400.349017024
401.198113561
401.198113561
402.079556632
402.079556632
400.78973856
402.063383365
401.214286828
401.214286828
401.198113561
401.214286828
402.520278168
401.230460095
400.773565292
400.78973856
401.230460095
400.78973856
401.210243511
400.805911827
400.822085094
400.78973856
400.773565292
402.483888316
400.78973856
400.805911827
401.214286828
401.230460095
400.344973707
400.349017024
400.349017024
400.773565292
400.773565292

Average distance is : 401.083 cm
Average deviation is : 0.610 cm
Block: 8
======================================
401.214286828
402.908436584
400.769521976
401.177896976
401.214286828
400.769521976
400.773565292
400.753348708
401.214286828
401.214286828
401.638835096
400.757392025
402.471758366
400.757392025
400.773565292
400.773565292
401.194070244
401.622661829
401.194070244
402.079556632
400.773565292
403.34915812
400.773565292
401.194070244
400.78973856
400.757392025
401.230460095
402.928653169
400.78973856
402.520278168
401.194070244
402.5041049
401.230460095
400.773565292
400.757392025
400.78973856
401.638835096
401.230460095
400.78973856
400.32880044
400.826128411
400.365190291
400.349017024
402.483888316
400.349017024
400.344973707
400.773565292
402.095729899
402.04316678
400.349017024
402.063383365
400.280280638
400.757392025
401.198113561
401.638835096
400.773565292
400.312627172
400.753348708
402.047210097
402.079556632
400.349017024
400.78973856
400.349017024
400.332843757
400.769521976
400.769521976
400.332843757
401.198113561
400.773565292
400.773565292
401.622661829
400.332843757
401.165767026
401.198113561
400.332843757

Average distance is : 401.128 cm
Average deviation is : 0.714 cm
Block: 9
======================================
402.063383365
400.312627172
400.312627172
401.181940293
400.757392025
400.316670489
402.467715049
400.332843757
402.010820246
400.300497222
400.753348708
400.296453905
400.721002173
400.296453905
400.316670489
401.57009871
400.737175441
400.332843757
400.280280638
400.741218758
400.280280638
400.312627172
400.737175441
400.753348708
401.181940293
400.741218758
400.296453905
401.177896976
401.602445245
402.010820246
400.721002173
400.316670489
400.280280638
400.332843757
400.332843757
400.721002173
402.026993513
400.332843757
402.010820246
400.753348708
400.721002173
400.769521976
400.78973856
400.773565292
400.773565292
400.773565292
401.214286828
400.296453905
400.737175441
401.177896976
400.32880044
401.198113561
402.063383365
400.753348708
400.332843757
400.349017024
400.32880044
400.32880044
400.32880044
401.181940293
400.332843757
400.769521976
400.757392025
401.606488562
400.332843757
400.349017024
402.079556632
400.757392025
402.063383365
402.487931633
400.332843757
400.757392025
400.32880044
400.332843757
402.487931633

Average distance is : 400.854 cm
Average deviation is : 0.645 cm
Block: 10
======================================
400.332843757
400.280280638
400.704828906
401.165767026
401.161723709
400.757392025
400.773565292
400.757392025
400.349017024
401.622661829
400.300497222
401.165767026
400.753348708
400.312627172
400.737175441
401.602445245
401.194070244
400.280280638
400.753348708
400.296453905
400.32880044
401.161723709
400.280280638
400.349017024
400.757392025
400.332843757
399.892122221
400.805911827
399.875948954
400.296453905
400.312627172
400.332843757
400.773565292
400.349017024
400.312627172
400.753348708
399.888078904
400.332843757
400.32880044
400.753348708
400.332843757
402.467715049
400.332843757
400.349017024
400.757392025
400.773565292
401.198113561
400.773565292
402.487931633
400.753348708
400.349017024
400.316670489
400.312627172
400.32880044
400.312627172
400.316670489
399.908295488
400.769521976
400.332843757
400.769521976
400.737175441
399.871905637
399.888078904
400.332843757
400.349017024
401.638835096
399.928512073
400.332843757
400.773565292
399.908295488
399.888078904
400.757392025
400.78973856
399.928512073
400.332843757

Average distance is : 400.572 cm
Average deviation is : 0.521 cm