
Block: 1
======================================
49.3167275667
49.3537675858
49.4196165085
49.9546390057
49.3331897974
49.3167275667
49.3866920471
49.3496520281
49.3331897974
49.3167275667
49.3496520281
49.3331897974
49.3537675858
49.3866920471
49.3537675858
49.3331897974
49.3537675858
49.3373053551
49.3167275667
49.300265336
49.3866920471
49.3702298164
49.3866920471
49.3331897974
49.3702298164
49.3702298164
49.3167275667
49.3661142588
49.3331897974
49.4031542778
49.300265336
49.3167275667
49.3167275667
49.3208431244
49.3331897974
49.3167275667
49.3331897974
49.4031542778
49.3331897974
49.3331897974
49.3866920471
49.3496520281
49.3167275667
49.3537675858
49.3373053551
49.3167275667
49.3866920471
49.3496520281
49.3537675858
49.3208431244
49.3331897974
49.3331897974
49.3702298164
49.3167275667
49.3866920471
49.3496520281
49.3702298164
49.3167275667
49.3866920471
49.3331897974
49.3496520281
49.3537675858
49.3167275667
49.3702298164
49.4031542778
49.4196165085
49.3167275667
49.3537675858
49.3537675858
49.3167275667
49.3661142588
49.3167275667
49.3702298164
49.3702298164
49.3331897974
49.3167275667
49.3167275667
49.3331897974
49.3373053551
49.3167275667
49.3167275667
49.3537675858
49.3866920471
49.3866920471
49.3866920471
49.3373053551
49.4031542778
49.3661142588
49.4031542778
49.3866920471
49.3866920471
49.3702298164
49.3866920471
49.3661142588
49.3702298164
49.3866920471
49.3702298164
49.3331897974
49.3167275667
49.3167275667

Block: 2
======================================
49.300265336
49.3702298164
49.3537675858
49.3661142588
49.3702298164
49.3167275667
49.3825764894
49.3373053551
49.3208431244
49.3373053551
49.3702298164
49.3496520281
49.3866920471
49.3208431244
49.3866920471
49.3167275667
49.3167275667
49.4031542778
49.3167275667
49.3866920471
49.3331897974
49.3331897974
49.300265336
49.3331897974
49.3331897974
49.3331897974
49.3167275667
49.3167275667
49.3331897974
49.3825764894
49.3661142588
49.3866920471
49.3537675858
49.3167275667
49.3373053551
49.3167275667
49.3866920471
49.4031542778
49.3537675858
49.3702298164
49.3373053551
49.3331897974
49.3702298164
49.3866920471
49.3167275667
49.3167275667
49.3496520281
49.3208431244
49.3167275667
49.3167275667
49.3661142588
49.300265336
49.300265336
49.3167275667
49.3496520281
49.3167275667
49.3331897974
49.3167275667
49.3167275667
49.3866920471
49.3537675858
49.3167275667
49.3866920471
49.4072698355
49.3496520281
49.3496520281
49.3167275667
49.3866920471
49.3331897974
49.3866920471
49.3167275667
49.3167275667
49.3167275667
49.3866920471
49.3537675858
49.3373053551
49.3167275667
49.3702298164
49.3331897974
49.3866920471
49.3373053551
49.3331897974
49.3167275667
49.3167275667
49.3373053551
49.3866920471
49.3661142588
49.3208431244
49.5060432196
49.3496520281
49.3866920471
49.3825764894
49.3167275667
49.300265336
49.3331897974
49.3702298164
49.3331897974
49.3373053551
49.3661142588
49.3167275667

Block: 3
======================================
49.3496520281
49.3661142588
49.3496520281
49.3866920471
49.3373053551
49.3331897974
49.3866920471
49.3661142588
49.3661142588
49.3702298164
49.3373053551
49.3702298164
49.3702298164
49.3702298164
49.3167275667
49.3537675858
49.300265336
49.3331897974
49.4031542778
49.3167275667
49.300265336
49.3167275667
49.3537675858
49.3331897974
49.3496520281
49.3331897974
49.3167275667
49.3331897974
49.3866920471
49.3167275667
49.3331897974
49.3331897974
49.3167275667
49.3208431244
49.3167275667
49.3537675858
49.3167275667
49.3167275667
49.3866920471
49.3661142588
49.3866920471
49.3866920471
49.3167275667
49.3702298164
49.3167275667
49.3167275667
49.3537675858
49.3331897974
49.3866920471
49.3537675858
49.3331897974
49.3373053551
49.3373053551
49.3167275667
49.3167275667
49.3866920471
49.3702298164
49.3331897974
49.3331897974
49.3537675858
49.3331897974
49.3373053551
49.3496520281
49.3167275667
49.3866920471
49.3331897974
49.4031542778
49.3373053551
49.3167275667
49.3331897974
49.3167275667
49.3167275667
49.3702298164
49.3331897974
49.3866920471
49.3866920471
49.3208431244
49.3208431244
49.3331897974
49.3331897974
49.3537675858
49.3167275667
49.3167275667
49.3167275667
49.3702298164
49.3331897974
49.3167275667
49.3331897974
49.3331897974
49.3537675858
49.300265336
49.3331897974
49.3866920471
49.3208431244
49.3373053551
49.3331897974
49.3866920471
49.3373053551
49.3373053551
49.300265336

Block: 4
======================================
49.300265336
49.3496520281
49.300265336
49.3496520281
49.3702298164
49.3661142588
49.3866920471
49.3496520281
49.3702298164
49.4031542778
49.4031542778
49.3866920471
49.3331897974
49.3661142588
49.3702298164
49.3167275667
49.300265336
49.3331897974
49.3702298164
49.3331897974
49.4031542778
49.3866920471
49.4031542778
49.3702298164
49.4031542778
49.3331897974
49.3331897974
49.3661142588
49.3866920471
49.3331897974
49.3167275667
49.3866920471
49.3167275667
49.3702298164
49.938176775
49.3373053551
49.3537675858
49.3537675858
49.3866920471
49.3866920471
49.3866920471
49.3866920471
49.3866920471
49.3825764894
49.3866920471
49.3496520281
49.3167275667
49.3167275667
49.3702298164
49.3537675858
49.3496520281
49.3373053551
49.300265336
49.3496520281
49.3866920471
49.3167275667
49.3167275667
49.4031542778
49.3866920471
49.3537675858
49.4031542778
49.3537675858
49.3537675858
49.3331897974
49.3702298164
49.3167275667
49.3702298164
49.3167275667
49.3167275667
49.3866920471
49.3331897974
49.3866920471
49.3866920471
49.3373053551
49.300265336
49.3331897974
49.3496520281
49.300265336
49.3537675858
49.3496520281
49.3331897974
49.3331897974
49.3167275667
49.300265336
49.3373053551
49.3702298164
49.3373053551
49.3496520281
49.3331897974
49.3167275667
49.3537675858
49.3167275667
49.3167275667
49.3167275667
49.3331897974
49.3167275667
49.3208431244
49.3331897974
49.3167275667
49.3331897974

Block: 5
======================================
49.300265336
49.3537675858
49.3167275667
49.3702298164
49.3331897974
49.3331897974
49.3167275667
49.300265336
49.300265336
49.3496520281
49.3167275667
49.3331897974
49.3373053551
49.3167275667
49.3208431244
49.3167275667
49.3331897974
49.3167275667
49.3167275667
49.3331897974
49.2961497784
49.4031542778
49.3331897974
49.3373053551
49.3496520281
49.3702298164
49.2961497784
49.3331897974
49.3496520281
49.3373053551
49.3167275667
49.3537675858
49.3537675858
49.3537675858
49.3167275667
49.3496520281
49.3167275667
49.3825764894
49.3496520281
49.300265336
49.3331897974
49.3331897974
49.3496520281
49.3331897974
49.300265336
49.3373053551
49.300265336
49.3167275667
49.3331897974
49.3331897974
49.3167275667
49.3167275667
49.3167275667
49.3496520281
49.3373053551
49.3331897974
49.3167275667
49.3167275667
49.3331897974
49.3496520281
49.3661142588
49.3866920471
49.3661142588
49.3661142588
49.3331897974
49.3702298164
49.3331897974
49.3373053551
49.3167275667
49.3331897974
49.3167275667
49.3496520281
49.3331897974
49.3373053551
49.3496520281
49.3496520281
49.3167275667
49.3331897974
49.3208431244
49.3331897974
49.3208431244
49.3167275667
49.3537675858
49.300265336
49.3496520281
49.3373053551
49.3167275667
49.4031542778
49.3331897974
49.3373053551
49.3167275667
49.3496520281
49.3496520281
49.3496520281
49.3331897974
49.3702298164
49.3661142588
49.3167275667
49.3866920471
49.3331897974

Block: 6
======================================
49.2838031054
49.3167275667
49.3167275667
49.3208431244
49.3167275667
49.3373053551
49.300265336
49.3373053551
49.3537675858
49.3537675858
49.3167275667
49.3496520281
49.3373053551
49.3496520281
49.300265336
49.3866920471
49.3331897974
49.3167275667
49.3373053551
49.3496520281
49.3331897974
49.3537675858
49.3331897974
49.3167275667
49.3331897974
49.3373053551
49.3496520281
49.3537675858
49.3331897974
49.3373053551
49.3167275667
49.3331897974
49.3331897974
49.3331897974
49.3208431244
49.3208431244
49.3496520281
49.3167275667
49.3167275667
49.300265336
49.3537675858
49.3331897974
49.3373053551
49.300265336
49.3167275667
49.3373053551
49.3331897974
49.3373053551
49.3702298164
49.3331897974
49.300265336
49.3373053551
49.300265336
49.3373053551
49.3537675858
49.3537675858
49.3537675858
49.3331897974
49.300265336
49.3167275667
49.3373053551
49.3331897974
49.3167275667
49.3331897974
49.3496520281
49.3331897974
49.3373053551
49.300265336
49.3373053551
48.5553493977
49.3825764894
49.300265336
49.3702298164
49.3167275667
49.3167275667
49.3331897974
49.3331897974
49.3866920471
49.3866920471
49.3208431244
49.3866920471
49.3331897974
49.3167275667
49.3331897974
49.4031542778
49.3702298164
49.3167275667
49.3702298164
49.3866920471
49.3496520281
49.2961497784
49.3331897974
49.3167275667
49.3167275667
49.3866920471
49.3167275667
49.3331897974
49.3331897974
49.3167275667
49.3537675858

Block: 7
======================================
49.2961497784
49.300265336
49.3331897974
49.3167275667
49.3537675858
49.3373053551
49.3866920471
49.3331897974
49.3866920471
49.3331897974
49.3167275667
49.3331897974
49.3208431244
49.3702298164
49.300265336
49.3702298164
49.3702298164
49.2961497784
49.3373053551
49.3331897974
49.3866920471
49.3866920471
49.300265336
49.3373053551
49.3167275667
49.3167275667
49.3373053551
49.3167275667
49.3167275667
49.3331897974
49.3167275667
49.3537675858
49.300265336
49.3167275667
49.3331897974
49.3167275667
49.3825764894
49.3537675858
49.3866920471
49.3208431244
49.3167275667
49.3331897974
49.3331897974
49.3866920471
49.3167275667
49.3373053551
49.3661142588
49.3331897974
49.3167275667
49.3373053551
49.3331897974
49.3167275667
49.3866920471
49.300265336
49.300265336
49.3866920471
49.2838031054
49.3373053551
49.3167275667
49.3208431244
49.300265336
49.3331897974
49.3167275667
49.3208431244
49.3702298164
49.3167275667
49.3167275667
49.3167275667
49.3866920471
49.2838031054
49.3866920471
49.3208431244
49.3167275667
49.3373053551
49.3167275667
49.3496520281
49.3208431244
49.3496520281
49.3661142588
49.3702298164
49.2961497784
49.3373053551
49.3167275667
49.300265336
49.300265336
49.3208431244
49.300265336
49.300265336
49.3537675858
49.3496520281
49.300265336
49.300265336
49.3167275667
49.3537675858
49.3331897974
49.3167275667
49.3373053551
49.3167275667
49.3167275667
49.3331897974

Block: 8
======================================
49.3496520281
49.3496520281
49.3373053551
49.3167275667
49.3331897974
49.3331897974
49.3331897974
49.300265336
50.2468436003
49.3167275667
49.3537675858
49.3866920471
49.3373053551
49.3373053551
49.3331897974
49.3167275667
49.3866920471
49.3702298164
49.3331897974
49.3331897974
49.300265336
49.3331897974
49.3373053551
49.3537675858
49.3331897974
49.3167275667
49.3702298164
49.3331897974
49.3167275667
49.3167275667
49.3496520281
49.3331897974
49.3702298164
49.3167275667
49.3208431244
49.3167275667
49.3331897974
49.3702298164
49.4031542778
49.3167275667
49.3331897974
49.3167275667
49.3496520281
49.3331897974
49.3331897974
49.3866920471
49.3373053551
49.8023633718
49.3167275667
49.3866920471
49.3496520281
49.3331897974
49.3373053551
49.3167275667
49.3208431244
49.3331897974
49.3167275667
49.3167275667
49.3702298164
49.3167275667
49.300265336
49.3331897974
49.3373053551
49.3167275667
49.3331897974
49.3373053551
49.3167275667
49.3167275667
49.3373053551
49.3331897974
49.3537675858
49.3496520281
49.3373053551
49.3167275667
49.3331897974
49.3331897974
49.3331897974
49.3331897974
49.3167275667
48.938096261
49.3167275667
49.3331897974
49.3167275667
49.3866920471
49.3702298164
49.3331897974
49.3537675858
49.3373053551
49.3167275667
49.3167275667
49.3373053551
49.300265336
49.3331897974
49.3702298164
49.4031542778
49.300265336
49.3167275667
49.3167275667
49.3537675858
49.3208431244

Block: 9
======================================
49.3167275667
49.3537675858
49.3331897974
49.3496520281
49.3167275667
49.3537675858
49.300265336
49.300265336
49.3537675858
49.3661142588
49.3661142588
49.3167275667
49.3866920471
49.3373053551
49.3331897974
49.3167275667
49.3208431244
49.3373053551
49.3167275667
49.3167275667
49.3373053551
49.3331897974
49.3537675858
49.3373053551
49.3702298164
49.3866920471
49.3331897974
49.3331897974
49.3331897974
49.3373053551
49.3373053551
49.3496520281
49.3167275667
49.3167275667
49.3661142588
49.3866920471
49.3825764894
49.3373053551
49.3331897974
49.3537675858
49.3331897974
49.4031542778
49.3373053551
49.4072698355
49.3537675858
49.3167275667
49.3702298164
49.3866920471
49.3167275667
49.3373053551
49.3866920471
49.4072698355
49.3167275667
49.3702298164
49.3537675858
49.3331897974
49.4031542778
49.3866920471
49.4072698355
49.3866920471
49.3866920471
49.3373053551
49.3496520281
49.3496520281
49.3537675858
49.4031542778
49.3167275667
49.3866920471
49.3866920471
49.3537675858
49.3373053551
49.3373053551
49.3537675858
49.3331897974
49.3167275667
49.3537675858
49.3331897974
49.3496520281
49.3866920471
49.3537675858
49.3496520281
49.3866920471
49.3661142588
49.3496520281
49.3537675858
49.3331897974
49.3331897974
49.3866920471
49.9546390057
49.3825764894
49.3331897974
49.3702298164
49.3373053551
49.3167275667
49.3208431244
49.3496520281
49.3331897974
49.3167275667
49.4072698355
49.3661142588

Block: 10
======================================
49.3167275667
49.3537675858
49.3331897974
49.3702298164
49.3702298164
49.300265336
49.3373053551
49.3331897974
49.3331897974
49.3373053551
49.3167275667
49.3537675858
49.3331897974
49.3866920471
49.3167275667
49.3167275667
49.3331897974
49.3331897974
49.3331897974
49.300265336
49.3167275667
49.3496520281
49.3167275667
49.3373053551
49.3208431244
49.3866920471
49.3331897974
49.3167275667
49.300265336
49.3661142588
49.3702298164
49.3373053551
49.3167275667
49.3167275667
49.3537675858
49.3167275667
49.300265336
49.3331897974
49.3331897974
49.3331897974
49.3167275667
49.3331897974
49.3331897974
49.3373053551
49.3331897974
49.3167275667
49.3373053551
49.300265336
49.3702298164
49.3373053551
49.3331897974
49.3373053551
49.3702298164
49.3331897974
49.3331897974
49.3496520281
49.3373053551
49.3537675858
49.3167275667
49.3537675858
49.3373053551
49.3331897974
49.3496520281
49.3331897974
49.3331897974
49.3373053551
49.3331897974
49.3373053551
49.3373053551
49.3331897974
49.3496520281
49.3702298164
49.3167275667
49.3373053551
49.3331897974
49.3373053551
49.3167275667
49.3496520281
49.3373053551
49.300265336
49.2838031054
49.3167275667
49.3331897974
49.3167275667
49.3331897974
49.3331897974
49.300265336
49.3167275667
49.3167275667
49.3331897974
49.3331897974
49.3331897974
49.3331897974
49.3331897974
49.3661142588
49.3331897974
49.3496520281
49.3167275667
49.3496520281
49.3167275667
