
Block: 1
======================================
49.3331897974
49.3167275667
49.3496520281
49.3702298164
49.3496520281
49.3208431244
49.3496520281
49.3702298164
49.3167275667
49.3373053551
49.3331897974
49.3702298164
49.3702298164
49.3702298164
49.3702298164
49.3167275667
49.3537675858
49.4196165085
49.3661142588
49.3702298164
49.3373053551
49.3866920471
49.3702298164
49.3702298164
49.3702298164
49.4031542778
49.4031542778
49.3661142588
49.3866920471
49.4031542778
49.3661142588
49.4031542778
49.3167275667
49.3866920471
49.3866920471
49.3702298164
49.3866920471
49.3702298164
49.3866920471
49.3866920471
49.4031542778
49.3702298164
49.3537675858
49.3866920471
49.3866920471
49.3167275667
49.4031542778
49.3702298164
49.3866920471
49.3866920471

Average distance is : 49.368 cm
Average deviation is : 0.027 cm
Block: 2
======================================
49.300265336
49.3167275667
49.3496520281
49.3331897974
49.3208431244
49.3496520281
49.3331897974
49.2838031054
49.3167275667
49.3866920471
49.300265336
49.3702298164
49.3702298164
49.3866920471
49.3167275667
49.3537675858
49.3331897974
49.3537675858
49.3208431244
49.3208431244
49.3866920471
49.3167275667
49.3167275667
49.300265336
49.300265336
49.3373053551
49.3373053551
49.3373053551
49.3331897974
49.3537675858
49.3167275667
49.3167275667
49.3373053551
49.3331897974
49.3167275667
49.300265336
49.3331897974
49.3496520281
49.3331897974
49.3167275667
49.3208431244
49.3167275667
49.3167275667
49.3167275667
49.3167275667
49.2961497784
49.3866920471
49.3331897974
49.3373053551
49.3331897974

Average distance is : 49.331 cm
Average deviation is : 0.025 cm
Block: 3
======================================
49.3496520281
49.3331897974
49.3167275667
49.3208431244
49.3167275667
49.3373053551
49.4031542778
47.4359177113
49.3167275667
49.3208431244
49.3496520281
49.3661142588
49.3866920471
49.3331897974
49.4031542778
49.3496520281
49.3702298164
49.3866920471
49.3825764894
49.3866920471
49.3661142588
49.3866920471
49.3167275667
49.4196165085
49.3866920471
49.3661142588
49.3702298164
49.3866920471
49.3331897974
49.3496520281
49.4031542778
49.3537675858
49.3496520281
49.300265336
49.3331897974
49.3167275667
49.3537675858
49.3331897974
49.3331897974
49.4031542778
49.3331897974
49.3331897974
49.3331897974
49.3661142588
49.3331897974
49.4031542778
49.3167275667
49.3702298164
49.3702298164
49.3167275667

Average distance is : 49.316 cm
Average deviation is : 0.273 cm
Block: 4
======================================
49.3167275667
49.3702298164
49.3373053551
49.300265336
49.3496520281
48.6458916664
49.3373053551
49.3167275667
49.3167275667
49.3167275667
49.4031542778
49.3661142588
49.3331897974
49.4031542778
49.3167275667
49.3702298164
49.3866920471
49.3866920471
49.3866920471
49.4031542778
49.3702298164
49.3661142588
49.3866920471
49.3866920471
49.3167275667
49.3866920471
49.3702298164
49.3866920471
49.3866920471
49.3373053551
49.3167275667
49.3167275667
49.3702298164
49.3331897974
49.3496520281
49.3167275667
49.2961497784
49.3331897974
49.3331897974
49.3331897974
49.3702298164
49.3167275667
49.3167275667
49.3537675858
49.3702298164
49.3496520281
49.3167275667
49.3331897974
49.3373053551
49.3331897974

Average distance is : 49.335 cm
Average deviation is : 0.104 cm
Block: 5
======================================
49.4196165085
49.3866920471
49.4031542778
49.3373053551
49.3702298164
49.2838031054
49.3702298164
49.3373053551
49.3866920471
49.3702298164
49.3661142588
49.3496520281
49.3702298164
49.3702298164
49.3373053551
49.3866920471
49.3208431244
49.3331897974
49.3702298164
49.4031542778
49.3866920471
49.3866920471
49.3702298164
49.4031542778
49.3825764894
49.3496520281
49.3866920471
49.7488611221
49.4031542778
49.4072698355
49.3866920471
49.300265336
49.3702298164
49.3866920471
49.3702298164
49.3331897974
49.3661142588
49.3866920471
49.3702298164
49.4031542778
49.3866920471
49.3373053551
49.3496520281
49.3702298164
49.3208431244
49.3331897974
49.3702298164
49.3866920471
49.3866920471
49.3866920471

Average distance is : 49.376 cm
Average deviation is : 0.061 cm
Block: 6
======================================
49.3496520281
49.3331897974
49.3866920471
49.3496520281
49.3537675858
49.3331897974
49.3825764894
49.3167275667
49.3866920471
49.3537675858
49.3331897974
49.3331897974
49.3661142588
49.4031542778
49.3702298164
49.3167275667
49.3373053551
49.3866920471
49.3167275667
49.3866920471
49.3866920471
49.3496520281
49.3496520281
49.300265336
49.3331897974
49.3866920471
49.3702298164
49.3331897974
49.3167275667
49.3373053551
49.3167275667
49.3702298164
49.3331897974
49.300265336
49.3537675858
49.3167275667
49.3331897974
49.3537675858
49.3866920471
49.3331897974
49.3373053551
49.3866920471
49.3373053551
49.3167275667
49.3496520281
49.3866920471
49.300265336
49.3331897974
49.3167275667
49.4031542778

Average distance is : 49.348 cm
Average deviation is : 0.029 cm
Block: 7
======================================
49.2838031054
49.300265336
49.300265336
49.3331897974
49.3331897974
49.3702298164
49.3167275667
49.3331897974
49.300265336
49.3331897974
49.3825764894
49.3331897974
49.3661142588
49.3661142588
49.3866920471
49.3331897974
49.3866920471
49.3702298164
49.3537675858
49.3167275667
49.3373053551
49.3167275667
49.3208431244
49.3331897974
49.3537675858
49.3167275667
49.3702298164
49.3167275667
49.3167275667
49.300265336
49.3825764894
49.3331897974
49.3496520281
49.3167275667
49.3866920471
49.3866920471
49.3331897974
49.3167275667
49.3167275667
49.3702298164
49.3702298164
49.300265336
49.3373053551
49.3661142588
49.2838031054
49.3373053551
49.3373053551
49.3866920471
49.3331897974
49.3373053551

Average distance is : 49.339 cm
Average deviation is : 0.029 cm
Block: 8
======================================
49.3331897974
49.3496520281
49.3167275667
49.3331897974
49.3537675858
49.3661142588
49.3331897974
49.300265336
49.3331897974
49.2961497784
49.3208431244
49.3331897974
49.3167275667
49.3331897974
49.3167275667
49.3496520281
49.3331897974
49.3331897974
49.3537675858
49.3167275667
49.3331897974
49.3331897974
49.3208431244
49.3208431244
49.3167275667
49.300265336
49.3373053551
49.3331897974
49.3167275667
49.3167275667
49.3331897974
49.3496520281
49.3167275667
49.3496520281
49.3208431244
49.3331897974
49.3537675858
49.300265336
49.3331897974
49.300265336
49.3331897974
49.3373053551
49.3331897974
49.3537675858
49.2838031054
49.3167275667
49.300265336
49.300265336
49.3331897974
49.3167275667

Average distance is : 49.327 cm
Average deviation is : 0.018 cm
Block: 9
======================================
49.3537675858
49.3167275667
49.3537675858
49.3331897974
49.3496520281
49.3331897974
49.3167275667
49.2796875477
49.3167275667
49.3537675858
49.3661142588
49.3167275667
49.3167275667
49.3208431244
49.3496520281
49.3331897974
49.3167275667
49.3331897974
49.3208431244
49.3373053551
49.300265336
49.3496520281
49.3496520281
49.3496520281
49.3167275667
49.3331897974
49.3331897974
49.3537675858
49.3702298164
49.3331897974
49.300265336
49.3373053551
49.3496520281
49.3866920471
49.3167275667
49.300265336
49.3167275667
49.3167275667
49.300265336
49.3331897974
49.3331897974
49.3331897974
49.3331897974
49.3331897974
49.3373053551
49.3331897974
49.300265336
49.3537675858
49.300265336
49.3167275667

Average distance is : 49.331 cm
Average deviation is : 0.021 cm
Block: 10
======================================
49.3167275667
49.3661142588
49.3537675858
49.2838031054
48.8022828579
49.3167275667
49.3167275667
49.3331897974
49.3331897974
49.3167275667
49.3496520281
49.3373053551
49.3167275667
49.3331897974
49.3167275667
49.3167275667
49.300265336
49.3331897974
49.3167275667
49.3167275667
49.3331897974
49.300265336
49.3373053551
49.3208431244
49.3167275667
49.3373053551
49.3167275667
49.3167275667
49.300265336
49.3537675858
49.300265336
49.3496520281
49.3331897974
49.3331897974
49.3167275667
49.3167275667
49.3373053551
49.300265336
49.3167275667
49.300265336
49.3373053551
49.3373053551
49.300265336
49.3167275667
49.3331897974
49.300265336
49.300265336
49.3331897974
48.8845940113
49.3331897974

Average distance is : 49.304 cm
Average deviation is : 0.097 cm