
Block: 1
======================================
298.935232687
298.931167698
298.914907742
299.362056541
299.394576454
299.362056541
299.394576454
299.374251509
299.362056541
299.374251509
298.918972731
298.9677526
299.378316498
298.951492643
298.886452818
299.345796585
299.341731596
298.984012556
299.378316498
299.410836411
299.378316498
298.984012556
298.951492643
298.914907742
299.374251509
299.378316498
299.378316498
298.935232687
298.951492643
299.374251509
299.410836411
299.410836411
299.410836411
299.410836411
299.410836411
298.951492643
299.378316498
298.951492643
299.362056541
298.898647785
298.935232687
299.394576454
299.357991552
299.362056541
299.374251509
299.378316498
299.410836411
298.9677526
299.378316498
299.431161356

Block: 2
======================================
299.362056541
299.378316498
299.410836411
299.410836411
299.410836411
299.394576454
299.410836411
299.378316498
299.410836411
299.374251509
298.935232687
298.898647785
299.378316498
299.357991552
299.394576454
299.394576454
299.410836411
299.378316498
298.931167698
299.394576454
299.394576454
299.410836411
299.378316498
299.427096367
299.362056541
299.378316498
299.394576454
299.410836411
299.410836411
299.427096367
299.362056541
298.935232687
299.378316498
298.931167698
299.410836411
299.378316498
299.410836411
298.918972731
299.427096367
298.914907742
299.427096367
298.951492643
298.914907742
298.918972731
298.971817589
299.374251509
299.378316498
299.378316498
299.357991552
298.935232687

Block: 3
======================================
299.427096367
299.394576454
299.4149014
299.410836411
299.427096367
299.427096367
299.4149014
299.431161356
299.378316498
299.362056541
299.394576454
298.935232687
299.378316498
298.951492643
299.394576454
299.378316498
299.378316498
299.374251509
299.410836411
298.947427654
299.431161356
299.410836411
298.984012556
299.394576454
299.394576454
299.410836411
299.390511465
299.447421312
299.000272512
299.431161356
299.000272512
299.378316498
299.394576454
299.410836411
299.378316498
299.431161356
299.410836411
299.394576454
299.431161356
299.410836411
299.4149014
298.951492643
299.378316498
298.898647785
299.394576454
299.394576454
298.971817589
299.394576454
299.410836411
298.971817589

Block: 4
======================================
298.931167698
299.410836411
299.431161356
299.431161356
299.362056541
298.951492643
299.394576454
299.427096367
299.362056541
299.394576454
299.394576454
299.394576454
298.951492643
299.390511465
298.9677526
299.410836411
299.410836411
299.394576454
299.394576454
299.4149014
299.427096367
299.378316498
299.427096367
298.951492643
299.410836411
299.394576454
299.374251509
299.410836411
299.410836411
299.004337502
299.410836411
299.410836411
299.447421312
298.935232687
298.935232687
299.410836411
299.394576454
299.410836411
298.524668789
299.394576454
299.410836411
299.394576454
299.378316498
298.951492643
299.410836411
299.374251509
299.362056541
298.984012556
299.020597458
299.410836411

Block: 5
======================================
298.898647785
299.410836411
299.374251509
299.431161356
299.394576454
299.394576454
299.378316498
299.394576454
299.431161356
299.394576454
299.378316498
299.431161356
299.378316498
299.394576454
299.394576454
299.378316498
299.357991552
299.378316498
299.394576454
299.410836411
299.362056541
299.357991552
299.362056541
298.902712774
299.410836411
299.378316498
299.394576454
299.394576454
298.935232687
299.378316498
299.394576454
298.898647785
299.345796585
299.378316498
299.357991552
298.898647785
299.345796585
299.378316498
299.378316498
299.410836411
299.394576454
299.410836411
299.345796585
299.410836411
298.902712774
299.374251509
298.918972731
299.410836411
299.374251509
299.362056541

Block: 6
======================================
299.362056541
299.357991552
299.394576454
299.329536629
299.357991552
299.362056541
298.898647785
299.378316498
299.378316498
299.410836411
299.378316498
299.362056541
299.378316498
299.378316498
298.898647785
299.394576454
299.378316498
299.394576454
299.394576454
299.394576454
299.410836411
298.918972731
299.394576454
299.394576454
299.378316498
299.378316498
298.918972731
299.378316498
299.374251509
299.410836411
299.394576454
299.394576454
299.394576454
299.394576454
299.394576454
93.8240131855
298.081584978
299.394576454
299.394576454
299.362056541
299.394576454
299.410836411
298.914907742
299.378316498
299.362056541
299.410836411
299.394576454
298.951492643
299.374251509
299.378316498

Block: 7
======================================
298.951492643
299.394576454
299.410836411
299.378316498
299.394576454
299.427096367
299.357991552
299.378316498
299.394576454
299.410836411
299.431161356
299.410836411
299.394576454
299.394576454
299.362056541
299.362056541
299.394576454
299.394576454
299.378316498
299.394576454
299.394576454
299.427096367
299.410836411
298.898647785
299.378316498
299.362056541
299.410836411
299.394576454
299.378316498
299.357991552
299.463681269
299.378316498
299.427096367
299.378316498
298.914907742
299.374251509
299.378316498
299.394576454
299.394576454
299.357991552
299.4149014
299.378316498
299.410836411
298.935232687
299.427096367
299.427096367
299.378316498
298.902712774
299.427096367
299.410836411

Block: 8
======================================
299.378316498
299.394576454
299.341731596
299.394576454
299.378316498
299.394576454
298.935232687
299.378316498
299.378316498
298.951492643
299.378316498
299.394576454
299.378316498
299.394576454
299.4149014
299.357991552
299.410836411
298.971817589
299.362056541
299.410836411
298.9677526
298.931167698
299.394576454
299.410836411
299.362056541
299.378316498
299.394576454
299.410836411
299.378316498
298.935232687
299.410836411
299.394576454
299.394576454
299.394576454
299.4149014
299.394576454
299.394576454
299.378316498
299.431161356
298.947427654
299.357991552
299.394576454
299.378316498
299.410836411
299.362056541
299.394576454
299.410836411
298.935232687
299.378316498
299.362056541

Block: 9
======================================
299.362056541
299.341731596
299.341731596
299.394576454
299.410836411
299.345796585
299.378316498
299.362056541
299.378316498
299.357991552
299.378316498
298.951492643
299.378316498
299.394576454
299.378316498
299.357991552
299.410836411
299.410836411
299.410836411
299.362056541
299.357991552
298.951492643
299.394576454
299.378316498
299.394576454
299.357991552
299.394576454
299.378316498
299.394576454
299.357991552
299.410836411
299.394576454
298.914907742
299.362056541
299.357991552
299.362056541
299.362056541
299.394576454
299.394576454
299.357991552
299.410836411
299.362056541
299.357991552
299.345796585
299.357991552
299.394576454
299.378316498
299.394576454
299.357991552
298.935232687

Block: 10
======================================
299.378316498
299.374251509
299.378316498
299.410836411
299.410836411
299.378316498
299.362056541
299.341731596
299.362056541
299.378316498
299.357991552
299.362056541
299.378316498
299.427096367
299.394576454
299.394576454
299.394576454
299.410836411
298.898647785
299.378316498
299.357991552
299.378316498
299.410836411
298.984012556
299.374251509
299.378316498
299.362056541
299.374251509
299.410836411
299.427096367
298.951492643
299.362056541
298.914907742
298.918972731
299.341731596
299.378316498
299.378316498
299.341731596
299.345796585
299.431161356
299.362056541
299.394576454
299.378316498
299.378316498
299.357991552
299.362056541
298.902712774
299.378316498
298.984012556
298.914907742
