
Block: 1
======================================
299.378316498
299.378316498
299.394576454
299.394576454
299.4149014
298.898647785
299.410836411
299.357991552
299.357991552
298.918972731
299.394576454
299.427096367
299.394576454
299.394576454
299.394576454
299.394576454
299.357991552
298.935232687
299.394576454
299.362056541
299.378316498
299.4149014
299.4149014
299.374251509
299.362056541
299.357991552
299.394576454
299.410836411
299.378316498
299.374251509
299.378316498
299.394576454
299.378316498
298.951492643
298.918972731
299.378316498
299.427096367
299.394576454
299.431161356
299.341731596
94.3565267563
298.459628963
96.0922770977
295.012518215
299.378316498
299.357991552
299.345796585
299.341731596
299.378316498
299.362056541
299.378316498
94.299616909
298.049065065
299.394576454
298.914907742
299.410836411
299.345796585
299.378316498
298.898647785
299.394576454
299.394576454
299.378316498
299.394576454
298.935232687
299.378316498
299.357991552
299.362056541
298.951492643
299.394576454
298.935232687
299.378316498
299.374251509
299.362056541
299.394576454
299.378316498
299.357991552
299.394576454
299.394576454
299.394576454
299.378316498
299.378316498
299.374251509
299.378316498
299.410836411
299.410836411
298.902712774
299.357991552
298.882387829
299.378316498
299.410836411
299.378316498
299.4149014
298.918972731
299.345796585
299.378316498
299.374251509
299.394576454
299.378316498
299.378316498
299.378316498

Block: 2
======================================
299.357991552
299.362056541
298.9677526
299.431161356
299.394576454
299.410836411
299.378316498
299.410836411
298.951492643
299.4149014
298.914907742
299.362056541
299.345796585
298.914907742
299.394576454
299.410836411
298.931167698
299.362056541
298.914907742
299.362056541
299.394576454
299.378316498
299.004337502
298.914907742
299.378316498
299.374251509
298.935232687
298.984012556
299.410836411
299.394576454
299.394576454
299.378316498
299.276691771
299.374251509
299.394576454
298.935232687
299.357991552
299.378316498
299.362056541
298.898647785
299.410836411
298.898647785
299.410836411
299.410836411
298.951492643
298.951492643
299.410836411
299.378316498
299.410836411
299.410836411
299.374251509
299.410836411
299.410836411
299.427096367
299.374251509
299.362056541
299.394576454
299.394576454
299.357991552
299.394576454
299.378316498
299.410836411
299.394576454
299.410836411
299.394576454
299.378316498
299.410836411
298.951492643
298.898647785
298.914907742
299.394576454
299.378316498
299.410836411
298.951492643
299.394576454
299.357991552
299.374251509
299.378316498
298.951492643
299.394576454
299.410836411
299.378316498
299.410836411
299.431161356
299.427096367
299.378316498
299.378316498
299.374251509
299.410836411
299.394576454
299.378316498
299.394576454
298.914907742
298.935232687
299.394576454
299.378316498
298.931167698
299.410836411
299.410836411
299.378316498

Block: 3
======================================
299.362056541
299.378316498
299.394576454
299.394576454
299.378316498
299.394576454
299.394576454
299.357991552
299.410836411
299.394576454
299.378316498
298.918972731
299.357991552
299.394576454
299.374251509
299.362056541
299.378316498
299.410836411
299.410836411
299.394576454
299.394576454
299.378316498
299.341731596
299.410836411
299.374251509
299.378316498
298.918972731
299.378316498
299.378316498
299.410836411
299.374251509
299.341731596
298.914907742
95.157329607
297.211677313
299.378316498
299.362056541
299.341731596
299.378316498
299.378316498
299.341731596
299.394576454
299.378316498
299.378316498
94.299616909
297.638501167
299.394576454
299.362056541
299.784815407
299.394576454
298.951492643
299.341731596
299.378316498
299.357991552
298.951492643
299.394576454
299.378316498
299.394576454
298.898647785
298.935232687
299.362056541
299.374251509
299.378316498
299.410836411
299.394576454
94.2670969963
298.097844934
299.394576454
299.394576454
94.7101808071
297.67102108
299.410836411
299.362056541
299.394576454
299.341731596
299.345796585
299.362056541
94.7264407635
297.622241211
299.378316498
299.378316498
299.378316498
94.2874219418
298.081584978
94.795545578
296.223884964
299.32547164
298.902712774
299.345796585
299.394576454
299.378316498
299.394576454
299.378316498
94.7101808071
296.768593502
96.4337361813
295.504381895
98.6003753662
293.78489151
100.319865751

Block: 4
======================================
299.345796585
299.427096367
298.898647785
299.378316498
299.378316498
299.362056541
299.341731596
299.378316498
299.378316498
299.378316498
299.378316498
299.357991552
299.410836411
299.394576454
299.378316498
298.918972731
299.357991552
299.345796585
93.8727930546
296.736073589
97.3849436283
294.536914492
99.1247589588
291.073543787
299.821400309
299.378316498
299.374251509
299.378316498
92.9744304657
298.085649967
95.157329607
297.227937269
299.394576454
299.378316498
299.357991552
299.362056541
299.341731596
299.362056541
94.7101808071
298.081584978
299.374251509
299.362056541
299.378316498
94.7101808071
298.097844934
299.821400309
299.374251509
299.378316498
299.374251509
299.341731596
299.378316498
299.394576454
299.394576454
298.882387829
299.345796585
299.357991552
298.898647785
299.784815407
296.906803131
299.378316498
299.362056541
299.821400309
299.394576454
299.329536629
299.362056541
299.378316498
299.801075363
299.345796585
299.4149014
298.935232687
299.394576454
298.914907742
299.357991552
299.378316498
299.362056541
299.341731596
299.821400309
299.394576454
299.378316498
299.394576454
299.374251509
299.345796585
299.378316498
299.345796585
299.341731596
299.362056541
299.341731596
298.898647785
299.394576454
299.32547164
299.374251509
299.362056541
299.378316498
299.378316498
298.951492643
299.32547164
298.902712774
299.357991552
299.345796585
299.374251509

Block: 5
======================================
299.32547164
299.394576454
299.345796585
299.362056541
299.788880396
299.378316498
299.394576454
299.378316498
299.378316498
299.394576454
299.329536629
299.378316498
299.821400309
299.329536629
299.394576454
299.32547164
299.345796585
299.309211683
299.345796585
299.357991552
299.32547164
299.341731596
299.394576454
299.341731596
299.32547164
299.378316498
299.378316498
299.357991552
299.357991552
299.394576454
299.32547164
299.32547164
299.410836411
299.374251509
299.345796585
299.329536629
298.914907742
299.32547164
299.357991552
299.362056541
299.329536629
299.378316498
299.362056541
298.882387829
299.378316498
299.362056541
299.374251509
299.345796585
299.32547164
299.357991552
299.378316498
299.345796585
299.341731596
299.362056541
299.345796585
299.32547164
299.309211683
299.32547164
299.374251509
299.362056541
299.341731596
299.341731596
299.362056541
299.329536629
298.902712774
299.292951727
298.882387829
298.829542971
298.866127872
299.341731596
299.309211683
299.32547164
299.374251509
299.362056541
298.898647785
299.32547164
299.32547164
299.345796585
299.345796585
299.329536629
299.309211683
299.362056541
299.309211683
299.341731596
299.341731596
299.345796585
299.341731596
299.32547164
299.341731596
299.309211683
299.32547164
299.32547164
299.345796585
299.357991552
299.32547164
299.345796585
298.898647785
299.357991552
299.32547164
299.362056541

Block: 6
======================================
299.341731596
299.394576454
299.32547164
299.362056541
299.374251509
298.902712774
299.345796585
299.32547164
299.345796585
299.341731596
299.32547164
299.362056541
299.345796585
299.76855545
299.378316498
298.866127872
299.329536629
299.357991552
299.378316498
298.918972731
299.341731596
298.866127872
299.341731596
298.866127872
299.341731596
299.309211683
299.374251509
298.882387829
299.309211683
299.32547164
299.378316498
299.357991552
299.378316498
299.362056541
299.345796585
299.362056541
299.329536629
298.902712774
299.362056541
299.357991552
299.341731596
299.345796585
299.357991552
298.914907742
299.32547164
299.394576454
299.345796585
299.374251509
299.378316498
299.378316498
299.362056541
299.32547164
299.374251509
299.362056541
299.410836411
298.935232687
299.362056541
299.378316498
299.362056541
299.378316498
299.378316498
299.341731596
299.362056541
299.362056541
299.362056541
299.357991552
299.32547164
94.3565267563
296.837698317
298.914907742
299.357991552
299.345796585
299.362056541
299.378316498
299.378316498
299.394576454
299.390511465
94.6939208508
296.768593502
299.378316498
299.345796585
299.394576454
299.378316498
299.81733532
299.805140352
299.357991552
299.410836411
299.394576454
299.362056541
299.345796585
299.784815407
299.378316498
299.357991552
299.32547164
299.378316498
299.374251509
298.902712774
299.362056541
93.8605980873
297.910855436

Block: 7
======================================
298.914907742
95.0353799343
296.46371932
96.332111454
295.610071611
98.00282197
293.939361095
99.315813446
290.423145533
100.201981068
289.589822769
102.860483932
288.057321882
104.462089634
287.492288399
105.299477386
285.756538057
299.32547164
94.3362018108
297.215742302
96.0434972286
294.618214273
299.341731596
94.7630256653
296.325509691
96.9296648502
293.715786695
100.388970566
291.992231321
101.242618275
290.289000893
102.945848703
288.581705475
104.226320267
287.341883802
106.372634506
284.732160807
107.685625982
283.862253141
108.539273691
283.435429287
108.502688789
282.17121768
109.803485298
281.732198858
109.803485298
281.337894917
110.177464294
281.764718771
109.803485298
281.32163496
111.128671741
280.846031237
110.262829065
279.959863615
111.522975683
279.976123571
112.392883348
279.598079586
112.766862345
279.191580677
111.929474592
280.02490344
112.835967159
278.272893143
114.543262577
276.171293783
116.230233049
275.289191151
117.148920584
274.809522438
117.953788424
273.085967064
119.62043395
272.370528984
118.734266329
273.618480635
118.291182518
273.663195515
118.734266329
273.646935558
119.17735014
272.74450798
119.62043395
272.338009071
120.457821703
270.667298555
122.010647535
269.504711676
122.400886488
269.110407734
123.270794153
269.130732679
124.53500576
267.443762207
124.514680815
267.460022163
126.148806429
265.362487793
127.908946705

Block: 8
======================================
298.898647785
299.362056541
299.362056541
299.357991552
299.341731596
299.378316498
298.898647785
299.410836411
299.81733532
298.918972731
299.390511465
299.362056541
299.362056541
299.341731596
298.866127872
299.357991552
299.394576454
298.914907742
299.410836411
299.394576454
299.345796585
299.378316498
299.410836411
299.341731596
299.394576454
299.362056541
299.362056541
299.341731596
299.378316498
298.902712774
299.378316498
298.898647785
298.898647785
299.362056541
299.378316498
299.374251509
299.341731596
299.378316498
299.362056541
299.362056541
299.378316498
299.378316498
299.357991552
299.362056541
299.362056541
299.394576454
299.378316498
299.378316498
299.362056541
299.341731596
299.378316498
298.898647785
298.935232687
299.394576454
298.918972731
299.341731596
299.394576454
298.918972731
299.378316498
299.362056541
298.902712774
299.341731596
299.341731596
299.362056541
299.32547164
299.374251509
298.898647785
299.341731596
298.898647785
299.378316498
299.345796585
299.394576454
299.357991552
299.362056541
299.374251509
299.394576454
299.32547164
299.341731596
299.374251509
299.378316498
299.345796585
299.345796585
298.902712774
299.32547164
299.32547164
299.394576454
299.378316498
299.378316498
298.898647785
298.882387829
299.394576454
299.345796585
299.341731596
299.374251509
299.378316498
299.362056541
298.882387829
299.362056541
299.357991552
299.378316498

Block: 9
======================================
298.914907742
298.914907742
299.341731596
299.378316498
298.935232687
299.341731596
299.378316498
299.362056541
299.362056541
298.898647785
299.341731596
299.374251509
298.918972731
298.951492643
299.341731596
299.329536629
298.902712774
299.378316498
299.309211683
94.299616909
297.573461342
299.378316498
299.362056541
299.345796585
299.378316498
299.32547164
299.378316498
298.902712774
299.341731596
299.378316498
299.341731596
299.341731596
299.374251509
299.309211683
299.357991552
299.378316498
299.378316498
299.341731596
298.935232687
299.357991552
299.362056541
299.362056541
299.362056541
299.345796585
299.374251509
298.918972731
298.902712774
299.394576454
299.345796585
299.329536629
299.378316498
299.362056541
299.362056541
299.341731596
299.378316498
299.410836411
93.8240131855
298.065325022
299.378316498
299.357991552
299.378316498
299.362056541
299.378316498
299.394576454
299.362056541
299.362056541
299.341731596
298.898647785
299.374251509
299.378316498
299.394576454
299.345796585
299.378316498
94.2183171272
296.390549517
299.357991552
299.345796585
298.918972731
298.935232687
299.394576454
299.394576454
299.394576454
93.4175142765
298.11816988
95.5313086033
297.260457182
96.4174762249
295.524706841
97.730467701
294.211715364
99.8930418968
292.520679903
99.8605219841
291.671097183
299.4149014
299.32547164
299.341731596
94.2874219418
297.675086069
299.378316498

Block: 10
======================================
299.309211683
299.362056541
299.341731596
298.898647785
299.378316498
298.935232687
298.918972731
299.394576454
299.357991552
299.378316498
299.362056541
299.309211683
299.32547164
298.898647785
299.362056541
299.341731596
299.362056541
299.357991552
299.341731596
298.866127872
299.378316498
299.362056541
299.378316498
299.378316498
299.345796585
299.378316498
299.362056541
298.902712774
299.32547164
299.341731596
299.357991552
299.362056541
299.345796585
299.341731596
299.341731596
299.357991552
299.362056541
299.394576454
300.589683247
299.378316498
298.914907742
299.378316498
299.32547164
299.378316498
299.357991552
299.394576454
299.378316498
299.378316498
299.374251509
299.394576454
299.341731596
299.357991552
299.341731596
299.345796585
299.341731596
299.357991552
299.362056541
299.345796585
298.918972731
299.374251509
299.362056541
299.378316498
299.357991552
299.32547164
299.362056541
299.362056541
298.902712774
299.362056541
299.341731596
299.378316498
299.345796585
299.341731596
298.898647785
299.309211683
299.374251509
299.378316498
299.357991552
299.390511465
299.394576454
299.357991552
299.362056541
299.341731596
299.341731596
298.898647785
299.378316498
299.390511465
299.362056541
299.345796585
299.394576454
299.357991552
299.362056541
299.362056541
299.341731596
299.32547164
299.394576454
299.394576454
299.394576454
299.357991552
299.345796585
298.935232687
