
Block: 1
======================================
398.925769496
398.958116031
399.362447715
399.33010118
399.350317764
398.889379644
399.382664299
399.350317764
398.889379644
399.33010118
398.889379644
399.366491032
398.905552912
399.346274447
398.909596229
399.382664299
399.378620982
399.350317764
399.402880883
399.382664299
399.398837566
399.398837566
399.346274447
399.366491032
399.382664299

Average distance is : 399.239 cm
Average deviation is : 0.211 cm
Block: 2
======================================
399.398837566
399.366491032
399.398837566
399.33010118
399.350317764
399.786995983
399.33010118
399.346274447
399.823385835
399.7910393
399.786995983
399.7910393
399.350317764
399.350317764
399.366491032
399.382664299
399.366491032
399.350317764
399.334144497
399.382664299
399.366491032
399.366491032
399.334144497
399.350317764
398.905552912

Average distance is : 399.428 cm
Average deviation is : 0.209 cm
Block: 3
======================================
399.33010118
398.873206377
398.889379644
399.334144497
398.889379644
399.281581378
398.889379644
398.909596229
398.909596229
398.909596229
398.925769496
398.889379644
398.889379644
398.889379644
398.909596229
398.889379644
398.905552912
398.889379644
398.925769496
399.350317764
398.925769496
399.350317764
398.905552912
398.873206377
398.905552912

Average distance is : 398.986 cm
Average deviation is : 0.176 cm
Block: 4
======================================
398.076672959
398.54974103
398.040283108
398.092846227
398.533567762
398.517394495
398.092846227
398.517394495
398.586130881
398.092846227
280.181640506
397.259922957
398.060499692
398.533567762
398.092846227
398.54974103
398.040283108
398.533567762
398.533567762
398.501221228
398.501221228
398.517394495
398.501221228
398.517394495
280.90539422

Average distance is : 388.893 cm
Average deviation is : 32.611 cm
Block: 5
======================================
398.517394495
398.586130881
398.533567762
398.582087564
398.161582613
398.638694
398.687213802
398.671040535
398.70338707
398.739776921
398.739776921
398.755950189
398.755950189
398.755950189
398.772123456
398.788296723
398.755950189
398.755950189
398.739776921
398.772123456
398.751906872
398.33140192
398.755950189
398.739776921
398.751906872

Average distance is : 398.670 cm
Average deviation is : 0.151 cm
Block: 6
======================================
399.144108605
398.719560337
399.144108605
398.751906872
399.160281873
399.144108605
399.144108605
398.687213802
399.144108605
399.127935338
399.180498457
277.480704856
399.127935338
280.092687535
398.735733604
399.568656874
279.195071197
398.311185336
399.601003408
399.568656874
399.601003408
399.584830141
399.127935338
399.633349943
399.621219993

Average distance is : 384.744 cm
Average deviation is : 39.886 cm
Block: 7
======================================
399.516093755
399.059198952
399.520137072
399.091545486
399.503963804
399.059198952
399.536310339
399.095588803
399.091545486
399.499920487
399.552483606
279.110161543
398.671040535
399.536310339
399.532267022
399.075372219
399.520137072
399.059198952
399.552483606
399.075372219
399.552483606
399.532267022
399.059198952
399.091545486
399.091545486

Average distance is : 394.479 cm
Average deviation is : 24.037 cm
Block: 8
======================================
399.584830141
399.601003408
399.127935338
399.127935338
399.127935338
399.584830141
399.601003408
398.719560337
399.160281873
399.144108605
277.448358321
398.723603654
399.160281873
399.180498457
279.093988276
399.212844992
399.196671724
399.17645514
399.160281873
399.17645514
399.160281873
399.601003408
399.229018259
279.922868228
397.959416771

Average distance is : 384.727 cm
Average deviation is : 39.918 cm
Block: 9
======================================
398.768080139
399.584830141
399.261364794
399.160281873
399.245191526
399.212844992
399.621219993
399.229018259
399.245191526
399.229018259
399.249234843
399.196671724
399.63739326
279.906694961
397.975590038
399.605046725
399.617176676
399.63739326
398.33140192
399.621219993
399.160281873
280.383806348
398.804469991
398.735733604
278.66539669

Average distance is : 384.843 cm
Average deviation is : 39.648 cm
Block: 10
======================================
399.160281873
399.605046725
399.180498457
399.17645514
399.17645514
399.196671724
399.180498457
399.144108605
399.568656874
399.144108605
399.123892021
399.144108605
399.127935338
399.144108605
399.584830141
399.16432519
399.601003408
399.605046725
399.588873458
399.601003408
399.601003408
399.584830141
399.584830141
399.605046725
399.601003408

Average distance is : 399.368 cm
Average deviation is : 0.223 cm
Block: 1
======================================
399.366491032
398.941942763
398.921726179
398.941942763
398.909596229
399.382664299
398.941942763
399.366491032
399.398837566
398.937899446
399.398837566
398.941942763
399.382664299
399.346274447
399.362447715
398.941942763
398.937899446
398.937899446
399.382664299
399.33010118
399.382664299
399.346274447
398.925769496
399.382664299
398.925769496

Average distance is : 399.161 cm
Average deviation is : 0.224 cm
Block: 2
======================================
399.362447715
399.447357368
399.313927913
399.33010118
399.346274447
398.925769496
398.889379644
398.937899446
399.366491032
398.873206377
398.941942763
398.909596229
398.958116031
398.921726179
399.297754645
398.905552912
398.941942763
398.889379644
398.925769496
398.905552912
398.889379644
398.909596229
398.432484841
398.909596229
398.889379644

Average distance is : 399.017 cm
Average deviation is : 0.236 cm
Block: 3
======================================
398.873206377
398.889379644
398.873206377
398.39609499
398.448658109
398.448658109
398.416311574
398.416311574
398.383965039
398.85703311
398.432484841
398.416311574
398.416311574
398.448658109
398.416311574
398.468874693
398.416311574
398.416311574
398.448658109
398.432484841
398.448658109
398.432484841
398.416311574
398.432484841
398.448658109

Average distance is : 398.500 cm
Average deviation is : 0.167 cm
Block: 4
======================================
398.941942763
278.705829859
398.925769496
398.464831376
398.517394495
398.481004643
398.464831376
398.481004643
398.464831376
398.517394495
398.48504796
278.196371937
398.096889544
398.076672959
278.600703621
398.109019494
398.54974103
398.54974103
398.533567762
398.553784347
398.586130881
398.586130881
398.565914297
398.565914297
398.618477416

Average distance is : 384.106 cm
Average deviation is : 39.802 cm
Block: 5
======================================
398.739776921
398.687213802
398.723603654
398.327358603
280.294853377
397.462088799
398.772123456
398.295012069
398.755950189
398.739776921
398.772123456
398.295012069
398.315228653
398.751906872
398.772123456
398.739776921
398.788296723
398.788296723
398.788296723
398.768080139
398.772123456
398.788296723
398.347575188
398.755950189
398.772123456

Average distance is : 393.881 cm
Average deviation is : 23.666 cm
Block: 6
======================================
399.249234843
399.281581378
399.249234843
398.772123456
399.261364794
399.212844992
398.788296723
399.249234843
399.265408111
399.265408111
399.249234843
399.245191526
399.212844992
399.261364794
398.788296723
399.261364794
399.281581378
399.229018259
398.751906872
399.245191526
399.212844992
399.249234843
399.249234843
399.196671724
399.249234843

Average distance is : 399.171 cm
Average deviation is : 0.178 cm
Block: 7
======================================
399.212844992
399.196671724
399.212844992
399.229018259
399.212844992
399.196671724
399.17645514
399.192628407
399.229018259
399.212844992
399.63739326
399.212844992
399.229018259
399.63739326
399.621219993
399.196671724
399.212844992
399.196671724
399.180498457
399.63739326
398.671040535
399.212844992
279.583229613
398.852989793
399.584830141

Average distance is : 394.470 cm
Average deviation is : 23.936 cm
Block: 8
======================================
399.148151922
399.16432519
399.180498457
399.160281873
399.160281873
278.28128159
398.295012069
398.70338707
399.180498457
398.70338707
280.464672685
398.295012069
399.17645514
399.180498457
399.144108605
399.144108605
398.70338707
398.735733604
399.111762071
398.735733604
398.719560337
398.666997218
398.719560337
399.127935338
398.70338707

Average distance is : 389.344 cm
Average deviation is : 33.100 cm
Block: 9
======================================
399.148151922
399.180498457
399.144108605
398.723603654
398.723603654
399.127935338
398.70338707
399.148151922
399.160281873
399.144108605
399.127935338
399.127935338
398.70338707
399.127935338
399.127935338
399.127935338
398.683170485
398.70338707
399.127935338
398.70338707
398.70338707
399.111762071
279.684312534
398.295012069
399.144108605

Average distance is : 394.188 cm
Average deviation is : 23.856 cm
Block: 10
======================================
399.17645514
399.16432519
399.17645514
399.17645514
399.180498457
399.196671724
399.212844992
399.144108605
399.212844992
399.144108605
399.212844992
399.180498457
399.180498457
399.212844992
398.70338707
399.144108605
399.160281873
399.160281873
399.160281873
399.180498457
399.160281873
399.180498457
399.160281873
399.196671724
399.144108605

Average distance is : 399.157 cm
Average deviation is : 0.097 cm