
Block: 1
======================================
398.990462565
399.026852417
399.0228091
399.01067915
399.431184101
398.54974103
398.990462565
399.01067915
399.006635833
399.01067915
399.043025684
398.994505882
399.01067915
398.994505882
398.990462565
399.01067915
398.990462565
399.006635833
399.01067915
399.026852417
399.026852417
398.994505882
399.026852417
398.994505882
398.990462565
399.0228091
399.026852417
399.026852417
398.586130881
398.582087564
399.026852417
398.553784347
280.379763031
397.720861077
398.602304149
398.618477416
399.0228091
398.54974103
399.01067915
398.54974103
398.994505882
398.586130881
280.840701151
398.125192761
399.0228091
399.0228091
399.043025684
398.994505882
398.582087564
398.582087564
398.618477416
398.565914297
399.038982368
398.141366029
398.598260832
398.565914297
398.582087564
398.582087564
398.586130881
398.602304149
279.12633481
398.161582613
398.145409346
398.618477416
398.54974103
398.569957614
398.586130881
281.265249419
397.296312809
398.145409346
398.586130881
398.602304149
398.565914297
398.54974103
398.157539296
398.618477416
398.161582613
398.145409346
398.145409346
398.161582613
398.129236078
398.141366029
398.565914297
398.553784347
398.569957614
398.582087564
398.586130881
398.109019494
398.582087564
398.569957614
398.586130881
398.569957614
397.70468781
398.569957614
398.193929148
398.565914297

Block: 1
======================================
399.649523211
399.653566527
399.669739795
399.689956379
399.212844992
399.653566527
399.653566527
399.689956379
399.669739795
399.212844992
399.212844992
399.229018259
399.685913062
281.73831749
399.281581378
399.702086329
399.685913062
399.212844992
399.722302914
399.261364794
399.669739795
280.027994466
398.893422961
399.689956379
399.669739795
399.653566527
399.669739795
399.702086329
399.722302914
399.277538061
399.669739795
399.245191526
399.673783112
399.229018259
399.685913062
399.685913062
399.718259597
399.706129646
399.685913062
399.722302914
399.685913062
399.738476181
399.722302914
278.738176394
398.873206377
399.706129646
279.530666494
399.281581378
278.790739512
398.852989793
279.619619465
398.873206377
399.685913062
399.313927913
399.313927913
399.313927913
399.281581378
398.85703311
399.265408111
399.261364794
399.297754645
398.836816525
399.261364794
279.599402881
398.432484841
398.840859842
399.245191526
399.297754645
398.85703311
399.281581378
398.840859842
399.281581378
398.85703311
279.991604614
398.448658109
170.316635299
103.634253955
169.536275148
104.467177224
168.654832077
104.887682176
168.642702127
104.887682176
168.63865881
104.90789876
168.246457076
105.316273761
168.230283809
105.364793563
168.165590739
105.397140098
167.757215738
105.789341831
167.33266747
106.197716832
167.348840737
106.165370297
166.997072172
106.569701982
166.944509053

Average distance is : 324.470 cm
Average deviation is : 113.966 cm
Block: 2
======================================
398.873206377
398.893422961
398.852989793
279.926911545
398.007936573
279.514493227
398.517394495
399.281581378
278.770522928
398.464831376
279.178897929
398.432484841
281.313769221
397.158840036
398.873206377
280.023951149
398.448658109
398.905552912
398.889379644
278.548140502
399.334144497
280.412109566
398.497177911
399.281581378
399.33010118
399.31797123
399.281581378
399.313927913
399.313927913
399.313927913
399.706129646
399.754649448
399.706129646
399.722302914
399.702086329
399.706129646
399.702086329
399.738476181
399.702086329
399.722302914
399.706129646
280.448499417
399.297754645
399.706129646
399.722302914
399.706129646
399.722302914
399.754649448
399.313927913
399.738476181
399.738476181
399.774866033
399.313927913
399.706129646
399.277538061
398.85703311
399.313927913
399.313927913
399.281581378
399.297754645
399.738476181
398.889379644
399.281581378
399.277538061
399.31797123
399.31797123
398.873206377
399.313927913
282.3650316
398.925769496
279.518536544
398.513351178
281.160123181
397.635951424
399.350317764
399.313927913
398.889379644
279.057598424
399.722302914
278.685613275
398.48504796
398.836816525
280.788138032
398.501221228
282.821926403
398.873206377
279.975431347
398.464831376
399.33010118
399.738476181
399.297754645
278.734133077
398.873206377
171.65901649
102.364652467
170.773530102
103.246095538
170.35302515
103.246095538
169.928476882

Average distance is : 359.719 cm
Average deviation is : 75.999 cm
Block: 3
======================================
399.313927913
399.261364794
399.297754645
399.685913062
399.281581378
399.281581378
399.281581378
399.281581378
399.313927913
399.281581378
399.297754645
399.293711329
399.297754645
398.840859842
399.33010118
399.334144497
399.281581378
398.820643258
399.313927913
399.297754645
398.85703311
399.281581378
280.464672685
398.040283108
399.313927913
399.281581378
398.836816525
399.669739795
399.313927913
399.738476181
399.245191526
399.738476181
278.244891739
399.297754645
279.599402881
398.909596229
399.702086329
279.449800158
400.09833138
399.245191526
399.245191526
278.839259315
398.836816525
279.247634315
398.824686575
399.706129646
278.81904273
399.277538061
280.517235804
397.890680385
280.161423922
399.192628407
399.718259597
399.653566527
278.855432582
399.261364794
399.633349943
399.685913062
279.27998085
399.249234843
399.685913062
399.63739326
279.296154118
398.804469991
399.212844992
399.196671724
399.249234843
399.653566527
278.855432582
399.229018259
399.633349943
279.259764266
399.245191526
399.669739795
277.480704856
399.617176676
279.259764266
399.265408111
399.685913062
400.094288063
400.074071479
399.669739795
400.041724944
399.669739795
399.702086329
399.212844992
399.653566527
399.653566527
399.212844992
399.669739795
399.208801675
399.653566527
399.669739795
399.653566527
399.621219993
399.859775686
399.653566527
399.245191526
399.653566527
399.63739326

Average distance is : 380.161 cm
Average deviation is : 44.275 cm
Block: 4
======================================
399.669739795
399.689956379
399.180498457
399.249234843
399.653566527
399.673783112
399.669739795
399.706129646
398.804469991
399.281581378
399.261364794
399.669739795
399.673783112
398.808513308
399.297754645
399.685913062
399.265408111
399.669739795
399.208801675
399.277538061
280.889220953
397.991763306
399.281581378
398.808513308
399.261364794
398.824686575
399.261364794
399.261364794
279.263807583
397.959416771
398.804469991
399.281581378
278.80691278
398.873206377
279.619619465
398.909596229
399.281581378
399.265408111
399.281581378
280.889220953
398.905552912
399.265408111
399.297754645
278.80691278
398.432484841
280.12503407
399.722302914
399.249234843
398.824686575
279.263807583
398.48504796
281.329942489
398.85703311
398.840859842
399.297754645
399.297754645
399.261364794
399.261364794
279.688355851
398.452701426
399.277538061
398.836816525
280.112904119
398.840859842
399.297754645
398.820643258
399.277538061
399.261364794
399.293711329
399.265408111
399.265408111
399.261364794
399.245191526
399.261364794
399.313927913
399.281581378
399.297754645
399.297754645
399.265408111
399.297754645
399.297754645
399.281581378
399.261364794
399.265408111
399.261364794
399.33010118
399.265408111
399.281581378
399.313927913
399.33010118
399.334144497
278.802869463
399.313927913
399.362447715
399.313927913
399.362447715
399.334144497
399.346274447
399.261364794
399.313927913

Average distance is : 384.876 cm
Average deviation is : 39.000 cm
Block: 5
======================================
399.807212567
277.363448668
399.754649448
399.738476181
277.56561451
399.398837566
276.057457328
400.158981133
277.19362936
399.265408111
399.297754645
279.275937533
398.836816525
399.738476181
399.706129646
399.702086329
399.758692765
399.722302914
399.706129646
399.754649448
279.651966
399.33010118
399.754649448
399.770822716
399.7910393
399.754649448
278.548140502
399.738476181
399.334144497
399.770822716
399.738476181
399.738476181
280.517235804
399.281581378
399.738476181
399.297754645
399.770822716
399.313927913
399.754649448
399.754649448
399.738476181
399.722302914
399.738476181
399.297754645
399.754649448
399.718259597
399.738476181
399.738476181
399.770822716
399.702086329
399.770822716
399.770822716
399.297754645
399.738476181
399.738476181
399.738476181
399.774866033
399.770822716
280.89326427
398.958116031
399.754649448
399.738476181
398.85703311
399.754649448
399.738476181
399.313927913
399.738476181
399.718259597
399.758692765
399.366491032
399.33010118
399.770822716
399.334144497
399.722302914
399.33010118
399.33010118
399.722302914
399.297754645
399.738476181
279.178897929
398.464831376
399.297754645
399.293711329
280.43232615
398.517394495
399.281581378
399.738476181
279.599402881
398.02410984
399.313927913
399.738476181
280.007777882
397.652124691
399.754649448
399.281581378
399.281581378
399.758692765
399.33010118
399.718259597
281.669581103

Average distance is : 382.672 cm
Average deviation is : 41.989 cm
Block: 6
======================================
399.738476181
399.738476181
399.722302914
399.229018259
399.702086329
399.245191526
399.669739795
399.293711329
399.669739795
399.293711329
399.702086329
399.669739795
399.245191526
399.297754645
399.245191526
399.702086329
398.788296723
399.653566527
399.689956379
278.738176394
399.261364794
399.212844992
399.249234843
399.653566527
399.669739795
399.689956379
399.212844992
399.653566527
399.63739326
399.685913062
399.649523211
399.669739795
399.63739326
399.669739795
399.685913062
399.63739326
280.076514268
398.840859842
282.551024175
399.281581378
280.412109566
399.229018259
399.653566527
400.09833138
280.840701151
399.669739795
400.094288063
278.701786542
399.653566527
400.045768261
399.653566527
399.689956379
280.044167733
399.685913062
400.041724944
399.617176676
399.621219993
399.601003408
400.094288063
400.094288063
399.669739795
399.621219993
399.653566527
399.653566527
399.702086329
399.689956379
399.621219993
399.229018259
399.653566527
399.63739326
399.669739795
399.685913062
278.790739512
399.265408111
399.669739795
399.261364794
398.808513308
399.261364794
399.245191526
399.229018259
399.261364794
399.265408111
399.265408111
281.313769221
398.007936573
399.212844992
399.229018259
399.249234843
399.229018259
277.921426392
399.233061576
399.229018259
399.229018259
399.229018259
279.243590999
398.824686575
279.635792732
398.840859842
278.366191244
398.840859842

Average distance is : 383.908 cm
Average deviation is : 40.473 cm
Block: 7
======================================
399.261364794
279.757092237
399.212844992
399.249234843
399.281581378
398.824686575
280.533409071
397.142666769
282.215428877
398.007936573
279.178897929
398.02410984
399.281581378
279.247634315
398.85703311
277.973989511
398.873206377
399.281581378
399.297754645
399.297754645
399.249234843
278.855432582
398.808513308
399.261364794
279.296154118
398.39609499
399.293711329
399.685913062
399.281581378
399.738476181
399.196671724
399.685913062
399.689956379
399.673783112
399.685913062
399.685913062
399.229018259
399.653566527
399.718259597
399.669739795
399.653566527
399.706129646
399.702086329
399.706129646
399.689956379
399.685913062
399.669739795
399.281581378
399.281581378
399.702086329
399.229018259
399.265408111
399.265408111
399.297754645
399.245191526
280.889220953
397.55104177
399.245191526
399.297754645
399.261364794
399.265408111
399.265408111
399.245191526
399.245191526
399.229018259
399.265408111
399.261364794
399.245191526
399.245191526
399.229018259
398.820643258
399.245191526
399.281581378
399.245191526
399.281581378
399.212844992
278.802869463
398.840859842
399.281581378
278.738176394
398.852989793
399.229018259
280.873047686
398.840859842
279.991604614
399.649523211
399.245191526
278.754349661
398.820643258
399.685913062
399.249234843
399.249234843
399.653566527
399.229018259
399.685913062
399.669739795
399.706129646
279.534709811
399.313927913
399.718259597

Average distance is : 381.314 cm
Average deviation is : 42.930 cm
Block: 8
======================================
399.245191526
275.398396683
399.722302914
276.955073667
398.808513308
279.49831996
397.991763306
279.95925808
398.007936573
398.400138307
398.820643258
278.03868258
399.653566527
399.281581378
279.922868228
398.02410984
281.568498182
398.044326425
279.465973425
398.481004643
279.43362689
398.873206377
280.755791497
398.02410984
398.39609499
398.836816525
279.077815008
398.852989793
399.265408111
399.249234843
398.820643258
398.363748455
398.85703311
279.025251889
399.281581378
398.820643258
279.534709811
397.603604889
280.399979615
398.379921722
399.249234843
398.772123456
398.824686575
399.249234843
278.277238274
398.412268257
279.975431347
397.959416771
399.229018259
399.261364794
278.722003126
398.416311574
398.804469991
399.212844992
399.669739795
399.249234843
399.281581378
398.804469991
398.788296723
399.669739795
399.245191526
399.669739795
399.245191526
399.249234843
399.212844992
399.245191526
399.229018259
399.212844992
399.669739795
399.617176676
399.653566527
399.229018259
399.617176676
399.669739795
399.63739326
399.633349943
399.653566527
399.617176676
399.633349943
399.584830141
399.621219993
400.041724944
399.617176676
399.196671724
399.605046725
399.621219993
399.621219993
399.605046725
399.601003408
399.601003408
399.621219993
399.601003408
399.605046725
399.584830141
399.673783112
399.63739326
400.061941528
399.180498457
399.621219993
399.63739326

Average distance is : 378.769 cm
Average deviation is : 45.306 cm
Block: 9
======================================
399.669739795
399.63739326
399.208801675
399.621219993
399.621219993
399.208801675
399.669739795
399.208801675
399.685913062
399.196671724
398.788296723
399.63739326
399.245191526
399.669739795
399.249234843
399.212844992
399.245191526
399.196671724
279.27998085
398.278838801
399.212844992
399.63739326
399.669739795
399.229018259
399.653566527
399.63739326
399.653566527
399.196671724
399.212844992
399.706129646
399.673783112
399.212844992
399.633349943
399.653566527
399.212844992
399.63739326
399.653566527
399.653566527
399.617176676
399.653566527
399.669739795
400.041724944
399.669739795
399.653566527
399.617176676
399.617176676
399.617176676
399.633349943
399.653566527
399.63739326
399.63739326
399.601003408
399.653566527
399.601003408
399.605046725
399.621219993
399.605046725
399.621219993
279.672182584
398.772123456
399.601003408
399.144108605
399.621219993
278.430884314
399.229018259
399.63739326
399.621219993
278.451100898
398.772123456
279.684312534
399.245191526
399.63739326
277.973989511
399.233061576
399.621219993
399.63739326
399.621219993
399.621219993
399.669739795
399.653566527
399.653566527
399.192628407
399.196671724
399.633349943
399.196671724
399.212844992
399.653566527
399.653566527
399.63739326
399.63739326
399.63739326
399.63739326
399.212844992
399.633349943
399.653566527
399.229018259
399.229018259
399.685913062
399.685913062
278.823086047

Average distance is : 391.043 cm
Average deviation is : 30.923 cm
Block: 10
======================================
399.229018259
398.788296723
280.484889269
397.939200187
399.208801675
399.281581378
399.212844992
399.261364794
399.261364794
399.229018259
399.281581378
399.245191526
399.669739795
398.751906872
398.804469991
399.277538061
399.669739795
399.261364794
399.277538061
399.261364794
399.265408111
399.229018259
399.277538061
399.297754645
399.265408111
399.261364794
399.281581378
399.265408111
399.265408111
399.281581378
399.293711329
399.297754645
398.820643258
398.873206377
398.400138307
399.281581378
398.852989793
398.432484841
399.261364794
399.313927913
399.245191526
399.261364794
398.873206377
398.85703311
398.840859842
398.840859842
398.85703311
399.229018259
278.362147927
398.432484841
398.804469991
399.245191526
398.804469991
399.265408111
398.400138307
398.804469991
398.820643258
399.261364794
399.261364794
398.85703311
399.265408111
399.281581378
399.249234843
399.281581378
399.297754645
399.265408111
398.820643258
399.297754645
398.824686575
398.768080139
399.261364794
399.653566527
399.706129646
399.653566527
399.706129646
399.297754645
398.840859842
399.685913062
399.722302914
399.722302914
399.706129646
399.722302914
398.820643258
399.31797123
399.281581378
279.142508078
398.873206377
399.722302914
278.669440007
398.464831376
399.277538061
279.514493227
398.85703311
398.808513308
280.90539422
398.852989793
399.297754645
399.281581378
280.416152883
398.468874693

Average distance is : 390.772 cm
Average deviation is : 30.645 cm