
Block: 1
======================================
398.214145732
398.565914297
398.602304149
398.17775588
398.17775588
397.71681776
397.720861077
398.17775588
398.618477416
398.161582613
398.17775588
398.17775588
398.618477416
398.197972465
398.17775588
398.193929148
398.161582613
398.17775588
398.193929148
398.17775588
398.145409346
398.17775588
398.210102415
398.602304149
397.720861077
398.214145732
398.193929148
398.161582613
397.70468781
398.193929148
398.145409346
398.145409346
398.17775588
398.197972465
398.145409346
398.193929148
398.161582613
398.193929148
398.161582613
398.586130881
398.181799197
398.602304149
398.602304149
398.602304149
397.737034345
398.197972465
398.582087564
398.193929148
398.54974103
398.618477416
398.214145732
398.145409346
398.602304149
398.145409346
398.618477416
398.618477416
398.145409346
398.602304149
398.602304149
398.618477416
398.17775588
398.618477416
398.602304149
398.586130881
398.602304149
398.161582613
398.634650683
398.586130881
398.565914297
398.634650683
398.193929148
398.161582613
398.181799197
398.214145732
398.565914297

Block: 2
======================================
398.161582613
398.193929148
398.193929148
398.17775588
398.193929148
398.17775588
398.157539296
398.141366029
398.145409346
398.197972465
398.618477416
398.161582613
398.17775588
398.161582613
398.214145732
398.161582613
398.193929148
398.193929148
398.17775588
398.17775588
398.17775588
398.618477416
398.193929148
398.618477416
398.618477416
398.161582613
398.210102415
398.193929148
398.161582613
398.145409346
398.17775588
397.737034345
398.17775588
398.141366029
398.210102415
398.161582613
398.161582613
398.193929148
398.197972465
398.602304149
398.565914297
398.565914297
398.569957614
398.193929148
398.586130881
397.684471226
398.161582613
397.70468781
398.197972465
398.193929148
398.197972465
398.17775588
397.720861077
398.193929148
398.193929148
398.145409346
398.17775588
398.602304149
398.161582613
398.214145732
398.193929148
398.193929148
398.197972465
397.737034345
398.161582613
398.214145732
398.17775588
398.17775588
398.17775588
398.145409346
398.161582613
398.161582613
398.226275682
398.161582613
398.197972465

Block: 3
======================================
398.161582613
398.586130881
397.71681776
397.737034345
398.161582613
398.161582613
398.161582613
398.210102415
398.145409346
398.582087564
398.17775588
398.129236078
398.17775588
398.197972465
398.17775588
397.70468781
398.193929148
397.720861077
398.181799197
398.161582613
398.157539296
398.141366029
398.17775588
398.17775588
398.197972465
398.161582613
398.197972465
398.210102415
397.737034345
398.210102415
398.161582613
397.720861077
398.17775588
398.17775588
398.193929148
398.193929148
398.141366029
398.181799197
397.737034345
398.161582613
398.161582613
398.618477416
398.54974103
398.157539296
398.193929148
398.161582613
398.17775588
398.618477416
398.602304149
398.602304149
398.17775588
398.193929148
398.193929148
398.602304149
397.720861077
398.618477416
398.618477416
398.602304149
398.161582613
398.197972465
398.618477416
398.17775588
398.618477416
398.602304149
398.602304149
398.634650683
398.586130881
398.161582613
398.193929148
398.634650683
398.17775588
398.598260832
398.634650683
398.622520733
398.618477416

Block: 4
======================================
398.602304149
398.197972465
398.602304149
398.226275682
398.618477416
398.602304149
398.17775588
398.634650683
398.618477416
398.602304149
398.618477416
398.618477416
398.193929148
398.157539296
398.17775588
398.602304149
397.700644493
398.569957614
398.618477416
398.618477416
398.598260832
398.602304149
398.17775588
398.586130881
398.586130881
398.145409346
398.618477416
398.618477416
398.618477416
398.602304149
398.618477416
398.193929148
398.141366029
398.582087564
398.161582613
398.618477416
398.586130881
398.618477416
398.634650683
398.602304149
399.043025684
398.141366029
398.622520733
398.634650683
399.043025684
399.01067915
399.026852417
399.026852417
399.059198952
399.043025684
399.026852417
398.586130881
399.026852417
399.0228091
398.602304149
399.059198952
399.01067915
398.602304149
399.026852417
399.043025684
398.654867268
399.043025684
399.043025684
399.043025684
399.059198952
399.0228091
399.043025684
398.586130881
398.978332615
399.006635833
398.990462565
399.026852417
399.006635833
398.990462565
398.602304149

Block: 5
======================================
398.54974103
398.974289298
399.447357368
399.026852417
399.01067915
398.974289298
398.54974103
399.01067915
398.54974103
398.565914297
399.382664299
399.382664299
398.990462565
398.974289298
398.994505882
399.026852417
398.974289298
399.431184101
399.435227418
399.415010834
399.431184101
399.451400685
399.467573953
399.026852417
399.059198952
398.582087564
399.043025684
399.431184101
399.398837566
399.026852417
399.467573953
399.415010834
399.451400685
399.431184101
399.435227418
399.451400685
399.875948954
399.855732369
399.875948954
399.451400685
399.467573953
398.994505882
399.447357368
399.006635833
399.026852417
399.451400685
399.435227418
398.634650683
399.095588803
399.516093755
399.059198952
398.650823951
398.618477416
399.111762071
399.059198952
398.666997218
399.043025684
398.618477416
398.666997218
399.075372219
399.059198952
398.687213802
398.687213802
398.687213802
399.095588803
399.091545486
399.127935338
398.650823951
399.111762071
398.654867268
399.127935338
399.095588803
399.091545486
399.107718754
399.107718754

Block: 6
======================================
398.671040535
398.634650683
399.079415536
399.059198952
398.671040535
399.127935338
399.095588803
398.618477416
398.638694
398.618477416
398.654867268
399.026852417
399.059198952
398.634650683
398.634650683
399.091545486
399.059198952
398.687213802
398.618477416
398.634650683
398.638694
399.059198952
399.079415536
399.079415536
398.650823951
399.059198952
399.075372219
398.654867268
399.091545486
399.091545486
399.059198952
399.091545486
399.107718754
399.059198952
399.079415536
399.059198952
399.059198952
399.499920487
398.618477416
399.043025684
399.043025684
399.487790537
399.516093755
399.48374722
399.026852417
399.48374722
399.48374722
399.48374722
399.079415536
399.075372219
398.638694
399.043025684
398.671040535
399.075372219
399.075372219
399.075372219
399.079415536
399.043025684
398.618477416
399.059198952
399.059198952
399.026852417
399.095588803
399.467573953
399.059198952
398.602304149
398.586130881
399.059198952
399.043025684
399.043025684
399.026852417
399.435227418
398.990462565
399.467573953
399.01067915

Block: 7
======================================
399.415010834
399.398837566
399.398837566
399.419054151
399.467573953
399.451400685
399.431184101
399.435227418
399.398837566
399.415010834
398.974289298
399.435227418
399.451400685
399.467573953
399.467573953
399.463530636
399.503963804
399.006635833
399.451400685
399.043025684
399.520137072
278.463230848
399.111762071
399.451400685
399.467573953
399.48374722
399.467573953
399.520137072
399.908295488
399.499920487
399.875948954
399.892122221
399.463530636
399.451400685
399.48374722
399.463530636
399.520137072
399.451400685
399.467573953
399.467573953
399.499920487
399.467573953
399.467573953
399.499920487
399.463530636
399.463530636
399.499920487
399.499920487
399.467573953
399.499920487
399.499920487
399.48374722
399.520137072
399.499920487
399.516093755
399.499920487
399.463530636
399.516093755
399.091545486
399.059198952
399.043025684
399.499920487
399.503963804
399.075372219
399.520137072
399.536310339
399.059198952
399.075372219
399.095588803
399.091545486
399.075372219
399.48374722
399.095588803
399.079415536
399.127935338

Block: 8
======================================
399.516093755
399.552483606
399.568656874
399.48374722
399.532267022
399.075372219
399.532267022
399.095588803
399.536310339
399.536310339
399.079415536
399.568656874
399.548440289
399.568656874
399.516093755
399.552483606
399.548440289
399.532267022
399.536310339
399.993205142
399.516093755
399.520137072
399.532267022
399.548440289
399.111762071
399.536310339
399.552483606
399.532267022
399.111762071
399.568656874
399.111762071
399.516093755
399.095588803
399.568656874
399.552483606
399.536310339
399.532267022
399.536310339
399.552483606
399.568656874
399.532267022
399.160281873
399.516093755
399.552483606
399.548440289
399.568656874
399.516093755
399.548440289
399.568656874
399.548440289
399.536310339
399.536310339
399.127935338
399.536310339
399.520137072
399.552483606
399.536310339
399.095588803
399.532267022
399.516093755
399.536310339
399.584830141
399.111762071
399.552483606
399.552483606
399.536310339
399.107718754
399.568656874
399.520137072
399.568656874
399.536310339
399.552483606
399.111762071
280.161423922
398.315228653

Block: 9
======================================
399.499920487
399.499920487
399.568656874
399.536310339
399.111762071
399.063242269
399.552483606
399.552483606
399.536310339
399.144108605
399.127935338
399.127935338
399.111762071
399.095588803
399.111762071
399.075372219
399.107718754
398.650823951
399.111762071
399.148151922
399.111762071
399.091545486
399.091545486
399.111762071
399.111762071
399.111762071
399.111762071
398.671040535
399.127935338
399.144108605
399.111762071
399.111762071
399.127935338
399.127935338
399.148151922
399.095588803
399.091545486
399.111762071
399.095588803
399.111762071
398.671040535
280.193770456
398.262665534
399.095588803
399.111762071
399.48374722
399.095588803
399.499920487
399.095588803
399.127935338
399.536310339
399.516093755
399.536310339
277.666697431
398.687213802
399.48374722
399.48374722
399.536310339
399.520137072
399.532267022
399.520137072
399.095588803
399.532267022
399.520137072
399.075372219
399.48374722
399.499920487
399.499920487
399.499920487
399.516093755
399.520137072
399.467573953
399.536310339
399.48374722
399.48374722

Block: 10
======================================
399.447357368
399.043025684
399.48374722
399.520137072
399.451400685
399.059198952
399.467573953
399.451400685
399.499920487
399.499920487
399.503963804
399.48374722
399.467573953
399.48374722
399.499920487
399.467573953
399.516093755
399.516093755
399.503963804
399.48374722
399.94468534
399.503963804
399.516093755
399.48374722
399.871905637
399.463530636
399.855732369
399.467573953
399.520137072
399.48374722
399.888078904
399.503963804
399.48374722
399.499920487
399.435227418
399.467573953
399.463530636
399.924468756
399.892122221
399.924468756
399.503963804
399.908295488
399.892122221
399.871905637
399.892122221
399.892122221
399.467573953
399.908295488
399.451400685
399.467573953
399.435227418
399.871905637
399.451400685
399.398837566
399.48374722
399.467573953
399.435227418
399.398837566
398.974289298
398.958116031
399.431184101
399.415010834
399.431184101
398.974289298
398.994505882
399.431184101
398.974289298
399.451400685
399.431184101
399.419054151
399.451400685
399.415010834
399.01067915
398.994505882
398.990462565

Block: 1
======================================
399.095588803
398.634650683
398.70338707
399.111762071
398.687213802
398.654867268
398.650823951
398.70338707
398.687213802
398.671040535
398.723603654
399.111762071
399.095588803
398.671040535
398.70338707
398.671040535
398.687213802
399.111762071
398.650823951
399.075372219
398.671040535
399.095588803
399.107718754
398.638694
399.095588803
399.111762071
399.123892021
399.127935338
399.111762071
398.671040535
398.671040535
399.127935338
399.107718754
399.148151922
399.548440289
399.095588803
399.16432519
399.127935338
399.127935338
399.180498457
399.16432519
399.160281873
399.144108605
399.144108605
399.144108605
399.127935338
399.144108605
399.127935338
399.127935338
399.127935338
399.568656874
399.160281873
399.127935338
399.180498457
399.548440289
399.568656874
399.127935338
399.584830141
399.144108605
399.605046725
399.621219993
399.144108605
399.588873458
398.723603654
399.605046725
399.144108605
399.127935338
399.160281873
399.605046725
399.584830141
399.180498457
399.127935338
399.584830141
399.17645514
399.605046725

Block: 2
======================================
399.588873458
399.617176676
399.212844992
399.17645514
399.192628407
399.212844992
280.060341001
398.735733604
399.16432519
281.350159073
398.751906872
399.17645514
399.17645514
398.755950189
399.17645514
399.160281873
399.212844992
279.599402881
398.379921722
281.281422687
397.195229888
399.196671724
280.129077387
398.788296723
399.245191526
399.229018259
398.788296723
280.921567488
398.363748455
399.233061576
399.212844992
399.196671724
399.208801675
281.346115756
398.808513308
399.196671724
398.788296723
280.553625655
397.482305384
399.212844992
399.229018259
279.12633481
398.824686575
399.245191526
399.208801675
399.245191526
278.398537779
399.212844992
399.229018259
280.957957339
397.923026919
399.192628407
399.212844992
399.192628407
399.180498457
280.994347191
398.751906872
399.196671724
399.245191526
399.249234843
399.245191526
399.212844992
398.804469991
399.261364794
399.265408111
399.245191526
399.212844992
399.261364794
399.281581378
280.517235804
398.416311574
398.840859842
280.889220953
398.820643258
398.820643258

Block: 3
======================================
399.245191526
399.212844992
399.229018259
399.229018259
399.192628407
398.788296723
399.212844992
399.212844992
399.196671724
399.212844992
398.755950189
399.196671724
399.212844992
398.739776921
399.196671724
399.16432519
399.196671724
399.192628407
398.735733604
398.751906872
399.17645514
399.160281873
399.212844992
398.751906872
399.17645514
399.180498457
399.605046725
399.180498457
399.160281873
278.786696196
399.144108605
399.584830141
399.552483606
398.687213802
399.588873458
399.584830141
398.650823951
398.671040535
399.111762071
399.536310339
399.111762071
398.654867268
399.127935338
399.144108605
399.111762071
398.671040535
399.568656874
399.091545486
399.127935338
399.16432519
399.144108605
398.687213802
399.552483606
399.584830141
399.160281873
399.552483606
399.552483606
399.568656874
399.180498457
399.584830141
399.617176676
399.584830141
399.584830141
399.144108605
399.196671724
399.180498457
399.601003408
399.617176676
399.621219993
399.63739326
399.160281873
399.160281873
399.588873458
399.584830141
399.196671724

Block: 4
======================================
399.601003408
400.025551677
400.061941528
399.993205142
399.568656874
399.111762071
399.605046725
400.041724944
399.568656874
399.588873458
399.160281873
400.025551677
399.63739326
400.041724944
399.621219993
399.584830141
399.63739326
399.17645514
399.617176676
399.180498457
399.16432519
399.621219993
399.633349943
399.653566527
399.180498457
399.653566527
399.617176676
399.63739326
399.212844992
399.653566527
399.63739326
399.653566527
399.17645514
399.63739326
398.768080139
399.653566527
399.17645514
398.772123456
399.212844992
399.17645514
399.180498457
399.621219993
279.211244464
399.192628407
399.653566527
279.583229613
398.33140192
399.212844992
399.601003408
399.180498457
399.180498457
399.633349943
399.160281873
399.584830141
399.160281873
399.601003408
399.17645514
399.605046725
399.160281873
399.63739326
399.601003408
399.180498457
399.16432519
399.605046725
399.16432519
399.196671724
399.144108605
399.16432519
399.160281873
398.687213802
399.160281873
399.144108605
399.160281873
399.601003408
399.160281873

Block: 5
======================================
399.621219993
399.584830141
399.212844992
399.633349943
399.584830141
398.70338707
399.568656874
399.160281873
279.296154118
398.755950189
399.568656874
399.584830141
399.160281873
278.734133077
398.804469991
399.621219993
399.601003408
399.148151922
399.17645514
399.192628407
399.160281873
399.196671724
280.820484567
399.180498457
398.735733604
399.17645514
399.229018259
399.212844992
399.229018259
399.212844992
399.192628407
399.229018259
399.229018259
399.196671724
399.16432519
399.196671724
399.229018259
399.261364794
399.265408111
399.621219993
399.621219993
399.229018259
399.673783112
399.229018259
399.277538061
399.653566527
399.261364794
399.689956379
399.653566527
399.229018259
399.229018259
399.229018259
399.63739326
399.685913062
399.669739795
399.245191526
399.617176676
399.685913062
399.669739795
399.229018259
399.261364794
399.293711329
399.261364794
399.233061576
399.245191526
399.265408111
399.245191526
399.261364794
399.208801675
399.249234843
399.261364794
398.788296723
399.229018259
399.245191526
398.836816525

Block: 6
======================================
399.245191526
399.63739326
398.788296723
277.820343471
399.229018259
170.300462031
104.06284554
170.268115497
104.010282421
170.320678616
103.60190742
170.745226884
103.618080688
170.741183567
103.569560885
170.385371685
103.990065837
170.348981833
104.006239104
170.369198418
103.977935886
169.503928614
104.891725492
169.483712029
104.871508908
169.503928614
104.398440838
169.540318465
104.345877719
169.609054852
104.721906185
168.808478117
105.53461287
167.146674895
106.771867824
166.297578359
107.996992826
165.941766477
107.996992826
165.060323405
109.282767582
164.672164989
109.319157434
164.178880334
109.776052237
164.178880334
109.723489118
164.24761672
109.670925999
163.823068452
109.978218079
163.058881569
110.875834417
162.68689642
111.247819567
162.246174884
111.268036151
162.282564735
111.6400213
161.769063497
112.169695807
161.328341961
112.569984174
113.774892592
159.585672402
114.320740366
159.585672402
114.369260168
159.161124134
114.809981704
159.108561015
115.218356705
158.752749133
115.133447051
158.821485519

Block: 7
======================================
399.669739795
277.783953619
400.025551677
277.771823668
399.702086329
278.34597466
399.669739795
278.467274165
399.245191526
398.755950189
399.196671724
398.755950189
398.739776921
399.249234843
399.212844992
399.196671724
398.751906872
399.196671724
399.212844992
398.755950189
399.212844992
399.233061576
398.751906872
399.229018259
399.245191526
398.751906872
398.804469991
399.229018259
398.772123456
399.196671724
398.772123456
399.180498457
398.820643258
398.804469991
398.824686575
398.772123456
399.196671724
398.755950189
398.820643258
398.788296723
398.804469991
398.33140192
398.804469991
398.820643258
398.772123456
398.788296723
398.788296723
398.768080139
398.788296723
398.804469991
398.788296723
399.229018259
398.735733604
398.804469991
398.755950189
398.788296723
399.229018259
398.755950189
398.751906872
398.772123456
398.808513308
398.788296723
398.808513308
398.804469991
398.772123456
399.192628407
399.229018259
398.755950189
398.739776921
399.229018259
399.229018259
399.245191526
399.245191526
399.249234843
398.772123456

Block: 8
======================================
399.702086329
399.229018259
399.685913062
399.669739795
399.653566527
399.673783112
399.653566527
399.669739795
279.603446198
399.297754645
400.11046133
400.078114796
400.074071479
400.094288063
399.653566527
280.108860803
399.265408111
400.078114796
400.094288063
400.061941528
400.094288063
400.094288063
278.006336045
398.804469991
400.057898211
280.549582338
397.0779737
285.199396706
394.142525673
399.653566527
399.669739795
283.432467246
395.331260824
399.669739795
399.669739795
279.704529119
398.400138307
280.974130607
398.379921722
399.229018259
399.212844992
399.229018259
279.077815008
400.163024449
279.837958574
399.196671724
399.685913062
399.689956379
399.669739795
399.718259597
399.718259597
399.738476181
399.738476181
399.718259597
399.738476181
399.702086329
399.738476181
399.738476181
399.702086329
399.774866033
280.395936298
398.497177911
170.336851883
103.719163609
169.89208703
104.12753861
169.948693466
104.074975491
169.572665
104.483350492
168.723568463
105.312230444
168.351583314
105.267753959
168.367756581

Block: 9
======================================
398.941942763
398.873206377
277.533267975
398.501221228
399.350317764
278.228718472
398.958116031
398.893422961
398.873206377
398.905552912
279.142508078
398.48504796
398.873206377
398.905552912
398.432484841
398.873206377
398.941942763
280.331243229
398.533567762
398.925769496
398.85703311
398.873206377
398.416311574
398.432484841
280.75174818
398.533567762
398.893422961
398.85703311
398.889379644
398.889379644
398.889379644
398.909596229
398.468874693
398.873206377
398.85703311
279.178897929
397.615734839
398.836816525
280.43232615
398.044326425
279.943084812
398.076672959
170.013386536
103.161185884
169.637358069
103.921329451
168.048334551
105.077718067
168.452666235
105.126237869
168.028117967
105.126237869
167.571223164
106.027897525
166.742343211
106.872950745
166.33396821
107.281325746
165.452525139
108.178942084
165.027976871
108.571143818
164.603428602
108.567100501
164.583212018
108.975475502
163.738158798
109.873091841
163.705812263
109.945871544
163.228700876
110.350203228
163.212527609
110.350203228
162.787979341

Block: 10
======================================
398.889379644
399.277538061
399.297754645
399.313927913
399.33010118
398.873206377
399.297754645
399.297754645
398.873206377
399.297754645
399.313927913
398.452701426
399.261364794
399.297754645
399.313927913
398.85703311
280.43232615
398.448658109
280.468716002
398.432484841
398.007936573
398.85703311
398.400138307
399.297754645
278.600703621
398.85703311
171.181905103
102.380825734
170.777573419
102.805374002
169.960823417
103.618080688
169.552448416
104.042628956
169.115770197
104.451003957
168.675048661
104.90789876
168.282846928
105.300100493
167.757215738
105.756995296
167.757215738
106.011724257
167.502486777
106.517138863
167.094111776
106.808257675
166.738299894
107.248979211
166.212668705
107.705874014
165.856856823
108.114249015
165.468698406
108.065729213
165.501044941
108.486234164
165.09266994
108.894609165
165.129059792
108.825872779
165.145233059
108.821829462
164.684294939
109.282767582
164.24761672
109.723489118
163.790721917
110.196557188
163.329783797
110.625148773
162.872888994
111.045653725
162.957798648
