
Block: 1
======================================
398.113062811
398.565914297
398.113062811
398.569957614
398.553784347
398.113062811
398.129236078
398.48504796
398.533567762
398.533567762

Average distance is : 398.371 cm
Average deviation is : 0.220 cm
Block: 2
======================================
398.958116031
398.501221228
398.958116031
398.941942763
398.941942763
398.958116031
398.925769496
398.941942763
398.941942763
398.941942763

Average distance is : 398.901 cm
Average deviation is : 0.141 cm
Block: 3
======================================
398.937899446
398.553784347
398.517394495
398.533567762
398.533567762
398.501221228
398.060499692
398.517394495
398.076672959
397.652124691

Average distance is : 398.388 cm
Average deviation is : 0.360 cm
Block: 4
======================================
398.586130881
398.517394495
279.769222188
398.109019494
398.54974103
398.076672959
398.109019494
398.54974103
398.092846227
398.092846227

Average distance is : 386.445 cm
Average deviation is : 37.483 cm
Block: 5
======================================
398.092846227
398.501221228
398.553784347
398.54974103
279.688355851
397.71681776
398.533567762
398.092846227
398.060499692
398.141366029

Average distance is : 386.393 cm
Average deviation is : 37.493 cm
Block: 6
======================================
398.517394495
279.162724662
398.481004643
398.501221228
398.533567762
398.501221228
398.958116031
398.501221228
398.056456375
398.092846227

Average distance is : 386.531 cm
Average deviation is : 37.726 cm
Block: 7
======================================
398.517394495
398.958116031
398.974289298
398.941942763
398.941942763
398.941942763
398.941942763
399.33010118
398.974289298
398.978332615

Average distance is : 398.950 cm
Average deviation is : 0.193 cm
Block: 8
======================================
399.346274447
278.871605849
398.941942763
399.7910393
399.754649448
399.738476181
399.362447715
399.350317764
399.7910393
399.346274447

Average distance is : 387.429 cm
Average deviation is : 38.144 cm
Block: 9
======================================
399.382664299
278.717959809
399.297754645
399.346274447
399.346274447
398.905552912
280.719401646
398.889379644
399.366491032
398.925769496

Average distance is : 375.290 cm
Average deviation is : 50.373 cm
Block: 10
======================================
399.366491032
399.33010118
399.350317764
399.350317764
277.804170203
398.497177911
398.958116031
398.941942763
399.366491032
399.366491032

Average distance is : 387.033 cm
Average deviation is : 38.380 cm
Block: 1
======================================
399.006635833
279.077815008
398.654867268
279.530666494
398.654867268
398.990462565
399.063242269
399.026852417
399.01067915
398.553784347

Average distance is : 374.957 cm
Average deviation is : 50.414 cm
Block: 2
======================================
398.974289298
398.990462565
399.01067915
398.994505882
398.994505882
398.582087564
398.990462565
398.958116031
399.01067915
398.974289298

Average distance is : 398.948 cm
Average deviation is : 0.130 cm
Block: 3
======================================
399.415010834
398.978332615
398.990462565
398.994505882
399.415010834
398.533567762
399.026852417
399.043025684
399.435227418
398.978332615

Average distance is : 399.081 cm
Average deviation is : 0.277 cm
Block: 4
======================================
398.978332615
399.0228091
398.958116031
399.006635833
398.990462565
399.006635833
398.974289298
398.602304149
398.990462565
398.978332615

Average distance is : 398.951 cm
Average deviation is : 0.124 cm
Block: 5
======================================
399.398837566
399.431184101
399.382664299
399.382664299
399.415010834
399.398837566
399.435227418
399.026852417
398.958116031
399.435227418

Average distance is : 399.326 cm
Average deviation is : 0.178 cm
Block: 6
======================================
398.974289298
399.451400685
398.569957614
398.990462565
399.451400685
399.467573953
398.974289298
399.431184101
399.415010834
399.447357368

Average distance is : 399.217 cm
Average deviation is : 0.316 cm
Block: 7
======================================
399.451400685
399.451400685
399.447357368
399.451400685
399.419054151
399.431184101
399.467573953
399.0228091
399.01067915
399.447357368

Average distance is : 399.360 cm
Average deviation is : 0.181 cm
Block: 8
======================================
399.467573953
398.974289298
399.463530636
399.026852417
399.006635833
399.382664299
399.451400685
399.431184101
399.026852417
399.006635833

Average distance is : 399.224 cm
Average deviation is : 0.229 cm
Block: 9
======================================
399.01067915
398.978332615
399.415010834
399.01067915
398.958116031
399.398837566
399.435227418
399.398837566
399.431184101
399.382664299

Average distance is : 399.242 cm
Average deviation is : 0.218 cm
Block: 10
======================================
399.366491032
399.382664299
398.941942763
398.941942763
398.941942763
399.378620982
399.346274447
399.346274447
399.398837566
398.921726179

Average distance is : 399.197 cm
Average deviation is : 0.224 cm