
Block: 1
======================================
201.102175331
201.118464184
200.283660483
200.690881801
201.081814265
201.102175331
200.642015243
200.210360646
200.214432859
200.739748359
200.210360646
200.267371631
200.263299417
200.283660483
201.118464184
201.102175331
200.214432859
200.194071794
200.760109425
200.226649499
200.723459506
200.214432859
200.210360646
201.102175331
200.198144007

Block: 2
======================================
201.594913125
200.654231882
200.723459506
200.181855154
200.723459506
201.098103118
200.210360646
200.658304095
200.743820572
200.214432859
200.658304095
200.177782941
200.210360646
200.642015243
201.085886478
200.690881801
201.118464184
200.214432859
200.194071794
200.214432859
201.102175331
201.118464184
200.723459506
201.102175331
200.658304095

Block: 3
======================================
200.214432859
200.198144007
201.081814265
200.743820572
201.118464184
200.230721712
201.102175331
200.194071794
201.102175331
200.210360646
200.194071794
201.118464184
200.707170653
200.690881801
200.637943029
200.230721712
200.247010565
200.230721712
200.210360646
200.739748359
201.102175331
200.198144007
201.085886478
200.27958827
200.230721712

Block: 4
======================================
200.295877123
201.102175331
200.637943029
201.167330742
201.134753036
200.642015243
201.102175331
200.230721712
201.085886478
200.637943029
200.707170653
201.081814265
200.658304095
201.102175331
201.102175331
200.727531719
200.198144007
200.247010565
200.690881801
200.723459506
200.214432859
200.230721712
200.723459506
200.690881801
200.283660483

Block: 5
======================================
200.230721712
200.247010565
200.690881801
200.670520735
201.118464184
200.654231882
200.658304095
201.098103118
201.118464184
200.637943029
201.102175331
201.102175331
200.251082778
200.690881801
200.727531719
200.210360646
200.674592948
200.214432859
200.642015243
200.690881801
200.247010565
200.739748359
200.194071794
200.230721712
200.194071794

Block: 6
======================================
200.283660483
200.723459506
200.214432859
201.134753036
200.739748359
200.214432859
201.118464184
200.214432859
200.27958827
200.247010565
200.230721712
200.230721712
200.743820572
201.102175331
200.226649499
200.263299417
200.214432859
201.118464184
201.102175331
200.707170653
200.210360646
200.230721712
200.214432859
200.226649499
200.247010565

Block: 7
======================================
200.177782941
200.210360646
200.194071794
201.102175331
201.098103118
200.609437537
200.605365324
201.102175331
201.118464184
201.081814265
200.210360646
201.118464184
200.743820572
201.102175331
201.118464184
200.214432859
200.707170653
200.658304095
201.118464184
200.642015243
201.098103118
200.642015243
201.118464184
200.727531719
200.743820572

Block: 8
======================================
201.065525413
196.252169442
200.177782941
200.230721712
200.214432859
200.743820572
201.118464184
200.214432859
200.214432859
200.210360646
200.707170653
200.739748359
200.674592948
200.214432859
201.085886478
200.694954014
200.230721712
201.118464184
200.739748359
201.081814265
200.739748359
200.226649499
200.674592948
201.118464184
201.085886478

Block: 9
======================================
200.637943029
200.727531719
200.230721712
201.098103118
200.198144007
201.081814265
200.247010565
200.226649499
201.102175331
200.727531719
200.210360646
201.085886478
200.230721712
200.694954014
200.214432859
200.723459506
200.226649499
200.226649499
200.198144007
200.214432859
201.546046567
200.194071794
200.214432859
201.118464184
200.642015243

Block: 10
======================================
200.707170653
201.134753036
200.760109425
200.674592948
200.658304095
200.247010565
201.102175331
200.247010565
201.102175331
201.118464184
200.210360646
201.118464184
200.194071794
201.098103118
201.081814265
200.27958827
201.081814265
200.727531719
201.081814265
200.727531719
201.085886478
201.098103118
200.263299417
201.118464184
200.214432859
