
Block: 1
======================================
99.9337512255
100.090691447
99.8841911554
100.334361792
99.9172312021
99.9172312021
99.9172312021
99.9337512255
99.8800611496
100.297191739
99.8800611496
99.9544012547
99.8841911554
99.9337512255
99.9007111788
100.313711762
99.8800611496
99.9007111788
99.9502712488
99.9337512255
99.9131011963
99.9172312021
99.9131011963
100.330231786
100.330231786
99.9172312021
100.334361792
100.297191739
100.334361792
100.313711762
100.317841768
99.9007111788
100.297191739
99.9007111788
99.9502712488
99.9337512255
99.9337512255
100.313711762
100.334361792
99.9007111788
99.8965811729
99.8841911554
99.8800611496
99.8841911554
99.8841911554
100.280671716
99.9502712488
99.9007111788
99.8800611496
99.8800611496

Block: 2
======================================
99.9172312021
99.8800611496
99.9007111788
100.297191739
99.8800611496
100.280671716
99.9172312021
100.330231786
99.9007111788
99.9337512255
99.9337512255
99.9007111788
100.280671716
100.350881815
99.9172312021
99.9172312021
100.297191739
99.9337512255
99.9007111788
100.301321745
99.9172312021
80.8613842726
99.9172312021
99.8841911554
100.297191739
100.346751809
99.8800611496
99.8676711321
99.8841911554
99.9502712488
99.8965811729
99.9172312021
99.8965811729
99.8635411263
99.8800611496
99.9172312021
99.9337512255
99.9172312021
99.8800611496
100.350881815
99.8635411263
100.334361792
99.9007111788
100.086561441
99.9337512255
99.9337512255
99.8841911554
99.8965811729
99.8800611496
99.9502712488

Block: 3
======================================
99.9502712488
100.297191739
99.9172312021
100.297191739
100.280671716
100.334361792
99.8635411263
99.9172312021
100.280671716
99.8470211029
99.9007111788
99.8965811729
99.9337512255
99.9007111788
100.313711762
100.313711762
99.9502712488
99.8800611496
99.8800611496
99.8800611496
99.9172312021
99.8635411263
99.8800611496
99.9337512255
99.8800611496
99.8635411263
100.297191739
100.297191739
99.9172312021
99.9337512255
99.8800611496
100.313711762
99.9172312021
99.9007111788
99.9502712488
99.8676711321
99.8965811729
99.8841911554
99.9296212196
99.8841911554
100.297191739
99.8800611496
99.9172312021
99.8965811729
99.9337512255
99.9337512255
99.9131011963
99.8841911554
99.8800611496
99.9337512255

Block: 4
======================================
99.8800611496
99.8470211029
100.317841768
99.8800611496
99.9337512255
99.8470211029
100.367401838
99.9172312021
99.9337512255
99.8800611496
99.9007111788
99.9502712488
99.8635411263
100.367401838
99.8800611496
99.9337512255
99.8965811729
99.8800611496
100.350881815
100.280671716
99.9337512255
99.9337512255
99.8965811729
99.8635411263
99.9544012547
99.9337512255
100.313711762
99.8635411263
99.9337512255
99.9131011963
99.9337512255
99.8965811729
99.9502712488
99.9337512255
99.8635411263
99.9337512255
99.8676711321
99.9131011963
99.9337512255
99.8470211029
99.8800611496
99.9172312021
99.8800611496
99.8800611496
99.9007111788
99.8800611496
99.8800611496
99.9007111788
99.9337512255
99.8635411263

Block: 5
======================================
99.8841911554
99.9502712488
99.9007111788
99.8841911554
99.8841911554
99.8800611496
100.317841768
99.9337512255
99.8841911554
99.8841911554
100.280671716
99.8965811729
99.8800611496
99.8841911554
100.317841768
99.8800611496
100.334361792
99.8800611496
99.9007111788
99.8965811729
99.9172312021
99.9007111788
99.8965811729
99.8635411263
99.8800611496
99.8841911554
99.9337512255
99.9337512255
99.9172312021
99.9502712488
99.9337512255
99.9667912722
99.9502712488
99.9007111788
100.367401838
99.9337512255
99.9172312021
99.9131011963
99.9337512255
99.9544012547
99.9337512255
99.9337512255
99.9544012547
99.9007111788
100.297191739
100.297191739
99.9172312021
99.9337512255
100.317841768
100.346751809

Block: 6
======================================
99.9337512255
99.8965811729
99.9172312021
99.9172312021
100.334361792
100.313711762
99.9502712488
100.330231786
99.8676711321
100.346751809
100.280671716
99.8635411263
99.9172312021
99.9337512255
99.9502712488
99.9337512255
99.9337512255
99.9337512255
99.9172312021
99.9007111788
100.346751809
100.317841768
99.9337512255
99.9337512255
100.334361792
100.280671716
99.8800611496
99.9502712488
99.8800611496
99.9007111788
99.8800611496
100.313711762
99.9172312021
99.8800611496
100.313711762
99.9337512255
99.8800611496
99.8635411263
99.8800611496
99.9337512255
99.9502712488
99.9007111788
99.8841911554
99.8800611496
99.8800611496
99.8800611496
99.9337512255
99.9172312021
99.9337512255
99.8965811729

Block: 7
======================================
99.8470211029
99.9007111788
99.9172312021
99.9172312021
99.9337512255
99.9502712488
99.9172312021
99.9172312021
99.9337512255
99.9337512255
99.8800611496
99.9502712488
99.8800611496
99.9337512255
99.9337512255
99.9337512255
73.931234479
55.0323277712
72.3370522261
57.2831809521
70.5900597572
59.5712041855
68.7191671133
60.8886760473
66.9350045919
61.805537343
66.604604125
61.6857671738
66.1874735355
62.5530683994
65.3243023157
63.5029697418
65.2540922165
63.019759059
64.8039215803
64.3537509441
63.800330162
64.180290699
63.6433899403
63.9366203547
64.7667515278
63.069319129
65.3408223391
63.8127201796
64.4404810667
64.3041908741
63.9861804247
63.9903104305
64.7171914577
63.573179841

Block: 8
======================================
99.8470211029
99.9007111788
99.8800611496
100.317841768
99.8470211029
99.9337512255
99.8965811729
99.9502712488
99.8965811729
99.9007111788
99.9172312021
99.9131011963
99.8635411263
99.9502712488
99.9007111788
100.297191739
99.9172312021
99.8841911554
100.297191739
100.297191739
99.9007111788
99.9337512255
99.8965811729
100.317841768
100.313711762
99.9007111788
99.8841911554
99.8965811729
100.297191739
100.297191739
99.9337512255
99.8800611496
100.297191739
99.9172312021
99.4670605659
99.8800611496
99.9502712488
99.9502712488
99.8800611496
99.9337512255
99.8841911554
100.317841768
99.9337512255
99.8965811729
99.8841911554
99.9007111788
99.8800611496
99.9007111788
99.8841911554
99.8965811729

Block: 9
======================================
99.8635411263
99.9502712488
100.346751809
99.9337512255
99.9007111788
99.8841911554
99.8800611496
100.313711762
100.346751809
99.8800611496
100.280671716
100.330231786
100.27654171
99.8676711321
99.9337512255
99.8965811729
100.317841768
99.8800611496
99.9172312021
99.8800611496
100.280671716
99.8800611496
99.8800611496
99.8800611496
99.9172312021
99.9337512255
99.9172312021
100.363271832
100.313711762
99.8841911554
99.9131011963
99.8676711321
99.9131011963
99.9172312021
99.9131011963
99.9007111788
99.9337512255
100.367401838
100.297191739
99.8800611496
99.9131011963
99.9337512255
99.9337512255
99.9337512255
99.8841911554
99.9172312021
99.4505405426
100.350881815
99.9131011963
99.9131011963

Block: 10
======================================
99.8800611496
99.9131011963
99.9502712488
99.8800611496
99.9172312021
99.8965811729
99.8635411263
99.8800611496
99.8800611496
99.8841911554
99.9007111788
99.9131011963
99.8800611496
99.8841911554
99.8841911554
100.297191739
100.297191739
99.9007111788
100.330231786
99.8965811729
99.8841911554
99.9502712488
100.297191739
99.9172312021
99.9337512255
100.297191739
100.334361792
99.9172312021
99.8965811729
99.8965811729
99.8841911554
99.9131011963
99.9007111788
99.9007111788
100.313711762
99.9131011963
99.8800611496
99.9502712488
99.8841911554
100.313711762
99.9007111788
99.8965811729
100.313711762
100.330231786
100.297191739
100.350881815
100.334361792
99.9007111788
99.8965811729
100.330231786
