
Block: 1
======================================
99.8965811729
99.9667912722
99.9131011963
99.9337512255
99.8635411263

Block: 2
======================================
99.9337512255
99.9007111788
99.8800611496
99.9337512255
99.9007111788

Block: 3
======================================
100.313711762
99.9337512255
99.9172312021
99.9337512255
99.9337512255

Block: 4
======================================
99.8841911554
99.8470211029
99.9007111788
100.247631669
99.9172312021

Block: 5
======================================
99.8841911554
99.9007111788
100.264151692
99.8841911554
99.8800611496

Block: 6
======================================
99.8965811729
99.8965811729
99.9172312021
99.9337512255
99.8635411263

Block: 7
======================================
99.9337512255
99.9172312021
99.8841911554
99.8800611496
99.8800611496

Block: 8
======================================
99.8965811729
99.9172312021
99.8841911554
99.8635411263
100.330231786

Block: 9
======================================
99.9337512255
99.8800611496
99.9007111788
99.9667912722
99.8635411263

Block: 10
======================================
99.8305010796
99.8800611496
60.0915849209
64.9278217554
59.9387747049
