
Block: 1
======================================
99.8965811729
99.9667912722
99.9131011963
99.9337512255
99.8635411263

Average distance is : 99.915 cm
Average deviation is : 0.039 cm
Block: 2
======================================
99.9337512255
99.9007111788
99.8800611496
99.9337512255
99.9007111788

Average distance is : 99.910 cm
Average deviation is : 0.023 cm
Block: 3
======================================
100.313711762
99.9337512255
99.9172312021
99.9337512255
99.9337512255

Average distance is : 100.006 cm
Average deviation is : 0.172 cm
Block: 4
======================================
99.8841911554
99.8470211029
99.9007111788
100.247631669
99.9172312021

Average distance is : 99.959 cm
Average deviation is : 0.163 cm
Block: 5
======================================
99.8841911554
99.9007111788
100.264151692
99.8841911554
99.8800611496

Average distance is : 99.963 cm
Average deviation is : 0.169 cm
Block: 6
======================================
99.8965811729
99.8965811729
99.9172312021
99.9337512255
99.8635411263

Average distance is : 99.902 cm
Average deviation is : 0.026 cm
Block: 7
======================================
99.9337512255
99.9172312021
99.8841911554
99.8800611496
99.8800611496

Average distance is : 99.899 cm
Average deviation is : 0.025 cm
Block: 8
======================================
99.8965811729
99.9172312021
99.8841911554
99.8635411263
100.330231786

Average distance is : 99.978 cm
Average deviation is : 0.198 cm
Block: 9
======================================
99.9337512255
99.8800611496
99.9007111788
99.9667912722
99.8635411263

Average distance is : 99.909 cm
Average deviation is : 0.042 cm
Block: 10
======================================
99.8305010796
99.8800611496
60.0915849209
64.9278217554
59.9387747049

Average distance is : 76.934 cm
Average deviation is : 21.020 cm
Average distance for 10x5 is : 97.638 cm
Average deviation for 10x5 is : 2.188 cm
 Percentage of values that failed: 0.000