
Block: 1
======================================
100.297191739
100.334361792
99.8305010796
100.317841768
100.330231786

Block: 2
======================================
99.8841911554
100.763882399
100.297191739
101.631183624
100.346751809

Block: 3
======================================
101.214053035
100.313711762
100.346751809
100.280671716
100.317841768

Block: 4
======================================
99.8263710737
100.297191739
99.8470211029
100.297191739
99.4133704901

Block: 5
======================================
99.6735608578
99.3968504667
100.334361792
100.297191739
100.763882399

Block: 6
======================================
99.8635411263
100.784532428
100.330231786
99.4464105368
99.4340205193

Block: 7
======================================
100.297191739
99.8841911554
100.297191739
100.313711762
100.313711762

Block: 8
======================================
99.8635411263
101.164492965
100.334361792
99.8470211029
99.8676711321

Block: 9
======================================
100.313711762
100.057651401
100.350881815
100.334361792
100.297191739

Block: 10
======================================
99.8470211029
100.763882399
100.297191739
98.7566995621
100.330231786
