
Block: 1
======================================
99.8635411263
100.796922445
100.317841768
100.313711762
100.280671716
99.8800611496
99.8841911554
99.8800611496
99.8800611496
100.346751809
99.8635411263
99.8965811729
100.763882399
99.8800611496
100.768012404
99.8841911554
100.763882399
99.8635411263
99.8841911554
99.8800611496
100.784532428
100.747362375
100.763882399
100.780402422
100.763882399
99.8800611496
99.8841911554
99.8800611496
99.8800611496
99.8470211029
99.8800611496
100.747362375
99.8635411263
100.747362375
100.784532428
99.8800611496
99.8635411263
99.8635411263
99.8635411263
99.8635411263
99.8965811729
99.8635411263
99.8800611496
99.8800611496
99.4629305601
99.8800611496
100.363271832
99.8800611496
99.8841911554
99.8841911554

Block: 2
======================================
100.313711762
100.796922445
99.8635411263
100.27654171
101.201663017
99.5331406593
99.8635411263
100.763882399
100.768012404
99.8635411263
99.8635411263
99.8800611496
99.8635411263
100.763882399
99.8470211029
99.8841911554
100.768012404
99.9007111788
99.8800611496
99.8635411263
100.747362375
100.768012404
100.768012404
100.763882399
100.763882399
99.8841911554
99.8800611496
99.8470211029
99.8965811729
100.763882399
99.8676711321
99.8635411263
99.8635411263
99.8635411263
99.8635411263
100.780402422
100.780402422
100.780402422
100.763882399
100.784532428
99.8635411263
99.8428910971
99.8841911554
100.768012404
99.9007111788
99.8676711321
99.8635411263
99.8635411263
99.8841911554
100.784532428

Block: 3
======================================
100.313711762
99.8965811729
99.9131011963
101.218183041
100.784532428
100.768012404
100.768012404
100.784532428
99.8965811729
100.763882399
100.313711762
99.9007111788
100.763882399
99.8635411263
100.801052451
99.8841911554
99.8635411263
100.763882399
99.8800611496
100.747362375
99.8470211029
100.297191739
99.8800611496
99.8470211029
99.8635411263
100.780402422
100.363271832
99.8800611496
99.8800611496
99.8800611496
100.367401838
100.784532428
99.8965811729
100.747362375
100.784532428
100.763882399
99.8841911554
99.8800611496
99.8635411263
99.8800611496
99.8635411263
99.8800611496
100.747362375
100.763882399
99.8841911554
100.747362375
100.751492381
99.8841911554
99.8800611496
99.8800611496

Block: 4
======================================
100.317841768
99.9131011963
100.801052451
99.8841911554
100.780402422
100.867132545
99.8800611496
99.8098510504
99.8800611496
99.8841911554
99.8635411263
99.8965811729
99.8635411263
99.8800611496
99.8635411263
99.8635411263
99.8470211029
99.8635411263
99.8676711321
99.8635411263
99.8635411263
99.9172312021
99.8635411263
99.8800611496
100.784532428
100.784532428
100.768012404
100.784532428
99.8800611496
99.8800611496
99.8965811729
99.8965811729
99.9007111788
100.747362375
99.8800611496
99.8841911554
100.747362375
99.8965811729
99.8965811729
99.8841911554
99.8470211029
100.350881815
99.8800611496
99.8800611496
99.8470211029
99.8635411263
100.801052451
99.9007111788
99.8800611496
99.8800611496

Block: 5
======================================
100.313711762
99.8800611496
99.8635411263
99.9007111788
99.9007111788
99.9172312021
99.8470211029
100.801052451
99.8800611496
99.8635411263
99.8800611496
99.8841911554
99.8800611496
99.8470211029
99.8635411263
99.8635411263
99.8635411263
99.8800611496
99.8635411263
99.8965811729
100.346751809
99.8635411263
99.9007111788
99.8841911554
99.8635411263
99.8470211029
99.8635411263
99.8800611496
100.747362375
100.747362375
99.8470211029
99.8635411263
99.8635411263
99.8676711321
99.8841911554
100.747362375
99.8635411263
99.8676711321
99.8800611496
100.763882399
99.8635411263
99.8635411263
99.8676711321
99.8635411263
99.8635411263
99.8635411263
99.8800611496
99.8841911554
99.8635411263
99.8800611496

Block: 6
======================================
99.8263710737
99.9131011963
101.197533011
100.297191739
99.4133704901
100.784532428
100.784532428
99.8470211029
99.8635411263
99.8635411263
99.9007111788
99.8841911554
100.747362375
99.8800611496
99.8800611496
100.763882399
99.8800611496
100.780402422
99.8841911554
100.763882399
99.8965811729
99.9007111788
99.9007111788
100.763882399
99.8800611496
99.9007111788
99.9007111788
99.8841911554
99.8635411263
99.8635411263
99.8800611496
100.747362375
99.8965811729
99.8800611496
99.8635411263
100.763882399
99.9007111788
100.350881815
99.8635411263
99.8635411263
100.763882399
100.313711762
99.8676711321
100.334361792
91.0129386187
99.8800611496
99.8965811729
99.8676711321
100.763882399
100.297191739

Block: 7
======================================
100.313711762
100.763882399
100.763882399
100.334361792
100.280671716
100.297191739
99.8470211029
99.8635411263
99.8676711321
100.350881815
99.8635411263
99.8841911554
99.8676711321
99.8841911554
99.8965811729
99.8470211029
99.8635411263
99.9007111788
99.8470211029
100.747362375
99.8676711321
99.8800611496
100.726712346
99.8841911554
99.8635411263
99.8841911554
99.8965811729
99.8800611496
99.8800611496
100.350881815
99.8800611496
99.8965811729
99.8635411263
99.8676711321
99.8676711321
99.8841911554
99.8635411263
99.8635411263
99.8800611496
99.8635411263
99.8635411263
99.8635411263
99.8635411263
99.8635411263
99.8635411263
99.8635411263
99.8800611496
99.8635411263
99.8965811729
99.8635411263

Block: 8
======================================
99.8635411263
100.313711762
99.9172312021
99.8635411263
100.747362375
99.8965811729
100.747362375
99.9007111788
99.8635411263
99.8800611496
99.9007111788
100.784532428
99.8800611496
99.8635411263
99.8635411263
99.8800611496
99.9007111788
99.8676711321
99.9007111788
99.8841911554
99.8800611496
99.8635411263
99.8470211029
99.8470211029
99.8841911554
99.8676711321
100.350881815
99.8635411263
99.8800611496
99.8635411263
100.747362375
99.8635411263
99.8635411263
99.8800611496
99.8800611496
99.8800611496
100.763882399
99.8965811729
99.8635411263
99.8800611496
100.747362375
99.8800611496
99.8965811729
99.8965811729
100.801052451
100.297191739
99.9007111788
99.8841911554
99.4670605659
100.796922445

Block: 9
======================================
100.747362375
99.8800611496
100.763882399
100.801052451
99.8263710737
100.817572474
100.346751809
99.8635411263
99.8676711321
99.8635411263
99.9007111788
100.763882399
99.8676711321
100.747362375
99.8635411263
99.8635411263
99.8635411263
99.8635411263
99.8635411263
100.763882399
99.8676711321
99.8800611496
99.8635411263
100.346751809
100.334361792
99.8800611496
99.8635411263
99.8800611496
100.346751809
99.8635411263
99.8800611496
99.8800611496
99.8800611496
99.8800611496
99.4133704901
100.763882399
99.8635411263
99.8676711321
99.8965811729
99.8470211029
99.8800611496
100.367401838
99.8800611496
99.8965811729
99.8800611496
99.9007111788
100.350881815
99.8470211029
99.8635411263
99.8635411263

Block: 10
======================================
99.8800611496
99.8800611496
100.796922445
99.8635411263
99.8470211029
99.8635411263
99.8635411263
99.8470211029
100.334361792
99.8635411263
99.8635411263
99.8800611496
99.8635411263
99.8470211029
99.8635411263
99.8635411263
99.8635411263
99.8470211029
99.8676711321
100.763882399
99.8470211029
99.8841911554
99.8635411263
99.8800611496
99.8965811729
99.8841911554
99.8470211029
100.330231786
100.330231786
99.8800611496
99.8635411263
99.8800611496
99.8800611496
99.8635411263
99.8470211029
99.8800611496
99.8841911554
100.763882399
99.8635411263
99.8635411263
99.8635411263
99.8800611496
99.8800611496
100.747362375
99.8841911554
99.8841911554
100.784532428
99.8800611496
99.9007111788
99.9007111788
