
Block: 1
======================================
100.313711762
101.631183624
100.313711762
100.334361792
100.330231786
100.363271832
100.313711762
100.763882399
100.747362375
100.350881815

Average distance is : 100.546 cm
Average deviation is : 0.420 cm
Block: 2
======================================
99.8470211029
100.330231786
100.297191739
99.8676711321
100.350881815
100.313711762
100.334361792
99.8263710737
101.143842936
100.801052451

Average distance is : 100.311 cm
Average deviation is : 0.419 cm
Block: 3
======================================
100.313711762
100.297191739
100.317841768
100.297191739
100.297191739
100.346751809
100.330231786
100.768012404
99.9007111788
99.8965811729

Average distance is : 100.277 cm
Average deviation is : 0.245 cm
Block: 4
======================================
99.8305010796
100.330231786
99.8635411263
100.367401838
99.8470211029
99.8470211029
100.817572474
100.763882399
100.313711762
100.784532428

Average distance is : 100.277 cm
Average deviation is : 0.414 cm
Block: 5
======================================
99.8635411263
99.4298905134
99.8470211029
99.8841911554
99.4505405426
99.8305010796
100.334361792
100.780402422
99.8841911554
100.768012404

Average distance is : 100.007 cm
Average deviation is : 0.475 cm
Block: 6
======================================
100.313711762
100.763882399
100.280671716
100.297191739
99.3803304434
99.8635411263
100.784532428
100.751492381
100.763882399
99.8841911554

Average distance is : 100.308 cm
Average deviation is : 0.481 cm
Block: 7
======================================
100.313711762
99.8470211029
100.313711762
101.181012988
100.780402422
100.313711762
101.197533011
100.313711762
100.346751809
101.197533011

Average distance is : 100.581 cm
Average deviation is : 0.476 cm
Block: 8
======================================
100.280671716
100.280671716
100.313711762
99.8470211029
100.297191739
100.297191739
99.8800611496
100.768012404
100.747362375
100.784532428

Average distance is : 100.350 cm
Average deviation is : 0.335 cm
Block: 9
======================================
100.313711762
101.234703064
100.330231786
99.8635411263
100.334361792
100.313711762
100.297191739
99.8965811729
100.763882399
99.8635411263

Average distance is : 100.321 cm
Average deviation is : 0.426 cm
Block: 10
======================================
100.330231786
100.367401838
100.297191739
99.8470211029
100.350881815
99.8470211029
100.780402422
100.796922445
100.763882399
100.763882399

Average distance is : 100.414 cm
Average deviation is : 0.364 cm
Average distance for 10x10 is : 100.339 cm
Average deviation for 10x10 is : 0.406 cm
 Percentage of values that failed: 0.000