
Block: 1
======================================
50.4731992722
50.4567370415
50.4567370415
50.4567370415
50.4567370415
50.4567370415
50.4402748108
50.4567370415
50.4896615028
50.4238125801
50.4567370415
50.4937770605
50.4567370415
50.4731992722
50.4402748108
50.4196970224
50.4567370415
50.4402748108
50.4402748108
50.4402748108
50.4567370415
50.4567370415
50.4567370415
50.4526214838
50.4567370415
50.4567370415
50.4567370415
50.4402748108
50.4402748108
50.4567370415
50.4402748108
50.4567370415
51.386853075
50.4402748108
50.4773148298
50.4731992722
50.4402748108
50.4567370415
50.4567370415
50.4567370415
50.4361592531
50.4402748108
50.4567370415
50.4526214838
50.4567370415
50.4896615028
50.4896615028
50.4731992722
50.4937770605
50.4238125801
50.4196970224
50.4567370415
50.4896615028
50.4567370415
50.4238125801
50.4567370415
50.4731992722
50.4196970224
50.4567370415
50.4567370415
50.4402748108
50.4196970224
50.4238125801
50.4567370415
50.4402748108
50.4361592531
50.4731992722
50.4731992722
50.4567370415
50.4361592531
50.4361592531
50.4402748108
50.4238125801
50.4567370415
50.4567370415
50.4731992722
50.4567370415
50.4567370415
50.4361592531
50.4238125801
50.4196970224
50.4567370415
50.4567370415
50.4731992722
50.4567370415
50.2139191389
50.4567370415
50.4567370415
50.4567370415
50.4402748108
50.4361592531
50.4402748108
50.4402748108
50.4567370415
50.4402748108
50.4238125801
50.4361592531
50.4361592531
50.4402748108
50.4731992722

Average distance is : 50.459 cm
Average deviation is : 0.098 cm
Block: 2
======================================
50.8353683472
50.8518305779
50.9053328276
50.4402748108
50.4402748108
50.4402748108
50.8888705969
50.4402748108
50.4567370415
50.8724083662
50.8888705969
50.4567370415
50.4238125801
50.4937770605
50.8724083662
50.4567370415
50.8724083662
50.8353683472
50.8394839048
50.8518305779
50.8682928085
50.8888705969
50.8888705969
50.8518305779
50.8353683472
50.8888705969
50.4567370415
50.8724083662
50.8682928085
50.8353683472
50.8559461355
50.8724083662
50.8394839048
50.8724083662
50.8394839048
50.8888705969
50.8724083662
50.8559461355
50.8559461355
50.8888705969
50.8518305779
50.8847550392
50.8682928085
50.8724083662
50.8353683472
50.8682928085
50.8394839048
50.8353683472
50.8724083662
50.8682928085
50.8724083662
50.8518305779
50.8518305779
50.8724083662
50.8518305779
50.8559461355
50.8353683472
50.8518305779
50.8724083662
50.8024438858
50.8682928085
50.8559461355
50.8353683472
50.8724083662
50.8682928085
50.8682928085
50.8888705969
50.8724083662
50.8682928085
50.8682928085
50.8682928085
51.4074308634
50.8724083662
50.8682928085
50.9053328276
50.8518305779
50.8518305779
50.8518305779
50.8559461355
50.8724083662
50.8518305779
50.8724083662
50.8724083662
50.8559461355
50.8724083662
50.4567370415
50.4402748108
50.4238125801
50.4567370415
50.8847550392
50.8518305779
50.8353683472
50.8682928085
50.8518305779
50.8353683472
50.8518305779
50.8724083662
50.8724083662
50.8559461355
50.8682928085

Average distance is : 50.810 cm
Average deviation is : 0.157 cm
Block: 3
======================================
50.8024438858
50.8024438858
50.8024438858
50.8189061165
50.8394839048
50.8189061165
50.8559461355
50.8724083662
50.8682928085
50.8353683472
50.8394839048
50.8024438858
50.8724083662
50.8189061165
50.8189061165
50.8353683472
50.8724083662
50.8189061165
50.8024438858
50.8189061165
50.7859816551
50.7859816551
50.4238125801
50.8189061165
50.4032347918
50.4032347918
50.4073503494
50.8353683472
50.4073503494
50.7654038668
50.4032347918
50.3867725611
50.8394839048
50.3867725611
50.4238125801
50.4073503494
50.3703103304
50.4196970224
50.3703103304
50.4238125801
50.4032347918
50.4032347918
50.4032347918
50.7859816551
50.3703103304
50.3867725611
50.4073503494
50.3867725611
50.3867725611
50.4238125801
50.3867725611
50.4196970224
50.3867725611
50.8353683472
50.4032347918
50.3908881187
50.4032347918
50.8024438858
50.3867725611
50.8189061165
50.3867725611
50.3703103304
50.4238125801
50.4402748108
50.4032347918
50.4073503494
50.3867725611
50.4073503494
50.3867725611
50.4073503494
50.3867725611
50.3867725611
50.8024438858
50.3867725611
50.8189061165
50.7983283281
50.7654038668
50.8024438858
50.3867725611
50.4196970224
50.8394839048
50.8724083662
50.8189061165
50.8888705969
50.8024438858
50.8353683472
50.8189061165
50.8189061165
50.4032347918
50.8189061165
50.8559461355
50.8024438858
50.8024438858
50.8189061165
50.7859816551
50.4238125801
50.4073503494
50.4073503494
50.3867725611
50.4196970224

Average distance is : 50.607 cm
Average deviation is : 0.213 cm
Block: 4
======================================
50.4238125801
50.4073503494
50.4402748108
50.4032347918
50.4402748108
50.4032347918
50.4073503494
50.3867725611
50.4073503494
50.3867725611
50.4238125801
50.4032347918
50.4073503494
50.4032347918
50.4073503494
50.4032347918
50.4073503494
50.0781057358
50.4032347918
50.3867725611
50.4196970224
50.4402748108
50.4238125801
50.4032347918
50.4032347918
50.4402748108
50.3867725611
49.9217145443
50.4032347918
50.3867725611
50.3867725611
50.4238125801
50.3867725611
50.4032347918
50.3867725611
50.4361592531
50.4073503494
50.4032347918
50.4073503494
50.4073503494
50.4073503494
50.4196970224
50.4032347918
50.4073503494
50.4196970224
50.4238125801
50.4073503494
50.4196970224
50.4196970224
50.4196970224
50.4032347918
50.4402748108
50.3867725611
50.4402748108
50.3867725611
50.3867725611
50.3908881187
50.4238125801
50.3867725611
50.4196970224
50.4032347918
50.4238125801
50.3867725611
50.4196970224
50.3908881187
50.3867725611
50.4032347918
50.8353683472
50.8189061165
50.8189061165
50.7818660975
50.7859816551
50.7983283281
50.8353683472
50.7859816551
50.8189061165
50.8353683472
50.8518305779
50.8353683472
50.8559461355
50.8024438858
50.4073503494
50.8024438858
50.8024438858
50.8024438858
50.8024438858
50.3703103304
50.8353683472
50.8189061165
50.7859816551
50.8189061165
50.8024438858
50.8353683472
50.7859816551
50.7859816551
50.8724083662
50.8724083662
50.8230216742
50.8353683472
50.8189061165

Average distance is : 50.527 cm
Average deviation is : 0.206 cm
Block: 5
======================================
50.4238125801
50.8518305779
50.3703103304
50.4032347918
50.4196970224
50.4073503494
50.8024438858
50.4196970224
50.4073503494
50.4073503494
50.4238125801
50.3908881187
50.8189061165
50.3867725611
50.4073503494
50.4032347918
50.4032347918
50.4073503494
50.4361592531
50.3703103304
50.4073503494
50.4238125801
50.3867725611
50.4032347918
50.4196970224
50.3867725611
50.4238125801
50.4238125801
50.3867725611
50.4032347918
50.3703103304
50.3867725611
50.3703103304
50.8353683472
50.4032347918
50.3867725611
50.3703103304
50.3867725611
50.3867725611
50.3703103304
50.4073503494
50.3867725611
50.4238125801
50.4196970224
50.4032347918
50.3908881187
50.3867725611
50.3908881187
50.4238125801
50.8189061165
50.8189061165
50.3703103304
50.8024438858
50.7859816551
50.4032347918
50.8024438858
50.8189061165
50.7983283281
50.8189061165
50.8189061165
50.8189061165
50.7818660975
50.7859816551
50.8353683472
50.8353683472
50.8189061165
50.7983283281
50.8024438858
50.8189061165
50.8024438858
50.8230216742
50.8353683472
50.8724083662
50.8518305779
50.8353683472
50.8888705969
50.8024438858
50.7818660975
50.8189061165
50.8847550392
50.8682928085
50.8724083662
50.8353683472
50.8518305779
50.8518305779
50.8888705969
50.8518305779
50.8353683472
50.8724083662
50.8682928085
50.8682928085
50.8518305779
50.8518305779
50.8724083662
50.8353683472
50.8024438858
50.8559461355
50.8724083662
50.8024438858
50.8394839048

Average distance is : 50.629 cm
Average deviation is : 0.219 cm
Block: 6
======================================
50.3703103304
50.4032347918
50.4238125801
50.3703103304
50.3703103304
50.3867725611
50.4196970224
50.4196970224
50.4238125801
50.3867725611
50.3867725611
50.4032347918
50.4032347918
50.4196970224
50.4032347918
50.3703103304
50.3538480997
50.4196970224
50.4032347918
50.3867725611
50.4032347918
50.4361592531
50.4032347918
50.4073503494
50.4402748108
49.9011367559
50.4032347918
50.3703103304
50.4238125801
50.4238125801
50.3908881187
50.3908881187
50.4238125801
50.3867725611
50.4238125801
50.4032347918
50.3867725611
50.4196970224
50.4238125801
50.4032347918
50.3867725611
50.4238125801
50.4073503494
50.4196970224
50.8189061165
50.4073503494
50.4073503494
50.3867725611
50.4073503494
50.4238125801
50.4196970224
50.8353683472
50.8189061165
50.7859816551
50.4032347918
50.3867725611
50.4196970224
50.8189061165
50.4196970224
50.8518305779
50.4032347918
50.4238125801
50.8353683472
50.4073503494
50.4073503494
50.8189061165
50.8189061165
50.8724083662
50.8353683472
50.8559461355
50.8024438858
50.4032347918
50.3867725611
50.8024438858
50.8724083662
50.7859816551
50.4032347918
50.8518305779
50.3867725611
50.4032347918
50.4032347918
50.4032347918
50.4032347918
50.4073503494
50.4196970224
50.4402748108
50.3703103304
50.3908881187
50.4032347918
50.8189061165
50.4032347918
50.4238125801
50.4196970224
50.3703103304
50.3867725611
50.3703103304
50.4402748108
50.4238125801
50.4032347918
50.4073503494

Average distance is : 50.475 cm
Average deviation is : 0.175 cm
Block: 7
======================================
50.4402748108
50.4196970224
50.4032347918
50.3703103304
50.4196970224
50.3867725611
50.3703103304
50.4073503494
50.4238125801
50.4196970224
50.3703103304
50.4073503494
50.3908881187
50.4073503494
50.3867725611
50.4073503494
50.4032347918
50.4238125801
50.4032347918
50.4032347918
50.4032347918
50.4032347918
50.3538480997
50.4032347918
50.3908881187
50.4073503494
50.4238125801
50.3867725611
50.8189061165
50.4073503494
50.3867725611
50.4196970224
50.4238125801
50.4402748108
50.3867725611
50.3867725611
50.4032347918
50.4361592531
50.4196970224
50.3703103304
50.3703103304
50.4402748108
50.3867725611
50.3703103304
50.4196970224
50.4032347918
50.4032347918
50.3703103304
50.8024438858
50.8024438858
50.8024438858
50.8189061165
50.4196970224
50.7983283281
50.8189061165
50.4238125801
50.4032347918
50.3867725611
50.4073503494
50.8353683472
50.7818660975
50.4073503494
50.7654038668
50.8724083662
50.8682928085
50.8353683472
50.8024438858
50.3867725611
50.4361592531
50.4361592531
50.4238125801
50.4032347918
50.4032347918
50.4032347918
50.3867725611
50.4032347918
50.3703103304
50.3867725611
50.4032347918
50.3867725611
50.4073503494
50.4073503494
50.4032347918
50.4196970224
50.4032347918
50.4032347918
50.4238125801
50.3703103304
50.4238125801
50.4032347918
50.4073503494
50.3703103304
50.3908881187
50.3867725611
50.3908881187
50.3908881187
50.7859816551
50.3867725611
50.3703103304
50.8189061165

Average distance is : 50.467 cm
Average deviation is : 0.154 cm
Block: 8
======================================
50.7983283281
50.3908881187
50.8024438858
50.3867725611
50.4238125801
50.4402748108
50.4032347918
50.3867725611
50.3867725611
50.4196970224
50.8024438858
50.3703103304
50.3908881187
50.7859816551
50.8189061165
50.8189061165
50.8024438858
50.3867725611
50.3867725611
50.4238125801
50.8024438858
50.4402748108
50.4032347918
50.7859816551
50.4032347918
50.3867725611
50.4032347918
50.8189061165
50.4238125801
50.7818660975
50.8024438858
50.3867725611
50.4238125801
50.8024438858
50.8189061165
50.3867725611
50.4196970224
50.4032347918
50.4238125801
50.8024438858
50.4196970224
50.8189061165
50.8353683472
50.7983283281
50.8024438858
50.8189061165
50.3867725611
50.8189061165
50.4032347918
50.8353683472
50.8189061165
50.8394839048
50.8189061165
50.8353683472
50.8024438858
50.8189061165
50.4238125801
50.8024438858
50.8353683472
50.8518305779
50.8724083662
50.8024438858
50.3867725611
50.4073503494
50.4196970224
50.8353683472
50.8189061165
50.4032347918
50.8353683472
50.4361592531
50.8024438858
50.3703103304
50.8559461355
50.8394839048
50.8353683472
50.8353683472
50.4196970224
50.8518305779
50.8189061165
50.3867725611
50.3867725611
50.4032347918
50.8024438858
50.8189061165
50.8518305779
50.8353683472
50.4196970224
50.8024438858
50.8189061165
50.8189061165
50.7859816551
50.8353683472
50.8189061165
50.8024438858
50.4032347918
50.8189061165
50.8189061165
50.3867725611
50.8024438858
50.8888705969

Average distance is : 50.645 cm
Average deviation is : 0.207 cm
Block: 9
======================================
50.4196970224
50.3867725611
50.4238125801
50.4402748108
50.4196970224
50.3867725611
50.8353683472
50.4073503494
50.7859816551
50.8024438858
50.8189061165
50.3867725611
50.4073503494
50.4238125801
50.4032347918
50.4238125801
50.3867725611
50.4073503494
50.4238125801
50.7983283281
50.8189061165
50.8024438858
50.8024438858
50.8024438858
50.8394839048
50.8024438858
50.3703103304
50.3908881187
50.4402748108
50.4032347918
50.4032347918
50.4032347918
50.4238125801
50.8024438858
50.3867725611
50.8024438858
50.3867725611
50.3867725611
50.3867725611
50.4238125801
50.4238125801
50.4032347918
50.4032347918
50.4032347918
50.4032347918
50.8024438858
50.8189061165
50.8024438858
50.7983283281
50.4032347918
50.3867725611
50.8394839048
50.8024438858
50.8518305779
50.8724083662
50.8353683472
50.8518305779
50.8024438858
50.7859816551
50.8024438858
50.8024438858
50.8189061165
50.3867725611
50.4032347918
50.4402748108
50.3867725611
50.3867725611
50.8189061165
50.8024438858
50.3867725611
50.4402748108
50.7859816551
50.3867725611
50.8024438858
50.3703103304
50.4032347918
50.3703103304
50.4361592531
50.8189061165
50.3867725611
50.4196970224
50.3703103304
50.7695194244
50.3867725611
50.4196970224
50.3867725611
50.4196970224
49.5060432196
50.4402748108
50.8024438858
50.8024438858
50.4238125801
50.8024438858
50.8024438858
50.3867725611
50.7983283281
50.7818660975
50.3908881187
50.4032347918
50.3867725611

Average distance is : 50.557 cm
Average deviation is : 0.227 cm
Block: 10
======================================
50.3703103304
50.8353683472
50.4073503494
50.3703103304
50.4073503494
50.4073503494
50.8518305779
50.8189061165
50.8189061165
50.4032347918
50.3867725611
50.4032347918
50.4238125801
50.3867725611
50.3908881187
50.4196970224
50.8024438858
50.3867725611
50.4073503494
50.8189061165
50.8189061165
50.3867725611
50.8518305779
50.4073503494
50.4196970224
50.8353683472
50.8353683472
50.4361592531
50.8353683472
50.8682928085
50.8024438858
50.7859816551
50.7859816551
50.7983283281
50.4402748108
50.3661947727
50.4032347918
50.4032347918
50.3867725611
50.8353683472
50.8024438858
50.4073503494
50.4073503494
50.3703103304
50.3908881187
50.3703103304
50.8189061165
50.3703103304
50.4073503494
50.8724083662
50.8724083662
50.8724083662
50.8189061165
50.8024438858
50.7859816551
50.7818660975
50.4196970224
50.8189061165
50.8353683472
50.4032347918
50.7983283281
50.8024438858
50.4196970224
50.8518305779
50.4238125801
50.8189061165
50.4402748108
50.3867725611
50.4032347918
50.4032347918
51.2839641333
50.8024438858
50.3867725611
50.4238125801
50.8189061165
50.4032347918
50.4402748108
50.4238125801
50.4032347918
50.4073503494
50.4032347918
50.4238125801
50.3867725611
50.3867725611
50.8189061165
50.4032347918
50.4073503494
50.3867725611
50.4073503494
50.4073503494
50.4196970224
50.3867725611
50.4073503494
50.3703103304
50.3867725611
50.4032347918
50.3703103304
50.4032347918
50.3703103304
50.3703103304

Average distance is : 50.557 cm
Average deviation is : 0.216 cm