
Block: 1
======================================
400.26410737
400.704828906
400.72504549
400.300497222
400.243890786
400.231760836
400.280280638
400.737175441
400.688655639
400.688655639

Average distance is : 400.486 cm
Average deviation is : 0.236 cm
Block: 2
======================================
402.419195247
400.672482371
400.684612322
400.672482371
400.704828906
400.668439054
400.672482371
400.26410737
400.688655639
400.704828906

Average distance is : 400.815 cm
Average deviation is : 0.579 cm
Block: 3
======================================
400.688655639
400.26410737
400.316670489
400.247934103
400.26410737
400.688655639
400.227717519
400.737175441
400.231760836
400.684612322

Average distance is : 400.435 cm
Average deviation is : 0.229 cm
Block: 4
======================================
401.113203907
401.161723709
401.537752175
400.737175441
400.704828906
400.211544251
400.227717519
401.590315294
400.231760836
400.32880044

Average distance is : 400.784 cm
Average deviation is : 0.540 cm
Block: 5
======================================
401.129377174
400.211544251
401.978473711
401.113203907
400.668439054
401.129377174
400.280280638
400.247934103
400.688655639
400.195370984

Average distance is : 400.764 cm
Average deviation is : 0.578 cm
Block: 6
======================================
400.243890786
400.227717519
401.145550442
401.161723709
400.296453905
401.09703064
400.737175441
401.092987323
400.211544251
400.215587568

Average distance is : 400.643 cm
Average deviation is : 0.442 cm
Block: 7
======================================
401.602445245
400.688655639
400.668439054
401.076814055
400.247934103
401.09703064
400.63609252
400.652265787
400.672482371
400.704828906

Average distance is : 400.805 cm
Average deviation is : 0.368 cm
Block: 8
======================================
401.485189056
401.485189056
402.807353663
401.533708858
401.521578908
401.586271977
402.366632128
401.080857372
401.501362324
402.807353663

Average distance is : 401.818 cm
Average deviation is : 0.610 cm
Block: 9
======================================
402.35045886
400.63609252
400.63609252
400.603745985
401.064684105
401.521578908
400.822085094
400.656309104
400.619919252
400.63609252

Average distance is : 400.955 cm
Average deviation is : 0.570 cm
Block: 10
======================================
401.537752175
401.044467521
401.09703064
401.517535591
401.060640788
401.505405641
401.064684105
400.623962569
401.501362324
401.553925443

Average distance is : 401.251 cm
Average deviation is : 0.317 cm