
Block: 1
======================================
401.10916059
401.501362324
401.448799205
401.501362324
401.040424204
401.553925443
401.469015789
401.485189056
401.469015789
401.469015789
401.469015789
401.517535591
401.012120986
401.517535591
401.889520741
401.469015789
401.469015789
401.485189056
401.469015789
401.537752175
401.024250937
401.893564057
401.028294253
401.909737325
401.942083859

Block: 2
======================================
401.028294253
400.603745985
401.149593759
401.505405641
401.028294253
400.587572718
401.060640788
402.366632128
401.060640788
401.145550442
401.129377174
401.485189056
401.501362324
401.501362324
401.129377174
400.603745985
401.505405641
401.060640788
400.619919252
401.044467521
400.603745985
400.619919252
400.599702668
401.549882126
400.672482371

Block: 3
======================================
402.35045886
402.35045886
401.044467521
401.501362324
401.028294253
401.024250937
401.485189056
401.925910592
401.909737325
401.024250937
402.318112326
401.469015789
401.909737325
401.452842522
401.452842522
401.436669254
401.028294253
401.905694008
402.334285593
401.464972472
401.501362324
401.521578908
401.448799205
401.432625937
401.452842522

Block: 4
======================================
401.893564057
401.436669254
401.925910592
401.873347473
401.873347473
401.946127176
401.873347473
401.432625937
402.738617277
402.366632128
401.857174206
402.366632128
402.738617277
401.432625937
402.318112326
402.742660594
402.314069009
401.452842522
402.742660594
401.893564057
401.861217523
401.873347473
401.517535591
401.41645267
401.452842522

Block: 5
======================================
401.469015789
401.09703064
401.060640788
401.452842522
401.452842522
401.41645267
401.448799205
401.044467521
401.469015789
401.080857372
401.469015789
401.008077669
401.452842522
401.893564057
401.024250937
401.448799205
400.975731134
402.742660594
401.012120986
401.432625937
400.995947719
401.448799205
400.975731134
401.452842522
401.533708858

Block: 6
======================================
401.469015789
400.991904402
401.464972472
401.469015789
401.448799205
401.024250937
401.501362324
401.452842522
401.448799205
401.873347473
401.432625937
401.925910592
401.012120986
400.991904402
400.991904402
400.995947719
401.008077669
401.044467521
401.452842522
401.432625937
401.060640788
401.076814055
400.991904402
401.452842522
401.448799205

Block: 7
======================================
401.012120986
400.975731134
401.012120986
401.432625937
400.57139945
402.738617277
401.028294253
401.080857372
401.452842522
401.060640788
400.567356133
401.113203907
400.583529401
401.452842522
401.028294253
401.432625937
400.587572718
400.991904402
400.587572718
401.501362324
401.469015789
401.909737325
401.080857372
401.024250937
401.452842522

Block: 8
======================================
400.619919252
401.113203907
400.587572718
401.028294253
401.469015789
401.028294253
400.640135837
401.893564057
401.060640788
401.060640788
400.603745985
400.603745985
401.040424204
401.505405641
400.684612322
400.704828906
400.688655639
401.044467521
400.684612322
401.064684105
401.909737325
401.044467521
400.603745985
401.113203907
401.57009871

Block: 9
======================================
400.63609252
401.044467521
401.129377174
401.060640788
401.925910592
401.09703064
401.505405641
402.346415544
401.113203907
401.517535591
401.485189056
401.501362324
401.517535591
401.044467521
401.942083859
400.656309104
401.060640788
401.080857372
401.060640788
401.080857372
401.129377174
401.501362324
401.925910592
401.060640788
401.533708858

Block: 10
======================================
401.060640788
401.076814055
401.533708858
400.656309104
401.517535591
401.161723709
401.129377174
400.603745985
400.652265787
401.092987323
401.092987323
400.63609252
400.619919252
401.925910592
401.076814055
400.63609252
400.619919252
400.652265787
400.619919252
400.656309104
400.640135837
400.619919252
402.366632128
401.060640788
400.63609252
