
Block: 1
======================================
100.313711762
100.780402422
100.334361792
100.350881815
100.763882399
99.9502712488
99.9337512255
99.9337512255
99.9337512255
100.330231786
100.330231786
100.367401838
100.330231786
100.346751809
100.796922445
100.367401838
100.350881815
100.334361792
100.350881815
100.350881815
100.346751809
100.330231786
100.367401838
100.363271832
100.330231786
100.334361792
100.367401838
100.350881815
99.9337512255
100.330231786
100.350881815
100.383921862
100.367401838
100.350881815
100.346751809
100.350881815
100.350881815
99.9337512255
99.9337512255
100.367401838
100.367401838
99.970921278
100.346751809
99.9337512255
100.367401838
100.334361792
100.334361792
99.9337512255
100.350881815
100.350881815
100.350881815
100.350881815
100.350881815
100.350881815
100.350881815
99.9172312021
100.346751809
99.9502712488
100.784532428
99.9502712488
100.784532428
100.346751809
99.970921278
100.367401838
100.768012404
99.970921278
100.780402422
100.763882399
101.164492965
100.350881815
100.780402422
100.334361792
100.784532428
100.330231786
100.763882399

Average distance is : 100.341 cm
Average deviation is : 0.264 cm
Block: 2
======================================
100.350881815
99.9337512255
100.313711762
99.9337512255
101.181012988
100.780402422
101.147972941
101.511413455
101.181012988
99.9502712488
100.346751809
99.9337512255
100.346751809
100.763882399
100.780402422
100.747362375
101.197533011
99.9172312021
100.747362375
100.330231786
100.330231786
100.330231786
99.9337512255
99.9172312021
100.330231786
99.9337512255
100.334361792
100.768012404
101.164492965
100.297191739
100.751492381
100.763882399
100.801052451
99.9007111788
100.747362375
100.763882399
100.346751809
100.313711762
100.346751809
100.313711762
100.350881815
100.714322329
101.181012988
100.730842352
99.9172312021
100.367401838
101.181012988
100.003961325
100.763882399
100.763882399
101.160362959
99.9337512255
100.747362375
101.160362959
100.763882399
100.747362375
100.763882399
100.330231786
100.350881815
100.363271832
100.330231786
100.330231786
100.330231786
100.334361792
100.780402422
100.784532428
101.181012988
100.747362375
100.768012404
100.346751809
99.9337512255
100.334361792
100.346751809
100.747362375
100.763882399

Average distance is : 100.535 cm
Average deviation is : 0.403 cm
Block: 3
======================================
100.313711762
100.747362375
100.334361792
99.9172312021
100.313711762
99.9172312021
100.350881815
100.334361792
100.763882399
101.181012988
100.330231786
101.181012988
100.747362375
100.780402422
100.334361792
100.780402422
100.763882399
100.747362375
100.330231786
100.350881815
100.747362375
100.784532428
101.160362959
99.9296212196
100.330231786
100.334361792
100.346751809
100.367401838
100.730842352
100.747362375
100.784532428
100.346751809
101.164492965
100.346751809
101.160362959
100.780402422
100.763882399
100.730842352
100.763882399
100.780402422
100.313711762
99.9296212196
100.747362375
101.160362959
100.350881815
100.763882399
101.181012988
100.763882399
100.763882399
101.164492965
100.313711762
100.714322329
100.747362375
100.330231786
100.763882399
99.9337512255
101.181012988
100.780402422
100.297191739
100.768012404
100.697802305
99.9502712488
99.9172312021
100.367401838
100.763882399
100.763882399
100.747362375
99.9337512255
100.330231786
99.8965811729
100.747362375
100.780402422
100.784532428
100.350881815
100.350881815

Average distance is : 100.573 cm
Average deviation is : 0.358 cm
Block: 4
======================================
100.313711762
101.164492965
100.264151692
100.297191739
100.313711762
100.317841768
101.201663017
101.181012988
100.784532428
100.350881815
100.313711762
100.784532428
99.9337512255
99.9172312021
100.747362375
100.330231786
99.9337512255
101.197533011
101.181012988
101.181012988
100.367401838
101.201663017
100.763882399
101.197533011
100.747362375
99.9172312021
100.763882399
99.9172312021
100.313711762
100.784532428
99.9502712488
99.9502712488
99.9337512255
99.9502712488
100.330231786
100.768012404
101.197533011
100.747362375
100.763882399
100.367401838
101.197533011
101.197533011
100.763882399
100.763882399
100.730842352
100.730842352
101.197533011
100.780402422
101.197533011
99.9007111788
100.367401838
100.747362375
101.181012988
101.197533011
100.747362375
100.763882399
100.330231786
100.784532428
100.747362375
100.763882399
100.768012404
100.730842352
101.143842936
99.9172312021
100.780402422
101.164492965
100.726712346
100.747362375
100.313711762
101.197533011
100.297191739
100.730842352
101.181012988
100.747362375
101.181012988

Average distance is : 100.658 cm
Average deviation is : 0.428 cm
Block: 5
======================================
100.334361792
100.330231786
100.297191739
100.730842352
100.747362375
100.280671716
100.313711762
101.164492965
100.763882399
101.181012988
100.763882399
100.768012404
99.9131011963
100.751492381
100.313711762
101.197533011
100.747362375
100.313711762
100.763882399
100.784532428
101.181012988
100.763882399
100.763882399
101.181012988
100.763882399
100.350881815
100.763882399
100.747362375
99.9502712488
99.9337512255
100.334361792
100.330231786
100.346751809
100.367401838
100.346751809
100.334361792
100.334361792
100.747362375
100.313711762
100.751492381
101.181012988
101.143842936
99.9502712488
100.350881815
100.330231786
100.346751809
100.350881815
100.747362375
100.747362375
99.9502712488
100.730842352
99.9172312021
101.181012988
100.763882399
100.780402422
100.313711762
100.313711762
100.297191739
100.330231786
100.313711762
100.747362375
100.330231786
100.334361792
100.330231786
99.9131011963
100.763882399
100.730842352
100.747362375
100.730842352
99.9337512255
100.346751809
101.164492965
100.350881815
100.346751809
100.350881815

Average distance is : 100.536 cm
Average deviation is : 0.353 cm
Block: 6
======================================
100.330231786
100.330231786
100.264151692
100.92082262
100.313711762
100.297191739
101.38751328
99.9337512255
101.164492965
100.780402422
100.763882399
100.763882399
100.747362375
101.197533011
101.181012988
101.181012988
100.730842352
100.784532428
100.297191739
101.197533011
101.181012988
101.160362959
100.747362375
100.693672299
100.313711762
101.181012988
100.330231786
101.181012988
100.99103272
101.181012988
100.710192323
101.197533011
100.693672299
101.164492965
101.181012988
100.780402422
101.181012988
100.710192323
100.714322329
101.143842936
100.693672299
100.280671716
101.181012988
101.181012988
100.313711762
100.730842352
101.181012988
101.181012988
100.280671716
100.297191739
101.201663017
101.160362959
100.710192323
100.297191739
101.147972941
100.297191739
101.181012988
101.214053035
100.714322329
100.27654171
101.181012988
100.297191739
101.181012988
100.714322329
101.197533011
100.714322329
101.160362959
100.297191739
100.313711762
101.181012988
100.693672299
100.714322329
100.763882399
101.164492965
100.747362375

Average distance is : 100.811 cm
Average deviation is : 0.369 cm
Block: 7
======================================
100.297191739
100.297191739
100.264151692
100.747362375
100.297191739
100.280671716
100.747362375
99.9296212196
101.176882982
100.763882399
100.350881815
100.350881815
100.334361792
100.313711762
100.330231786
100.330231786
100.334361792
100.330231786
100.350881815
101.181012988
100.730842352
100.763882399
100.367401838
100.346751809
100.747362375
100.780402422
101.181012988
100.763882399
101.181012988
99.9337512255
100.367401838
100.801052451
100.784532428
99.9667912722
100.367401838
100.367401838
100.763882399
100.784532428
101.164492965
100.350881815
100.330231786
100.367401838
100.763882399
100.784532428
100.747362375
100.763882399
100.346751809
100.763882399
100.763882399
101.201663017
101.197533011
100.768012404
100.730842352
100.763882399
100.768012404
100.784532428
100.768012404
100.747362375
100.330231786
100.383921862
100.330231786
99.9337512255
100.383921862
100.346751809
100.313711762
99.9131011963
100.350881815
100.367401838
100.330231786
100.334361792
100.346751809
100.747362375
100.346751809
100.367401838
100.334361792

Average distance is : 100.538 cm
Average deviation is : 0.319 cm
Block: 8
======================================
100.330231786
100.297191739
100.346751809
100.747362375
100.297191739
99.9667912722
99.9502712488
100.346751809
100.747362375
100.350881815
100.346751809
100.367401838
99.9667912722
100.334361792
100.350881815
100.346751809
100.763882399
100.313711762
100.346751809
100.334361792
100.350881815
100.346751809
99.9296212196
99.9007111788
100.350881815
100.350881815
100.763882399
100.334361792
100.330231786
100.330231786
100.367401838
100.346751809
100.747362375
99.9502712488
100.367401838
100.801052451
100.367401838
100.330231786
100.780402422
100.763882399
99.9172312021
100.350881815
100.350881815
100.747362375
100.768012404
100.747362375
99.9502712488
100.780402422
100.763882399
101.160362959
101.181012988
101.197533011
101.181012988
99.9337512255
100.367401838
99.9502712488
100.363271832
100.763882399
100.367401838
100.763882399
100.780402422
101.181012988
100.763882399
101.181012988
100.784532428
100.784532428
100.780402422
101.197533011
100.784532428
100.730842352
101.181012988
101.197533011
100.350881815
100.313711762
100.346751809

Average distance is : 100.515 cm
Average deviation is : 0.363 cm
Block: 9
======================================
100.346751809
100.350881815
100.317841768
100.17742157
100.334361792
101.214053035
99.9337512255
100.367401838
100.350881815
100.346751809
100.367401838
100.367401838
100.367401838
100.334361792
100.367401838
100.780402422
100.346751809
100.383921862
100.416961908
100.747362375
100.346751809
100.346751809
100.350881815
100.346751809
100.730842352
100.367401838
100.346751809
100.350881815
100.330231786
100.350881815
100.350881815
100.346751809
100.334361792
100.330231786
100.346751809
100.334361792
100.346751809
100.330231786
100.350881815
100.350881815
100.313711762
100.334361792
100.313711762
100.350881815
100.346751809
100.334361792
100.346751809
100.367401838
100.350881815
100.313711762
100.313711762
100.330231786
100.350881815
100.367401838
100.350881815
100.350881815
100.334361792
100.367401838
100.367401838
100.346751809
100.350881815
100.313711762
100.330231786
100.350881815
100.330231786
100.346751809
100.334361792
100.330231786
100.350881815
100.317841768
100.334361792
100.367401838
100.346751809
100.346751809
100.334361792

Average distance is : 100.366 cm
Average deviation is : 0.140 cm
Block: 10
======================================
100.330231786
100.383921862
99.9337512255
100.346751809
100.747362375
100.730842352
100.346751809
100.330231786
100.350881815
100.313711762
100.367401838
100.330231786
100.350881815
100.334361792
100.330231786
100.350881815
100.330231786
100.313711762
100.334361792
100.346751809
100.350881815
100.330231786
100.334361792
100.346751809
100.317841768
100.330231786
100.330231786
100.330231786
100.367401838
100.330231786
100.313711762
100.313711762
100.730842352
100.330231786
100.334361792
100.346751809
100.367401838
100.313711762
100.346751809
100.350881815
100.350881815
100.330231786
100.330231786
100.313711762
100.350881815
100.334361792
100.346751809
100.313711762
100.330231786
100.334361792
100.330231786
100.334361792
100.367401838
100.350881815
100.334361792
100.334361792
100.350881815
100.346751809
100.367401838
100.367401838
100.383921862
100.367401838
100.334361792
100.350881815
100.350881815
100.350881815
100.350881815
100.350881815
100.350881815
100.334361792
100.367401838
99.9337512255
100.140251517
99.9502712488
100.350881815

Average distance is : 100.339 cm
Average deviation is : 0.117 cm
Average distance for 10x75 is : 100.521 cm
Average deviation for 10x75 is : 0.311 cm
 Percentage of values that failed: 0.000