
Block: 1
======================================
99.6570408344
100.367401838
101.164492965
100.334361792
101.181012988
101.197533011
99.9337512255
100.330231786
100.330231786
100.334361792
100.367401838
100.330231786
100.334361792
100.334361792
100.330231786
100.367401838
100.367401838
100.334361792
100.330231786
100.350881815
100.334361792
100.350881815
100.367401838
100.350881815
100.346751809

Average distance is : 100.401 cm
Average deviation is : 0.333 cm
Block: 2
======================================
100.350881815
99.9502712488
100.714322329
100.330231786
100.747362375
100.747362375
100.801052451
99.9131011963
100.346751809
100.367401838
100.346751809
99.9007111788
100.350881815
100.350881815
100.367401838
99.9502712488
100.367401838
100.350881815
100.330231786
100.346751809
100.367401838
100.350881815
100.383921862
99.9172312021
100.367401838

Average distance is : 100.333 cm
Average deviation is : 0.254 cm
Block: 3
======================================
100.346751809
99.9172312021
100.367401838
100.367401838
101.197533011
100.350881815
99.9337512255
100.367401838
100.367401838
100.346751809
99.9337512255
100.350881815
100.367401838
100.363271832
100.367401838
100.383921862
100.763882399
100.346751809
99.9502712488
100.350881815
100.330231786
100.450001955
100.350881815
99.9502712488
100.367401838

Average distance is : 100.328 cm
Average deviation is : 0.270 cm
Block: 4
======================================
99.9337512255
100.367401838
100.780402422
100.367401838
99.9131011963
99.9874413013
100.330231786
99.9337512255
100.334361792
100.350881815
100.367401838
100.330231786
100.367401838
100.350881815
100.350881815
100.350881815
100.334361792
100.350881815
100.367401838
100.350881815
100.350881815
100.350881815
100.350881815
100.350881815
100.313711762

Average distance is : 100.301 cm
Average deviation is : 0.183 cm
Block: 5
======================================
100.350881815
100.404571891
100.334361792
100.317841768
100.780402422
100.817572474
99.9337512255
100.350881815
100.367401838
100.367401838
100.350881815
100.346751809
100.367401838
100.367401838
100.317841768
100.383921862
100.350881815
100.367401838
100.346751809
99.970921278
100.346751809
100.383921862
100.383921862
100.330231786
100.363271832

Average distance is : 100.360 cm
Average deviation is : 0.174 cm
Block: 6
======================================
101.073632836
100.334361792
100.780402422
100.334361792
101.181012988
100.363271832
100.330231786
100.346751809
100.350881815
100.367401838
100.350881815
100.346751809
100.346751809
100.350881815
100.350881815
100.350881815
100.367401838
100.350881815
100.330231786
100.367401838
100.350881815
100.367401838
100.383921862
100.350881815
100.313711762

Average distance is : 100.430 cm
Average deviation is : 0.228 cm
Block: 7
======================================
100.350881815
100.383921862
100.350881815
100.313711762
100.383921862
100.367401838
100.363271832
100.350881815
100.363271832
100.330231786
100.350881815
100.350881815
100.367401838
99.9502712488
100.350881815
100.334361792
100.350881815
100.350881815
100.350881815
100.350881815
100.350881815
100.330231786
100.350881815
100.350881815
100.367401838

Average distance is : 100.337 cm
Average deviation is : 0.082 cm
Block: 8
======================================
100.313711762
100.796922445
101.234703064
99.970921278
99.9874413013
101.251223087
99.9007111788
100.330231786
100.350881815
100.350881815
100.350881815
100.367401838
100.350881815
100.383921862
100.350881815
100.367401838
100.367401838
100.768012404
100.330231786
100.350881815
100.346751809
100.350881815
100.784532428
99.9337512255
100.367401838

Average distance is : 100.410 cm
Average deviation is : 0.337 cm
Block: 9
======================================
100.346751809
99.9502712488
100.317841768
100.796922445
101.218183041
101.218183041
99.9544012547
100.367401838
100.346751809
100.313711762
99.9337512255
100.383921862
100.350881815
100.350881815
100.350881815
100.334361792
100.330231786
100.346751809
100.350881815
99.9667912722
100.350881815
100.330231786
100.363271832
100.346751809
100.383921862

Average distance is : 100.372 cm
Average deviation is : 0.312 cm
Block: 10
======================================
100.346751809
100.297191739
100.330231786
100.313711762
100.350881815
100.330231786
100.346751809
100.367401838
100.363271832
100.330231786
100.350881815
100.346751809
100.367401838
100.350881815
100.346751809
100.350881815
100.367401838
100.367401838
100.346751809
100.350881815
100.346751809
100.346751809
100.350881815
100.367401838
100.346751809

Average distance is : 100.347 cm
Average deviation is : 0.017 cm
Average distance for 10x25 is : 100.362 cm
Average deviation for 10x25 is : 0.219 cm
 Percentage of values that failed: 0.000