
Block: 1
======================================
100.297191739
101.181012988
100.768012404
100.796922445
99.9337512255

Average distance is : 100.595 cm
Average deviation is : 0.485 cm
Block: 2
======================================
101.181012988
100.363271832
101.176882982
100.363271832
99.9502712488

Average distance is : 100.607 cm
Average deviation is : 0.549 cm
Block: 3
======================================
99.9172312021
99.9502712488
99.9502712488
100.367401838
99.9502712488

Average distance is : 100.027 cm
Average deviation is : 0.191 cm
Block: 4
======================================
100.334361792
100.346751809
100.751492381
100.367401838
99.9502712488

Average distance is : 100.350 cm
Average deviation is : 0.284 cm
Block: 5
======================================
100.784532428
99.9172312021
99.9172312021
100.346751809
100.768012404

Average distance is : 100.347 cm
Average deviation is : 0.430 cm
Block: 6
======================================
100.763882399
100.367401838
100.747362375
100.367401838
99.9337512255

Average distance is : 100.436 cm
Average deviation is : 0.341 cm
Block: 7
======================================
100.313711762
100.367401838
101.234703064
100.350881815
100.763882399

Average distance is : 100.606 cm
Average deviation is : 0.396 cm
Block: 8
======================================
101.234703064
100.693672299
100.367401838
100.730842352
100.350881815

Average distance is : 100.676 cm
Average deviation is : 0.359 cm
Block: 9
======================================
100.313711762
100.350881815
100.747362375
100.330231786
101.234703064

Average distance is : 100.595 cm
Average deviation is : 0.400 cm
Block: 10
======================================
100.346751809
99.9502712488
101.181012988
100.367401838
100.383921862

Average distance is : 100.446 cm
Average deviation is : 0.449 cm
Average distance for 10x5 is : 100.469 cm
Average deviation for 10x5 is : 0.388 cm
 Percentage of values that failed: 0.000