
Block: 1
======================================
399.499920487
399.503963804
399.516093755
399.520137072
399.075372219
399.499920487
399.516093755
398.618477416
399.059198952
399.520137072
145.171247864
45.6207439184
143.541791177
47.7030520916
141.455439687
48.9241337776
139.284178543
51.0792216539
138.026707006
52.3366931915
136.773278785
53.6548144817
135.026565909
55.3206610203
133.789310956

Block: 2
======================================
399.503963804
399.48374722
399.451400685
399.499920487
399.467573953
399.075372219
399.503963804
399.499920487
399.48374722
399.043025684
399.503963804
399.01067915
399.447357368
399.48374722
399.006635833
399.48374722
399.451400685
399.435227418
398.994505882
398.994505882
399.431184101
399.467573953
399.435227418
399.467573953
399.01067915

Block: 3
======================================
399.447357368
399.467573953
399.520137072
399.875948954
399.499920487
399.516093755
399.026852417
399.940642023
399.908295488
399.043025684
399.940642023
399.532267022
399.059198952
399.48374722
399.48374722
399.516093755
399.499920487
399.977031875
399.075372219
399.940642023
399.091545486
399.516093755
398.650823951
399.503963804
399.520137072

Block: 4
======================================
399.144108605
399.532267022
399.091545486
399.516093755
399.977031875
399.908295488
399.977031875
399.499920487
399.499920487
399.924468756
399.503963804
399.520137072
399.059198952
399.908295488
399.516093755
399.059198952
399.908295488
399.548440289
399.059198952
399.499920487
399.463530636
399.536310339
399.48374722
399.48374722
399.467573953

Block: 5
======================================
399.888078904
399.48374722
399.059198952
399.532267022
399.499920487
399.871905637
399.924468756
399.908295488
399.940642023
399.48374722
399.940642023
399.924468756
399.940642023
399.908295488
399.908295488
399.924468756
399.904252172
399.924468756
399.908295488
399.447357368
399.924468756
399.940642023
399.940642023
399.940642023
399.908295488

Block: 6
======================================
399.940642023
399.95681529
399.94468534
399.908295488
399.940642023
399.908295488
399.960858607
399.924468756
399.892122221
399.924468756
399.463530636
399.892122221
400.365190291
399.924468756
400.365190291
399.924468756
399.48374722
400.349017024
399.892122221
400.344973707
399.940642023
399.924468756
399.463530636
399.908295488
399.95681529

Block: 7
======================================
400.296453905
400.365190291
400.332843757
399.940642023
400.349017024
400.349017024
400.349017024
400.32880044
113.576770067
76.7906734467
113.180525017
77.6357266665
112.335471797
78.080491519
111.894750261
78.9255447388
111.045653725
79.2490100861
110.689841843
80.1304531574
109.792225504
80.5550014257
109.808398771
80.5186115742
109.420240355

Block: 8
======================================
400.365190291
400.365190291
400.32880044
399.924468756
400.312627172
399.48374722
400.349017024
399.940642023
399.888078904
399.48374722
400.365190291
400.365190291
399.94468534
399.94468534
399.079415536
399.960858607
399.928512073
399.977031875
399.908295488
399.520137072
399.908295488
399.940642023
399.48374722
399.499920487
399.95681529

Block: 9
======================================
399.94468534
399.924468756
399.924468756
399.924468756
399.940642023
399.499920487
399.908295488
399.924468756
399.892122221
399.940642023
399.48374722
399.940642023
399.499920487
399.075372219
399.908295488
399.059198952
399.536310339
399.94468534
399.079415536
399.499920487
399.924468756
399.516093755
399.059198952
399.924468756
399.940642023

Block: 10
======================================
399.95681529
399.075372219
399.499920487
399.924468756
399.924468756
400.381363559
399.552483606
399.924468756
399.95681529
399.928512073
400.332843757
399.499920487
400.349017024
399.467573953
399.924468756
399.95681529
399.940642023
399.043025684
399.908295488
399.499920487
399.95681529
399.95681529
399.940642023
399.924468756
399.924468756
