
Block: 1
======================================
401.060640788
401.517535591
401.080857372
401.076814055
403.231901932

Block: 2
======================================
400.652265787
400.63609252
401.129377174
401.521578908
401.076814055

Block: 3
======================================
401.113203907
400.652265787
401.092987323
400.63609252
401.501362324

Block: 4
======================================
401.501362324
401.080857372
400.652265787
400.656309104
400.640135837

Block: 5
======================================
401.060640788
401.501362324
401.10916059
403.640276933
401.060640788

Block: 6
======================================
401.09703064
401.092987323
401.09703064
402.791180396
402.366632128

Block: 7
======================================
401.145550442
401.10916059
401.09703064
401.517535591
401.537752175

Block: 8
======================================
401.517535591
401.942083859
400.688655639
401.553925443
401.962300444

Block: 9
======================================
400.704828906
401.57009871
400.704828906
400.688655639
400.704828906

Block: 10
======================================
401.092987323
400.688655639
400.668439054
401.113203907
402.791180396
