
Block: 1
======================================
200.27958827
200.283660483
200.247010565
200.214432859
200.230721712
200.210360646
200.283660483
199.782778263
200.332527041
200.299949336

Block: 2
======================================
200.226649499
200.385465813
199.76648941
200.247010565
200.365104747
200.263299417
200.283660483
200.263299417
199.819428182
200.247010565

Block: 3
======================================
200.299949336
200.299949336
200.316238189
199.8560781
200.247010565
200.299949336
200.263299417
200.299949336
200.263299417
200.247010565

Block: 4
======================================
200.295877123
200.283660483
200.263299417
200.263299417
200.299949336
199.786850476
199.786850476
200.316238189
200.27958827
199.819428182

Block: 5
======================================
200.263299417
200.312165976
200.247010565
200.263299417
200.295877123
200.247010565
200.267371631
200.283660483
200.299949336
199.819428182

Block: 6
======================================
200.267371631
200.27958827
200.295877123
200.27958827
200.316238189
200.263299417
200.283660483
200.283660483
200.263299417
200.299949336

Block: 7
======================================
200.27958827
200.247010565
200.230721712
200.299949336
200.263299417
200.247010565
200.283660483
200.316238189
200.283660483
199.786850476

Block: 8
======================================
199.819428182
200.316238189
200.316238189
199.819428182
200.283660483
200.247010565
200.299949336
200.316238189
200.299949336
200.230721712

Block: 9
======================================
199.823500395
200.247010565
199.803139329
200.295877123
200.283660483
200.27958827
200.299949336
199.839789248
200.332527041
200.299949336

Block: 10
======================================
200.214432859
200.230721712
200.247010565
199.786850476
200.263299417
200.247010565
200.263299417
199.904944658
199.803139329
199.803139329
