
Block: 1
======================================
200.283660483
200.247010565
200.295877123
200.283660483
200.27958827
200.263299417
200.263299417
200.299949336
199.823500395
200.263299417
200.283660483
200.283660483
200.263299417
200.27958827
200.27958827
199.803139329
200.27958827
200.247010565
200.27958827
200.316238189
200.295877123
200.283660483
200.263299417
200.27958827
200.27958827
200.247010565
200.283660483
200.283660483
200.267371631
200.247010565
199.819428182
200.263299417
200.27958827
200.247010565
200.295877123
200.316238189
199.803139329
200.332527041
200.299949336
199.819428182
199.823500395
199.835717034
199.803139329
200.267371631
200.283660483
200.267371631
200.299949336
199.823500395
200.247010565
199.835717034

Block: 2
======================================
200.283660483
200.316238189
200.316238189
199.835717034
199.835717034
200.27958827
200.263299417
200.247010565
200.295877123
200.299949336
200.295877123
200.263299417
200.263299417
200.312165976
199.819428182
200.295877123
200.247010565
200.299949336
200.299949336
200.267371631
200.263299417
199.819428182
200.267371631
199.819428182
200.263299417
200.263299417
200.283660483
200.263299417
200.299949336
200.299949336
200.27958827
199.803139329
200.27958827
200.295877123
200.263299417
200.263299417
200.283660483
200.267371631
199.888655806
200.263299417
200.263299417
200.299949336
200.247010565
199.823500395
200.263299417
199.803139329
200.27958827
200.299949336
200.263299417
200.247010565

Block: 3
======================================
200.267371631
200.316238189
193.210226202
200.27958827
200.312165976
200.283660483
200.27958827
200.27958827
200.267371631
200.283660483
200.332527041
200.27958827
200.263299417
200.263299417
200.299949336
200.295877123
200.299949336
200.247010565
200.263299417
200.299949336
200.283660483
200.295877123
200.299949336
200.27958827
200.299949336
200.27958827
200.27958827
200.316238189
200.263299417
199.803139329
200.295877123
199.819428182
200.316238189
200.299949336
200.267371631
200.299949336
200.299949336
200.27958827
200.295877123
199.819428182
200.27958827
200.267371631
200.299949336
200.299949336
199.8560781
200.295877123
200.283660483
200.27958827
200.27958827
200.283660483

Block: 4
======================================
200.316238189
200.316238189
200.316238189
200.295877123
200.332527041
200.295877123
200.332527041
200.263299417
200.27958827
199.839789248
200.299949336
200.27958827
200.316238189
200.27958827
200.299949336
200.247010565
200.316238189
200.295877123
199.819428182
200.247010565
200.27958827
200.263299417
199.803139329
199.852005887
199.819428182
200.332527041
200.283660483
200.283660483
200.332527041
200.295877123
200.316238189
200.299949336
200.295877123
200.27958827
200.332527041
200.263299417
199.852005887
200.27958827
199.803139329
199.8560781
200.316238189
200.247010565
199.835717034
200.295877123
200.299949336
199.86829474
200.263299417
199.835717034
199.872366953
200.283660483

Block: 5
======================================
200.283660483
200.332527041
200.295877123
199.835717034
200.312165976
200.316238189
200.283660483
200.332527041
200.283660483
200.295877123
199.888655806
200.27958827
200.283660483
200.283660483
200.332527041
200.267371631
200.299949336
200.263299417
199.8560781
200.299949336
200.299949336
200.267371631
200.299949336
200.316238189
199.835717034
200.332527041
200.299949336
199.872366953
200.316238189
199.835717034
200.332527041
199.839789248
200.316238189
200.283660483
200.283660483
200.312165976
200.283660483
200.299949336
200.295877123
200.267371631
193.670386291
199.888655806
200.27958827
200.299949336
200.348815894
200.316238189
200.332527041
200.27958827
200.316238189
200.332527041

Block: 6
======================================
200.295877123
200.316238189
200.365104747
200.283660483
200.332527041
199.819428182
200.283660483
200.316238189
200.295877123
200.316238189
200.348815894
200.299949336
200.332527041
199.86829474
199.819428182
200.27958827
200.27958827
200.295877123
200.295877123
200.316238189
200.27958827
199.872366953
199.872366953
200.295877123
200.299949336
200.316238189
200.348815894
200.332527041
200.332527041
199.852005887
200.332527041
200.316238189
200.299949336
199.86829474
200.316238189
200.27958827
200.348815894
200.283660483
200.283660483
200.316238189
199.803139329
200.299949336
199.839789248
199.8560781
200.316238189
200.316238189
199.872366953
200.316238189
200.283660483
199.8560781

Block: 7
======================================
200.27958827
200.348815894
199.909016871
200.316238189
199.852005887
200.27958827
199.872366953
200.348815894
200.332527041
200.316238189
200.316238189
199.872366953
200.299949336
200.332527041
200.295877123
199.835717034
200.299949336
200.332527041
200.332527041
200.348815894
200.352888107
200.283660483
199.872366953
200.299949336
200.316238189
200.299949336
200.316238189
199.888655806
200.332527041
200.316238189
199.839789248
200.299949336
200.332527041
200.316238189
200.295877123
199.872366953
200.283660483
200.299949336
199.8560781
200.348815894
200.312165976
199.835717034
200.316238189
200.316238189
200.348815894
199.839789248
200.332527041
200.316238189
199.852005887
200.283660483

Block: 8
======================================
200.348815894
200.332527041
200.312165976
200.348815894
200.316238189
200.332527041
200.332527041
200.283660483
200.352888107
200.316238189
199.852005887
200.283660483
199.872366953
200.316238189
200.312165976
199.872366953
200.316238189
199.8560781
200.299949336
200.332527041
199.852005887
200.316238189
200.299949336
200.332527041
200.332527041
200.332527041
200.316238189
200.295877123
200.332527041
200.299949336
200.316238189
199.852005887
200.299949336
200.299949336
200.332527041
200.348815894
200.332527041
200.332527041
200.263299417
200.332527041
200.332527041
200.299949336
200.332527041
200.312165976
199.888655806
200.316238189
200.365104747
199.888655806
200.332527041
200.27958827

Block: 9
======================================
199.835717034
200.27958827
200.316238189
200.365104747
200.299949336
200.316238189
200.332527041
200.283660483
200.316238189
200.316238189
199.8560781
199.8560781
199.909016871
199.8560781
200.348815894
200.283660483
200.348815894
200.299949336
200.348815894
200.348815894
200.316238189
200.316238189
200.316238189
200.332527041
200.332527041
199.852005887
200.348815894
200.316238189
200.316238189
199.852005887
200.332527041
200.299949336
200.348815894
200.332527041
200.332527041
199.8560781
200.352888107
200.316238189
200.316238189
200.348815894
200.312165976
200.316238189
199.888655806
200.316238189
200.332527041
200.295877123
199.86829474
200.332527041
200.332527041
200.312165976

Block: 10
======================================
200.332527041
200.295877123
200.299949336
200.295877123
200.316238189
199.872366953
200.316238189
200.27958827
200.295877123
200.316238189
200.332527041
200.348815894
200.332527041
200.332527041
200.332527041
200.316238189
200.332527041
200.316238189
193.210226202
200.283660483
200.332527041
199.872366953
200.299949336
200.316238189
199.872366953
200.316238189
199.904944658
200.295877123
200.299949336
200.27958827
200.316238189
200.316238189
199.835717034
200.316238189
200.312165976
199.888655806
199.852005887
200.295877123
200.332527041
200.283660483
199.823500395
200.299949336
200.295877123
200.299949336
199.835717034
199.835717034
199.835717034
200.316238189
200.295877123
199.86829474
