
Block: 1
======================================
13.0110924721
50.4010364532
50.4544447899
36.5970355988
50.4215781212
50.4174697876
37.8213190079
50.3846031189
50.3846031189
37.9075940132
50.4380114555
50.4051447868
40.5451441765
50.4051447868
50.4380114555
40.2534524918
50.4010364532
50.4010364532
39.8220774651
50.3846031189
50.3846031189
40.1343108177
50.4174697876
50.4215781212
40.2534524918

Block: 2
======================================
50.4339031219
50.4051447868
23.672218132
50.4380114555
50.8652781487
39.8754858017
50.4010364532
50.4339031219
40.3890275002
50.4215781212
50.4380114555
40.0973358154
50.4503364563
50.4544447899
40.1836108208
50.4174697876
50.4380114555
40.0110608101
50.4174697876
50.3887114525
40.6149858475
50.4010364532
50.4339031219
39.7358024597
50.4380114555

Block: 3
======================================
50.4010364532
21.470151329
50.4051447868
50.4215781212
38.1171190262
49.9696614265
50.4174697876
40.1137691498
50.8858198166
50.4010364532
40.2329108238
51.3171948433
50.4051447868
40.3561608315
50.4503364563
50.4174697876
40.2205858231
50.3846031189
50.4544447899
40.1137691498
50.4174697876
50.4174697876
40.2534524918
50.4010364532
50.4010364532

Block: 4
======================================
24.3459848404
50.3846031189
50.4380114555
40.6314191818
50.4215781212
50.8693864822
38.2198273659
50.4010364532
50.4174697876
39.3372941017
50.4010364532
50.4174697876
39.2017190933
50.4051447868
50.4010364532
39.1524190903
50.4010364532
50.4010364532
38.9428940773
50.4174697876
50.4010364532
39.2386940956
50.4215781212
50.4215781212
39.9576524734

Block: 5
======================================
50.4215781212
50.4174697876
19.9706095695
50.4380114555
50.4380114555
37.4104856491
50.4174697876
50.4010364532
39.2879940987
50.4544447899
50.4174697876
40.2041524887
50.4380114555
50.4010364532
40.4260025024
50.4215781212
50.4051447868
40.1507441521
50.4174697876
50.4010364532
40.4917358398
50.4010364532
50.4010364532
40.2329108238
50.8652781487

Block: 6
======================================
50.4010364532
23.5202097893
50.4380114555
50.4215781212
40.7176941872
50.4174697876
50.4215781212
40.1137691498
50.3846031189
50.4380114555
40.1671774864
50.4010364532
50.4339031219
40.6314191818
50.4051447868
50.4215781212
40.2329108238
50.3846031189
50.4051447868
40.1507441521
50.3846031189
50.4380114555
40.4095691681
50.4051447868
50.4174697876

Block: 7
======================================
24.399393177
50.4544447899
50.4380114555
40.2164774895
50.4380114555
50.4010364532
40.6314191818
50.4174697876
50.4215781212
40.1178774834
50.4380114555
50.4174697876
40.3725941658
50.4215781212
50.4010364532
40.4260025024
50.4380114555
50.4215781212
39.8549441338
50.4215781212
50.4380114555
40.5287108421
50.4174697876
50.4010364532
39.8015357971

Block: 8
======================================
50.4380114555
50.4380114555
50.4174697876
50.4380114555
50.4174697876
50.4544447899
50.4010364532
50.4051447868
50.4010364532
50.4010364532
50.4051447868
50.4174697876
40.7875358582
50.4174697876
50.4215781212
39.891919136
50.4010364532
50.4010364532
40.2534524918
50.3846031189
50.3846031189
40.3068608284
50.4544447899
50.4544447899
40.5122775078

Block: 9
======================================
50.4174697876
50.4380114555
20.3157095909
50.3846031189
50.4174697876
37.8418606758
50.4174697876
50.4380114555
37.7884523392
50.4380114555
50.4544447899
39.1318774223
50.4010364532
50.4380114555
40.2698858261
50.4010364532
50.3846031189
40.3397274971
50.4544447899
50.4215781212
40.1507441521
50.4174697876
50.4174697876
40.5451441765
50.4174697876

Block: 10
======================================
50.4174697876
22.1767847061
50.4380114555
50.4010364532
37.6528773308
50.4010364532
50.3846031189
37.5501689911
50.3846031189
50.4051447868
39.6865024567
50.4174697876
50.4051447868
40.3725941658
50.4544447899
50.4174697876
40.3191858292
50.4174697876
50.4010364532
40.2000441551
50.4051447868
50.8652781487
40.0110608101
50.4051447868
50.4010364532
