
Block: 1
======================================
15.4391176224
50.4380114555
50.4010364532
50.4010364532
50.4215781212
50.3846031189
50.4215781212
50.4339031219
50.3846031189
50.4010364532
50.4215781212
50.4215781212
50.4380114555
50.4215781212
50.4010364532
50.4380114555
50.4010364532
50.4010364532
50.4010364532
50.4174697876
50.4215781212
50.4215781212
50.4174697876
50.4174697876
50.4051447868
50.8652781487
50.4749864578
50.9022531509
50.4051447868
50.4010364532
50.4051447868
50.4380114555
50.4010364532
50.4873114586
50.4380114555
50.4380114555
50.4708781242
50.8652781487
50.4544447899
50.3681697845
50.8693864822
50.9022531509
50.8858198166
50.4010364532
50.3846031189
50.4051447868
50.8652781487
50.4708781242
50.8488448143
50.4174697876
50.4708781242
50.9022531509
50.8858198166
50.4708781242
50.8693864822
50.881711483
50.4544447899
50.4708781242
50.4708781242
50.4503364563
50.8529531479
50.9022531509
50.4708781242
50.4544447899
50.4544447899
50.4544447899
50.4380114555
50.4708781242
50.4380114555
50.4380114555
50.4708781242
50.4544447899
50.4380114555
50.4544447899
50.3846031189
50.4544447899
50.4708781242
50.4339031219
50.4873114586
50.8488448143
50.4544447899
50.4708781242
50.4708781242
50.4708781242
50.4708781242
50.4873114586
50.4708781242
50.4873114586
50.4010364532
50.4174697876
50.4380114555
50.8858198166
50.4544447899
50.4174697876
50.4873114586
50.4174697876
50.4708781242
50.4749864578
50.4503364563
50.4380114555

Average distance is : 50.158 cm
Average deviation is : 3.511 cm
Block: 2
======================================
50.4215781212
50.4215781212
50.4010364532
50.4380114555
50.3846031189
50.4174697876
50.4215781212
50.4215781212
50.4215781212
50.4051447868
50.4544447899
50.4544447899
50.4708781242
50.4708781242
50.4708781242
50.4544447899
50.4708781242
50.4544447899
50.4380114555
50.4544447899
50.4544447899
50.4544447899
50.4174697876
50.4215781212
50.4380114555
50.4873114586
50.4708781242
50.4380114555
50.0600447655
50.4544447899
50.4708781242
50.0395030975
50.4708781242
50.4544447899
50.0395030975
50.4544447899
50.4708781242
50.4544447899
50.4174697876
50.4544447899
50.4544447899
50.4380114555
50.4708781242
50.4708781242
50.4544447899
50.4708781242
50.4708781242
50.4544447899
50.4544447899
50.4749864578
50.0559364319
50.4544447899
50.4708781242
50.4708781242
50.4544447899
50.4708781242
50.4708781242
50.4708781242
50.4380114555
50.4708781242
50.4544447899
50.4873114586
50.4544447899
50.4708781242
50.4544447899
50.4873114586
50.4708781242
50.4914197922
50.4544447899
50.4749864578
50.4749864578
50.4708781242
50.4544447899
50.4708781242
50.4544447899
50.4544447899
50.4544447899
50.5037447929
50.4544447899
50.4708781242
50.4380114555
50.4215781212
50.4380114555
50.4503364563
50.4544447899
50.4708781242
50.4708781242
50.4544447899
50.4708781242
50.4708781242
50.5407197952
50.4914197922
50.4708781242
50.4544447899
50.4708781242
50.4708781242
50.4544447899
50.4544447899
50.4339031219
50.4749864578

Average distance is : 50.440 cm
Average deviation is : 0.083 cm
Block: 3
======================================
50.4544447899
50.4215781212
50.4010364532
50.3846031189
50.4051447868
50.4051447868
50.4010364532
50.4010364532
50.4215781212
50.4215781212
50.4174697876
50.4380114555
50.8693864822
50.4708781242
50.4544447899
50.4708781242
50.4708781242
50.4708781242
50.4380114555
50.8693864822
50.4544447899
50.4174697876
50.4544447899
50.4873114586
50.881711483
50.4010364532
50.4708781242
50.4708781242
50.4503364563
50.8858198166
50.4380114555
50.4380114555
50.4380114555
50.4708781242
50.4544447899
50.4708781242
50.4708781242
50.8858198166
50.8858198166
50.4544447899
50.4708781242
50.4708781242
50.4380114555
50.8529531479
50.4380114555
50.4380114555
50.4708781242
50.4708781242
50.4544447899
50.4708781242
50.4215781212
50.4544447899
50.9022531509
50.4544447899
50.9022531509
50.8693864822
50.4708781242
50.4380114555
44.7479694366
50.4544447899
50.4708781242
50.4873114586
50.4914197922
50.4339031219
50.4708781242
50.4544447899
50.4544447899
50.4708781242
50.4544447899
50.9022531509
50.4010364532
50.4708781242
50.4708781242
50.4914197922
50.4544447899
50.4873114586
50.8652781487
50.4708781242
50.4544447899
50.4873114586
50.4544447899
50.4380114555
50.4708781242
50.8858198166
50.4708781242
50.4708781242
50.4873114586
50.4010364532
50.9022531509
50.8652781487
50.8858198166
50.4708781242
50.4708781242
50.9022531509
50.4708781242
50.4708781242
50.8858198166
50.4339031219
50.4380114555
50.4708781242

Average distance is : 50.473 cm
Average deviation is : 0.602 cm
Block: 4
======================================
34.7893688202
50.4215781212
50.4174697876
50.4544447899
50.4174697876
50.4174697876
50.4380114555
50.4215781212
50.4215781212
50.4215781212
50.4380114555
50.4339031219
50.4174697876
50.4380114555
50.4544447899
50.4544447899
50.4544447899
50.4051447868
50.4749864578
50.4544447899
50.4380114555
50.4914197922
50.4873114586
50.4708781242
50.4873114586
50.4873114586
50.4708781242
50.4544447899
50.4708781242
50.4544447899
50.4544447899
50.4708781242
50.4544447899
50.0559364319
50.0559364319
50.0395030975
50.4544447899
50.4544447899
50.4544447899
50.4339031219
50.0436114311
50.4544447899
50.4380114555
50.4544447899
50.4708781242
50.4544447899
50.4544447899
50.4708781242
50.4544447899
50.4708781242
50.4544447899
50.4708781242
50.4708781242
50.4708781242
50.4749864578
50.4914197922
50.4544447899
50.4914197922
50.4873114586
50.4544447899
50.4544447899
50.4503364563
50.4544447899
50.4503364563
50.4708781242
50.4544447899
50.4873114586
50.4914197922
50.2284864426
50.4380114555
50.4544447899
50.4708781242
50.4544447899
50.4708781242
50.4544447899
50.4544447899
50.4544447899
50.4503364563
50.4914197922
50.4708781242
50.4708781242
50.4544447899
50.4708781242
50.4380114555
50.9022531509
50.4708781242
50.4708781242
50.9022531509
50.4708781242
50.4544447899
50.4174697876
50.4708781242
50.4708781242
50.4544447899
50.4749864578
50.4544447899
50.4708781242
50.4708781242
50.4380114555
50.4873114586

Average distance is : 50.291 cm
Average deviation is : 1.570 cm
Block: 5
======================================
50.8858198166
50.4174697876
50.4215781212
50.4380114555
50.4380114555
50.4010364532
50.3681697845
50.4010364532
50.4215781212
50.4010364532
50.4544447899
50.4215781212
50.4708781242
50.4544447899
50.4544447899
50.4708781242
50.4873114586
50.4708781242
50.4544447899
50.4544447899
50.4708781242
50.4544447899
50.4873114586
50.4380114555
50.4544447899
50.4873114586
50.4873114586
50.4708781242
50.4708781242
50.4544447899
50.4708781242
48.9014946938
50.4708781242
50.4339031219
50.4708781242
50.4503364563
50.4380114555
50.4708781242
48.6591030121
50.4544447899
50.4708781242
50.4544447899
50.4339031219
50.4708781242
50.4380114555
50.4708781242
50.4708781242
50.4339031219
50.4544447899
50.4339031219
50.4914197922
50.4544447899
50.4708781242
50.4544447899
50.4708781242
50.4544447899
50.4708781242
50.4544447899
50.4544447899
50.4749864578
50.4708781242
50.4873114586
50.4544447899
50.4708781242
50.4708781242
50.4544447899
50.4544447899
50.4708781242
50.4708781242
50.4215781212
50.4544447899
50.4544447899
50.4708781242
50.4708781242
50.4708781242
50.4708781242
50.4873114586
50.8488448143
50.4708781242
50.4708781242
50.4544447899
50.4544447899
50.4544447899
50.4544447899
50.4544447899
50.4544447899
50.4339031219
50.4503364563
50.4708781242
50.4708781242
50.4708781242
50.4544447899
50.4708781242
50.4708781242
50.4544447899
50.4749864578
50.4914197922
50.4708781242
50.4544447899
50.4380114555

Average distance is : 50.432 cm
Average deviation is : 0.246 cm
Block: 6
======================================
50.4010364532
50.4544447899
50.4051447868
50.3846031189
50.4215781212
50.4174697876
50.4215781212
50.4544447899
50.4215781212
50.4544447899
50.4174697876
50.4174697876
50.3846031189
50.4708781242
50.4503364563
50.4380114555
50.4503364563
50.4503364563
50.4544447899
50.4544447899
50.4544447899
50.4380114555
50.4544447899
50.4708781242
50.4873114586
50.4503364563
50.4708781242
50.4708781242
50.4544447899
50.4708781242
50.4708781242
50.4873114586
50.4544447899
50.4544447899
50.4503364563
50.4544447899
50.4708781242
50.4544447899
50.4544447899
50.4380114555
50.4544447899
50.4544447899
26.2440349579
50.4544447899
50.4873114586
50.4544447899
50.4708781242
50.4749864578
50.4380114555
50.4544447899
50.4708781242
50.4544447899
50.4503364563
50.4873114586
50.4380114555
50.4503364563
50.4380114555
50.4708781242
50.4544447899
50.4380114555
50.4503364563
50.4708781242
50.4708781242
50.4708781242
50.4503364563
50.4544447899
50.4544447899
50.4544447899
50.4544447899
50.4380114555
31.7943936348
50.4708781242
50.4749864578
50.4380114555
50.4873114586
50.4708781242
50.4544447899
50.4544447899
50.4708781242
50.4544447899
50.4873114586
50.4708781242
50.4708781242
50.4708781242
50.4380114555
50.4873114586
50.4708781242
50.4503364563
50.4749864578
50.4873114586
50.4708781242
50.4544447899
50.4544447899
50.4339031219
50.4708781242
50.4503364563
50.4708781242
50.4708781242
50.4708781242
50.4544447899

Average distance is : 50.026 cm
Average deviation is : 3.042 cm
Block: 7
======================================
50.4544447899
50.4051447868
50.3846031189
50.4708781242
50.4215781212
50.4215781212
50.4380114555
42.6650443077
50.4708781242
50.4544447899
50.4380114555
50.4708781242
50.4708781242
50.4708781242
50.8693864822
50.8652781487
50.4708781242
50.4544447899
50.4544447899
50.4708781242
50.4544447899
50.4708781242
50.4544447899
50.4708781242
50.4708781242
50.4914197922
50.4544447899
50.4544447899
50.4873114586
50.4544447899
50.4708781242
50.4339031219
50.4380114555
50.4708781242
50.4708781242
50.4708781242
50.4708781242
50.4544447899
50.4544447899
50.4503364563
50.4544447899
50.4544447899
50.4708781242
50.4708781242
50.4708781242
50.4544447899
50.4544447899
50.4708781242
50.4544447899
50.4708781242
50.4708781242
50.4708781242
50.3681697845
50.4544447899
50.4708781242
50.4544447899
50.4380114555
50.4380114555
50.4708781242
50.4708781242
50.4544447899
50.4544447899
50.4544447899
50.4380114555
50.4708781242
50.4544447899
50.4873114586
50.4749864578
50.4380114555
50.4380114555
50.4708781242
50.4708781242
50.4749864578
50.4380114555
50.0600447655
50.4873114586
50.4544447899
50.4544447899
50.4544447899
50.4873114586
50.4544447899
50.4544447899
50.4708781242
50.4749864578
50.4708781242
50.4544447899
50.4708781242
50.4544447899
50.4708781242
50.4503364563
50.4544447899
50.4708781242
50.4708781242
50.4215781212
50.4708781242
50.4544447899
50.4544447899
50.4544447899
50.4380114555
50.4544447899

Average distance is : 50.384 cm
Average deviation is : 0.783 cm
Block: 8
======================================
24.5719431877
50.8858198166
50.4215781212
50.4708781242
50.4380114555
50.4544447899
50.4544447899
50.4708781242
50.4544447899
50.8529531479
50.9186864853
50.4380114555
50.4215781212
50.4544447899
50.4380114555
50.4544447899
50.4380114555
50.4380114555
50.4708781242
50.4544447899
50.4339031219
50.4708781242
50.4708781242
50.4708781242
50.4708781242
50.4873114586
50.4708781242
50.4544447899
50.4544447899
50.4339031219
50.4503364563
50.4380114555
50.4544447899
50.4380114555
50.4708781242
50.4544447899
50.4708781242
50.4708781242
50.4708781242
50.4544447899
50.4708781242
50.4339031219
50.0436114311
50.4708781242
50.4708781242
50.4544447899
50.4708781242
50.4544447899
50.4380114555
50.4708781242
50.4503364563
50.4380114555
50.4503364563
50.4544447899
50.4380114555
50.4544447899
50.4708781242
50.4708781242
50.4380114555
50.4749864578
50.4708781242
50.4708781242
50.4544447899
50.4544447899
50.4873114586
50.4708781242
50.4339031219
50.4544447899
50.4544447899
50.4708781242
50.4708781242
50.4544447899
50.4708781242
50.4708781242
50.4380114555
50.4380114555
50.4544447899
50.4708781242
50.4708781242
50.4708781242
50.4544447899
50.4544447899
50.4380114555
50.4708781242
50.4544447899
50.4708781242
50.4544447899
50.4544447899
50.4380114555
50.4339031219
50.4708781242
50.4873114586
50.4708781242
50.4873114586
50.4544447899
50.4708781242
50.4873114586
50.4708781242
50.4503364563
50.4380114555

Average distance is : 50.208 cm
Average deviation is : 2.591 cm
Block: 9
======================================
50.6105614662
50.4215781212
50.4380114555
50.4544447899
50.4380114555
50.4380114555
50.4544447899
50.4544447899
50.3846031189
50.4708781242
50.4051447868
50.4380114555
50.4380114555
50.4708781242
50.4544447899
50.4544447899
50.4708781242
50.4544447899
50.0559364319
50.4708781242
50.4708781242
50.4544447899
50.4708781242
50.4380114555
50.4339031219
50.4544447899
50.4873114586
50.4544447899
50.4914197922
50.4708781242
50.4380114555
50.4503364563
50.4544447899
50.4708781242
50.4708781242
50.4503364563
50.4544447899
50.4708781242
50.4215781212
50.4380114555
50.4708781242
50.4708781242
50.4380114555
50.4544447899
50.4544447899
50.4708781242
50.4749864578
50.4380114555
50.4544447899
50.4339031219
50.4544447899
50.4544447899
50.4544447899
50.4544447899
50.4708781242
50.4380114555
50.4544447899
50.4749864578
50.4544447899
50.4380114555
50.4380114555
50.4914197922
50.4544447899
50.4544447899
50.4544447899
50.4380114555
50.4544447899
50.4708781242
50.4544447899
50.4749864578
50.4708781242
50.4544447899
50.4708781242
50.4708781242
50.4544447899
50.4708781242
50.4708781242
50.4708781242
50.4708781242
50.4544447899
50.4503364563
50.4544447899
50.4708781242
50.4749864578
50.4708781242
50.4708781242
50.4339031219
50.4544447899
50.4544447899
50.4544447899
50.4914197922
50.4873114586
50.4873114586
50.4708781242
50.4708781242
50.4544447899
50.4503364563
50.4544447899
50.4544447899
50.4708781242

Average distance is : 50.455 cm
Average deviation is : 0.047 cm
Block: 10
======================================
50.9022531509
50.4215781212
50.8652781487
50.5078531265
50.4010364532
50.8652781487
50.8858198166
50.4544447899
50.8652781487
50.4051447868
50.4215781212
50.4010364532
50.4544447899
50.4914197922
50.4380114555
50.4749864578
50.4708781242
50.4544447899
50.4708781242
50.4544447899
50.4544447899
50.4749864578
50.4873114586
50.4544447899
50.4708781242
50.4749864578
50.4544447899
50.4708781242
50.4380114555
50.4544447899
50.4708781242
50.4544447899
50.4914197922
50.4544447899
50.4544447899
50.4544447899
50.4544447899
50.4544447899
50.4544447899
50.4544447899
50.4708781242
50.4544447899
50.4544447899
50.5612614632
50.4503364563
50.0395030975
50.4708781242
50.0395030975
50.0436114311
50.0600447655
50.4380114555
50.4708781242
50.0025280952
50.4544447899
50.0436114311
50.4544447899
50.4914197922
50.4544447899
50.4544447899
50.4708781242
50.4544447899
50.4380114555
50.4708781242
50.4708781242
50.4339031219
50.4873114586
50.4708781242
50.4708781242
50.4544447899
50.4544447899
50.4380114555
50.4708781242
50.4914197922
50.4544447899
50.4708781242
50.4380114555
50.4380114555
50.4914197922
50.4708781242
50.4544447899
50.4544447899
50.4544447899
50.4544447899
50.4544447899
50.4708781242
50.4544447899
50.4544447899
50.4380114555
50.4708781242
50.4873114586
50.4544447899
50.4544447899
50.4708781242
50.4544447899
50.4749864578
50.4708781242
50.4544447899
50.4544447899
50.4708781242
50.4708781242

Average distance is : 50.456 cm
Average deviation is : 0.141 cm