
Block: 1
======================================
200.552426553
199.680972934
200.5361377
199.701334
200.572787619
200.108555317
199.701334
200.128916383
199.680972934
199.664684081
200.5361377
199.697261786
199.697261786
199.664684081
200.556498766
199.668756294
200.128916383
200.161494088
200.11262753
199.685045147
200.128916383
200.11262753
199.668756294
199.685045147
200.11262753
200.572787619
199.680972934
200.12484417
200.12484417
200.128916383
199.685045147
200.128916383
200.128916383
200.128916383
199.717622852
199.253390551
200.572787619
199.701334
200.096338677
200.145205235
199.717622852
200.128916383
200.128916383
200.128916383
199.664684081
199.701334
199.685045147
200.11262753
200.568715405
199.680972934
199.685045147
199.717622852
199.685045147
200.11262753
199.680972934
200.108555317
200.556498766
200.108555317
199.664684081
200.128916383
200.568715405
199.701334
199.685045147
199.685045147
200.11262753
199.668756294
199.697261786
200.145205235
199.717622852
199.680972934
200.108555317
199.701334
199.717622852
199.717622852
199.685045147
200.145205235
200.096338677
200.11262753
199.685045147
200.145205235
199.737983918
199.680972934
199.701334
199.701334
199.685045147
200.589076471
199.680972934
199.668756294
199.701334
200.589076471
200.165566301
199.685045147
200.161494088
200.568715405
199.680972934
199.717622852
200.589076471
199.668756294
200.589076471
200.589076471

Block: 2
======================================
199.701334
200.540209913
199.680972934
199.680972934
199.326690388
199.717622852
199.701334
200.572787619
199.680972934
199.652467442
199.685045147
199.701334
199.273751616
200.609437537
199.680972934
200.128916383
200.145205235
200.128916383
200.568715405
199.680972934
200.568715405
199.701334
200.128916383
199.680972934
199.717622852
201.000370002
199.701334
200.161494088
200.609437537
200.145205235
200.128916383
199.717622852
200.145205235
199.701334
199.680972934
199.701334
201.427952385
199.273751616
199.697261786
200.589076471
199.664684081
201.000370002
199.717622852
200.984081149
200.145205235
200.108555317
199.717622852
201.032947707
200.568715405
201.46053009
199.717622852
199.717622852
200.145205235
201.000370002
200.128916383
200.161494088
201.016658854
200.145205235
200.128916383
199.701334
199.717622852
200.141133022
200.621654177
199.701334
199.685045147
200.145205235
199.685045147
199.717622852
199.701334
199.701334
199.701334
199.701334
200.145205235
199.717622852
200.572787619
199.701334
199.701334
200.128916383
199.701334
199.290040469
200.128916383
200.605365324
200.141133022
199.717622852
200.161494088
200.145205235
199.701334
200.609437537
199.680972934
199.737983918
200.161494088
200.605365324
199.697261786
199.685045147
199.717622852
200.128916383
199.717622852
200.572787619
199.273751616
200.161494088

Block: 3
======================================
200.621654177
199.717622852
199.717622852
200.5361377
200.161494088
199.717622852
199.701334
200.161494088
199.257462764
200.589076471
199.717622852
200.605365324
199.257462764
199.717622852
200.161494088
199.750200558
199.701334
201.456457877
199.701334
200.161494088
199.257462764
199.685045147
200.177782941
200.161494088
200.145205235
200.145205235
200.605365324
199.701334
200.145205235
199.737983918
200.177782941
201.04923656
200.181855154
199.717622852
201.032947707
200.145205235
200.605365324
199.701334
199.717622852
199.685045147
199.717622852
199.306329322
199.733911705
199.273751616
200.161494088
199.737983918
200.589076471
199.717622852
199.290040469
199.701334
199.733911705
199.306329322
200.621654177
199.733911705
201.476818943
199.701334
199.737983918
199.273751616
199.733911705
199.733911705
199.733911705
199.733911705
201.04923656
199.290040469
199.717622852
199.273751616
199.733911705
199.273751616
200.621654177
200.177782941
201.032947707
199.701334
200.194071794
199.306329322
199.733911705
199.273751616
200.145205235
199.733911705
199.257462764
200.177782941
200.194071794
200.621654177
200.145205235
199.733911705
200.198144007
199.733911705
199.750200558
199.326690388
199.754272771
199.750200558
200.589076471
200.177782941
199.717622852
200.181855154
199.737983918
199.754272771
200.161494088
200.605365324
199.717622852
200.177782941

Block: 4
======================================
199.717622852
200.145205235
200.177782941
200.177782941
199.701334
199.322618175
199.306329322
199.733911705
199.750200558
200.177782941
199.733911705
200.161494088
199.76648941
199.754272771
200.177782941
199.717622852
199.717622852
199.290040469
199.717622852
199.733911705
199.273751616
200.214432859
201.46053009
200.177782941
199.273751616
199.697261786
199.322618175
199.273751616
199.294112682
199.76648941
199.754272771
200.145205235
199.733911705
199.290040469
199.717622852
199.717622852
199.733911705
200.642015243
200.177782941
199.717622852
199.770561624
199.733911705
199.717622852
199.750200558
200.198144007
200.177782941
199.273751616
200.161494088
199.717622852
200.198144007
200.161494088
199.294112682
199.770561624
200.161494088
199.290040469
200.198144007
199.717622852
199.290040469
200.161494088
200.621654177
199.733911705
199.701334
199.750200558
200.605365324
199.750200558
199.733911705
200.161494088
199.770561624
199.322618175
200.145205235
200.637943029
199.733911705
200.177782941
199.273751616
199.717622852
199.701334
199.306329322
201.065525413
199.306329322
200.161494088
200.642015243
199.717622852
200.194071794
199.717622852
199.754272771
199.733911705
199.717622852
199.733911705
200.161494088
200.145205235
199.717622852
200.161494088
199.737983918
199.717622852
200.161494088
199.750200558
200.161494088
199.685045147
199.717622852
200.145205235

Block: 5
======================================
199.754272771
200.177782941
200.589076471
199.322618175
200.177782941
199.701334
199.701334
200.177782941
199.306329322
199.733911705
199.290040469
200.181855154
200.605365324
199.76648941
200.177782941
199.290040469
200.177782941
200.161494088
199.717622852
199.306329322
199.717622852
199.717622852
200.161494088
199.750200558
199.290040469
200.177782941
199.326690388
199.76648941
199.273751616
199.737983918
199.754272771
200.621654177
200.177782941
199.717622852
199.733911705
201.04923656
199.733911705
199.733911705
199.257462764
199.76648941
199.770561624
199.306329322
199.750200558
199.290040469
199.290040469
199.770561624
199.306329322
199.290040469
199.733911705
199.750200558
200.181855154
200.214432859
199.273751616
199.290040469
199.786850476
200.161494088
200.605365324
200.161494088
199.306329322
199.257462764
201.032947707
200.177782941
199.717622852
200.605365324
199.717622852
199.737983918
200.194071794
201.46053009
200.177782941
200.161494088
199.733911705
200.161494088
199.754272771
201.444241238
200.621654177
200.145205235
199.717622852
200.165566301
199.733911705
199.733911705
200.621654177
200.194071794
201.032947707
199.737983918
200.194071794
200.161494088
199.733911705
199.770561624
200.177782941
201.440169024
201.032947707
200.609437537
199.273751616
200.181855154
200.210360646
200.161494088
201.000370002
201.04923656
200.177782941
200.161494088

Block: 6
======================================
199.717622852
200.128916383
200.194071794
199.733911705
200.589076471
200.605365324
200.145205235
200.145205235
200.161494088
199.770561624
200.605365324
198.846169233
199.733911705
199.294112682
199.717622852
199.717622852
200.605365324
199.733911705
200.145205235
200.145205235
199.770561624
200.161494088
200.145205235
200.165566301
199.701334
199.754272771
199.733911705
199.717622852
199.733911705
199.754272771
199.733911705
199.733911705
199.290040469
199.306329322
199.273751616
199.750200558
199.717622852
199.717622852
199.701334
200.161494088
199.697261786
199.273751616
199.733911705
199.717622852
200.177782941
199.697261786
200.181855154
199.717622852
200.161494088
199.733911705
199.273751616
199.717622852
200.161494088
199.737983918
199.290040469
200.621654177
199.290040469
199.733911705
200.177782941
199.717622852
199.737983918
199.310401535
200.194071794
199.733911705
199.754272771
199.733911705
200.145205235
200.568715405
199.269679403
201.46053009
199.701334
199.310401535
199.733911705
200.145205235
199.737983918
200.177782941
200.145205235
199.273751616
200.605365324
199.717622852
200.128916383
200.145205235
199.717622852
199.701334
199.733911705
199.717622852
199.76648941
200.161494088
199.697261786
199.717622852
199.733911705
199.733911705
199.733911705
199.733911705
200.585004258
199.290040469
199.717622852
200.02303884
199.717622852
199.750200558

Block: 7
======================================
200.177782941
200.161494088
200.145205235
199.737983918
200.177782941
200.621654177
201.440169024
200.181855154
200.605365324
199.733911705
199.717622852
199.750200558
200.589076471
199.717622852
200.621654177
199.701334
200.161494088
199.701334
200.161494088
199.750200558
200.145205235
199.273751616
199.290040469
199.701334
199.754272771
199.290040469
199.294112682
201.016658854
200.161494088
199.273751616
199.273751616
199.273751616
200.177782941
199.273751616
200.605365324
199.273751616
199.290040469
200.177782941
199.273751616
199.737983918
199.290040469
199.733911705
200.145205235
199.754272771
200.177782941
199.717622852
199.733911705
199.737983918
200.161494088
200.177782941
200.658304095
200.177782941
199.733911705
199.750200558
199.733911705
199.290040469
200.177782941
200.589076471
199.273751616
199.273751616
199.733911705
199.76648941
199.737983918
199.290040469
200.585004258
199.754272771
199.786850476
200.161494088
200.161494088
200.165566301
200.605365324
201.46053009
200.198144007
200.605365324
200.177782941
200.181855154
200.145205235
199.737983918
199.733911705
199.306329322
199.717622852
200.589076471
199.717622852
199.737983918
199.717622852
200.589076471
199.701334
200.161494088
199.754272771
199.290040469
200.161494088
200.161494088
199.733911705
199.717622852
199.733911705
200.161494088
199.717622852
199.290040469
199.326690388
200.177782941

Block: 8
======================================
199.685045147
201.476818943
199.697261786
200.605365324
199.717622852
200.181855154
199.717622852
200.177782941
200.145205235
199.290040469
200.194071794
201.46053009
199.717622852
199.733911705
199.733911705
199.733911705
199.737983918
199.290040469
199.733911705
200.161494088
200.177782941
199.733911705
199.306329322
200.589076471
199.733911705
199.733911705
200.177782941
200.145205235
199.326690388
199.717622852
199.733911705
199.717622852
200.161494088
199.701334
199.733911705
199.717622852
199.273751616
200.177782941
199.273751616
200.161494088
199.754272771
200.161494088
199.273751616
199.733911705
199.717622852
199.717622852
200.161494088
199.717622852
199.733911705
199.717622852
199.273751616
199.257462764
200.177782941
199.717622852
199.294112682
199.733911705
200.145205235
200.145205235
199.717622852
200.145205235
199.290040469
199.290040469
200.141133022
200.161494088
200.177782941
199.701334
200.572787619
199.273751616
200.181855154
199.306329322
199.717622852
200.145205235
199.717622852
199.733911705
200.145205235
199.737983918
199.257462764
199.253390551
199.680972934
200.145205235
200.177782941
199.306329322
199.717622852
199.733911705
200.177782941
199.294112682
199.717622852
199.273751616
199.733911705
199.737983918
200.141133022
199.257462764
199.733911705
199.717622852
200.145205235
199.737983918
199.701334
199.733911705
200.605365324
199.717622852

Block: 9
======================================
200.145205235
200.128916383
200.145205235
200.177782941
200.145205235
200.589076471
199.273751616
199.717622852
199.257462764
200.145205235
199.237101698
199.269679403
200.161494088
199.701334
200.161494088
199.241173911
199.733911705
199.717622852
199.273751616
199.273751616
199.257462764
199.701334
199.701334
199.701334
199.290040469
200.605365324
199.257462764
199.273751616
200.145205235
200.161494088
200.161494088
199.717622852
199.697261786
201.407591319
199.273751616
200.145205235
199.701334
200.145205235
200.585004258
200.145205235
199.290040469
199.257462764
200.605365324
199.701334
200.572787619
199.701334
199.273751616
199.717622852
199.717622852
199.253390551
199.237101698
200.12484417
200.605365324
201.444241238
201.000370002
199.701334
199.717622852
200.177782941
199.257462764
199.257462764
199.733911705
199.257462764
200.128916383
199.701334
199.257462764
200.145205235
199.685045147
199.717622852
199.253390551
199.269679403
199.685045147
200.161494088
200.12484417
199.717622852
200.161494088
200.145205235
199.701334
200.145205235
199.717622852
199.685045147
200.128916383
200.177782941
199.701334
200.145205235
199.273751616
199.717622852
199.733911705
199.257462764
200.141133022
201.427952385
199.701334
200.572787619
200.145205235
200.145205235
199.717622852
199.273751616
200.12484417
199.269679403
199.273751616
199.685045147

Block: 10
======================================
200.177782941
199.717622852
199.750200558
200.161494088
199.290040469
199.717622852
199.733911705
200.161494088
199.701334
200.145205235
199.701334
200.161494088
200.145205235
199.273751616
199.717622852
200.12484417
199.668756294
199.680972934
199.701334
200.12484417
199.717622852
200.128916383
200.605365324
199.717622852
200.589076471
200.177782941
200.12484417
199.685045147
201.04923656
200.572787619
201.032947707
199.680972934
199.701334
199.701334
200.589076471
199.717622852
199.273751616
199.697261786
199.701334
200.161494088
199.733911705
200.12484417
199.717622852
200.145205235
199.685045147
199.685045147
199.273751616
200.145205235
199.701334
201.016658854
199.717622852
199.737983918
199.701334
200.128916383
199.253390551
199.717622852
200.161494088
200.145205235
199.717622852
200.181855154
200.161494088
199.680972934
200.141133022
199.273751616
199.685045147
200.145205235
200.145205235
200.572787619
200.145205235
199.680972934
199.701334
199.717622852
200.145205235
200.589076471
199.290040469
199.717622852
200.621654177
201.016658854
200.145205235
200.161494088
199.273751616
200.589076471
199.717622852
199.290040469
199.717622852
200.161494088
200.145205235
199.733911705
200.605365324
199.257462764
199.733911705
199.257462764
200.165566301
199.685045147
199.701334
199.717622852
199.717622852
199.717622852
199.717622852
199.237101698
