
Block: 1
======================================
50.4402748108
50.4402748108
50.4361592531
50.4731992722
50.4731992722
50.4731992722
50.4567370415
50.4402748108
50.4731992722
49.9546390057
50.4731992722
50.4567370415
50.4361592531
50.4402748108
50.4567370415
50.4567370415
50.4567370415
50.4567370415
50.4567370415
50.4567370415
50.4896615028
50.4731992722
50.4238125801
50.4567370415
50.4361592531

Average distance is : 50.436 cm
Average deviation is : 0.101 cm
Block: 2
======================================
50.4773148298
50.5102392912
50.4896615028
50.4896615028
50.8724083662
50.8724083662
50.4731992722
50.9217950583
50.4196970224
50.4731992722
50.4567370415
50.4567370415
50.4402748108
50.4731992722
50.4361592531
50.4567370415
50.4731992722
50.4567370415
50.4731992722
50.8724083662
50.4402748108
50.4402748108
50.4238125801
50.4731992722
50.4196970224

Average distance is : 50.528 cm
Average deviation is : 0.161 cm
Block: 3
======================================
50.8724083662
50.8724083662
50.8682928085
50.8518305779
50.4937770605
50.4937770605
50.4238125801
50.4731992722
50.4402748108
50.4402748108
50.4773148298
50.4567370415
50.4773148298
50.4567370415
50.4402748108
50.4896615028
50.4731992722
50.4567370415
50.4402748108
50.4731992722
50.4567370415
50.4567370415
50.4567370415
50.4402748108
50.4567370415

Average distance is : 50.526 cm
Average deviation is : 0.153 cm
Block: 4
======================================
50.8518305779
50.4402748108
50.8888705969
50.8724083662
50.8394839048
50.8888705969
50.4361592531
50.4526214838
50.4731992722
50.4731992722
50.4731992722
50.4402748108
50.4567370415
50.4731992722
50.4567370415
50.8353683472
50.4773148298
50.4896615028
50.4567370415
50.5925504446
50.4567370415
50.8559461355
50.4567370415
50.4731992722
50.4567370415

Average distance is : 50.579 cm
Average deviation is : 0.183 cm
Block: 5
======================================
50.8559461355
50.4567370415
50.8518305779
50.8353683472
50.8518305779
50.8888705969
50.8518305779
50.8682928085
50.4402748108
50.4567370415
50.8724083662
50.4731992722
50.4896615028
50.4361592531
50.4567370415
50.4731992722
50.4402748108
50.4567370415
50.8888705969
50.8724083662
50.8724083662
50.4526214838
50.4361592531
50.9053328276
50.8682928085

Average distance is : 50.670 cm
Average deviation is : 0.211 cm
Block: 6
======================================
50.9053328276
51.2839641333
50.8518305779
50.8353683472
50.8353683472
50.8724083662
50.8518305779
50.8682928085
50.8888705969
50.8724083662
50.8682928085
50.8682928085
50.8724083662
50.8518305779
50.8724083662
50.8682928085
50.8518305779
50.8888705969
50.4567370415
50.4361592531
50.4238125801
50.4402748108
50.4402748108
50.4238125801
50.4567370415

Average distance is : 50.763 cm
Average deviation is : 0.223 cm
Block: 7
======================================
50.4567370415
50.4567370415
50.8518305779
50.9259106159
50.8353683472
50.4567370415
50.4402748108
50.4567370415
50.4196970224
50.4567370415
50.4361592531
50.4731992722
50.4402748108
50.4567370415
50.4567370415
50.4196970224
50.4567370415
50.4773148298
50.4896615028
50.4567370415
50.4402748108
50.4567370415
50.4567370415
50.4731992722
50.4567370415

Average distance is : 50.504 cm
Average deviation is : 0.140 cm
Block: 8
======================================
50.4567370415
50.9053328276
50.8682928085
50.8888705969
50.8682928085
50.4567370415
50.4238125801
50.4896615028
50.4196970224
50.4402748108
50.4896615028
50.4567370415
50.8189061165
50.4402748108
50.4567370415
50.4567370415
50.8724083662
50.8518305779
50.4567370415
50.4567370415
50.4567370415
50.4402748108
49.2467630863
50.4567370415
50.4896615028

Average distance is : 50.523 cm
Average deviation is : 0.326 cm
Block: 9
======================================
50.8559461355
50.8353683472
50.8888705969
50.8724083662
50.8724083662
50.9053328276
50.4731992722
50.4731992722
50.4402748108
50.4196970224
50.8559461355
50.8682928085
50.4402748108
50.8518305779
50.4567370415
50.4032347918
50.4567370415
50.4402748108
50.4361592531
50.4567370415
50.8559461355
50.4773148298
50.8518305779
50.8353683472
50.8682928085

Average distance is : 50.664 cm
Average deviation is : 0.213 cm
Block: 10
======================================
50.8724083662
50.8682928085
50.8518305779
50.8394839048
50.8518305779
50.8518305779
50.4402748108
50.4567370415
50.8682928085
50.8682928085
50.8559461355
50.4731992722
50.4567370415
50.4402748108
50.4567370415
50.8353683472
50.8559461355
50.8394839048
50.8724083662
50.8888705969
50.8559461355
50.8888705969
50.9053328276
50.8559461355
50.8847550392

Average distance is : 50.765 cm
Average deviation is : 0.179 cm