
Block: 1
======================================
198.284203815
76.7082795382
197.429039049
78.0398932457
156.096075344
118.448464561
155.293849349
119.47466228
157.187428474
118.672436285
157.171139622
119.083729815
157.187428474
119.120379734
157.545783234
118.741663909
157.480627823
118.297792673
158.022232175
117.837632585
158.449814558
117.923149061
158.396875787
117.906860209
158.384659147
127.452127886
158.743013906
117.373400283
158.384659147
117.853921437
157.957076764
118.330370378
157.085623145
118.692797351
157.138561916
119.116307521
157.154850769
119.116307521
157.187428474
119.152957439
156.694690681
119.596828675
156.743557239
119.165174079
156.710979533
119.185535145
157.05304544
119.234401703
156.662112975
119.661984086

Block: 2
======================================
198.247553897
78.141698575
199.171946287
77.9014379978
197.872910285
78.7566027641
159.528951049
113.447786784
160.367826962
116.282047153
160.00539999
116.249469447
159.614467525
116.656690764
159.679622936
116.554885435
155.737720585
119.047079897
155.069877625
119.490951133
154.731883931
119.922605729
154.711522865
121.453757882
154.849978113
121.474118948
154.813328195
121.111691976
155.155394101
120.704470658
155.582976484
120.724831724
155.159466314
121.164630747
154.267651629
121.59221313
154.198424006
121.628863049
154.609717536
121.303085995
154.145485234
121.698090672
154.027391052
122.211189532
154.047752118
121.799896002
154.047752118
121.950567889
154.267651629
122.019795513

Block: 3
======================================
198.26384275
76.093375349
199.530301046
75.0671776295
197.856621432
77.0829231501
197.156200767
77.9543767691
196.321397066
78.7566027641
197.054395437
79.2330517054
196.679751825
79.6606340885
195.78793714
80.4995100021
195.397004676
80.8415759087
195.054938769
81.7089573145
194.203846216
82.1243230581
193.77219162
82.8898991346
193.022904396
83.3174815178
192.135161924
84.5961564541
191.332935929
85.3495158911
190.510348868
86.2372583628
189.675545168
87.0557732105
188.852958107
87.9272268295
187.488766694
89.1936851263
186.735407257
89.5479676723
186.32818594
90.4234935045
185.509671092
91.2623694181
184.650434113
91.6533018827
184.243212795
92.5899109125
183.2862427
93.4654367447

Block: 4
======================================
197.819971514
78.7891804695
197.07068429
79.2167628527
196.643101907
79.1841851473
196.708257318
79.6076953173
196.301036
80.0189888477
195.445871234
80.9270923853
194.949061227
80.9067313194
194.95313344
80.9230201721
194.969422293
81.3383859158
194.594778681
198.267914963
77.0299843788
197.205067325
77.7833438158
196.455780101
78.5855698109
158.282853818
115.08481648
159.919883513
116.416430187
158.641208577
117.666599631
158.246203899
118.041243243
157.000106668
119.287340474
156.588813138
119.234401703
156.641751909
119.576467609
156.710979533
119.596828675
156.727268386
119.592756462
156.694690681
119.596828675
156.299686003
119.714922857
156.161230755
120.138433027
155.293849349

Block: 5
======================================
198.26384275
77.8322103739
196.761196089
78.6018586636
195.600615335
79.884605813
194.321940398
81.179569602
193.499353337
82.0184455156
194.321940398
82.4134501934
193.483064485
83.6717640638
192.220678401
84.9748722792
190.921642399
85.7770982742
189.691834021
87.3978391171
188.873319173
87.8579992056
188.290992689
87.9801656008
187.883771372
88.8312581539
186.991956687
89.7393616915
186.104214215
90.1140053034
186.22638061
90.4397823572
184.992500019
91.7551072121
184.125118613
92.5410443544
182.86273253
93.7179139614
182.634688592
93.6527585506
182.190817356
94.5242121696
181.885401368
94.8255559444
181.527046609
94.7604005337
181.596274233
95.1350441456
180.264660525
96.4503690004

Block: 6
======================================
197.856621432
79.1149575233
196.728618383
79.9701222897
195.893814683
80.7723482847
195.140455246
81.8840624809
193.878069162
83.2319650412
192.627899718
84.1034186602
191.772734952
84.9219335079
191.402163553
85.2965771198
190.595865345
86.526385498
189.333479261
85.5531265497
188.633058596
86.4245801687
188.156609654
86.0702976227
187.985576701
87.467066741
188.804091549
87.8783602715
188.018154407
88.7131639719
187.195567346
89.5683287382
186.755768323
89.9592612028
185.505598879
91.2420083523
184.617856407
92.1501118898
183.766763854
92.9849155903
182.467727852
94.3002404451
182.040145469
94.7074617624
181.205341768
95.5626265287
180.382754707
96.3159859657
179.837078142
96.8779513836

Block: 7
======================================
198.300492668
76.0078588724
196.915940189
77.7466938972
196.097425342
78.023604393
195.739070582
78.895058012
197.396461344
79.3022793293
196.590163136
79.7298617125
196.577946496
80.1207941771
196.1462919
80.5483765602
195.755359435
80.9067313194
195.413293529
81.3343137026
194.562200975
81.7618960857
194.562200975
82.120250845
193.755902767
83.4192868471
192.851871443
83.8427970171
192.509805536
84.2052239895
192.098512006
84.6328063726
191.247419453
85.4513212204
190.868703628
86.2576194286
190.05018878
86.6648407459
189.231673932
87.9272268295
187.981504488
89.209973979
187.110050869
89.6009064436
186.087925363
90.6271041632
185.696992898
90.6271041632
185.680704045
91.070975399

Block: 8
======================================
197.852549219
79.131246376
197.156200767
80.0230610609
196.284747148
80.6868318081
156.96345675
119.767861629
156.609174204
119.678272939
156.658040762
119.661984086
125.709220648
150.427554607
125.436382365
150.834775925
125.196121788
149.144807458
124.976222277
149.637545252
125.008799982
149.242540574
125.399732447
149.450223446
126.360774755
149.94296124
126.287474918
149.999972224
126.324124837
149.999972224
125.900614667
150.44384346
125.880253601
150.423482394
125.452671218
150.423482394
125.811025977
150.476421165
126.189741802
149.380995822
126.837223697
149.450223446
126.820934844
149.413573527
126.906451321
149.417645741
126.837223697
149.433934593
126.820934844
149.503162217

Block: 9
======================================
197.872910285
77.7996326685
196.712329531
78.7566027641
195.857164764
79.1841851473
154.524201059
120.297249341
156.368913627
119.865594745
155.994270015
119.356568098
155.363076973
120.75740943
155.888392472
119.885955811
155.925042391
120.293177128
155.51374886
120.789987135
155.517821074
120.773698282
155.635915256
120.688181806
155.668492961
121.030247712
154.849978113
121.437469029
155.086166477
121.164630747
155.175755167
121.095403123
154.813328195
121.490407801
153.974452281
122.296706009
153.123359728
123.131509709
152.31706152
123.986674476
152.337422585
123.848219228
152.422939062
123.917446852
151.95870676
124.328740382
151.979067826
124.324668169
151.979067826
124.324668169

Block: 10
======================================
198.280131602
78.6018586636
197.636721921
79.9660500765
196.301036
80.3651269674
195.873453617
80.8578647614
192.969965625
83.793930459
156.112364197
120.191371799
153.65274744
122.500316668
153.787130475
122.056445432
153.534653258
120.891792464
153.310681534
120.859214759
151.775457168
122.891249132
151.738807249
124.47941227
151.759168315
124.511989975
151.759168315
124.528278828
151.755096102
124.532351041
150.899931335
125.387515807
150.904003549
125.350865889
150.513071084
125.758087206
150.492710018
125.81509819
150.476421165
125.40380466
150.952870107
125.350865889
150.541576576
125.778448272
150.557865429
125.778448272
150.09770534
126.189741802
149.670122957
126.617324185
