
Block: 1
======================================
198.296420455
75.6495041132
187.574283171
89.3484292269
186.478857827

Average distance is : 147.469 cm
Average deviation is : 59.686 cm
Block: 2
======================================
198.316781521
78.3656702995
197.498266673
79.200474
159.49230113

Average distance is : 142.575 cm
Average deviation is : 60.310 cm
Block: 3
======================================
198.267914963
76.704207325
197.449400115
77.5960220098
156.572524285

Average distance is : 141.318 cm
Average deviation is : 60.955 cm
Block: 4
======================================
198.247553897
77.1684396267
195.653554106
79.200474
195.001999998

Average distance is : 149.054 cm
Average deviation is : 64.710 cm
Block: 5
======================================
198.267914963
75.527337718
197.787393808
76.7897238016
197.017745519

Average distance is : 149.078 cm
Average deviation is : 66.569 cm
Block: 6
======================================
198.337142587
78.6547974348
198.402297997
79.1638240814
197.107334208

Average distance is : 150.333 cm
Average deviation is : 65.203 cm
Block: 7
======================================
198.284203815
76.1259530544
199.18823514
75.4418212414
197.498266673

Average distance is : 149.308 cm
Average deviation is : 67.121 cm
Block: 8
======================================
198.316781521
77.8688602924
198.333070374
78.3982480049
158.278781605

Average distance is : 142.239 cm
Average deviation is : 60.761 cm
Block: 9
======================================
199.257462764
75.5965653419
197.771104956
76.8100848675
196.55758543

Average distance is : 149.199 cm
Average deviation is : 66.643 cm
Block: 10
======================================
198.300492668
78.0073155403
197.48197782
78.8095415354
197.066612077

Average distance is : 149.933 cm
Average deviation is : 65.295 cm