
Block: 1
======================================
50.8189061165
50.8353683472
50.8518305779
50.8682928085
50.8353683472

Block: 2
======================================
50.4196970224
50.8353683472
50.7859816551
50.8518305779
50.8024438858

Block: 3
======================================
50.7859816551
50.8189061165
50.8353683472
50.4032347918
50.8682928085

Block: 4
======================================
50.8189061165
50.4731992722
50.8189061165
50.8353683472
50.8682928085

Block: 5
======================================
50.4032347918
50.3867725611
50.4196970224
50.8189061165
50.8189061165

Block: 6
======================================
50.8518305779
50.8559461355
50.7654038668
50.8024438858
50.7695194244

Block: 7
======================================
50.9547195196
50.8724083662
50.8518305779
50.8353683472
50.8724083662

Block: 8
======================================
50.4731992722
50.4567370415
50.4402748108
50.4567370415
50.4567370415

Block: 9
======================================
50.8518305779
50.8518305779
50.8724083662
50.8682928085
50.9053328276

Block: 10
======================================
50.8353683472
50.8518305779
50.8353683472
50.8353683472
50.8888705969
