
Block: 1
======================================
399.584830141
399.584830141
399.584830141
399.588873458
399.605046725
399.617176676
399.192628407
399.621219993
399.196671724
399.196671724
399.568656874
399.212844992
399.605046725
399.584830141
399.144108605
399.127935338
399.148151922
399.601003408
399.568656874
399.568656874
399.552483606
399.568656874
399.601003408
399.568656874
399.621219993

Block: 2
======================================
399.075372219
399.552483606
399.584830141
399.552483606
399.568656874
399.552483606
399.552483606
399.536310339
399.601003408
399.601003408
399.601003408
319.862751985
399.584830141
399.617176676
399.617176676
399.548440289
399.601003408
399.584830141
399.63739326
399.584830141
399.617176676
399.621219993
399.617176676
399.621219993
399.584830141

Block: 3
======================================
399.160281873
399.17645514
399.17645514
399.160281873
399.180498457
399.584830141
399.568656874
399.584830141
399.568656874
399.621219993
399.584830141
399.127935338
399.499920487
399.993205142
399.532267022
399.972988558
399.568656874
399.568656874
399.568656874
399.977031875
399.552483606
399.588873458
399.552483606
399.107718754
399.552483606

Block: 4
======================================
399.588873458
399.548440289
399.503963804
399.568656874
399.972988558
399.095588803
399.552483606
399.536310339
399.960858607
399.95681529
399.972988558
399.972988558
399.977031875
400.009378409
399.568656874
399.601003408
400.025551677
400.029594994
399.552483606
399.972988558
399.977031875
399.993205142
400.009378409
399.532267022
399.568656874

Block: 5
======================================
399.605046725
399.584830141
399.617176676
399.621219993
399.552483606
399.568656874
399.568656874
399.568656874
400.025551677
399.588873458
399.605046725
399.568656874
400.041724944
399.605046725
399.621219993
399.617176676
399.601003408
399.584830141
399.63739326
399.588873458
399.621219993
399.584830141
399.111762071
399.601003408
399.617176676

Block: 6
======================================
399.212844992
399.229018259
399.212844992
399.245191526
399.192628407
399.245191526
399.653566527
399.17645514
399.192628407
399.212844992
399.212844992
399.212844992
399.653566527
399.63739326
399.212844992
399.180498457
399.229018259
399.212844992
399.245191526
399.669739795
399.180498457
399.649523211
399.673783112
399.653566527
399.601003408

Block: 7
======================================
400.061941528
400.009378409
399.993205142
399.993205142
400.009378409
399.993205142
399.993205142
399.977031875
400.009378409
399.977031875
400.009378409
399.993205142
399.989161825
400.009378409
399.977031875
399.993205142
399.993205142
399.993205142
399.977031875
399.993205142
399.977031875
400.009378409
399.993205142
399.993205142
399.548440289

Block: 8
======================================
399.621219993
399.621219993
399.584830141
399.601003408
399.584830141
399.621219993
399.584830141
399.617176676
399.180498457
399.584830141
399.605046725
399.63739326
399.601003408
399.160281873
399.16432519
399.584830141
399.584830141
399.180498457
399.605046725
399.180498457
399.17645514
399.17645514
399.180498457
399.127935338
399.160281873

Block: 9
======================================
399.160281873
399.160281873
399.180498457
399.17645514
399.212844992
399.192628407
399.16432519
399.144108605
399.160281873
399.16432519
399.160281873
399.180498457
399.17645514
399.212844992
399.16432519
399.160281873
399.127935338
399.180498457
398.739776921
399.160281873
398.772123456
399.148151922
398.739776921
399.229018259
399.160281873

Block: 10
======================================
398.735733604
398.804469991
398.70338707
399.160281873
398.735733604
399.160281873
399.196671724
398.739776921
399.16432519
399.192628407
399.192628407
399.127935338
399.16432519
399.160281873
399.160281873
399.160281873
399.180498457
399.588873458
399.601003408
399.568656874
399.601003408
399.180498457
399.123892021
399.552483606
399.16432519
