
Block: 1
======================================
200.365104747
200.348815894
200.36917696
199.904944658
200.352888107
200.348815894
200.316238189
200.385465813
200.36917696
200.348815894
200.365104747
200.348815894
199.904944658
200.365104747
200.348815894
200.352888107
199.921233511
200.348815894
199.921233511
199.904944658
200.332527041
200.365104747
200.365104747
200.316238189
200.365104747
200.36917696
200.348815894
200.365104747
199.909016871
200.348815894
200.36917696
200.348815894
199.904944658
200.385465813
200.348815894
200.401754665
200.332527041
200.36917696
200.36917696
200.365104747
200.332527041
200.365104747
200.332527041
200.332527041
200.385465813
200.332527041
200.401754665
200.316238189
200.316238189
200.348815894
200.348815894
200.332527041
200.348815894
200.332527041
200.36917696
200.348815894
199.941594577
200.385465813
200.348815894
200.348815894
200.348815894
200.348815894
200.365104747
200.365104747
200.348815894
199.904944658
200.36917696
200.385465813
200.3813936
200.365104747
200.3813936
200.332527041
200.385465813
200.385465813
200.348815894
200.365104747
200.365104747
200.365104747
199.925305724
200.3813936
200.3813936
200.365104747
199.852005887
200.348815894
200.348815894
200.365104747
200.36917696
200.401754665
200.348815894
200.348815894
200.385465813
200.332527041
200.36917696
199.888655806
200.36917696
200.332527041
200.3813936
200.365104747
200.348815894
200.352888107

Block: 2
======================================
200.3813936
200.348815894
200.365104747
200.348815894
200.352888107
200.385465813
200.36917696
200.348815894
200.3813936
200.348815894
200.385465813
200.365104747
200.3813936
199.925305724
200.365104747
200.365104747
200.385465813
200.36917696
200.365104747
199.888655806
200.332527041
200.365104747
200.348815894
200.36917696
200.385465813
200.401754665
200.385465813
200.36917696
199.921233511
200.385465813
200.385465813
200.365104747
200.352888107
200.3813936
199.921233511
200.365104747
199.921233511
200.385465813
200.348815894
199.921233511
200.352888107
200.365104747
199.888655806
199.904944658
200.348815894
200.365104747
200.365104747
200.3813936
200.418043518
200.348815894
200.401754665
200.348815894
199.925305724
200.36917696
200.365104747
200.365104747
200.3813936
199.904944658
199.921233511
200.365104747
200.385465813
199.925305724
200.348815894
200.385465813
200.385465813
200.348815894
199.937522364
200.385465813
200.36917696
199.904944658
200.36917696
200.401754665
200.418043518
200.365104747
199.872366953
200.3813936
200.397682452
200.365104747
199.925305724
200.36917696
200.332527041
200.36917696
200.36917696
200.36917696
199.937522364
200.365104747
199.921233511
200.3813936
199.904944658
200.352888107
200.397682452
199.990461135
200.385465813
200.332527041
200.348815894
200.352888107
200.397682452
199.904944658
200.365104747
199.904944658

Block: 3
======================================
200.348815894
200.332527041
199.904944658
200.385465813
199.921233511
199.904944658
200.365104747
199.872366953
200.316238189
200.332527041
199.888655806
200.3813936
200.332527041
200.385465813
199.921233511
199.86829474
200.365104747
200.365104747
199.941594577
199.904944658
200.3813936
200.348815894
200.348815894
200.418043518
200.332527041
200.348815894
200.365104747
200.348815894
200.365104747
200.352888107
199.904944658
200.385465813
200.385465813
200.365104747
199.909016871
200.3813936
199.888655806
200.332527041
199.904944658
200.365104747
200.3813936
200.348815894
200.3813936
200.348815894
200.332527041
199.921233511
200.332527041
200.397682452
200.36917696
200.401754665
200.316238189
199.909016871
200.332527041
200.385465813
199.904944658
199.904944658
200.385465813
199.925305724
200.365104747
199.904944658
200.332527041
199.925305724
200.365104747
200.352888107
200.397682452
200.348815894
200.348815894
200.401754665
200.332527041
200.332527041
200.348815894
200.385465813
199.872366953
199.904944658
200.36917696
200.385465813
200.348815894
199.888655806
199.925305724
199.921233511
200.36917696
200.36917696
200.385465813
199.904944658
200.3813936
200.316238189
200.385465813
200.332527041
200.3813936
200.385465813
200.348815894
200.385465813
200.348815894
200.332527041
200.332527041
200.316238189
200.365104747
200.352888107
200.332527041
200.385465813

Block: 4
======================================
200.385465813
200.385465813
199.872366953
200.332527041
200.332527041
199.925305724
199.95788343
200.385465813
200.316238189
200.365104747
200.316238189
200.401754665
200.316238189
200.332527041
199.925305724
200.299949336
200.36917696
200.36917696
200.332527041
200.36917696
200.3813936
199.888655806
200.348815894
200.332527041
200.352888107
200.348815894
200.385465813
200.299949336
200.365104747
200.348815894
200.348815894
200.352888107
200.36917696
200.348815894
200.348815894
200.36917696
200.365104747
200.348815894
200.27958827
200.332527041
200.332527041
200.332527041
199.921233511
200.332527041
200.332527041
200.36917696
199.904944658
200.145205235
199.86829474
200.316238189
200.316238189
200.365104747
199.835717034
200.332527041
200.332527041
200.348815894
200.348815894
200.348815894
200.348815894
200.348815894
200.365104747
200.332527041
200.312165976
200.295877123
200.332527041
200.316238189
200.312165976
200.332527041
200.316238189
200.348815894
200.332527041
200.316238189
200.348815894
200.332527041
199.872366953
200.332527041
200.312165976
200.295877123
200.365104747
200.312165976
200.332527041
200.316238189
200.332527041
200.316238189
200.299949336
200.348815894
200.348815894
200.36917696
200.316238189
199.835717034
200.316238189
200.348815894
200.295877123
200.348815894
200.365104747
200.295877123
200.352888107
200.299949336
200.348815894
200.348815894

Block: 5
======================================
200.092266464
200.316238189
200.348815894
199.888655806
200.316238189
200.365104747
200.316238189
200.332527041
200.312165976
200.365104747
200.348815894
200.295877123
200.450621223
199.888655806
200.299949336
199.852005887
200.332527041
200.27958827
200.332527041
199.872366953
199.904944658
199.8560781
200.316238189
200.332527041
200.348815894
200.348815894
199.872366953
200.316238189
200.332527041
200.332527041
200.332527041
199.904944658
200.299949336
200.332527041
200.332527041
200.332527041
199.835717034
200.332527041
200.332527041
200.299949336
200.348815894
199.872366953
199.904944658
199.872366953
199.86829474
200.332527041
200.332527041
199.872366953
200.299949336
199.888655806
200.27958827
200.332527041
200.348815894
199.8560781
200.332527041
200.332527041
199.904944658
200.316238189
200.295877123
200.332527041
200.365104747
199.8560781
200.348815894
200.365104747
199.835717034
199.872366953
200.316238189
200.332527041
200.365104747
200.352888107
200.299949336
200.312165976
200.332527041
200.332527041
199.872366953
200.316238189
200.348815894
199.8560781
200.332527041
200.352888107
200.348815894
200.332527041
199.86829474
200.332527041
200.332527041
200.352888107
200.332527041
199.835717034
200.348815894
200.332527041
200.348815894
200.332527041
200.348815894
200.348815894
200.316238189
200.352888107
200.365104747
199.872366953
200.332527041
200.36917696

Block: 6
======================================
200.316238189
200.332527041
200.352888107
200.348815894
200.316238189
200.299949336
200.332527041
200.348815894
199.835717034
200.299949336
200.299949336
200.348815894
199.835717034
200.332527041
200.332527041
199.86829474
200.295877123
199.852005887
200.348815894
200.316238189
200.316238189
199.888655806
200.295877123
200.316238189
200.332527041
199.86829474
200.332527041
200.332527041
200.348815894
200.316238189
200.332527041
200.348815894
200.299949336
200.316238189
200.316238189
199.872366953
200.348815894
200.295877123
199.835717034
200.295877123
200.348815894
200.299949336
199.852005887
200.316238189
199.872366953
199.8560781
199.8560781
200.299949336
200.283660483
200.332527041
200.27958827
200.332527041
200.316238189
199.852005887
200.27958827
200.312165976
199.835717034
199.852005887
200.365104747
200.295877123
200.295877123
200.312165976
200.332527041
200.348815894
199.852005887
200.332527041
200.27958827
200.316238189
200.27958827
200.263299417
200.299949336
200.332527041
199.872366953
199.8560781
200.299949336
200.263299417
199.872366953
200.27958827
200.295877123
200.295877123
200.332527041
200.263299417
200.365104747
200.27958827
200.348815894
200.27958827
199.852005887
200.27958827
200.332527041
200.299949336
200.299949336
200.299949336
199.872366953
200.316238189
200.316238189
200.312165976
200.316238189
200.299949336
200.316238189
199.839789248

Block: 7
======================================
200.332527041
200.27958827
199.8560781
200.263299417
200.295877123
200.283660483
200.312165976
200.316238189
200.352888107
200.348815894
200.295877123
200.295877123
200.27958827
200.283660483
200.332527041
200.299949336
200.316238189
200.332527041
200.299949336
200.332527041
199.888655806
200.283660483
200.283660483
199.8560781
200.316238189
200.348815894
200.332527041
200.332527041
200.295877123
200.332527041
200.316238189
200.27958827
200.332527041
200.312165976
200.316238189
200.299949336
200.316238189
200.332527041
199.872366953
200.27958827
199.8560781
199.86829474
200.283660483
200.316238189
200.332527041
200.332527041
200.316238189
199.424423504
200.316238189
200.352888107
200.316238189
200.299949336
199.872366953
200.36917696
200.316238189
200.316238189
200.316238189
199.884583592
199.904944658
200.312165976
200.332527041
200.365104747
200.332527041
200.316238189
200.332527041
200.299949336
199.8560781
199.872366953
199.8560781
200.316238189
200.348815894
200.27958827
200.316238189
200.299949336
200.332527041
200.316238189
199.872366953
200.312165976
200.316238189
200.316238189
200.36917696
199.925305724
200.316238189
200.352888107
200.332527041
200.332527041
199.904944658
200.299949336
200.352888107
200.352888107
200.348815894
200.332527041
200.316238189
200.316238189
199.888655806
199.872366953
200.332527041
199.888655806
199.852005887
199.884583592

Block: 8
======================================
200.348815894
200.316238189
200.312165976
200.332527041
200.332527041
199.852005887
199.888655806
200.332527041
200.295877123
199.888655806
200.332527041
200.299949336
200.348815894
200.332527041
200.299949336
200.295877123
199.921233511
200.299949336
200.352888107
199.888655806
199.937522364
200.316238189
200.295877123
199.872366953
200.332527041
199.888655806
199.941594577
200.295877123
200.316238189
200.316238189
200.348815894
199.872366953
200.348815894
200.332527041
200.295877123
199.86829474
199.884583592
199.888655806
200.316238189
200.316238189
200.365104747
199.872366953
200.332527041
200.316238189
200.385465813
200.299949336
200.348815894
200.283660483
200.332527041
200.299949336
199.904944658
199.888655806
200.332527041
199.937522364
200.27958827
200.332527041
200.312165976
200.348815894
200.295877123
200.348815894
200.295877123
200.316238189
199.921233511
200.299949336
199.888655806
200.348815894
200.295877123
200.316238189
200.316238189
199.888655806
200.316238189
199.904944658
200.316238189
199.86829474
200.365104747
200.332527041
200.365104747
200.332527041
200.316238189
200.332527041
200.332527041
200.332527041
200.299949336
200.316238189
199.904944658
199.8560781
200.316238189
200.332527041
200.316238189
200.316238189
200.316238189
199.888655806
200.316238189
200.352888107
200.352888107
199.8560781
200.299949336
200.332527041
199.872366953
200.312165976

Block: 9
======================================
200.27958827
200.365104747
200.299949336
199.852005887
199.872366953
199.872366953
199.872366953
199.872366953
200.27958827
200.316238189
199.925305724
200.316238189
200.332527041
199.888655806
200.312165976
200.332527041
199.888655806
200.312165976
200.332527041
200.316238189
200.332527041
199.8560781
200.295877123
199.872366953
200.365104747
200.316238189
199.86829474
200.332527041
200.295877123
200.27958827
200.332527041
200.299949336
199.86829474
200.348815894
200.316238189
200.332527041
200.316238189
200.312165976
200.348815894
200.299949336
200.316238189
200.348815894
200.348815894
200.316238189
200.332527041
200.332527041
200.352888107
200.312165976
199.888655806
200.316238189
200.299949336
200.316238189
199.872366953
200.332527041
199.835717034
200.332527041
199.872366953
200.316238189
200.332527041
200.332527041
199.8560781
200.332527041
199.852005887
199.888655806
200.332527041
200.299949336
200.316238189
200.283660483
199.888655806
199.872366953
200.352888107
200.27958827
199.8560781
200.299949336
200.316238189
200.312165976
200.316238189
199.888655806
200.332527041
199.904944658
200.352888107
199.872366953
200.316238189
200.316238189
200.348815894
199.888655806
199.888655806
200.316238189
200.332527041
200.316238189
200.316238189
200.316238189
200.316238189
199.872366953
199.8560781
199.835717034
200.332527041
199.872366953
200.299949336
199.872366953

Block: 10
======================================
200.316238189
200.332527041
200.283660483
200.332527041
199.852005887
199.852005887
200.312165976
200.283660483
200.365104747
199.888655806
199.852005887
200.352888107
200.348815894
200.295877123
200.348815894
200.332527041
200.316238189
200.332527041
200.332527041
200.316238189
199.872366953
200.299949336
200.36917696
200.348815894
200.295877123
200.316238189
200.348815894
200.332527041
200.312165976
200.312165976
200.312165976
199.888655806
200.348815894
200.332527041
200.283660483
200.316238189
199.852005887
200.348815894
200.332527041
200.316238189
200.299949336
200.316238189
200.332527041
199.86829474
199.86829474
200.316238189
200.316238189
200.299949336
200.332527041
200.332527041
200.348815894
200.332527041
199.872366953
200.316238189
200.316238189
200.283660483
200.295877123
199.86829474
199.872366953
200.299949336
200.332527041
199.8560781
200.312165976
200.316238189
200.332527041
200.316238189
200.332527041
200.283660483
200.316238189
200.332527041
200.295877123
200.332527041
200.316238189
200.299949336
199.8560781
200.348815894
200.316238189
200.348815894
199.872366953
200.316238189
199.884583592
200.316238189
200.348815894
199.872366953
200.316238189
200.332527041
200.332527041
200.332527041
200.332527041
200.316238189
199.8560781
200.348815894
200.299949336
199.872366953
200.36917696
200.348815894
200.316238189
200.316238189
200.348815894
199.852005887
