
Block: 1
======================================
200.3813936
200.332527041
200.348815894
200.316238189
200.332527041
200.332527041
200.365104747
200.348815894
200.36917696
200.348815894
200.332527041
200.36917696
200.401754665
199.904944658
200.348815894
200.385465813
200.348815894
200.332527041
200.36917696
200.589076471
199.904944658
200.385465813
200.316238189
200.332527041
200.348815894

Block: 2
======================================
200.3813936
200.299949336
200.332527041
200.36917696
200.385465813
200.352888107
200.385465813
200.332527041
200.332527041
199.921233511
200.348815894
200.348815894
200.348815894
200.348815894
200.316238189
199.888655806
200.332527041
200.316238189
199.888655806
200.332527041
200.365104747
199.921233511
200.332527041
200.332527041
199.904944658

Block: 3
======================================
200.332527041
200.332527041
200.316238189
199.86829474
200.332527041
200.332527041
199.888655806
200.316238189
199.925305724
200.365104747
199.888655806
200.348815894
200.348815894
199.904944658
200.3813936
200.348815894
200.352888107
199.888655806
199.95788343
200.3813936
200.348815894
200.352888107
200.385465813
200.36917696
200.332527041

Block: 4
======================================
200.295877123
200.332527041
200.312165976
200.36917696
200.299949336
200.36917696
200.348815894
200.332527041
200.352888107
200.401754665
199.888655806
200.332527041
200.316238189
200.332527041
200.348815894
200.316238189
199.888655806
200.316238189
199.888655806
200.365104747
200.348815894
200.332527041
200.316238189
199.925305724
199.872366953

Block: 5
======================================
200.332527041
200.332527041
199.872366953
200.316238189
200.348815894
200.36917696
200.365104747
200.365104747
200.332527041
200.332527041
199.888655806
200.332527041
200.332527041
200.332527041
200.365104747
199.872366953
199.904944658
200.332527041
200.316238189
199.888655806
199.909016871
200.348815894
199.86829474
200.365104747
199.904944658

Block: 6
======================================
200.365104747
200.332527041
200.27958827
200.299949336
200.332527041
200.348815894
200.295877123
200.348815894
200.332527041
199.888655806
200.365104747
200.332527041
200.385465813
200.316238189
200.332527041
200.316238189
200.348815894
200.36917696
200.348815894
199.904944658
200.348815894
200.332527041
200.385465813
200.348815894
200.365104747

Block: 7
======================================
200.365104747
200.299949336
200.332527041
200.332527041
200.316238189
200.348815894
200.3813936
200.348815894
200.332527041
200.332527041
199.921233511
200.365104747
200.348815894
200.385465813
200.332527041
200.348815894
200.332527041
200.332527041
200.332527041
200.3813936
200.332527041
200.348815894
200.36917696
200.332527041
200.332527041

Block: 8
======================================
200.365104747
200.348815894
200.365104747
200.348815894
200.348815894
200.365104747
200.332527041
200.365104747
200.348815894
200.3813936
200.401754665
199.904944658
200.36917696
199.925305724
200.3813936
199.701334
200.36917696
200.332527041
199.904944658
200.3813936
200.348815894
199.872366953
200.316238189
199.888655806
200.348815894

Block: 9
======================================
200.3813936
200.348815894
200.418043518
200.332527041
200.348815894
200.352888107
200.385465813
199.925305724
200.332527041
200.365104747
200.348815894
199.921233511
200.397682452
200.397682452
199.921233511
200.401754665
199.941594577
200.365104747
200.36917696
200.348815894
199.937522364
199.921233511
199.925305724
200.401754665
200.385465813

Block: 10
======================================
199.974172282
200.36917696
200.332527041
200.385465813
200.3813936
200.332527041
199.921233511
200.397682452
200.365104747
199.904944658
200.397682452
200.348815894
200.385465813
200.365104747
200.401754665
200.365104747
199.937522364
200.365104747
200.348815894
199.925305724
200.365104747
200.365104747
200.348815894
200.385465813
200.352888107
