
Block: 1
======================================
300.687242985
300.691307974
301.101871872
300.687242985
300.654723072
300.675048018
300.70756793
301.150651741
301.097806883
301.561215639

Block: 2
======================================
300.703502941
301.166911697
300.691307974
301.150651741
300.675048018
300.687242985
301.150651741
300.670983028
301.134391785
300.675048018

Block: 3
======================================
301.203496599
300.654723072
301.55715065
300.70756793
300.691307974
300.70756793
301.130326796
300.691307974
300.654723072
300.691307974

Block: 4
======================================
300.654723072
301.150651741
301.983974504
301.134391785
300.70756793
300.70756793
300.70756793
301.561215639
300.670983028
301.134391785

Block: 5
======================================
300.691307974
301.114066839
300.675048018
301.614060497
301.577475595
300.70756793
300.691307974
300.687242985
300.70756793
300.691307974

Block: 6
======================================
300.70756793
300.691307974
301.577475595
301.114066839
301.081546926
301.55715065
301.134391785
301.134391785
300.687242985
300.691307974

Block: 7
======================================
300.70756793
302.447383261
301.150651741
301.114066839
300.675048018
300.691307974
300.687242985
300.687242985
301.097806883
301.134391785

Block: 8
======================================
301.134391785
300.675048018
300.70756793
301.55715065
301.097806883
301.150651741
301.561215639
300.691307974
301.118131828
301.577475595

Block: 9
======================================
300.670983028
301.134391785
301.114066839
301.544955683
300.675048018
300.675048018
300.687242985
301.097806883
301.134391785
301.081546926

Block: 10
======================================
300.675048018
301.114066839
301.114066839
300.675048018
301.55715065
301.118131828
301.134391785
300.691307974
301.118131828
302.463643217

Block: 1
======================================
300.435213661
301.577475595
300.471798563
302.158769035
301.337641239
301.321381283
301.727880192
302.207548904
300.435213661
300.894557428

Block: 2
======================================
300.862037516
301.337641239
300.894557428
300.878297472
300.451473618
300.431148672
300.435213661
300.435213661
301.337641239
300.435213661

Block: 3
======================================
301.321381283
300.862037516
300.431148672
300.435213661
300.878297472
300.878297472
300.857972527
301.301056337
301.28886137
300.414888716

Block: 4
======================================
300.857972527
300.825452614
300.435213661
300.398628759
301.305121326
300.414888716
302.158769035
300.435213661
300.435213661
301.305121326

Block: 5
======================================
300.402693748
300.402693748
302.191288948
300.84171257
300.809192657
300.845777559
300.386433792
300.451473618
302.154704046
300.845777559

Block: 6
======================================
300.857972527
300.418953705
301.252276468
301.301056337
301.284796381
300.402693748
300.398628759
301.268536425
300.845777559
300.402693748

Block: 7
======================================
300.398628759
300.857972527
300.829517603
300.398628759
300.386433792
300.435213661
300.398628759
300.382368803
301.28886137
300.382368803

Block: 8
======================================
300.862037516
301.272601414
300.398628759
300.862037516
301.272601414
301.28886137
300.829517603
302.597787857
300.418953705
301.321381283

Block: 9
======================================
300.829517603
300.845777559
301.305121326
300.862037516
301.731945181
301.252276468
300.451473618
300.857972527
301.305121326
301.28886137

Block: 10
======================================
300.398628759
300.878297472
300.414888716
300.398628759
301.284796381
301.727880192
301.321381283
301.268536425
300.398628759
300.845777559
