
Block: 1
======================================
301.081546926
301.114066839
301.134391785
301.097806883
300.691307974
301.118131828
301.130326796
301.118131828
300.670983028
300.675048018
300.654723072
300.654723072
300.654723072
302.431123304
301.118131828
300.70756793
301.130326796
301.118131828
301.561215639
300.691307974
300.691307974
301.134391785
300.675048018
302.427058315
301.097806883

Average distance is : 301.063 cm
Average deviation is : 0.479 cm
Block: 2
======================================
302.414863348
301.544955683
300.70756793
301.524630737
300.622203159
300.675048018
301.097806883
301.101871872
301.561215639
300.654723072
300.675048018
300.675048018
301.101871872
301.097806883
300.687242985
300.654723072
300.691307974
301.134391785
301.540890694
301.118131828
300.670983028
300.658788061
301.134391785
300.638463116
300.654723072

Average distance is : 301.002 cm
Average deviation is : 0.444 cm
Block: 3
======================================
301.540890694
301.085611916
301.114066839
301.097806883
301.540890694
300.691307974
301.101871872
301.561215639
301.561215639
301.118131828
301.097806883
301.540890694
300.654723072
300.687242985
301.097806883
300.670983028
300.638463116
301.101871872
301.55715065
300.654723072
300.670983028
301.114066839
300.658788061
300.638463116
301.101871872

Average distance is : 301.052 cm
Average deviation is : 0.347 cm
Block: 4
======================================
300.642528105
301.134391785
301.118131828
300.654723072
301.561215639
300.654723072
301.101871872
300.638463116
301.081546926
300.675048018
301.118131828
301.097806883
301.097806883
300.638463116
301.134391785
300.675048018
300.70756793
301.540890694
302.00429945
301.097806883
300.670983028
300.658788061
301.118131828
300.670983028
301.097806883

Average distance is : 300.984 cm
Average deviation is : 0.354 cm
Block: 5
======================================
300.670983028
301.118131828
300.658788061
300.658788061
301.101871872
302.410798359
301.097806883
301.561215639
301.540890694
300.670983028
300.670983028
301.150651741
300.670983028
301.561215639
301.101871872
300.658788061
300.691307974
301.134391785
301.130326796
301.134391785
301.561215639
301.118131828
302.000234461
300.691307974
301.114066839

Average distance is : 301.115 cm
Average deviation is : 0.457 cm
Block: 6
======================================
302.020559406
300.654723072
301.577475595
301.134391785
301.55715065
300.70756793
301.097806883
301.114066839
300.691307974
300.691307974
300.691307974
300.654723072
301.55715065
300.654723072
301.114066839
300.670983028
301.114066839
301.577475595
300.703502941
300.691307974
301.593735552
300.691307974
301.573410606
301.561215639
302.000234461

Average distance is : 301.124 cm
Average deviation is : 0.462 cm
Block: 7
======================================
301.134391785
300.70756793
301.101871872
300.687242985
301.150651741
301.134391785
300.691307974
301.577475595
300.687242985
301.577475595
301.561215639
300.691307974
301.577475595
300.658788061
302.00429945
300.675048018
302.00429945
300.675048018
301.134391785
300.675048018
301.097806883
301.134391785
300.675048018
301.561215639
301.118131828

Average distance is : 301.108 cm
Average deviation is : 0.433 cm
Block: 8
======================================
300.691307974
300.70756793
302.443318272
300.670983028
300.687242985
300.670983028
301.118131828
300.675048018
300.723827887
300.691307974
301.118131828
301.134391785
301.967714548
301.101871872
301.134391785
301.134391785
301.118131828
301.55715065
301.118131828
301.561215639
300.675048018
300.675048018
300.70756793
300.670983028
301.561215639

Average distance is : 301.053 cm
Average deviation is : 0.465 cm
Block: 9
======================================
300.70756793
300.675048018
300.654723072
300.654723072
300.675048018
301.118131828
300.70756793
300.691307974
300.675048018
301.561215639
300.691307974
300.675048018
301.524630737
301.983974504
300.70756793
301.561215639
301.114066839
302.874207115
301.561215639
300.675048018
301.134391785
301.097806883
300.691307974
300.658788061
301.114066839

Average distance is : 301.047 cm
Average deviation is : 0.545 cm
Block: 10
======================================
301.134391785
300.670983028
301.134391785
300.691307974
301.134391785
302.447383261
301.55715065
301.561215639
300.675048018
301.166911697
300.703502941
301.134391785
301.55715065
301.150651741
301.101871872
302.00429945
300.670983028
301.561215639
300.70756793
301.561215639
301.55715065
301.118131828
300.691307974
300.670983028
301.118131828

Average distance is : 301.179 cm
Average deviation is : 0.462 cm
Block: 1
======================================
300.878297472
300.398628759
300.809192657
300.825452614
300.398628759
301.272601414
300.418953705
300.414888716
302.565267944
300.829517603
300.402693748
300.418953705
301.727880192
300.845777559
300.418953705
300.398628759
300.874232483
300.402693748
300.418953705
300.845777559
300.857972527
300.402693748
300.84171257
301.699425268
300.825452614

Average distance is : 300.808 cm
Average deviation is : 0.529 cm
Block: 2
======================================
302.175028992
302.122184134
301.301056337
301.731945181
300.878297472
300.845777559
300.418953705
300.862037516
301.727880192
300.414888716
301.28886137
300.431148672
300.398628759
300.878297472
301.321381283
300.398628759
301.321381283
300.435213661
300.418953705
301.321381283
301.305121326
300.435213661
300.878297472
301.305121326
300.435213661

Average distance is : 301.002 cm
Average deviation is : 0.558 cm
Block: 3
======================================
300.435213661
300.414888716
301.321381283
300.418953705
301.301056337
301.305121326
300.467733574
300.418953705
300.418953705
300.845777559
300.402693748
300.418953705
301.284796381
300.451473618
300.398628759
300.894557428
302.191288948
301.321381283
301.321381283
303.024611712
301.301056337
300.431148672
301.321381283
300.435213661
300.862037516

Average distance is : 300.936 cm
Average deviation is : 0.652 cm
Block: 4
======================================
301.28886137
300.418953705
301.28886137
300.418953705
301.301056337
301.305121326
301.727880192
300.418953705
301.731945181
300.386433792
300.862037516
300.382368803
301.711620235
300.825452614
300.857972527
300.825452614
300.845777559
300.418953705
300.402693748
300.84171257
300.402693748
300.862037516
301.284796381
300.418953705
300.435213661

Average distance is : 300.867 cm
Average deviation is : 0.466 cm
Block: 5
======================================
300.829517603
301.748205137
300.809192657
300.84171257
301.305121326
300.878297472
301.28886137
300.862037516
301.748205137
302.597787857
301.28886137
301.301056337
300.84171257
301.284796381
300.857972527
301.305121326
300.84171257
300.84171257
300.862037516
301.305121326
301.321381283
300.898622417
302.175028992
301.78072505
301.305121326

Average distance is : 301.245 cm
Average deviation is : 0.467 cm
Block: 6
======================================
300.414888716
301.321381283
301.321381283
301.748205137
300.874232483
300.862037516
300.894557428
300.451473618
301.321381283
301.301056337
301.301056337
301.744140148
300.435213661
300.435213661
300.878297472
300.414888716
302.154704046
302.207548904
300.451473618
300.894557428
301.321381283
300.874232483
300.878297472
303.040871668
300.878297472

Average distance is : 301.137 cm
Average deviation is : 0.653 cm
Block: 7
======================================
300.857972527
301.305121326
300.862037516
300.504318476
300.878297472
300.862037516
300.878297472
300.862037516
300.862037516
301.301056337
301.305121326
301.321381283
301.305121326
301.748205137
300.857972527
300.878297472
300.878297472
300.894557428
301.321381283
300.878297472
300.862037516
300.862037516
301.748205137
300.451473618
301.748205137

Average distance is : 301.049 cm
Average deviation is : 0.352 cm
Block: 8
======================================
300.878297472
300.894557428
300.898622417
301.321381283
301.305121326
301.727880192
301.305121326
300.894557428
302.175028992
300.845777559
301.305121326
301.28886137
301.321381283
303.040871668
301.305121326
301.744140148
302.191288948
301.321381283
300.894557428
300.894557428
301.305121326
301.321381283
302.618112803
301.305121326
301.321381283

Average distance is : 301.417 cm
Average deviation is : 0.562 cm
Block: 9
======================================
300.451473618
300.862037516
301.337641239
300.862037516
302.634372759
301.301056337
300.862037516
300.862037516
301.301056337
302.191288948
300.825452614
300.894557428
300.894557428
300.862037516
300.878297472
301.337641239
301.321381283
301.305121326
300.862037516
300.857972527
300.862037516
301.748205137
301.301056337
300.878297472
300.878297472

Average distance is : 301.135 cm
Average deviation is : 0.476 cm
Block: 10
======================================
301.301056337
300.878297472
301.284796381
301.321381283
302.175028992
302.207548904
301.744140148
303.044936657
300.862037516
301.305121326
301.337641239
301.305121326
301.301056337
301.731945181
300.862037516
301.764465094
301.337641239
302.618112803
300.418953705
300.894557428
300.894557428
300.467733574
300.862037516
301.764465094
302.211613894

Average distance is : 301.436 cm
Average deviation is : 0.649 cm