
Block: 1
======================================
300.675048018
301.097806883
301.544955683
300.670983028
301.134391785
301.577475595
300.658788061
300.675048018
300.670983028
300.675048018
300.675048018
300.691307974
301.081546926
300.654723072
301.134391785
300.70756793
301.118131828
301.118131828
301.114066839
301.097806883
301.134391785
300.670983028
302.427058315
301.544955683
301.55715065
300.675048018
301.561215639
300.670983028
300.691307974
301.55715065
301.134391785
301.114066839
300.670983028
301.561215639
300.670983028
301.114066839
301.577475595
301.118131828
301.118131828
300.70756793
301.540890694
301.114066839
300.675048018
301.577475595
300.670983028
301.114066839
301.114066839
302.410798359
300.670983028
301.561215639

Average distance is : 301.090 cm
Average deviation is : 0.438 cm
Block: 2
======================================
301.114066839
301.573410606
301.544955683
300.658788061
301.097806883
300.675048018
300.675048018
301.150651741
301.097806883
300.670983028
300.670983028
301.134391785
300.691307974
300.687242985
300.687242985
300.687242985
301.577475595
300.691307974
300.675048018
300.675048018
301.130326796
300.691307974
300.691307974
300.691307974
300.670983028
300.70756793
300.691307974
302.837622213
300.670983028
300.670983028
301.118131828
301.134391785
301.55715065
300.675048018
300.658788061
300.687242985
301.118131828
300.675048018
301.114066839
301.544955683
302.00429945
301.114066839
301.561215639
301.114066839
300.691307974
301.101871872
300.670983028
301.577475595
300.687242985
301.561215639

Average distance is : 301.005 cm
Average deviation is : 0.449 cm
Block: 3
======================================
300.691307974
302.000234461
301.540890694
301.118131828
300.691307974
300.675048018
301.55715065
301.55715065
300.658788061
301.561215639
301.55715065
301.524630737
300.70756793
301.150651741
301.544955683
301.097806883
300.703502941
300.675048018
301.544955683
301.561215639
301.540890694
301.544955683
301.544955683
300.658788061
301.540890694
300.638463116
301.524630737
301.114066839
300.654723072
301.118131828
300.675048018
301.101871872
300.654723072
300.658788061
301.097806883
300.687242985
300.638463116
300.654723072
301.118131828
301.561215639
301.540890694
300.670983028
301.118131828
301.561215639
301.134391785
300.675048018
301.540890694
302.410798359
300.638463116
301.561215639

Average distance is : 301.154 cm
Average deviation is : 0.446 cm
Block: 4
======================================
301.988039494
300.654723072
301.118131828
301.134391785
301.540890694
301.085611916
300.642528105
301.983974504
302.414863348
300.670983028
301.114066839
301.544955683
301.101871872
300.675048018
301.118131828
300.638463116
302.000234461
300.670983028
301.967714548
300.675048018
300.654723072
301.561215639
301.081546926
301.130326796
301.097806883
300.654723072
301.114066839
300.658788061
300.670983028
300.670983028
301.101871872
300.654723072
301.101871872
301.150651741
301.114066839
300.691307974
301.540890694
301.118131828
302.447383261
300.642528105
302.841687202
301.097806883
300.638463116
301.988039494
301.081546926
301.544955683
301.118131828
300.654723072
300.654723072
300.654723072

Average distance is : 301.157 cm
Average deviation is : 0.554 cm
Block: 5
======================================
301.528695726
300.654723072
301.524630737
301.540890694
301.544955683
301.561215639
301.577475595
302.837622213
301.508370781
301.544955683
300.675048018
301.114066839
300.658788061
300.638463116
301.081546926
301.524630737
301.540890694
301.081546926
300.658788061
301.118131828
301.524630737
301.951454592
300.670983028
301.561215639
301.101871872
301.085611916
301.097806883
301.085611916
300.675048018
301.118131828
301.967714548
301.101871872
301.101871872
301.097806883
301.118131828
302.431123304
302.000234461
302.841687202
301.101871872
300.658788061
301.118131828
300.675048018
301.55715065
301.101871872
300.675048018
302.410798359
301.118131828
301.118131828
300.687242985
300.670983028

Average distance is : 301.287 cm
Average deviation is : 0.551 cm
Block: 6
======================================
301.55715065
301.118131828
301.540890694
300.670983028
301.097806883
301.114066839
301.134391785
300.691307974
300.675048018
300.687242985
300.654723072
301.561215639
300.675048018
301.114066839
300.654723072
300.654723072
301.081546926
301.130326796
300.670983028
301.577475595
301.097806883
300.675048018
301.577475595
301.544955683
301.118131828
300.670983028
300.691307974
300.687242985
300.691307974
300.691307974
301.101871872
301.114066839
302.431123304
302.020559406
300.691307974
301.134391785
300.654723072
300.691307974
300.691307974
301.544955683
301.118131828
301.561215639
301.528695726
301.544955683
302.410798359
300.675048018
301.134391785
301.561215639
300.670983028
300.670983028

Average distance is : 301.089 cm
Average deviation is : 0.464 cm
Block: 7
======================================
300.622203159
300.723827887
301.593735552
301.540890694
301.097806883
300.691307974
300.675048018
300.687242985
300.654723072
300.569358301
301.540890694
301.081546926
301.983974504
300.675048018
300.638463116
300.638463116
302.00429945
301.967714548
301.101871872
301.114066839
301.097806883
301.101871872
301.101871872
301.540890694
300.670983028
300.654723072
300.670983028
300.654723072
300.670983028
300.70756793
300.675048018
301.561215639
302.837622213
301.561215639
301.097806883
301.577475595
300.654723072
301.118131828
300.675048018
301.097806883
301.114066839
301.081546926
301.097806883
301.561215639
300.638463116
301.118131828
300.675048018
301.540890694
301.101871872
301.101871872

Average distance is : 301.087 cm
Average deviation is : 0.480 cm
Block: 8
======================================
301.561215639
301.06528697
301.134391785
301.06528697
301.540890694
301.06528697
300.642528105
301.540890694
301.097806883
300.658788061
301.097806883
301.085611916
300.658788061
301.540890694
300.654723072
300.638463116
300.654723072
300.658788061
300.638463116
300.654723072
302.410798359
301.081546926
300.658788061
301.528695726
303.264446068
301.118131828
301.524630737
300.658788061
300.670983028
301.524630737
300.654723072
301.085611916
301.118131828
301.097806883
300.642528105
301.967714548
301.101871872
301.967714548
301.528695726
300.658788061
301.081546926
300.658788061
301.955519581
300.658788061
300.658788061
301.081546926
301.524630737
301.085611916
300.638463116
301.540890694

Average distance is : 301.136 cm
Average deviation is : 0.540 cm
Block: 9
======================================
301.101871872
301.097806883
301.097806883
301.097806883
300.675048018
301.097806883
301.097806883
301.540890694
300.670983028
300.670983028
300.642528105
301.097806883
301.134391785
300.670983028
300.675048018
301.544955683
301.081546926
300.675048018
301.561215639
301.528695726
300.658788061
301.097806883
301.134391785
301.577475595
301.577475595
300.675048018
301.114066839
300.675048018
300.654723072
300.675048018
301.524630737
300.654723072
301.118131828
301.081546926
300.675048018
301.101871872
301.55715065
301.118131828
301.101871872
301.097806883
301.540890694
301.118131828
301.118131828
301.118131828
301.101871872
301.967714548
300.691307974
301.573410606
300.675048018
300.658788061

Average distance is : 301.064 cm
Average deviation is : 0.347 cm
Block: 10
======================================
301.114066839
301.118131828
300.675048018
301.544955683
301.097806883
301.561215639
301.134391785
301.097806883
301.118131828
301.118131828
300.658788061
301.118131828
301.114066839
300.675048018
301.577475595
301.134391785
301.55715065
301.55715065
301.561215639
300.670983028
300.638463116
300.675048018
301.55715065
300.670983028
300.670983028
301.118131828
301.130326796
301.561215639
301.118131828
300.691307974
300.703502941
300.687242985
301.561215639
301.55715065
301.134391785
300.691307974
300.70756793
300.691307974
301.114066839
301.134391785
300.670983028
301.134391785
300.691307974
300.670983028
300.670983028
301.101871872
301.097806883
300.691307974
301.577475595
300.691307974

Average distance is : 301.040 cm
Average deviation is : 0.341 cm
Block: 1
======================================
300.829517603
301.28886137
301.764465094
301.321381283
301.305121326
301.301056337
300.894557428
300.878297472
300.878297472
301.748205137
300.874232483
300.435213661
300.874232483
300.845777559
300.857972527
301.764465094
300.435213661
301.321381283
300.862037516
301.321381283
300.878297472
300.878297472
301.321381283
300.862037516
301.321381283
300.862037516
300.894557428
300.878297472
300.878297472
300.878297472
300.435213661
300.431148672
300.414888716
300.878297472
300.451473618
301.764465094
300.894557428
300.471798563
300.467733574
300.451473618
300.862037516
300.435213661
300.435213661
300.862037516
300.414888716
300.894557428
301.305121326
301.321381283
300.878297472
301.321381283

Average distance is : 300.937 cm
Average deviation is : 0.387 cm
Block: 2
======================================
301.744140148
301.321381283
301.337641239
301.321381283
300.878297472
300.878297472
301.321381283
300.862037516
300.878297472
300.914882374
300.910817385
300.878297472
300.878297472
300.878297472
300.878297472
301.321381283
302.170964003
301.337641239
300.894557428
302.187223959
301.764465094
302.154704046
300.862037516
301.764465094
301.317316294
300.894557428
302.175028992
300.878297472
300.894557428
300.894557428
301.321381283
300.910817385
300.878297472
300.93114233
300.878297472
302.618112803
300.910817385
301.341706228
300.93114233
301.78072505
300.878297472
300.894557428
301.321381283
300.910817385
300.910817385
300.910817385
300.914882374
301.353901196
300.894557428
301.341706228

Average distance is : 301.205 cm
Average deviation is : 0.452 cm
Block: 3
======================================
301.357966185
300.467733574
300.914882374
300.471798563
300.451473618
301.801049995
300.910817385
300.504318476
301.341706228
301.374226141
301.353901196
301.353901196
300.894557428
300.927077341
301.321381283
300.471798563
300.910817385
301.817309952
300.894557428
300.910817385
300.910817385
300.467733574
301.341706228
300.467733574
300.910817385
300.910817385
302.223808861
300.910817385
300.48399353
300.451473618
301.357966185
300.451473618
300.894557428
300.467733574
300.914882374
301.374226141
300.48399353
302.244133806
300.93114233
300.451473618
301.370161152
300.947402287
300.927077341
300.914882374
300.504318476
300.910817385
300.467733574
300.488058519
301.370161152
300.894557428

Average distance is : 300.958 cm
Average deviation is : 0.458 cm
Block: 4
======================================
300.910817385
300.451473618
300.467733574
300.878297472
301.353901196
301.796985006
302.223808861
301.337641239
301.801049995
300.943337297
301.353901196
300.910817385
301.337641239
301.341706228
301.813244963
300.451473618
300.467733574
301.337641239
300.451473618
300.894557428
302.223808861
300.878297472
301.337641239
302.650632715
300.910817385
302.223808861
302.191288948
302.211613894
301.321381283
300.894557428
301.353901196
300.894557428
300.451473618
300.894557428
300.910817385
300.910817385
300.894557428
300.760412788
300.910817385
300.894557428
300.878297472
300.894557428
300.894557428
300.894557428
300.894557428
300.467733574
301.321381283
301.337641239
301.305121326
301.321381283

Average distance is : 301.169 cm
Average deviation is : 0.542 cm
Block: 5
======================================
301.337641239
301.764465094
300.894557428
301.357966185
300.874232483
300.894557428
301.321381283
301.337641239
300.878297472
301.321381283
301.305121326
300.910817385
300.435213661
300.878297472
300.878297472
302.207548904
301.337641239
300.878297472
301.764465094
300.894557428
301.78072505
301.764465094
301.353901196
300.914882374
300.894557428
301.764465094
300.451473618
300.471798563
300.894557428
300.48399353
301.341706228
300.878297472
301.321381283
300.894557428
300.451473618
300.488058519
300.894557428
301.337641239
300.48399353
300.910817385
300.435213661
301.353901196
302.207548904
300.894557428
300.894557428
300.451473618
300.910817385
301.357966185
300.894557428
301.321381283

Average distance is : 301.079 cm
Average deviation is : 0.451 cm
Block: 6
======================================
300.435213661
301.357966185
300.927077341
300.862037516
301.321381283
301.337641239
300.435213661
301.353901196
300.451473618
300.894557428
301.337641239
300.894557428
300.467733574
301.337641239
300.451473618
302.175028992
300.910817385
301.748205137
301.321381283
301.78072505
302.207548904
300.894557428
300.471798563
301.305121326
301.321381283
301.337641239
300.878297472
301.357966185
300.910817385
302.650632715
301.337641239
301.321381283
301.341706228
301.784790039
300.93114233
301.321381283
301.353901196
301.337641239
302.191288948
300.914882374
300.894557428
301.78072505
301.337641239
302.191288948
302.223808861
300.894557428
301.784790039
300.894557428
300.910817385
302.207548904

Average distance is : 301.282 cm
Average deviation is : 0.542 cm
Block: 7
======================================
300.914882374
302.191288948
300.914882374
300.874232483
300.910817385
303.073391581
301.301056337
301.357966185
301.357966185
300.910817385
301.353901196
300.48399353
302.22787385
300.467733574
300.451473618
300.500253487
301.370161152
300.914882374
300.914882374
300.93114233
300.910817385
300.48399353
300.947402287
300.910817385
300.914882374
300.910817385
300.451473618
300.910817385
300.914882374
300.910817385
300.48399353
301.353901196
300.910817385
300.471798563
300.467733574
300.48399353
301.337641239
300.451473618
300.471798563
300.488058519
300.451473618
300.48399353
300.467733574
301.353901196
300.894557428
300.910817385
300.451473618
301.353901196
300.467733574
300.488058519

Average distance is : 300.919 cm
Average deviation is : 0.524 cm
Block: 8
======================================
300.914882374
301.337641239
300.93114233
300.878297472
301.370161152
300.467733574
301.78072505
300.488058519
301.374226141
300.93114233
300.910817385
301.353901196
301.764465094
300.894557428
300.910817385
300.488058519
301.357966185
300.910817385
300.894557428
300.467733574
300.467733574
300.894557428
300.467733574
301.817309952
301.374226141
300.93114233
300.48399353
300.504318476
300.910817385
300.927077341
300.504318476
300.927077341
301.817309952
300.467733574
301.370161152
300.947402287
300.48399353
300.93114233
300.488058519
300.48399353
300.93114233
300.467733574
300.93114233
301.374226141
300.93114233
300.93114233
300.504318476
300.943337297
300.504318476
300.488058519

Average distance is : 300.913 cm
Average deviation is : 0.401 cm
Block: 9
======================================
301.374226141
300.467733574
300.467733574
302.244133806
302.223808861
300.467733574
300.488058519
301.764465094
301.796985006
300.910817385
300.471798563
300.471798563
300.471798563
300.93114233
300.910817385
300.500253487
300.488058519
300.910817385
300.914882374
300.927077341
300.48399353
300.48399353
300.93114233
300.910817385
300.914882374
301.374226141
300.894557428
300.467733574
300.894557428
300.471798563
300.467733574
300.451473618
300.927077341
300.894557428
301.78072505
300.894557428
300.488058519
300.451473618
302.223808861
300.504318476
300.910817385
301.764465094
300.927077341
300.467733574
301.764465094
300.910817385
301.341706228
300.910817385
300.48399353
301.817309952

Average distance is : 300.948 cm
Average deviation is : 0.537 cm
Block: 10
======================================
300.878297472
300.418953705
301.321381283
300.48399353
300.910817385
300.894557428
300.451473618
300.910817385
300.467733574
301.321381283
300.910817385
300.451473618
300.910817385
301.764465094
300.894557428
300.927077341
300.451473618
300.488058519
300.48399353
301.796985006
301.337641239
300.894557428
300.48399353
301.353901196
301.341706228
300.894557428
300.467733574
301.78072505
300.451473618
300.914882374
300.488058519
300.488058519
300.435213661
301.337641239
301.337641239
300.894557428
300.467733574
300.894557428
300.451473618
301.337641239
300.467733574
300.455538607
300.894557428
300.894557428
300.48399353
300.488058519
301.748205137
300.451473618
300.878297472
300.500253487

Average distance is : 300.849 cm
Average deviation is : 0.418 cm