
Block: 1
======================================
50.7461364746
50.692728138
50.7297031403
50.692728138
3.56603355408
50.2449197769
50.2983281136
50.7461364746
50.2818947792
50.7461364746
22.5917263985
50.2284864426
50.2490281105
50.2818947792
50.6762948036
50.7132698059
23.8160098076
50.3024364471
50.2490281105
50.692728138
50.7132698059
50.6968364716
23.1052680969
49.8710614204
50.7297031403
50.7132698059
50.6968364716
50.6968364716
22.7314097404
49.8340864182
50.6968364716
50.6968364716
50.692728138
50.6762948036
23.7790348053
50.3024364471
50.7297031403
50.6804031372
50.7132698059
50.7461364746
23.2449514389
50.2818947792
50.7132698059
50.6968364716
50.6434281349
50.6968364716
22.7971430779
50.2983281136
50.7132698059
50.6762948036
50.7297031403
50.7132698059
22.9861264229
50.2983281136
50.7297031403
50.7132698059
50.7132698059
50.2449197769
22.6944347382
50.2654614449
50.7297031403
50.2325947762
50.2325947762
50.7132698059
24.1077014923
50.692728138
50.2613531113
50.6968364716
50.7297031403
50.7132698059
22.1398097038
49.8669530869
50.7091614723
50.2120531082
50.2654614449
50.692728138
23.9187181473
50.2284864426
50.2490281105
50.2654614449
50.7461364746
50.692728138
23.6064847946
49.8833864212
50.7297031403
50.7132698059
50.7461364746
50.7132698059
23.3353347778
50.2490281105
49.8833864212
49.8710614204
50.2490281105
50.7091614723
25.0567265511
49.8012197495
50.6269948006
50.7132698059
50.7132698059
50.7091614723

Average distance is : 45.963 cm
Average deviation is : 10.652 cm
Block: 2
======================================
1.67209177017
49.8874947548
50.2449197769
50.2325947762
50.2654614449
50.7091614723
20.6608096123
50.2120531082
50.692728138
50.2490281105
50.2449197769
50.2120531082
23.7790348053
49.9203614235
50.2654614449
50.2490281105
50.2449197769
50.2449197769
25.0731598854
49.8546280861
50.7132698059
50.2818947792
50.2818947792
50.2120531082
24.5226431847
50.2654614449
50.2449197769
50.7132698059
50.7132698059
50.2654614449
23.3846347809
49.8505197525
50.2449197769
50.692728138
50.6968364716
50.6434281349
23.6763264656
49.8340864182
50.7297031403
50.2654614449
50.6968364716
50.7091614723
17.9862844467
50.3024364471
50.2284864426
50.2449197769
50.6639698029
50.7297031403
23.6557847977
49.8505197525
50.2449197769
50.2490281105
50.2449197769
50.7297031403
24.4856681824
50.3147614479
50.7297031403
50.7297031403
50.7091614723
50.7461364746
22.3863097191
50.2818947792
50.6804031372
50.6598614693
50.7132698059
50.6968364716
22.9532597542
50.2284864426
50.7132698059
50.7132698059
50.2449197769
50.2490281105
23.742059803
50.2613531113
50.7461364746
50.6762948036
50.6434281349
50.6968364716
20.0568845749
49.8135447502
50.6968364716
50.6968364716
50.7132698059
50.6968364716
22.0206680298
50.2654614449
49.8505197525
49.8710614204
49.9039280891
50.7297031403
23.8653098106
50.3147614479
50.7132698059
50.6968364716
50.7297031403
32.599627018
50.7132698059
50.2284864426
50.692728138
50.7091614723

Average distance is : 45.613 cm
Average deviation is : 10.950 cm
Block: 3
======================================
50.2449197769
50.692728138
50.2490281105
50.2161614418
50.2120531082
50.7132698059
22.3863097191
50.7297031403
50.7132698059
50.7461364746
50.2449197769
50.6804031372
21.8152513504
50.2818947792
50.2161614418
50.7297031403
50.6968364716
50.6762948036
22.6245930672
50.2325947762
50.2449197769
50.7132698059
50.6434281349
50.2490281105
22.9368264198
50.2818947792
50.2325947762
50.7132698059
50.6762948036
50.7297031403
22.5711847305
49.8340864182
50.7132698059
50.7461364746
50.7132698059
50.6968364716
23.1751097679
50.2325947762
50.7132698059
50.7132698059
50.7297031403
50.6804031372
21.281167984
49.8176530838
50.2449197769
50.7132698059
50.7132698059
50.7132698059
23.6598931313
50.3147614479
50.692728138
50.2818947792
50.6804031372
50.2284864426
22.7971430779
50.7091614723
50.2449197769
50.6968364716
50.6639698029
50.6762948036
21.8316846848
49.9039280891
50.7132698059
50.2449197769
50.7132698059
50.7297031403
22.4684763908
50.2983281136
50.7132698059
50.2490281105
50.6434281349
50.2490281105
23.483234787
50.6762948036
50.2284864426
50.7297031403
50.7132698059
50.2490281105
21.231867981
50.2983281136
50.6968364716
50.2325947762
50.2613531113
50.2818947792
23.6598931313
50.692728138
50.2818947792
50.692728138
50.692728138
50.7091614723
22.3164680481
50.6762948036
50.6804031372
50.7132698059
50.6968364716
50.7132698059
22.5218847275
50.2983281136
50.2818947792
50.7132698059

Average distance is : 46.034 cm
Average deviation is : 10.308 cm
Block: 4
======================================
50.2449197769
50.2284864426
49.7971114159
50.2490281105
50.2654614449
50.7091614723
50.6968364716
24.3829598427
50.2818947792
50.7297031403
50.7132698059
50.6804031372
50.2654614449
21.539993
50.7132698059
50.7297031403
50.6968364716
50.7132698059
50.7091614723
21.6591346741
50.2983281136
50.7297031403
50.7132698059
50.6762948036
50.7461364746
22.5383180618
50.2284864426
50.2284864426
50.7091614723
50.2983281136
50.2983281136
22.7314097404
49.8669530869
50.2818947792
50.7132698059
50.7297031403
50.3188697815
24.210409832
49.8340864182
50.7132698059
50.2983281136
50.7091614723
50.7132698059
22.6780014038
50.2983281136
50.6804031372
50.692728138
50.7297031403
50.7461364746
22.1110513687
50.2818947792
50.6762948036
50.6968364716
50.7132698059
50.6804031372
22.5383180618
50.2449197769
50.7132698059
50.7132698059
50.2983281136
50.3024364471
23.3640931129
50.2983281136
50.3188697815
50.7132698059
50.7091614723
49.3164363861
49.9039280891
49.9039280891
49.8505197525
49.8833864212
50.2818947792
25.1758682251
50.2490281105
50.7297031403
49.8669530869
49.8833864212
49.9039280891
24.4528015137
50.2654614449
49.8833864212
49.8669530869
49.8710614204
50.2983281136
24.867743206
50.2284864426
50.3147614479
49.8669530869
50.3188697815
50.2983281136
24.6253515244
50.7132698059
50.7132698059
50.7297031403
49.8833864212
50.3147614479
22.9861264229
49.8833864212
50.6968364716
50.2818947792

Average distance is : 46.321 cm
Average deviation is : 9.725 cm
Block: 5
======================================
50.692728138
50.692728138
50.7132698059
50.7132698059
50.6968364716
50.6968364716
50.692728138
20.6813512802
50.2284864426
50.2983281136
50.7132698059
50.6968364716
50.7091614723
22.1110513687
50.3024364471
50.6968364716
50.6804031372
50.7502448082
50.7132698059
21.9343930244
49.8874947548
50.6968364716
50.692728138
50.6804031372
50.692728138
21.7823846817
50.7297031403
50.2449197769
50.7297031403
50.2983281136
50.692728138
23.8324431419
49.8669530869
50.6968364716
50.2818947792
50.6968364716
50.6968364716
22.9327180862
50.2613531113
50.7091614723
50.2983281136
50.6968364716
50.6434281349
23.0724014282
50.2983281136
50.7091614723
50.7132698059
50.6804031372
50.7091614723
21.7659513474
50.3024364471
50.7132698059
49.8669530869
50.7091614723
50.692728138
22.9861264229
49.8135447502
50.7132698059
49.9039280891
50.6598614693
50.692728138
23.4544764519
50.2449197769
50.7297031403
50.2818947792
50.7132698059
50.3147614479
23.6434597969
50.2613531113
50.2983281136
50.2818947792
50.6639698029
50.7297031403
23.1956514359
50.7297031403
49.8833864212
49.8998197556
49.8874947548
49.8874947548
23.7297348022
49.8340864182
50.7297031403
50.2818947792
50.3147614479
50.3024364471
24.6951931953
50.7297031403
50.2983281136
50.2613531113
50.2983281136
50.2983281136
23.9351514816
50.2490281105
50.7297031403
50.7297031403
50.7132698059
49.8669530869
23.5736181259
50.2449197769
49.8874947548

Average distance is : 46.060 cm
Average deviation is : 10.145 cm
Block: 6
======================================
50.6762948036
50.7132698059
50.7132698059
50.7297031403
50.6762948036
50.2983281136
50.2654614449
50.2818947792
19.8186012268
49.9039280891
50.6804031372
49.8505197525
50.7132698059
50.6968364716
23.4175014496
50.3147614479
50.7297031403
49.8669530869
50.2983281136
50.2818947792
23.6598931313
50.2983281136
49.8833864212
50.2818947792
50.6968364716
50.3147614479
23.7790348053
49.8669530869
50.2983281136
50.6968364716
50.7297031403
50.6968364716
22.2425180435
50.7132698059
49.9039280891
50.7461364746
50.2818947792
50.7132698059
50.6968364716
50.2284864426
50.6762948036
50.2654614449
50.692728138
22.1398097038
50.2983281136
50.7297031403
50.2818947792
50.2983281136
50.2818947792
21.7823846817
50.3353031158
50.7297031403
50.7297031403
50.3024364471
50.7297031403
22.9696930885
50.7132698059
50.6968364716
50.7132698059
50.7132698059
50.692728138
21.4537179947
50.692728138
50.692728138
50.7297031403
50.3147614479
50.7297031403
21.4167429924
50.7132698059
50.7338114738
50.7091614723
50.692728138
50.2983281136
20.8497929573
50.3024364471
50.2818947792
49.8505197525
50.2449197769
50.7297031403
23.951584816
50.3147614479
50.7297031403
50.7132698059
50.7132698059
50.6968364716
22.5383180618
50.2284864426
49.8833864212
50.6762948036
50.7132698059
50.3147614479
22.6738930702
49.8833864212
50.7297031403
50.2613531113
49.8833864212
50.2818947792
24.5226431847
49.9039280891
50.6968364716

Average distance is : 46.262 cm
Average deviation is : 10.056 cm
Block: 7
======================================
50.6968364716
50.7132698059
50.7461364746
50.2818947792
50.7132698059
50.3147614479
50.7297031403
50.6968364716
19.0585595131
49.8669530869
50.6968364716
50.6762948036
50.3147614479
50.3147614479
22.1110513687
49.8833864212
49.8833864212
50.3147614479
49.8710614204
50.2983281136
25.0033182144
50.2818947792
49.8669530869
50.7297031403
49.8874947548
50.2654614449
23.6598931313
50.2325947762
50.7297031403
50.6762948036
50.7297031403
50.3188697815
22.5383180618
50.3147614479
49.9039280891
50.2818947792
50.2983281136
50.2983281136
23.6064847946
50.2490281105
50.2983281136
50.7297031403
50.2613531113
49.8669530869
23.0559680939
50.7091614723
50.6968364716
49.8833864212
49.8669530869
50.2983281136
23.3517681122
49.8669530869
50.3353031158
49.8833864212
49.8874947548
49.8669530869
25.6606515884
50.2983281136
50.7132698059
50.3188697815
50.3147614479
50.3147614479
22.7437347412
50.2654614449
49.8669530869
50.2983281136
49.8669530869
49.8669530869
23.8324431419
50.2818947792
49.8669530869
49.8874947548
49.8710614204
49.8505197525
24.7609265327
50.3147614479
50.2818947792
49.8505197525
50.2818947792
49.8998197556
23.5037764549
50.2983281136
50.3188697815
50.2818947792
49.9039280891
49.8669530869
25.5374015808
50.6804031372
49.9039280891
50.2818947792
49.8833864212
50.3311947823
23.1422430992
50.2818947792
50.2818947792
50.2613531113
50.2818947792
49.8998197556
24.0748348236
50.7091614723

Average distance is : 45.961 cm
Average deviation is : 9.885 cm
Block: 8
======================================
50.2818947792
50.6762948036
50.7132698059
50.6968364716
49.8669530869
50.7502448082
50.2983281136
50.7297031403
49.0411780357
50.7132698059
50.6968364716
49.8833864212
49.8833864212
50.3188697815
23.6393514633
50.2983281136
49.8833864212
49.8505197525
49.8669530869
49.9203614235
25.5538349152
50.7132698059
50.7132698059
49.8998197556
49.8833864212
50.2983281136
23.0025597572
50.6968364716
50.7132698059
49.9039280891
49.8874947548
49.8998197556
24.4363681793
50.6968364716
50.2654614449
49.8833864212
49.8669530869
49.8874947548
24.8841765404
50.2449197769
49.8505197525
49.8874947548
49.8505197525
50.3147614479
25.2292765617
49.8874947548
50.7297031403
49.8874947548
50.2654614449
49.8669530869
24.2966848373
50.7132698059
50.2654614449
49.8874947548
49.8874947548
49.9203614235
24.9499098778
50.2818947792
49.8998197556
50.2654614449
49.8669530869
49.8669530869
24.7444931984
50.6762948036
50.2983281136
49.8874947548
50.7461364746
49.8998197556
23.6270264626
50.3024364471
49.9039280891
50.7461364746
50.2983281136
50.2654614449
24.6910848618
50.2654614449
49.8669530869
49.8874947548
49.8874947548
50.6804031372
24.000884819
49.8710614204
50.3024364471
50.2983281136
49.8874947548
49.8669530869
25.2950098991
50.6762948036
50.3147614479
50.2818947792
50.2818947792
49.8669530869
23.7091931343
49.8669530869
49.8874947548
49.8340864182
49.8505197525
49.8340864182
26.3097682953
50.2654614449

Average distance is : 46.324 cm
Average deviation is : 9.201 cm
Block: 9
======================================
50.7297031403
50.7297031403
50.0600447655
50.7297031403
50.3188697815
50.2654614449
49.8874947548
49.8710614204
50.2983281136
22.6944347382
49.8669530869
49.8546280861
50.3188697815
49.8505197525
49.8874947548
24.797901535
50.2613531113
50.3147614479
49.8669530869
49.9039280891
49.8874947548
24.6212431908
50.7132698059
50.692728138
49.8669530869
50.2983281136
49.8710614204
23.4339347839
50.7297031403
50.3188697815
50.2983281136
49.8998197556
49.8874947548
24.6582181931
50.2983281136
50.6968364716
49.9039280891
50.2983281136
50.2983281136
22.9203930855
50.2449197769
50.2654614449
49.8710614204
50.2983281136
49.8669530869
22.2630597115
50.2654614449
50.2818947792
50.2983281136
50.692728138
50.692728138
20.5416679382
50.2818947792
50.3188697815
50.2983281136
50.7297031403
50.7132698059
23.3682014465
50.7297031403
50.3024364471
50.2983281136
50.3024364471
50.3147614479
22.5876180649
50.2818947792
49.8505197525
49.8669530869
49.8669530869
50.3024364471
25.3853932381
50.2818947792
50.7132698059
49.8710614204
49.8669530869
49.8505197525
23.4010681152
50.7297031403
49.8669530869
49.8505197525
50.2983281136
50.2983281136
25.6401099205
50.2983281136
50.692728138
50.2983281136
49.8833864212
50.2818947792
23.7461681366
50.2325947762
49.8998197556
50.2777864456
50.7297031403
50.7132698059
23.1093764305
50.2983281136
50.2983281136
50.3024364471
50.2818947792
50.2818947792
24.5226431847

Average distance is : 45.983 cm
Average deviation is : 9.832 cm
Block: 10
======================================
50.2120531082
50.7297031403
49.8505197525
50.7502448082
12.8015674591
49.9039280891
50.7297031403
49.8874947548
50.2983281136
49.9039280891
21.6262680054
49.8505197525
50.2983281136
50.2983281136
49.8998197556
50.2983281136
25.1060265541
50.2284864426
50.2983281136
50.3311947823
50.3311947823
50.7297031403
22.6081597328
50.7338114738
49.8546280861
49.8710614204
49.8669530869
50.2818947792
25.4182599068
50.2983281136
50.2818947792
49.8833864212
49.8669530869
49.8505197525
24.280251503
49.8505197525
50.2983281136
49.8998197556
49.9203614235
49.9203614235
25.7099515915
49.8505197525
50.2818947792
49.8710614204
49.8340864182
49.8669530869
25.8496349335
50.2818947792
50.6762948036
49.8669530869
50.7297031403
50.3147614479
23.5037764549
50.3147614479
50.3147614479
49.8833864212
50.2983281136
50.3188697815
23.9844514847
50.2490281105
50.2818947792
50.2818947792
49.9039280891
49.8874947548
24.2268431664
49.9039280891
50.3188697815
49.9039280891
50.7132698059
50.3353031158
24.5062098503
50.2818947792
50.2818947792
49.8874947548
49.8669530869
50.2983281136
25.2621432304
50.2654614449
50.2983281136
49.8998197556
49.8874947548
49.8710614204
24.7116265297
50.3024364471
49.8874947548
49.8874947548
49.8833864212
50.3188697815
26.0550516129
50.2983281136
49.8710614204
50.2818947792
49.8874947548
49.8669530869
25.7962265968
50.2654614449
49.8710614204
49.8710614204
49.8833864212
49.8998197556

Average distance is : 45.926 cm
Average deviation is : 9.770 cm