
Block: 1
======================================
99.8635411263
100.747362375
100.260021687
100.747362375
100.747362375
100.297191739
99.8470211029
99.8470211029
99.4133704901
99.8305010796
100.280671716
100.747362375
99.8139810562
99.8470211029
99.8305010796
99.8139810562
100.330231786
99.4340205193
99.8263710737
100.297191739
99.8305010796
100.730842352
100.730842352
99.8635411263
100.730842352
99.8098510504
99.8305010796
99.8470211029
100.768012404
99.8470211029
100.297191739
99.3968504667
99.8470211029
99.8470211029
99.8305010796
99.8263710737
99.8635411263
99.8635411263
99.3803304434
99.8305010796
99.8139810562
99.8470211029
99.8305010796
99.8470211029
100.313711762
99.8139810562
100.313711762
99.4175004959
99.8470211029
99.3968504667

Average distance is : 100.005 cm
Average deviation is : 0.404 cm
Block: 2
======================================
100.763882399
100.697802305
99.8139810562
99.8470211029
99.8800611496
100.710192323
99.8470211029
99.8470211029
99.8139810562
99.8305010796
100.297191739
100.297191739
99.4298905134
100.714322329
99.8263710737
99.8305010796
100.730842352
99.8470211029
99.3803304434
99.8470211029
99.8139810562
99.8139810562
99.8098510504
100.297191739
100.280671716
99.3927204609
100.27654171
100.710192323
99.8635411263
99.8305010796
100.730842352
99.8098510504
101.127322912
99.8470211029
99.8139810562
99.8305010796
99.8263710737
99.8263710737
99.8470211029
99.8305010796
99.8470211029
100.763882399
99.8470211029
99.8139810562
100.714322329
99.3803304434
99.8263710737
100.726712346
99.8635411263
99.8470211029

Average distance is : 100.049 cm
Average deviation is : 0.432 cm
Block: 3
======================================
100.714322329
100.747362375
99.8139810562
100.247631669
99.3596804142
100.714322329
99.8470211029
99.8305010796
100.730842352
100.280671716
99.8305010796
100.280671716
100.726712346
99.8470211029
99.8470211029
100.280671716
99.8428910971
99.8800611496
99.8305010796
100.730842352
100.714322329
99.8470211029
99.3968504667
99.8470211029
99.8263710737
99.8139810562
99.8470211029
99.8470211029
99.8470211029
99.8470211029
100.313711762
100.297191739
100.280671716
100.297191739
99.8305010796
99.8635411263
99.8635411263
99.8635411263
99.8305010796
100.297191739
99.8470211029
99.8139810562
99.8635411263
99.8305010796
100.730842352
100.730842352
100.280671716
100.297191739
99.8305010796
100.297191739

Average distance is : 100.090 cm
Average deviation is : 0.373 cm
Block: 4
======================================
100.297191739
99.8098510504
99.8305010796
99.8470211029
100.730842352
100.714322329
100.710192323
99.36381042
99.8263710737
100.726712346
99.8470211029
99.8470211029
99.8470211029
100.317841768
99.8305010796
99.8263710737
100.264151692
99.4298905134
100.297191739
99.7974610329
100.747362375
100.747362375
99.8470211029
99.3803304434
99.8635411263
99.8305010796
99.8470211029
99.8305010796
99.8305010796
99.3968504667
99.8470211029
98.9797198772
100.280671716
99.4133704901
99.8470211029
100.747362375
100.726712346
99.8139810562
99.8305010796
99.8098510504
99.8635411263
99.8139810562
99.7974610329
100.280671716
100.297191739
100.730842352
99.3803304434
99.8635411263
99.8470211029
99.8676711321

Average distance is : 99.990 cm
Average deviation is : 0.438 cm
Block: 5
======================================
100.334361792
99.8263710737
99.793331027
99.8470211029
99.8470211029
99.8305010796
99.8305010796
100.297191739
100.280671716
99.3968504667
100.747362375
99.8470211029
99.8470211029
99.8305010796
99.8470211029
99.8305010796
99.8305010796
99.3431603909
99.8263710737
99.8635411263
99.8635411263
99.8470211029
99.3803304434
99.8470211029
99.8635411263
100.297191739
100.297191739
100.313711762
100.264151692
100.297191739
100.747362375
99.4133704901
99.8139810562
100.714322329
99.8470211029
99.8139810562
99.8305010796
99.8305010796
99.8635411263
99.8263710737
99.8470211029
99.8635411263
99.8305010796
99.8470211029
99.8635411263
99.8470211029
99.8305010796
99.8305010796
100.726712346
99.8470211029

Average distance is : 99.948 cm
Average deviation is : 0.324 cm
Block: 6
======================================
100.784532428
100.730842352
99.8305010796
99.8635411263
99.8470211029
100.697802305
99.8470211029
99.8305010796
99.8305010796
100.297191739
100.297191739
100.297191739
99.8635411263
99.8305010796
99.8428910971
99.8305010796
99.8470211029
99.8470211029
99.8470211029
99.8263710737
99.8470211029
99.8305010796
99.8470211029
99.8305010796
99.8470211029
99.8305010796
99.8470211029
100.714322329
99.8263710737
99.8635411263
99.3596804142
99.8139810562
99.8263710737
99.8470211029
99.8470211029
99.8139810562
99.8470211029
100.730842352
99.8841911554
99.8263710737
99.8139810562
99.8470211029
99.8635411263
99.8470211029
99.8305010796
99.8428910971
100.710192323
99.8305010796
99.8305010796
100.313711762

Average distance is : 99.974 cm
Average deviation is : 0.317 cm
Block: 7
======================================
100.730842352
100.710192323
99.8139810562
100.697802305
100.747362375
99.8305010796
99.8470211029
99.8305010796
100.264151692
100.297191739
100.313711762
99.8470211029
100.297191739
99.8305010796
99.3596804142
100.297191739
99.8470211029
99.8263710737
100.297191739
99.8470211029
100.730842352
100.730842352
100.730842352
100.747362375
99.8470211029
100.730842352
99.8305010796
99.8139810562
99.8139810562
99.8470211029
100.710192323
100.747362375
99.8305010796
99.8635411263
100.297191739
100.747362375
100.763882399
99.8263710737
99.8470211029
99.8098510504
99.8305010796
99.3968504667
99.8635411263
100.27654171
100.297191739
100.280671716
99.8305010796
99.3968504667
100.297191739
99.8263710737

Average distance is : 100.142 cm
Average deviation is : 0.421 cm
Block: 8
======================================
100.297191739
100.730842352
99.8263710737
100.747362375
99.8305010796
99.8470211029
100.730842352
99.3762004375
99.8470211029
99.4133704901
99.8263710737
100.264151692
100.768012404
100.714322329
100.730842352
99.3968504667
100.730842352
99.8470211029
99.8139810562
99.8635411263
99.8098510504
99.8305010796
99.8305010796
99.8305010796
99.8263710737
99.8635411263
100.280671716
99.8635411263
99.8470211029
100.714322329
99.3431603909
99.8470211029
99.4133704901
99.8305010796
100.297191739
100.710192323
99.8470211029
99.8470211029
99.8470211029
99.8676711321
99.8305010796
99.8305010796
99.8470211029
99.8263710737
100.751492381
100.730842352
99.7602909803
99.8305010796
99.3596804142
99.8470211029

Average distance is : 100.015 cm
Average deviation is : 0.435 cm
Block: 9
======================================
100.27654171
99.3968504667
100.247631669
100.22698164
100.280671716
100.297191739
99.8263710737
99.8305010796
99.8470211029
99.8305010796
99.8305010796
99.8139810562
100.260021687
99.3968504667
99.8305010796
100.697802305
99.8305010796
99.8305010796
99.8305010796
99.8635411263
99.8098510504
99.8305010796
99.8305010796
99.3968504667
99.8470211029
100.280671716
99.8470211029
100.747362375
100.22698164
99.3596804142
99.8470211029
99.8470211029
99.8676711321
100.730842352
100.730842352
99.8305010796
99.8305010796
99.8470211029
99.8139810562
100.260021687
99.8470211029
99.8470211029
99.8305010796
99.8635411263
99.8305010796
99.8470211029
99.8139810562
100.726712346
99.8263710737
99.8305010796

Average distance is : 99.966 cm
Average deviation is : 0.337 cm
Block: 10
======================================
100.264151692
99.8098510504
100.280671716
100.280671716
99.793331027
100.747362375
100.231111646
99.8470211029
99.8305010796
99.3803304434
100.264151692
99.3803304434
99.3968504667
100.747362375
99.3472903967
100.22698164
100.714322329
99.8470211029
99.8305010796
99.8139810562
100.264151692
99.7974610329
99.3968504667
100.264151692
99.3431603909
100.260021687
100.747362375
99.8139810562
99.8470211029
100.730842352
100.27654171
100.297191739
100.22698164
100.247631669
100.264151692
100.247631669
100.264151692
100.297191739
100.264151692
100.260021687
99.8470211029
99.36381042
100.726712346
99.8470211029
100.280671716
99.793331027
100.260021687
100.730842352
100.730842352
100.730842352

Average distance is : 100.109 cm
Average deviation is : 0.426 cm
Average distance for 10x50 is : 100.029 cm
Average deviation for 10x50 is : 0.391 cm
 Percentage of values that failed: 0.000