
Block: 1
======================================
100.313711762
100.264151692
100.264151692
99.3803304434
101.147972941
99.7768110037
100.264151692
99.8470211029
101.164492965
100.260021687
99.3762004375
100.260021687
100.280671716
100.264151692
99.3431603909
99.3803304434
99.8635411263
100.280671716
100.714322329
99.8305010796
99.8139810562
99.8470211029
100.710192323
99.8470211029
100.260021687
100.297191739
99.8305010796
100.264151692
100.22698164
100.22698164
99.3596804142
99.8470211029
99.8470211029
99.8305010796
99.8139810562
99.3431603909
99.3762004375
101.181012988
99.3968504667
99.3803304434
99.3803304434
99.3803304434
100.297191739
100.22698164
100.714322329
99.8470211029
100.710192323
99.8305010796
99.793331027
99.8635411263
99.3803304434
99.3968504667
99.36381042
100.697802305
99.8470211029
100.730842352
99.8470211029
100.697802305
99.8139810562
99.8470211029
99.8305010796
99.8470211029
100.297191739
100.247631669
100.260021687
100.280671716
100.280671716
99.793331027
99.8470211029
99.8470211029
99.8470211029
99.8305010796
100.297191739
99.7768110037
99.3762004375

Block: 2
======================================
99.793331027
100.243501663
99.8470211029
100.726712346
100.697802305
99.8305010796
99.8139810562
99.8470211029
99.36381042
99.8470211029
99.8139810562
100.714322329
99.8098510504
99.36381042
99.8470211029
99.8139810562
100.247631669
100.264151692
100.714322329
99.3968504667
99.36381042
99.3803304434
99.3596804142
99.3762004375
100.231111646
99.8305010796
99.8139810562
99.8305010796
99.8263710737
100.280671716
100.243501663
100.243501663
100.297191739
99.3803304434
99.3803304434
99.8139810562
100.726712346
99.4133704901
99.8470211029
100.730842352
99.8470211029
99.8305010796
100.714322329
100.264151692
99.3596804142
99.3968504667
99.3803304434
99.3968504667
99.8305010796
99.8470211029
99.8305010796
99.3803304434
99.8305010796
99.8635411263
100.243501663
100.710192323
99.3803304434
99.8305010796
100.697802305
99.8305010796
99.8098510504
100.730842352
99.8470211029
99.793331027
99.8470211029
100.260021687
100.247631669
100.247631669
100.247631669
99.3596804142
100.264151692
100.697802305
99.8305010796
99.793331027
100.247631669

Block: 3
======================================
99.8428910971
99.8098510504
100.693672299
99.8139810562
100.264151692
99.3968504667
99.8139810562
99.793331027
99.7974610329
99.7974610329
99.36381042
100.27654171
100.260021687
99.8305010796
99.3431603909
99.8139810562
99.8139810562
100.280671716
99.793331027
100.280671716
100.243501663
100.260021687
100.260021687
99.36381042
100.264151692
100.22698164
100.714322329
99.36381042
100.714322329
100.714322329
99.8305010796
100.260021687
99.7974610329
99.3596804142
99.3968504667
99.8305010796
99.8139810562
100.27654171
100.260021687
99.3803304434
99.3803304434
99.7974610329
100.280671716
99.3803304434
99.3968504667
99.3803304434
100.264151692
99.8470211029
100.697802305
99.8305010796
99.8305010796
99.8139810562
99.3762004375
100.697802305
100.264151692
99.3803304434
100.243501663
99.8305010796
99.8305010796
99.8305010796
99.8305010796
99.3431603909
100.297191739
100.243501663
99.3803304434
99.8635411263
100.280671716
99.3803304434
100.747362375
99.3596804142
100.247631669
99.8305010796
99.8098510504
99.8470211029
99.8305010796

Block: 4
======================================
100.264151692
100.730842352
99.8139810562
100.747362375
100.763882399
99.8470211029
99.8098510504
99.8470211029
99.8139810562
99.8470211029
99.8305010796
100.747362375
99.8305010796
99.3803304434
99.3968504667
100.730842352
100.17742157
99.8305010796
99.8676711321
99.8470211029
100.730842352
99.7768110037
99.8635411263
99.8263710737
99.8635411263
99.8470211029
99.3803304434
99.8470211029
99.8139810562
100.297191739
100.747362375
99.3472903967
99.8263710737
99.8470211029
99.8800611496
100.730842352
100.297191739
99.3472903967
99.8676711321
100.730842352
99.3968504667
99.8635411263
100.247631669
100.730842352
100.243501663
100.768012404
99.36381042
99.3472903967
99.8305010796
100.243501663
99.8305010796
99.8470211029
99.8635411263
100.297191739
99.8470211029
100.714322329
99.8470211029
99.8635411263
100.730842352
99.8305010796
99.8305010796
100.730842352
99.3803304434
100.313711762
99.8305010796
99.8098510504
99.3762004375
99.8139810562
99.8305010796
100.313711762
99.8139810562
100.297191739
99.3968504667
99.4340205193
99.4133704901

Block: 5
======================================
101.197533011
100.747362375
100.710192323
100.714322329
99.0334099531
99.7809410095
99.8305010796
99.8470211029
99.8305010796
99.8263710737
100.247631669
100.747362375
100.763882399
100.27654171
99.8635411263
99.8470211029
99.8263710737
99.8098510504
99.8470211029
100.317841768
100.247631669
99.8635411263
99.8470211029
99.3968504667
100.714322329
99.8635411263
99.8470211029
99.8263710737
99.8470211029
100.714322329
100.730842352
100.747362375
99.36381042
99.8305010796
99.8470211029
100.730842352
99.3803304434
99.8305010796
99.8470211029
100.726712346
99.8470211029
99.8098510504
99.8305010796
99.8305010796
100.730842352
99.7768110037
99.8098510504
99.4133704901
99.8139810562
99.8098510504
99.8305010796
99.8305010796
100.730842352
99.8305010796
99.8470211029
99.8098510504
99.8263710737
99.3968504667
100.280671716
99.8635411263
100.264151692
99.8676711321
99.4133704901
100.280671716
100.297191739
99.8470211029
99.8470211029
100.247631669
100.260021687
99.8098510504
99.3762004375
100.280671716
100.730842352
100.264151692
99.4505405426

Block: 6
======================================
99.8470211029
100.730842352
99.8470211029
100.730842352
99.8470211029
100.763882399
99.8263710737
99.3803304434
99.3968504667
100.313711762
100.730842352
99.3803304434
99.8428910971
99.8470211029
99.8098510504
100.693672299
99.8470211029
100.301321745
99.8305010796
100.264151692
99.3803304434
99.8470211029
100.763882399
99.8635411263
100.297191739
99.3968504667
99.8470211029
99.36381042
99.8305010796
99.3762004375
99.3803304434
99.8263710737
99.8470211029
99.8470211029
99.8470211029
99.8305010796
99.8470211029
99.8470211029
100.280671716
99.8305010796
99.8263710737
99.8635411263
99.8305010796
100.730842352
99.8263710737
99.8263710737
99.8305010796
99.8470211029
100.747362375
99.8139810562
99.8305010796
99.8139810562
99.8635411263
99.3431603909
99.8305010796
99.8305010796
99.8139810562
100.247631669
99.8263710737
100.297191739
99.8965811729
100.297191739
100.297191739
99.36381042
99.8635411263
99.8305010796
99.8305010796
100.243501663
99.8305010796
99.8470211029
99.8470211029
99.8470211029
99.3472903967
99.8263710737
99.8470211029

Block: 7
======================================
99.8139810562
100.264151692
100.710192323
99.36381042
100.264151692
100.280671716
99.3968504667
99.3762004375
99.3803304434
100.697802305
99.8139810562
99.8305010796
99.8139810562
99.8139810562
100.264151692
99.3431603909
99.8635411263
99.3803304434
99.8800611496
99.8635411263
100.730842352
100.280671716
99.3968504667
100.693672299
99.3803304434
100.280671716
99.8470211029
109.428634644
99.8305010796
99.8635411263
100.730842352
99.8470211029
100.297191739
100.730842352
100.264151692
100.280671716
100.297191739
99.793331027
99.3968504667
99.3968504667
100.317841768
100.27654171
99.8470211029
100.260021687
99.36381042
99.3968504667
100.714322329
100.763882399
100.714322329
99.8470211029
99.8305010796
100.264151692
99.8305010796
100.260021687
100.243501663
99.3803304434
100.264151692
100.730842352
99.8470211029
99.8098510504
100.747362375
99.8635411263
100.280671716
100.264151692
99.8098510504
100.264151692
99.8470211029
100.297191739
99.3968504667
100.730842352
99.36381042
100.730842352
99.4133704901
99.8305010796
99.8098510504

Block: 8
======================================
99.8305010796
99.3803304434
99.8098510504
101.181012988
99.3803304434
100.714322329
99.793331027
99.8800611496
100.27654171
100.768012404
100.260021687
99.8470211029
99.8676711321
99.8800611496
100.763882399
99.8263710737
99.8305010796
99.8470211029
100.747362375
99.8470211029
99.7768110037
99.4175004959
99.4133704901
99.8470211029
99.8428910971
100.714322329
100.317841768
100.280671716
99.8263710737
99.8139810562
99.8139810562
99.8470211029
100.768012404
99.8305010796
99.8800611496
99.8470211029
99.4175004959
100.710192323
100.747362375
99.8470211029
100.714322329
99.8470211029
100.747362375
99.8841911554
99.8800611496
99.4133704901
99.8800611496
100.710192323
99.8263710737
99.8263710737
99.4133704901
99.3968504667
99.8305010796
99.8676711321
99.4175004959
100.280671716
99.793331027
99.8305010796
100.297191739
100.730842352
99.3803304434
99.8841911554
99.8470211029
99.8263710737
99.793331027
99.8470211029
99.8676711321
99.3968504667
100.726712346
100.313711762
99.8470211029
99.8470211029
99.8098510504
99.8305010796
99.8305010796

Block: 9
======================================
100.297191739
100.260021687
99.7974610329
100.297191739
99.8635411263
99.8470211029
99.8470211029
99.8263710737
99.8263710737
99.8428910971
99.8305010796
99.8470211029
99.8305010796
100.710192323
99.8305010796
100.768012404
100.730842352
99.8635411263
99.3803304434
99.8305010796
99.8635411263
99.8305010796
99.8305010796
99.8470211029
99.8470211029
100.714322329
100.714322329
99.3472903967
99.8635411263
99.8635411263
99.3968504667
100.730842352
99.8263710737
99.8428910971
100.714322329
99.8470211029
99.3968504667
99.8635411263
100.313711762
99.8841911554
100.763882399
99.8635411263
99.8635411263
99.4133704901
100.280671716
100.27654171
100.297191739
100.297191739
100.280671716
100.297191739
100.297191739
99.4133704901
99.4133704901
99.8676711321
100.730842352
99.8470211029
99.8305010796
99.8470211029
99.8305010796
99.8635411263
99.8305010796
99.8635411263
99.8470211029
99.8635411263
99.8470211029
100.313711762
99.4133704901
99.8098510504
99.8470211029
100.313711762
100.297191739
100.280671716
100.747362375
100.763882399
99.8098510504

Block: 10
======================================
100.747362375
100.714322329
100.297191739
99.8635411263
99.3968504667
100.297191739
99.8470211029
99.8098510504
99.3762004375
99.8635411263
100.730842352
99.8263710737
100.330231786
99.8470211029
99.4133704901
100.313711762
99.8470211029
100.313711762
99.4175004959
100.297191739
100.260021687
99.8470211029
100.297191739
99.4298905134
100.297191739
100.280671716
100.313711762
99.8305010796
99.8635411263
99.8263710737
99.8470211029
99.8139810562
99.8635411263
100.330231786
100.730842352
99.8305010796
99.8635411263
100.313711762
100.317841768
100.317841768
99.4298905134
100.747362375
99.3803304434
99.8470211029
100.730842352
99.8305010796
99.8305010796
100.297191739
100.297191739
100.297191739
99.3968504667
100.264151692
100.297191739
100.297191739
100.297191739
99.8470211029
99.8139810562
100.297191739
99.8470211029
99.3431603909
100.297191739
99.3431603909
99.8305010796
99.8800611496
99.8470211029
99.8139810562
99.8470211029
99.8635411263
99.8305010796
100.280671716
99.8098510504
99.8305010796
99.8305010796
99.8635411263
100.747362375
