
Block: 1
======================================
198.214976192
198.214976192
198.214976192
197.771104956
198.198687339
198.214976192
198.198687339
198.198687339
198.214976192
198.214976192

Average distance is : 198.166 cm
Average deviation is : 0.139 cm
Block: 2
======================================
198.166109633
198.25162611
198.231265044
198.267914963
198.214976192
198.198687339
198.214976192
197.73852725
197.819971514
197.771104956

Average distance is : 198.088 cm
Average deviation is : 0.217 cm
Block: 3
======================================
198.194615126
198.247553897
198.178326273
198.25162611
198.214976192
198.194615126
197.754816103
198.231265044
198.247553897
197.767032743

Average distance is : 198.128 cm
Average deviation is : 0.195 cm
Block: 4
======================================
198.214976192
198.231265044
198.214976192
198.214976192
198.178326273
198.16203742
198.198687339
197.734455037
198.198687339
198.198687339

Average distance is : 198.155 cm
Average deviation is : 0.149 cm
Block: 5
======================================
197.767032743
198.145748568
198.182398486
198.145748568
197.722238398
197.734455037
198.194615126
198.178326273
198.182398486
198.194615126

Average distance is : 198.045 cm
Average deviation is : 0.210 cm
Block: 6
======================================
197.734455037
198.194615126
197.734455037
197.803682661
198.198687339
198.178326273
198.178326273
197.734455037
198.182398486
197.767032743

Average distance is : 197.971 cm
Average deviation is : 0.229 cm
Block: 7
======================================
197.787393808
197.718166184
198.145748568
198.198687339
197.718166184
198.231265044
198.194615126
198.194615126
198.182398486
198.214976192

Average distance is : 198.059 cm
Average deviation is : 0.221 cm
Block: 8
======================================
198.198687339
198.214976192
198.182398486
197.754816103
198.182398486
197.681516266
198.198687339
198.16203742
198.178326273
198.16203742

Average distance is : 198.092 cm
Average deviation is : 0.198 cm
Block: 9
======================================
198.182398486
197.734455037
198.198687339
197.754816103
197.75074389
198.178326273
198.182398486
198.214976192
197.734455037
198.182398486

Average distance is : 198.011 cm
Average deviation is : 0.231 cm
Block: 10
======================================
198.198687339
198.166109633
198.182398486
198.166109633
198.198687339
198.194615126
197.701877332
198.198687339
198.182398486
198.198687339

Average distance is : 198.139 cm
Average deviation is : 0.154 cm