
Block: 1
======================================
198.235337257
198.198687339
198.214976192
198.178326273
198.182398486

Average distance is : 198.202 cm
Average deviation is : 0.024 cm
Block: 2
======================================
198.231265044
198.198687339
197.73852725
197.73852725
197.771104956

Average distance is : 197.936 cm
Average deviation is : 0.256 cm
Block: 3
======================================
198.198687339
198.214976192
198.214976192
198.178326273
198.214976192

Average distance is : 198.204 cm
Average deviation is : 0.016 cm
Block: 4
======================================
197.73852725
198.214976192
198.182398486
198.198687339
197.75074389

Average distance is : 198.017 cm
Average deviation is : 0.249 cm
Block: 5
======================================
197.754816103
198.194615126
198.198687339
198.16203742
198.214976192

Average distance is : 198.105 cm
Average deviation is : 0.197 cm
Block: 6
======================================
198.178326273
198.16203742
198.194615126
198.178326273
198.182398486

Average distance is : 198.179 cm
Average deviation is : 0.012 cm
Block: 7
======================================
197.771104956
197.787393808
198.198687339
198.16203742
198.231265044

Average distance is : 198.030 cm
Average deviation is : 0.230 cm
Block: 8
======================================
198.235337257
198.194615126
198.182398486
198.194615126
198.194615126

Average distance is : 198.200 cm
Average deviation is : 0.020 cm
Block: 9
======================================
197.754816103
198.145748568
198.214976192
198.231265044
197.734455037

Average distance is : 198.016 cm
Average deviation is : 0.250 cm
Block: 10
======================================
197.771104956
198.214976192
197.718166184
197.787393808
198.178326273

Average distance is : 197.934 cm
Average deviation is : 0.241 cm