
Block: 1
======================================
50.3846031189
49.9737697601
50.0066364288
3.36061687469
49.9696614265
49.9696614265
49.9696614265
49.9532280922
49.9696614265
49.9573364258
49.9737697601
49.9902030945
49.9696614265
49.9860947609
49.9737697601
50.3681697845
11.6142590523
49.9696614265
49.9696614265
49.9532280922
50.3846031189
49.9532280922
49.9737697601
49.9573364258
49.9696614265
50.0066364288
49.9860947609
50.3846031189
50.0025280952
15.9896343231
50.0066364288
49.9696614265
50.3846031189
49.9860947609
50.0066364288
49.9696614265
49.9532280922
49.9737697601
50.0066364288
49.9860947609
50.4174697876
50.3846031189
15.352842617
49.9902030945
49.9573364258
49.9532280922
50.4174697876
50.3846031189
50.4380114555
50.3846031189
50.3846031189
50.4215781212
50.3846031189
50.4010364532
50.7831114769
12.6495591164
49.9860947609
50.4010364532
50.3846031189
50.4010364532
50.4010364532
50.4215781212
50.3681697845
50.4174697876
50.3846031189
50.3681697845
50.7995448112
50.3681697845
10.9076256752
50.4010364532
50.3846031189
50.3681697845
50.7995448112
50.4010364532
50.4051447868
50.4010364532
50.4010364532
50.4380114555
50.4010364532
50.4010364532
50.4010364532
11.5279840469
50.3846031189
49.9860947609
50.3846031189
50.3846031189
49.9573364258
50.3846031189
50.4215781212
50.3681697845
50.7995448112
50.4010364532
50.3846031189
50.8365198135
11.6306923866
50.3846031189
50.3681697845
50.3846031189
50.3846031189
50.3846031189

Average distance is : 47.154 cm
Average deviation is : 10.580 cm
Block: 2
======================================
49.9532280922
50.8488448143
50.7954364777
50.8529531479
50.7995448112
50.3846031189
50.3846031189
50.3681697845
0.0205416679382
50.0066364288
50.3846031189
49.9573364258
50.4010364532
50.3846031189
50.4010364532
49.9573364258
50.3846031189
50.0066364288
49.9860947609
49.9532280922
50.3353031158
13.4424674988
50.4051447868
49.9902030945
49.9737697601
50.3846031189
49.9902030945
49.9860947609
50.0230697632
49.9902030945
50.4174697876
50.0025280952
49.9902030945
50.3681697845
13.6314508438
50.4174697876
49.9902030945
49.9860947609
49.9902030945
50.0066364288
49.9696614265
49.9737697601
49.9696614265
50.3681697845
50.3846031189
50.3681697845
50.3846031189
13.2534841537
49.9696614265
50.0025280952
49.9860947609
49.9860947609
49.9902030945
49.9902030945
50.0066364288
50.0066364288
49.9532280922
50.4010364532
50.0230697632
50.4380114555
15.5952342987
49.9902030945
49.9696614265
49.9737697601
49.9696614265
49.9902030945
50.0066364288
49.9860947609
49.8340864182
50.4051447868
50.3681697845
49.9902030945
49.9902030945
15.8006509781
49.9696614265
49.9860947609
49.9696614265
49.9737697601
49.9902030945
51.6581865311
49.9860947609
50.0230697632
49.9860947609
49.9902030945
50.4215781212
50.4010364532
12.5098757744
49.9860947609
49.9860947609
50.0066364288
49.9532280922
49.9737697601
50.4174697876
49.9737697601
49.9696614265
50.0066364288
50.3846031189
50.3846031189
50.0066364288
14.4942008972

Average distance is : 47.133 cm
Average deviation is : 10.403 cm
Block: 3
======================================
49.9696614265
49.9902030945
49.9696614265
49.9696614265
49.9902030945
49.9696614265
50.0066364288
49.9696614265
50.0066364288
49.9860947609
49.9737697601
50.4051447868
50.4010364532
15.9197926521
49.9902030945
49.9902030945
49.9696614265
49.9860947609
50.0025280952
49.9573364258
49.9532280922
49.9737697601
49.9737697601
49.9696614265
50.4010364532
50.3846031189
15.8869259834
49.9532280922
49.9737697601
49.9902030945
49.9902030945
49.9696614265
50.4010364532
49.9902030945
49.9860947609
50.3681697845
50.4010364532
49.9737697601
50.8159781456
14.8023259163
49.9860947609
49.9696614265
50.0271780968
50.0025280952
49.9532280922
50.0066364288
49.9902030945
49.9696614265
49.9860947609
50.4174697876
50.4010364532
50.4051447868
14.6831842422
49.9902030945
49.9902030945
49.9573364258
49.9737697601
49.9696614265
49.9737697601
49.9902030945
49.9902030945
49.9902030945
49.9696614265
50.0066364288
50.3846031189
16.1991593361
50.0066364288
49.9737697601
49.9902030945
49.9902030945
50.0025280952
49.9696614265
49.9902030945
49.9532280922
50.0066364288
50.0230697632
50.0230697632
49.9860947609
16.0594759941
49.9696614265
49.9737697601
49.9737697601
50.0066364288
49.9696614265
50.0066364288
49.9902030945
49.9737697601
50.0230697632
49.9902030945
50.4010364532
50.3846031189
14.5435009003
49.9573364258
50.0066364288
49.9696614265
50.0066364288
49.9573364258
49.9902030945
49.9696614265
49.9860947609

Average distance is : 47.628 cm
Average deviation is : 8.878 cm
Block: 4
======================================
49.9737697601
49.9902030945
49.9367947578
49.9367947578
50.3517364502
5.45997533798
49.9902030945
50.3681697845
49.9696614265
49.9902030945
49.9902030945
49.9737697601
50.4215781212
49.9902030945
50.4051447868
49.9737697601
50.0066364288
50.7995448112
49.9696614265
50.7995448112
14.576367569
49.9696614265
49.9902030945
49.9860947609
49.9532280922
50.0066364288
49.9860947609
49.9696614265
49.9737697601
50.3846031189
50.4010364532
49.9737697601
50.3681697845
15.0775842667
50.4010364532
49.9737697601
50.3681697845
49.9696614265
50.4010364532
50.4215781212
50.3681697845
50.4051447868
49.9532280922
50.3846031189
50.3681697845
50.0066364288
13.4917675018
50.3846031189
49.9860947609
50.4010364532
50.4010364532
50.3846031189
50.3846031189
50.4051447868
49.9860947609
50.3887114525
49.9737697601
50.3846031189
50.3846031189
11.4951173782
50.3517364502
50.3887114525
49.9902030945
50.3887114525
50.3846031189
49.9696614265
50.4051447868
49.9902030945
50.4215781212
50.3846031189
50.4010364532
49.9532280922
13.0768258095
50.4010364532
50.4174697876
49.9532280922
49.9696614265
50.3846031189
50.3846031189
50.3846031189
50.3846031189
50.4010364532
50.4174697876
50.4051447868
50.8365198135
12.1319090843
50.3681697845
49.9737697601
50.3681697845
50.4051447868
50.4010364532
49.9737697601
49.9532280922
49.9902030945
49.9902030945
50.364061451
50.3846031189
50.4010364532
7.94140882492
49.9737697601

Average distance is : 47.135 cm
Average deviation is : 10.554 cm
Block: 5
======================================
50.4215781212
50.7790031433
50.4010364532
50.4339031219
50.3681697845
49.9902030945
49.9532280922
50.3681697845
50.4010364532
50.4010364532
50.3681697845
50.3846031189
4.70404195786
50.0230697632
49.9696614265
50.4051447868
50.0066364288
50.0271780968
49.9902030945
50.0230697632
49.9902030945
49.9696614265
50.364061451
50.4380114555
50.4010364532
13.4753341675
49.9737697601
50.3681697845
50.4174697876
49.9860947609
50.0066364288
49.9532280922
50.4380114555
49.9737697601
50.4339031219
50.4010364532
50.4010364532
50.364061451
12.8056757927
49.9902030945
50.0066364288
49.9737697601
50.3846031189
50.4051447868
50.4010364532
49.9367947578
49.9696614265
49.9737697601
49.9860947609
49.9902030945
49.9737697601
14.3709508896
49.9902030945
50.3846031189
50.0025280952
50.4174697876
49.9737697601
49.9696614265
49.9367947578
50.0230697632
50.4010364532
50.3681697845
49.9902030945
49.9860947609
14.1491008759
50.0066364288
49.9902030945
50.0066364288
49.9902030945
49.9860947609
49.9696614265
49.9902030945
50.0230697632
49.9860947609
49.9902030945
49.9696614265
50.3846031189
14.6790759087
49.9737697601
49.9902030945
49.9696614265
49.9573364258
49.9860947609
54.3655783653
49.9860947609
49.9902030945
49.9532280922
49.9696614265
49.9902030945
50.0066364288
10.6652339935
50.0230697632
49.9902030945
49.9902030945
49.9860947609
49.9860947609
49.9902030945
49.9696614265
49.9860947609
50.0066364288

Average distance is : 47.502 cm
Average deviation is : 9.806 cm
Block: 6
======================================
50.4174697876
50.4051447868
49.9532280922
50.3846031189
6.46240873337
50.4051447868
50.3681697845
49.9696614265
49.9696614265
49.9696614265
50.0066364288
50.0066364288
49.9902030945
50.4051447868
50.4051447868
50.4051447868
50.4010364532
11.1130423546
50.0066364288
50.4010364532
50.3846031189
49.9737697601
50.3681697845
49.9860947609
49.9573364258
50.4339031219
50.4010364532
50.3846031189
50.4010364532
50.3681697845
13.4589008331
50.4051447868
50.3681697845
49.9860947609
49.9902030945
50.3846031189
50.0066364288
49.9737697601
49.9367947578
50.3681697845
50.4010364532
49.9860947609
49.9860947609
49.9737697601
50.3681697845
15.2501342773
49.9860947609
50.4010364532
49.9532280922
49.9696614265
49.9902030945
50.4380114555
50.0066364288
50.0066364288
49.9902030945
49.9902030945
49.9696614265
50.8159781456
14.4202508926
50.4010364532
49.9902030945
49.9737697601
49.9532280922
49.9902030945
49.9902030945
49.9696614265
49.9737697601
50.4174697876
50.3681697845
50.4010364532
50.4051447868
13.5780425072
49.9737697601
49.9737697601
49.9532280922
50.0025280952
50.0066364288
49.9532280922
49.9902030945
49.9860947609
50.0066364288
49.9737697601
49.9737697601
50.4010364532
15.8869259834
50.0066364288
49.9696614265
49.9902030945
49.9860947609
50.0066364288
50.0066364288
49.9902030945
49.9532280922
49.9737697601
50.3681697845
50.4010364532
50.4174697876
14.64620924
49.9902030945
50.0066364288

Average distance is : 47.181 cm
Average deviation is : 10.134 cm
Block: 7
======================================
50.8652781487
50.4174697876
50.0025280952
49.9902030945
50.3681697845
50.3846031189
50.4051447868
50.0230697632
50.3681697845
50.3887114525
49.9532280922
4.03438358307
50.4380114555
50.3681697845
50.3681697845
49.9696614265
50.4215781212
49.9532280922
50.0066364288
50.3846031189
50.3846031189
49.9902030945
49.9860947609
50.4010364532
12.2880257607
50.4010364532
50.0066364288
50.3846031189
50.4174697876
50.4215781212
49.9737697601
49.9696614265
49.9573364258
50.4010364532
50.3846031189
50.8365198135
50.4051447868
12.3701924324
49.9737697601
50.4174697876
49.9860947609
50.3846031189
50.4051447868
50.4010364532
50.0066364288
49.9696614265
50.4215781212
50.3681697845
50.7995448112
50.3846031189
12.6125841141
50.3846031189
49.9902030945
50.4010364532
50.0066364288
50.4010364532
50.3846031189
49.9696614265
50.4051447868
50.4010364532
50.3846031189
50.8159781456
50.8529531479
11.1664506912
49.9860947609
50.8159781456
50.4380114555
49.9902030945
49.9737697601
50.4051447868
50.3846031189
49.9902030945
50.4174697876
50.4051447868
50.4051447868
50.8488448143
12.6988591194
50.3846031189
50.4010364532
50.3846031189
49.9696614265
50.4010364532
50.4010364532
49.9696614265
50.3681697845
49.9737697601
50.3846031189
50.4215781212
50.4051447868
12.5961507797
50.4215781212
50.4051447868
50.0066364288
50.4174697876
49.9367947578
49.9696614265
50.3887114525
49.9696614265
49.9902030945
50.3846031189

Average distance is : 47.545 cm
Average deviation is : 10.080 cm
Block: 8
======================================
50.7995448112
50.4010364532
50.8488448143
4.15352525711
50.8159781456
50.8159781456
50.4174697876
50.4174697876
50.4051447868
50.364061451
50.0066364288
50.4051447868
50.4051447868
50.3846031189
50.4010364532
50.3846031189
7.63328380585
50.3846031189
49.9737697601
49.9902030945
50.3846031189
50.4174697876
49.9573364258
50.3681697845
50.4174697876
50.3846031189
50.3846031189
50.3846031189
50.7995448112
11.2034256935
49.9573364258
50.3846031189
50.4174697876
50.0230697632
49.9902030945
50.3846031189
50.4010364532
49.9902030945
49.9532280922
50.4010364532
50.4010364532
50.8159781456
11.5279840469
50.4010364532
49.9696614265
50.4174697876
49.9696614265
50.3681697845
49.9902030945
50.4010364532
49.9902030945
50.4010364532
50.4010364532
50.4051447868
50.4215781212
50.4010364532
50.7995448112
10.3571089745
50.4174697876
49.9902030945
49.9860947609
49.9860947609
49.9902030945
49.9696614265
50.4010364532
49.9902030945
50.0066364288
50.4215781212
50.3846031189
50.4215781212
13.7834591866
50.3846031189
50.8159781456
50.0230697632
50.0066364288
49.9696614265
49.9902030945
49.9737697601
49.9367947578
50.3681697845
50.0230697632
50.3846031189
49.9860947609
13.5451758385
49.9532280922
49.9860947609
49.9902030945
49.9367947578
49.9902030945
50.4010364532
50.0066364288
49.9902030945
49.9902030945
50.3846031189
49.9532280922
50.4174697876
14.6297759056
49.9902030945
49.9860947609
50.4380114555

Average distance is : 47.107 cm
Average deviation is : 10.787 cm
Block: 9
======================================
50.4051447868
49.9737697601
49.9902030945
49.9696614265
49.9902030945
49.9860947609
49.9696614265
50.4051447868
50.3846031189
49.9902030945
50.4010364532
20.7470846176
49.9737697601
49.9902030945
49.9860947609
49.9532280922
50.4174697876
50.0066364288
50.0066364288
49.9696614265
49.9860947609
49.9902030945
50.4010364532
50.8159781456
14.905034256
49.9573364258
50.4010364532
49.9902030945
50.3846031189
49.9902030945
50.3681697845
49.9737697601
50.4010364532
50.4051447868
50.3846031189
50.3887114525
50.4010364532
12.563284111
50.4010364532
50.3846031189
50.3846031189
49.9902030945
50.0025280952
49.9532280922
49.9696614265
49.9737697601
50.3846031189
49.9696614265
49.9573364258
50.8324114799
12.2880257607
50.0066364288
49.9737697601
49.9696614265
50.4010364532
49.9902030945
49.9902030945
50.4051447868
49.9902030945
50.4010364532
50.3846031189
50.4174697876
49.9902030945
13.5410675049
50.4174697876
49.9902030945
49.9696614265
49.9860947609
49.9532280922
49.9737697601
50.4010364532
50.4051447868
49.9860947609
49.9696614265
50.0066364288
50.4174697876
14.64620924
49.9737697601
50.4174697876
50.4215781212
50.0066364288
50.3846031189
50.4010364532
50.4174697876
49.9532280922
50.3681697845
50.3681697845
50.4010364532
49.9696614265
12.891950798
49.9902030945
49.9902030945
50.3846031189
49.9902030945
49.9573364258
49.9860947609
49.9902030945
50.3846031189
49.9902030945
50.3681697845

Average distance is : 47.673 cm
Average deviation is : 9.175 cm
Block: 10
======================================
50.4010364532
50.4174697876
50.3846031189
5.77220869064
50.4010364532
49.9902030945
49.9860947609
49.9860947609
49.9902030945
49.9532280922
49.9532280922
49.9737697601
49.9902030945
50.4215781212
50.4380114555
49.9902030945
11.6512340546
50.0230697632
49.9696614265
50.0066364288
50.0066364288
49.2507030487
49.9532280922
50.4010364532
49.9696614265
49.9902030945
50.4051447868
49.9902030945
50.3846031189
13.2863508224
50.3846031189
50.3887114525
50.4010364532
49.9902030945
49.7642447472
49.9860947609
50.0066364288
50.3846031189
50.4051447868
50.4051447868
49.9696614265
50.0066364288
13.3726258278
50.8365198135
50.7954364777
50.3846031189
50.8159781456
50.4051447868
50.3846031189
49.9902030945
50.8365198135
50.8324114799
50.4051447868
50.4339031219
49.9860947609
9.65047559738
50.4010364532
50.3846031189
50.8159781456
50.8324114799
50.3476281166
50.8159781456
50.3846031189
50.8159781456
50.3681697845
50.4010364532
50.7995448112
50.8324114799
50.3476281166
50.3846031189
14.9420092583
50.8159781456
50.8324114799
50.7995448112
50.8324114799
50.6639698029
50.8159781456
50.7995448112
50.7954364777
50.3681697845
50.8324114799
50.8159781456
50.8159781456
5.32440032959
50.7666781425
50.8159781456
50.8529531479
50.7831114769
50.8159781456
50.8159781456
50.762569809
50.7995448112
50.3353031158
50.7954364777
50.3353031158
50.3517364502
5.70236701965
50.8365198135
50.4010364532
50.8159781456

Average distance is : 47.179 cm
Average deviation is : 11.084 cm