
Block: 1
======================================
100.784532428
99.9296212196
100.367401838
100.834092498
100.796922445
100.780402422
100.367401838
100.854742527
100.763882399
100.421091914
100.421091914
100.437611938
100.416961908
100.416961908
100.383921862
101.6848737
101.267743111
100.784532428
100.834092498
100.350881815
100.350881815
100.796922445
100.330231786
100.817572474
100.747362375
100.383921862
100.801052451
100.416961908
100.834092498
100.834092498
99.9874413013
100.834092498
100.854742527
100.834092498
100.421091914
100.421091914
100.400441885
100.834092498
100.834092498
100.813442469
101.247093081
101.214053035
100.850612521
100.87126255
100.867132545
101.267743111
100.854742527
100.834092498
100.834092498
100.400441885

Block: 2
======================================
100.400441885
100.747362375
100.796922445
100.350881815
100.350881815
100.801052451
101.284263134
100.99103272
100.383921862
100.780402422
100.400441885
100.367401838
100.383921862
100.367401838
100.400441885
100.796922445
100.780402422
100.421091914
100.437611938
100.400441885
100.850612521
100.421091914
100.850612521
100.433481932
100.416961908
100.416961908
100.416961908
100.834092498
100.400441885
100.400441885
100.416961908
100.400441885
100.850612521
100.834092498
100.817572474
100.850612521
100.433481932
100.416961908
100.421091914
100.421091914
100.421091914
100.850612521
100.834092498
100.834092498
100.834092498
100.834092498
100.416961908
100.421091914
100.421091914
100.416961908

Block: 3
======================================
100.796922445
101.247093081
101.214053035
100.763882399
100.400441885
101.614663601
101.214053035
100.346751809
100.834092498
100.768012404
100.854742527
100.801052451
100.780402422
99.9502712488
99.9833112955
100.367401838
100.850612521
100.400441885
99.9833112955
100.780402422
100.834092498
100.796922445
100.850612521
100.796922445
100.817572474
100.780402422
100.834092498
100.834092498
100.834092498
100.817572474
100.801052451
101.197533011
101.230573058
100.834092498
101.218183041
100.416961908
100.400441885
100.437611938
100.400441885
100.416961908
100.367401838
100.850612521
101.680743694
100.817572474
101.214053035
100.801052451
100.813442469
101.214053035
100.834092498
100.817572474

Block: 4
======================================
101.701393723
100.834092498
101.214053035
100.330231786
100.400441885
100.850612521
100.437611938
100.817572474
100.330231786
100.421091914
100.780402422
100.363271832
100.383921862
100.367401838
100.350881815
100.854742527
100.433481932
100.433481932
100.817572474
100.834092498
100.834092498
100.834092498
99.970921278
100.834092498
100.433481932
100.850612521
100.834092498
100.817572474
100.817572474
100.834092498
100.834092498
100.834092498
100.817572474
100.834092498
100.834092498
100.416961908
100.400441885
100.421091914
100.437611938
100.433481932
99.9874413013
100.834092498
100.834092498
100.817572474
100.834092498
100.817572474
100.817572474
100.817572474
100.834092498
100.817572474

Block: 5
======================================
100.780402422
101.230573058
100.796922445
100.784532428
100.747362375
100.834092498
100.383921862
100.780402422
100.346751809
100.350881815
101.230573058
99.9667912722
101.214053035
100.383921862
100.404571891
100.834092498
100.834092498
100.421091914
100.437611938
100.801052451
101.214053035
100.817572474
100.834092498
100.854742527
100.850612521
100.400441885
100.421091914
100.404571891
100.416961908
100.834092498
100.834092498
100.834092498
101.6848737
100.834092498
100.834092498
100.367401838
100.854742527
100.416961908
100.416961908
100.834092498
100.834092498
100.813442469
101.701393723
101.197533011
100.834092498
100.437611938
100.437611938
100.437611938
100.801052451
101.197533011

Block: 6
======================================
100.801052451
100.850612521
101.664223671
100.763882399
100.383921862
100.817572474
100.334361792
101.651833653
100.834092498
100.763882399
100.784532428
100.817572474
100.834092498
100.834092498
101.230573058
100.817572474
100.784532428
100.400441885
100.817572474
100.796922445
100.834092498
100.817572474
100.817572474
99.9337512255
99.9544012547
100.400441885
100.834092498
100.801052451
100.421091914
100.433481932
100.367401838
100.796922445
100.834092498
100.834092498
100.834092498
100.817572474
101.267743111
100.813442469
100.817572474
101.214053035
100.834092498
101.664223671
100.850612521
100.834092498
100.780402422
100.796922445
101.201663017
99.9667912722
99.9502712488
100.796922445

Block: 7
======================================
100.784532428
100.834092498
100.768012404
100.763882399
101.251223087
100.780402422
100.297191739
100.817572474
100.801052451
100.350881815
99.9998313189
100.020481348
99.9667912722
100.834092498
100.437611938
100.421091914
100.421091914
100.437611938
100.437611938
100.416961908
100.817572474
101.218183041
101.214053035
100.834092498
100.454131961
100.437611938
100.437611938
100.416961908
100.817572474
100.350881815
100.416961908
100.421091914
100.437611938
100.416961908
100.416961908
100.400441885
100.400441885
100.850612521
100.363271832
100.850612521
100.437611938
100.416961908
100.834092498
100.834092498
100.834092498
101.664223671
101.647703648
101.247093081
101.664223671
101.680743694

Block: 8
======================================
100.747362375
100.400441885
100.454131961
100.334361792
100.801052451
100.784532428
100.801052451
101.230573058
101.160362959
101.181012988
100.834092498
100.834092498
100.346751809
100.834092498
100.834092498
101.251223087
100.834092498
100.834092498
100.817572474
100.817572474
100.834092498
100.834092498
100.834092498
100.834092498
100.437611938
100.437611938
100.801052451
100.834092498
100.817572474
100.834092498
100.817572474
100.834092498
100.850612521
100.834092498
100.834092498
100.850612521
101.251223087
101.680743694
101.214053035
100.813442469
100.801052451
100.834092498
101.680743694
101.197533011
101.6848737
100.801052451
100.817572474
100.834092498
100.416961908
100.437611938

Block: 9
======================================
100.784532428
101.251223087
101.267743111
101.647703648
100.796922445
100.801052451
100.801052451
100.400441885
99.9337512255
100.350881815
100.383921862
101.230573058
100.404571891
100.763882399
100.817572474
101.247093081
101.214053035
100.784532428
100.834092498
100.834092498
100.433481932
100.416961908
100.416961908
100.416961908
100.801052451
101.218183041
101.214053035
101.214053035
101.214053035
101.214053035
101.214053035
101.234703064
101.664223671
101.214053035
101.230573058
100.937342644
100.801052451
101.197533011
101.197533011
100.780402422
100.834092498
100.437611938
100.437611938
100.421091914
100.400441885
100.817572474
101.201663017
101.214053035
100.801052451
101.197533011

Block: 10
======================================
100.784532428
101.234703064
100.780402422
100.363271832
100.730842352
101.6848737
100.350881815
100.346751809
100.784532428
100.367401838
99.9667912722
101.214053035
101.201663017
101.197533011
100.801052451
100.801052451
101.668353677
101.218183041
101.197533011
101.197533011
101.201663017
101.214053035
101.197533011
101.680743694
101.197533011
101.201663017
101.197533011
100.383921862
100.834092498
101.197533011
101.230573058
101.197533011
101.201663017
101.218183041
101.214053035
101.214053035
101.230573058
101.201663017
100.801052451
101.197533011
101.197533011
101.214053035
100.784532428
101.197533011
101.214053035
100.801052451
101.197533011
101.197533011
101.181012988
100.784532428
