
Block: 1
======================================
301.356490803
300.511437583
300.899596
300.479091048
300.919812584
301.376707387
302.225803924
300.915769267
301.376707387
302.221760607
300.495264316
302.221760607
301.344360852
300.919812584
300.495264316
301.36053412
300.458874464
301.344360852
301.36053412
300.442701197
301.36053412
301.356490803
300.919812584
301.36053412
300.919812584
301.324144268
301.356490803
301.344360852
300.903639317
300.935985851
300.462917781
303.038510609
302.189414072
300.903639317
301.785082388
301.376707387
300.899596
301.785082388
302.61396234
301.785082388
301.768909121
301.324144268
300.462917781
300.919812584
302.193457389
300.899596
302.597789073
301.340317535
300.442701197
300.446744514
300.919812584
300.883422732
301.36053412
300.462917781
300.446744514
300.887466049
300.903639317
300.883422732
301.307971001
300.883422732
301.340317535
300.883422732
301.324144268
300.475047731
301.356490803
301.344360852
300.479091048
300.903639317
301.344360852
302.205587339
301.36053412
302.193457389
300.903639317
300.462917781
301.340317535

Average distance is : 301.208 cm
Average deviation is : 0.595 cm
Block: 2
======================================
301.36053412
300.915769267
300.915769267
300.915769267
301.344360852
300.903639317
300.935985851
301.36053412
301.344360852
300.479091048
301.340317535
301.764865804
300.935985851
300.903639317
300.475047731
300.915769267
300.903639317
300.935985851
301.36053412
300.899596
300.899596
300.919812584
300.899596
300.903639317
300.935985851
300.919812584
301.764865804
300.475047731
300.915769267
300.903639317
300.915769267
301.36053412
301.356490803
300.919812584
301.340317535
301.36053412
301.376707387
300.495264316
301.340317535
301.344360852
301.356490803
301.36053412
301.36053412
300.903639317
301.36053412
300.495264316
301.36053412
301.324144268
301.785082388
302.225803924
301.36053412
300.475047731
301.36053412
300.899596
302.225803924
300.442701197
301.344360852
300.919812584
300.915769267
300.919812584
300.935985851
300.919812584
301.748692536
300.883422732
301.36053412
300.919812584
300.442701197
301.801255655
301.768909121
301.36053412
300.903639317
300.935985851
300.899596
300.883422732
301.340317535

Average distance is : 301.117 cm
Average deviation is : 0.389 cm
Block: 3
======================================
300.903639317
300.883422732
300.899596
300.883422732
301.344360852
300.899596
300.903639317
300.903639317
301.344360852
300.883422732
300.442701197
300.919812584
300.475047731
300.899596
300.903639317
301.36053412
300.919812584
301.340317535
301.376707387
302.225803924
301.376707387
300.458874464
301.781039071
300.919812584
300.903639317
300.462917781
301.356490803
300.903639317
301.36053412
301.356490803
300.899596
301.344360852
301.36053412
301.376707387
301.340317535
300.462917781
301.768909121
301.356490803
300.903639317
300.915769267
301.36053412
300.511437583
300.479091048
301.344360852
301.785082388
300.919812584
300.883422732
300.462917781
300.462917781
300.479091048
300.446744514
300.915769267
300.479091048
300.915769267
300.903639317
300.919812584
300.462917781
301.340317535
300.458874464
301.344360852
300.903639317
300.887466049
301.36053412
301.312014318
302.225803924
300.479091048
300.462917781
300.903639317
301.36053412
301.344360852
300.479091048
302.209630656
300.462917781
300.462917781
300.462917781

Average distance is : 301.007 cm
Average deviation is : 0.449 cm
Block: 4
======================================
301.344360852
301.340317535
300.495264316
301.344360852
300.491220999
300.479091048
301.340317535
300.479091048
300.919812584
300.495264316
300.915769267
300.935985851
300.458874464
300.919812584
300.479091048
300.919812584
300.919812584
300.935985851
300.919812584
300.458874464
300.479091048
300.462917781
300.919812584
300.475047731
300.931942534
300.919812584
300.915769267
300.899596
300.903639317
301.36053412
300.935985851
300.458874464
300.458874464
300.442701197
300.935985851
302.209630656
300.479091048
300.495264316
300.462917781
300.919812584
300.479091048
300.887466049
301.36053412
301.785082388
301.36053412
300.462917781
301.785082388
301.781039071
300.475047731
300.935985851
300.479091048
300.442701197
300.458874464
300.462917781
300.919812584
301.764865804
301.781039071
300.442701197
300.919812584
300.915769267
300.479091048
301.376707387
300.919812584
300.919812584
300.495264316
300.475047731
300.458874464
300.479091048
300.462917781
300.458874464
300.915769267
300.479091048
300.462917781
300.919812584
301.376707387

Average distance is : 300.843 cm
Average deviation is : 0.427 cm
Block: 5
======================================
300.935985851
300.903639317
300.479091048
300.446744514
300.442701197
301.376707387
300.479091048
301.801255655
300.935985851
300.458874464
300.495264316
301.344360852
300.915769267
300.935985851
300.903639317
302.646308875
300.919812584
300.903639317
300.887466049
300.919812584
300.919812584
301.376707387
301.36053412
300.899596
300.479091048
301.36053412
300.442701197
302.189414072
300.491220999
302.189414072
300.511437583
301.340317535
300.899596
300.458874464
302.189414072
300.919812584
300.458874464
301.376707387
301.340317535
302.646308875
301.36053412
300.475047731
300.479091048
302.630135608
301.376707387
300.899596
300.462917781
300.919812584
300.462917781
300.458874464
301.340317535
300.919812584
300.903639317
300.935985851
300.919812584
300.899596
300.919812584
300.899596
300.511437583
300.883422732
300.479091048
300.883422732
300.475047731
301.340317535
301.344360852
301.328187585
300.458874464
300.495264316
301.356490803
302.634178925
301.340317535
301.324144268
301.36053412
300.915769267
300.495264316

Average distance is : 301.038 cm
Average deviation is : 0.574 cm
Block: 6
======================================
300.458874464
300.919812584
300.462917781
301.344360852
300.479091048
300.919812584
301.785082388
300.479091048
301.36053412
300.903639317
300.495264316
300.899596
301.344360852
300.887466049
301.340317535
301.324144268
301.344360852
300.479091048
300.511437583
300.899596
300.458874464
300.458874464
300.458874464
301.340317535
300.475047731
300.475047731
302.205587339
302.189414072
301.36053412
302.193457389
302.189414072
301.324144268
300.479091048
301.344360852
300.899596
301.376707387
300.919812584
300.479091048
302.205587339
301.801255655
301.328187585
300.883422732
301.324144268
300.479091048
300.479091048
300.479091048
301.340317535
301.36053412
300.479091048
300.462917781
300.458874464
300.475047731
302.61396234
301.344360852
301.356490803
300.883422732
302.209630656
300.495264316
301.356490803
300.495264316
300.919812584
300.495264316
301.356490803
300.479091048
300.511437583
301.344360852
300.458874464
301.36053412
300.919812584
300.475047731
300.458874464
301.376707387
301.36053412
300.511437583
300.903639317

Average distance is : 301.020 cm
Average deviation is : 0.564 cm
Block: 7
======================================
300.479091048
301.376707387
301.36053412
301.356490803
300.919812584
300.495264316
300.935985851
300.491220999
300.495264316
301.36053412
300.511437583
301.36053412
300.511437583
300.495264316
300.495264316
300.495264316
300.479091048
300.495264316
300.915769267
300.475047731
300.495264316
301.392880654
300.479091048
301.36053412
300.495264316
301.376707387
300.935985851
301.356490803
301.37266407
301.376707387
300.899596
300.919812584
300.935985851
300.919812584
300.903639317
301.36053412
300.899596
301.376707387
300.919812584
301.356490803
301.344360852
300.919812584
300.899596
300.462917781
300.903639317
300.915769267
300.919812584
300.903639317
300.899596
300.887466049
301.801255655
300.903639317
301.36053412
301.328187585
300.919812584
300.919812584
300.899596
300.899596
301.768909121
303.038510609
301.781039071
300.883422732
301.748692536
301.768909121
301.748692536
300.883422732
300.899596
301.748692536
301.312014318
301.291797733
301.764865804
303.022337341
301.696129417
301.344360852
301.344360852

Average distance is : 301.104 cm
Average deviation is : 0.516 cm
Block: 8
======================================
301.259451199
301.291797733
303.006164074
301.307971001
303.038510609
300.851076198
300.867249465
300.851076198
300.847032881
301.307971001
300.867249465
300.851076198
300.867249465
300.83490293
300.830859613
301.307971001
301.291797733
300.851076198
302.15302422
301.275624466
300.851076198
301.291797733
301.291797733
301.307971001
301.307971001
301.324144268
301.307971001
301.307971001
300.851076198
301.328187585
301.324144268
301.307971001
300.847032881
301.307971001
301.307971001
302.157067537
300.887466049
301.307971001
300.442701197
301.324144268
302.597789073
300.883422732
300.426527929
301.307971001
301.764865804
300.426527929
301.752735853
300.442701197
300.899596
303.022337341
303.022337341
300.883422732
301.344360852
302.177284122
300.867249465
300.903639317
302.193457389
302.193457389
300.458874464
302.189414072
300.903639317
300.442701197
300.426527929
301.328187585
301.344360852
300.442701197
300.442701197
301.324144268
300.426527929
300.442701197
301.781039071
300.887466049
300.446744514
302.173240805
301.324144268

Average distance is : 301.254 cm
Average deviation is : 0.661 cm
Block: 9
======================================
300.883422732
302.61396234
301.307971001
300.475047731
301.307971001
301.752735853
302.177284122
300.446744514
300.442701197
300.867249465
301.312014318
302.177284122
300.426527929
300.426527929
301.307971001
301.312014318
300.713603425
300.442701197
300.442701197
300.883422732
300.458874464
300.426527929
300.446744514
300.442701197
300.919812584
300.903639317
300.883422732
300.442701197
300.903639317
300.883422732
300.883422732
301.004722238
301.344360852
301.344360852
301.340317535
301.340317535
300.475047731
300.903639317
300.883422732
300.883422732
301.340317535
300.475047731
300.883422732
300.899596
300.458874464
300.442701197
302.630135608
301.36053412
301.307971001
300.883422732
300.426527929
300.903639317
300.887466049
300.887466049
300.887466049
300.887466049
302.597789073
301.764865804
300.867249465
300.867249465
300.899596
300.887466049
300.442701197
300.883422732
300.883422732
300.426527929
300.883422732
300.903639317
300.867249465
301.752735853
300.883422732
300.442701197
301.768909121
300.446744514
300.442701197

Average distance is : 300.977 cm
Average deviation is : 0.538 cm
Block: 10
======================================
300.495264316
300.458874464
300.479091048
300.887466049
300.867249465
300.458874464
301.324144268
301.324144268
300.458874464
301.344360852
300.462917781
300.446744514
300.479091048
300.479091048
301.344360852
300.867249465
301.344360852
300.479091048
301.752735853
300.887466049
300.887466049
301.324144268
301.324144268
302.61396234
300.903639317
300.867249465
301.344360852
300.883422732
300.446744514
301.344360852
301.344360852
300.883422732
300.462917781
300.903639317
301.328187585
302.630135608
300.883422732
300.426527929
300.903639317
300.883422732
300.867249465
300.883422732
300.867249465
300.899596
301.324144268
300.426527929
300.446744514
301.36053412
300.899596
300.475047731
300.919812584
300.903639317
300.883422732
300.458874464
300.903639317
300.479091048
300.511437583
302.189414072
300.475047731
300.495264316
300.899596
301.344360852
302.634178925
301.376707387
302.61396234
300.491220999
301.36053412
301.36053412
301.376707387
302.650352192
301.376707387
300.495264316
300.495264316
300.495264316
301.376707387

Average distance is : 301.017 cm
Average deviation is : 0.581 cm