
Block: 1
======================================
100.867132545
100.796922445
100.350881815
100.834092498
100.834092498
100.834092498
99.9502712488
100.850612521
100.367401838
101.251223087
100.383921862
99.9667912722
100.450001955
101.267743111
100.834092498
100.813442469
100.834092498
100.813442469
100.834092498
99.9502712488
99.9502712488
99.9502712488
99.9337512255
100.817572474
99.9337512255
99.5331406593
100.813442469
100.383921862
100.834092498
100.367401838
100.383921862
99.9337512255
99.9337512255
100.817572474
99.9544012547
101.267743111
100.383921862
99.9667912722
100.817572474
100.383921862
99.9337512255
99.9833112955
100.834092498
99.9667912722
99.9502712488
99.5703107119
100.383921862
99.5537906885
99.5331406593
100.363271832
99.5537906885
99.9131011963
99.5331406593
99.9337512255
100.383921862
99.5372706652
100.404571891
99.9502712488
99.9667912722
99.9667912722
100.383921862
99.9337512255
99.9667912722
99.5372706652
99.970921278
99.9667912722
99.5703107119
99.9337512255
99.5496606827
99.9337512255
99.5372706652
99.516620636
100.817572474
99.9502712488
100.383921862

Average distance is : 100.235 cm
Average deviation is : 0.490 cm
Block: 2
======================================
100.850612521
100.400441885
100.834092498
99.9544012547
100.867132545
100.834092498
101.284263134
101.664223671
100.367401838
101.263613105
100.834092498
100.383921862
99.5331406593
100.383921862
100.400441885
99.9998313189
100.850612521
100.383921862
100.854742527
101.267743111
101.284263134
101.73443377
100.817572474
99.9502712488
100.834092498
99.5331406593
100.383921862
100.383921862
99.9667912722
99.9667912722
100.367401838
100.367401838
99.9337512255
100.454131961
100.801052451
100.801052451
99.5331406593
99.516620636
100.383921862
99.9502712488
100.367401838
100.817572474
99.9544012547
99.9667912722
99.5001006126
100.400441885
100.383921862
100.350881815
99.9337512255
99.9502712488
99.5372706652
99.516620636
99.9337512255
99.566180706
99.9502712488
99.9337512255
99.9172312021
100.817572474
100.834092498
100.367401838
101.267743111
101.234703064
100.350881815
99.1531801224
101.267743111
100.834092498
99.9667912722
99.9337512255
99.5703107119
99.5001006126
99.516620636
99.5372706652
100.383921862
100.817572474
100.367401838

Average distance is : 100.345 cm
Average deviation is : 0.587 cm
Block: 3
======================================
100.416961908
100.854742527
100.400441885
101.701393723
101.230573058
100.470651984
100.817572474
100.350881815
99.9874413013
101.214053035
101.267743111
100.850612521
100.817572474
100.801052451
100.383921862
99.9502712488
99.9337512255
99.9337512255
99.9667912722
99.516620636
99.9502712488
99.9337512255
99.970921278
100.383921862
99.9337512255
100.404571891
100.801052451
100.817572474
99.970921278
100.367401838
99.9502712488
99.5207506418
100.801052451
99.9172312021
99.9667912722
99.9667912722
101.680743694
100.834092498
99.9544012547
100.367401838
99.9502712488
99.1160100698
99.516620636
99.136660099
99.9337512255
100.817572474
99.516620636
100.796922445
100.838222504
100.350881815
99.5331406593
100.383921862
100.383921862
99.9502712488
99.5372706652
99.9833112955
99.5537906885
100.383921862
100.363271832
100.363271832
100.404571891
100.817572474
100.817572474
99.9502712488
100.367401838
100.383921862
100.801052451
99.5207506418
99.9337512255
100.367401838
100.383921862
100.470651984
101.247093081
100.383921862
100.363271832

Average distance is : 100.306 cm
Average deviation is : 0.542 cm
Block: 4
======================================
100.817572474
100.363271832
100.020481348
99.516620636
101.6848737
100.400441885
102.147434354
100.817572474
100.367401838
99.5372706652
99.8965811729
99.516620636
99.5331406593
99.5331406593
100.363271832
100.834092498
100.020481348
100.057651401
100.020481348
100.437611938
100.020481348
100.433481932
100.850612521
101.717913747
101.251223087
100.834092498
100.813442469
99.9337512255
99.9667912722
99.9502712488
99.516620636
99.970921278
100.834092498
100.817572474
99.5372706652
99.9502712488
101.247093081
99.9337512255
99.9502712488
100.834092498
100.817572474
100.801052451
99.9337512255
100.801052451
100.801052451
99.566180706
100.796922445
100.404571891
99.9544012547
100.817572474
99.5372706652
99.9502712488
99.516620636
100.404571891
99.9172312021
99.5331406593
99.970921278
99.9502712488
100.834092498
100.383921862
99.5703107119
99.9502712488
100.363271832
99.5372706652
100.383921862
99.5001006126
99.9833112955
99.5001006126
100.383921862
100.330231786
99.9337512255
99.9502712488
100.801052451
100.383921862
99.9172312021

Average distance is : 100.259 cm
Average deviation is : 0.586 cm
Block: 5
======================================
100.834092498
100.421091914
100.400441885
101.234703064
101.701393723
101.697263718
100.003961325
101.668353677
100.817572474
100.850612521
100.834092498
100.801052451
100.817572474
100.367401838
100.817572474
100.350881815
99.516620636
99.9172312021
100.383921862
99.9337512255
99.9544012547
99.9502712488
100.801052451
100.400441885
100.780402422
99.5372706652
101.234703064
100.817572474
100.383921862
100.367401838
99.5372706652
100.383921862
100.383921862
100.801052451
100.383921862
100.817572474
100.813442469
100.796922445
99.9502712488
99.5331406593
100.367401838
99.5331406593
99.5042306185
99.5331406593
99.516620636
99.5372706652
99.9502712488
100.801052451
100.383921862
100.383921862
100.801052451
99.9502712488
100.400441885
99.9667912722
99.9337512255
99.970921278
99.9131011963
99.5868307352
99.9502712488
99.5537906885
99.5001006126
99.1531801224
100.383921862
99.9337512255
99.9833112955
99.9502712488
99.970921278
99.5372706652
100.363271832
99.9502712488
100.887782574
100.784532428
99.9502712488
99.516620636
100.817572474

Average distance is : 100.283 cm
Average deviation is : 0.576 cm
Block: 6
======================================
100.817572474
105.389488935
101.267743111
100.383921862
100.87126255
99.5372706652
100.834092498
100.834092498
100.817572474
100.383921862
99.9502712488
100.383921862
99.9502712488
100.904302597
99.2770802975
99.9667912722
100.454131961
99.970921278
100.433481932
100.404571891
100.867132545
100.834092498
100.416961908
100.817572474
99.9544012547
100.383921862
99.9502712488
99.516620636
100.383921862
99.5372706652
100.383921862
101.284263134
101.214053035
100.834092498
100.817572474
99.9337512255
99.5331406593
99.5372706652
99.9502712488
100.367401838
100.834092498
100.383921862
100.801052451
99.9667912722
99.9131011963
100.404571891
100.367401838
99.9502712488
99.9337512255
99.1036200523
99.5331406593
100.400441885
99.5372706652
99.5372706652
99.9502712488
99.516620636
99.9172312021
99.516620636
101.267743111
100.817572474
99.5331406593
99.9502712488
99.9337512255
100.383921862
100.801052451
100.383921862
99.136660099
100.796922445
100.817572474
100.817572474
100.801052451
99.9874413013
99.5001006126
99.9172312021
100.834092498

Average distance is : 100.328 cm
Average deviation is : 0.810 cm
Block: 7
======================================
100.817572474
100.763882399
100.363271832
100.400441885
99.6570408344
100.400441885
101.701393723
99.9502712488
101.251223087
100.834092498
100.817572474
100.817572474
99.9544012547
100.784532428
99.9667912722
99.9502712488
99.5331406593
100.367401838
100.383921862
100.383921862
99.9667912722
99.9502712488
99.9502712488
99.5372706652
100.817572474
100.367401838
99.9502712488
99.5372706652
100.383921862
99.9502712488
99.5537906885
100.367401838
99.5331406593
100.367401838
100.363271832
99.9667912722
100.801052451
99.9337512255
100.400441885
99.9667912722
99.5537906885
100.850612521
100.817572474
99.516620636
99.9667912722
100.383921862
100.400441885
100.817572474
99.9502712488
99.9502712488
100.383921862
99.9337512255
99.5331406593
99.9131011963
100.367401838
99.9502712488
99.9172312021
100.367401838
100.817572474
100.363271832
99.9337512255
99.5537906885
100.801052451
99.970921278
100.367401838
99.516620636
100.801052451
100.817572474
100.383921862
100.383921862
101.263613105
101.251223087
99.9502712488
100.363271832
100.379791856

Average distance is : 100.270 cm
Average deviation is : 0.488 cm
Block: 8
======================================
100.817572474
100.367401838
100.404571891
101.267743111
101.284263134
99.9833112955
101.251223087
100.801052451
99.9502712488
99.9502712488
99.9502712488
100.383921862
99.9502712488
100.838222504
100.383921862
100.383921862
101.680743694
101.214053035
100.834092498
100.850612521
101.230573058
100.87126255
100.454131961
100.367401838
100.834092498
99.5001006126
100.817572474
99.9502712488
100.367401838
100.817572474
99.5537906885
100.796922445
99.9667912722
99.9337512255
99.5372706652
101.284263134
100.817572474
99.5537906885
100.801052451
100.383921862
99.5331406593
99.5331406593
100.383921862
99.9337512255
99.516620636
100.383921862
99.5496606827
100.383921862
100.834092498
99.5331406593
99.5372706652
99.5372706652
100.780402422
100.817572474
100.817572474
99.9502712488
99.5703107119
101.214053035
99.9833112955
100.383921862
100.801052451
100.383921862
100.796922445
100.834092498
100.813442469
99.9502712488
99.9667912722
99.9337512255
99.9337512255
99.516620636
99.9544012547
99.516620636
99.9172312021
99.9337512255
99.5496606827

Average distance is : 100.325 cm
Average deviation is : 0.577 cm
Block: 9
======================================
101.664223671
100.834092498
100.437611938
101.284263134
100.817572474
101.230573058
99.9833112955
99.9337512255
99.9874413013
101.664223671
100.817572474
100.817572474
99.9337512255
100.801052451
99.9337512255
100.796922445
99.9502712488
99.9667912722
99.9337512255
99.9337512255
99.9131011963
99.516620636
99.9337512255
100.383921862
99.5496606827
101.214053035
99.970921278
100.383921862
99.5331406593
99.5496606827
100.801052451
100.817572474
100.404571891
100.383921862
99.9874413013
100.350881815
100.404571891
99.5372706652
100.404571891
100.383921862
100.379791856
100.383921862
100.400441885
99.5331406593
99.9502712488
100.367401838
101.267743111
100.801052451
100.817572474
100.400441885
100.363271832
100.813442469
101.247093081
99.9337512255
100.801052451
99.9502712488
100.367401838
99.5372706652
100.367401838
100.813442469
100.817572474
100.817572474
99.9337512255
100.003961325
100.834092498
100.817572474
99.9296212196
99.9502712488
99.5496606827
99.9337512255
100.87126255
100.346751809
99.5001006126
99.9874413013
100.003961325

Average distance is : 100.346 cm
Average deviation is : 0.534 cm
Block: 10
======================================
100.421091914
101.701393723
100.850612521
100.454131961
100.834092498
100.416961908
100.037001371
100.454131961
100.454131961
100.834092498
100.834092498
100.416961908
100.383921862
100.817572474
101.713783741
100.817572474
101.251223087
99.9502712488
101.697263718
100.400441885
100.433481932
99.9667912722
100.020481348
100.416961908
100.834092498
100.850612521
99.9502712488
99.9874413013
101.267743111
100.210461617
101.234703064
100.404571891
100.834092498
101.267743111
99.9296212196
101.234703064
100.834092498
101.284263134
100.450001955
100.850612521
99.9502712488
101.251223087
101.717913747
101.263613105
100.817572474
100.801052451
100.400441885
100.003961325
100.817572474
82.542296648
100.801052451
101.701393723
100.020481348
100.867132545
101.717913747
100.437611938
100.883652568
101.284263134
100.834092498
100.817572474
101.651833653
101.267743111
99.9337512255
101.267743111
100.346751809
99.9667912722
100.796922445
100.796922445
100.801052451
100.817572474
100.020481348
100.817572474
99.9667912722
100.801052451
99.5496606827

Average distance is : 100.463 cm
Average deviation is : 2.164 cm
Average distance for 10x75 is : 100.316 cm
Average deviation for 10x75 is : 0.735 cm
 Percentage of values that failed: 0.000