
Block: 1
======================================
401.549882126
401.517535591
400.668439054
401.553925443
401.533708858
401.092987323
402.403021979
401.129377174
401.994646978
401.57009871
401.113203907
401.113203907
401.978473711
400.704828906
400.684612322
401.145550442
401.129377174
401.129377174
402.010820246
400.704828906
400.704828906
400.704828906
401.129377174
401.161723709
400.721002173
400.332843757
400.721002173
400.72504549
401.181940293
400.296453905
400.296453905
400.741218758
400.721002173
400.296453905
400.737175441
400.757392025
400.316670489
402.026993513
402.04316678
400.296453905
400.300497222
400.296453905
400.280280638
400.316670489
400.741218758
400.316670489
400.741218758
400.737175441
402.026993513
400.316670489
401.161723709
401.177896976
400.721002173
401.590315294
400.737175441
400.332843757
400.296453905
402.451541781
401.177896976
400.721002173
402.026993513
400.296453905
402.892263317
400.72504549
401.177896976
401.586271977
402.451541781
401.177896976
402.892263317
401.145550442
401.57009871
401.145550442
400.757392025
401.161723709
400.737175441

Average distance is : 401.078 cm
Average deviation is : 0.657 cm
Block: 2
======================================
402.467715049
400.773565292
401.602445245
401.606488562
401.602445245
402.419195247
401.57009871
403.725186586
402.87609005
402.047210097
402.010820246
403.725186586
401.590315294
402.03103683
403.725186586
401.57009871
401.553925443
402.026993513
402.435368514
401.145550442
403.296595001
401.165767026
401.165767026
401.177896976
403.316811585
400.737175441
401.177896976
403.312768269
400.721002173
401.194070244
403.332984853
401.198113561
402.467715049
401.177896976
401.198113561
400.753348708
402.467715049
401.214286828
401.194070244
400.769521976
400.753348708
401.198113561
401.638835096
401.638835096
402.079556632
400.312627172
400.349017024
400.332843757
401.214286828
400.332843757
401.602445245
400.344973707
402.047210097
400.769521976
401.63479178
401.214286828
402.063383365
400.365190291
400.773565292
402.912479901
400.78973856
400.737175441
401.214286828
401.177896976
400.757392025
400.769521976
400.773565292
400.32880044
400.721002173
402.03103683
400.757392025
400.753348708
401.177896976
400.332843757
400.316670489

Average distance is : 401.490 cm
Average deviation is : 0.913 cm
Block: 3
======================================
401.177896976
400.757392025
400.332843757
400.332843757
400.316670489
400.312627172
400.365190291
400.316670489
400.773565292
400.753348708
400.332843757
400.753348708
400.78973856
400.365190291
399.892122221
400.349017024
400.344973707
401.618618512
401.638835096
400.757392025
400.773565292
400.349017024
401.671181631
401.210243511
400.349017024
400.332843757
400.349017024
400.32880044
400.349017024
401.638835096
401.63479178
400.78973856
399.924468756
401.230460095
400.773565292
399.924468756
401.214286828
399.940642023
400.349017024
399.924468756
400.805911827
400.32880044
401.214286828
400.365190291
400.78973856
400.78973856
400.78973856
400.32880044
400.349017024
400.349017024
401.214286828
400.349017024
401.214286828
401.63479178
400.773565292
402.487931633
400.773565292
400.78973856
400.349017024
400.332843757
400.773565292
400.349017024
402.500061584
401.194070244
401.210243511
400.32880044
400.773565292
402.059340048
402.063383365
401.214286828
400.332843757
400.757392025
400.369233608
400.332843757
400.332843757

Average distance is : 400.746 cm
Average deviation is : 0.582 cm
Block: 4
======================================
400.773565292
400.312627172
400.737175441
401.194070244
401.214286828
400.753348708
401.161723709
400.757392025
400.741218758
401.194070244
400.757392025
400.753348708
400.753348708
401.181940293
400.773565292
401.181940293
400.753348708
400.316670489
400.72504549
400.737175441
400.741218758
400.753348708
400.737175441
400.72504549
401.177896976
400.737175441
401.586271977
402.451541781
401.194070244
402.467715049
402.451541781
402.467715049
400.757392025
400.332843757
400.316670489
400.721002173
401.198113561
400.32880044
401.161723709
400.312627172
401.161723709
400.753348708
400.32880044
400.757392025
401.198113561
400.349017024
400.753348708
402.483888316
400.332843757
400.773565292
401.622661829
400.332843757
401.618618512
400.757392025
400.753348708
400.773565292
401.181940293
402.467715049
401.622661829
401.602445245
401.602445245
401.618618512
400.316670489
401.181940293
400.737175441
400.737175441
400.316670489
400.753348708
401.602445245
402.026993513
401.622661829
400.316670489
400.721002173
400.316670489
400.332843757

Average distance is : 401.003 cm
Average deviation is : 0.599 cm
Block: 5
======================================
400.773565292
401.177896976
400.349017024
400.757392025
400.72504549
402.010820246
400.72504549
401.198113561
400.753348708
401.177896976
400.737175441
400.316670489
401.181940293
400.721002173
400.741218758
400.316670489
400.721002173
401.161723709
400.741218758
401.161723709
402.04316678
400.300497222
400.316670489
400.349017024
401.177896976
400.757392025
401.194070244
401.198113561
400.773565292
401.181940293
400.757392025
400.741218758
401.622661829
400.737175441
401.198113561
401.198113561
401.161723709
401.194070244
401.177896976
400.737175441
402.026993513
401.198113561
400.757392025
402.026993513
401.602445245
402.87609005
401.181940293
403.300638318
402.435368514
400.757392025
400.737175441
402.872046733
401.161723709
401.177896976
400.704828906
401.586271977
400.737175441
401.181940293
400.753348708
400.721002173
402.026993513
401.177896976
401.165767026
400.773565292
400.757392025
400.737175441
401.181940293
400.769521976
400.773565292
400.312627172
400.757392025
400.312627172
401.181940293
400.753348708
402.026993513

Average distance is : 401.090 cm
Average deviation is : 0.611 cm
Block: 6
======================================
401.181940293
400.704828906
401.161723709
402.859916782
401.177896976
401.194070244
400.741218758
400.72504549
400.704828906
402.451541781
400.721002173
400.753348708
401.177896976
401.161723709
400.737175441
401.161723709
401.145550442
400.741218758
401.161723709
400.704828906
401.129377174
400.753348708
400.757392025
402.026993513
401.145550442
400.741218758
400.721002173
401.177896976
400.737175441
400.737175441
401.181940293
401.586271977
401.161723709
400.741218758
401.165767026
400.741218758
400.741218758
401.161723709
400.721002173
401.177896976
400.316670489
402.451541781
400.296453905
401.198113561
400.296453905
400.300497222
400.260064054
401.618618512
400.280280638
401.161723709
400.72504549
400.312627172
400.737175441
400.312627172
400.721002173
400.757392025
400.737175441
400.741218758
400.300497222
400.737175441
400.704828906
400.72504549
400.753348708
400.741218758
401.602445245
402.026993513
400.296453905
400.296453905
400.741218758
400.280280638
400.296453905
400.280280638
400.280280638
400.300497222
400.721002173

Average distance is : 400.893 cm
Average deviation is : 0.530 cm
Block: 7
======================================
400.312627172
400.721002173
400.72504549
400.704828906
400.280280638
400.704828906
400.284323955
400.280280638
401.57009871
400.280280638
401.590315294
401.57009871
402.435368514
400.26410737
400.26410737
401.145550442
400.704828906
401.974430394
400.704828906
400.26410737
400.704828906
400.688655639
400.721002173
400.688655639
401.113203907
400.684612322
400.672482371
401.974430394
401.129377174
401.129377174
400.704828906
400.688655639
400.704828906
401.129377174
400.652265787
400.656309104
400.684612322
401.974430394
402.435368514
400.672482371
400.688655639
401.129377174
401.113203907
400.684612322
401.09703064
400.688655639
401.533708858
400.684612322
401.10916059
401.958257127
400.688655639
401.129377174
401.57009871
402.403021979
400.688655639
400.672482371
400.688655639
400.668439054
400.684612322
400.688655639
400.704828906
401.129377174
401.533708858
401.129377174
402.419195247
400.688655639
401.129377174
400.708872223
401.978473711
401.149593759
400.704828906
401.129377174
400.704828906
400.704828906
402.87609005

Average distance is : 401.011 cm
Average deviation is : 0.593 cm
Block: 8
======================================
400.704828906
401.145550442
401.994646978
400.704828906
401.145550442
400.704828906
401.129377174
401.145550442
400.741218758
400.704828906
400.704828906
401.994646978
401.181940293
400.688655639
400.684612322
402.419195247
402.010820246
401.57009871
403.284465051
401.129377174
401.113203907
401.10916059
401.129377174
401.145550442
400.684612322
401.549882126
402.823526931
401.113203907
401.57009871
401.129377174
401.10916059
401.517535591
401.517535591
401.367932868
401.517535591
402.823526931
401.978473711
401.553925443
401.962300444
401.962300444
401.978473711
403.231901932
401.537752175
401.10916059
401.537752175
401.978473711
401.553925443
402.386848712
404.097171736
401.978473711
401.566055393
401.537752175
401.553925443
401.994646978
401.974430394
401.113203907
401.57009871
401.129377174
401.10916059
401.553925443
401.537752175
401.553925443
401.129377174
401.553925443
401.553925443
401.586271977
403.264248466
401.566055393
401.145550442
401.145550442
401.129377174
401.113203907
401.165767026
401.553925443
401.10916059

Average distance is : 401.534 cm
Average deviation is : 0.665 cm
Block: 9
======================================
401.129377174
401.113203907
402.451541781
402.403021979
401.10916059
401.537752175
401.09703064
401.537752175
401.537752175
401.092987323
401.549882126
401.113203907
401.113203907
401.10916059
401.076814055
401.080857372
401.978473711
401.092987323
402.855873466
401.113203907
401.962300444
401.092987323
401.09703064
401.09703064
401.092987323
401.994646978
401.533708858
401.533708858
402.419195247
401.113203907
402.419195247
401.129377174
401.113203907
401.533708858
401.113203907
401.09703064
401.553925443
401.129377174
401.994646978
401.553925443
401.113203907
401.129377174
401.080857372
401.553925443
401.113203907
402.010820246
401.10916059
401.533708858
402.823526931
401.978473711
401.974430394
401.521578908
401.549882126
401.10916059
401.113203907
403.248075199
400.672482371
401.09703064
400.688655639
400.672482371
401.092987323
401.10916059
401.974430394
401.942083859
401.974430394
401.553925443
401.978473711
402.403021979
401.553925443
401.113203907
401.553925443
401.57009871
401.537752175
401.566055393
401.113203907

Average distance is : 401.491 cm
Average deviation is : 0.529 cm
Block: 10
======================================
401.125333858
402.859916782
401.590315294
401.586271977
401.129377174
401.177896976
400.741218758
402.026993513
401.602445245
402.451541781
400.704828906
401.165767026
400.704828906
400.741218758
401.161723709
400.737175441
401.181940293
400.753348708
400.737175441
400.332843757
400.296453905
401.638835096
400.737175441
402.04316678
400.312627172
400.332843757
400.757392025
400.769521976
400.332843757
400.757392025
400.741218758
400.296453905
400.757392025
401.198113561
400.773565292
400.332843757
400.32880044
400.757392025
400.773565292
400.753348708
400.773565292
401.177896976
400.757392025
402.047210097
400.316670489
400.312627172
400.332843757
400.332843757
400.349017024
401.198113561
401.181940293
400.312627172
402.026993513
401.618618512
400.741218758
400.737175441
400.32880044
401.194070244
400.757392025
400.721002173
401.177896976
400.757392025
400.296453905
401.230460095
400.300497222
400.296453905
400.721002173
401.177896976
400.737175441
401.602445245
400.721002173
400.300497222
400.296453905
400.741218758
401.165767026

Average distance is : 400.906 cm
Average deviation is : 0.558 cm