
Block: 1
======================================
300.57342329
301.016507101
300.57342329
301.012442112
300.569358301
301.455525923
301.475850868
301.443330956
300.605943203
301.028702068
301.069351959
301.443330956
301.439265966
300.585618258
301.439265966
301.028702068
301.016507101
300.557163334
300.589683247
300.569358301
301.902674723
301.016507101
300.589683247
300.996182156
301.028702068
301.475850868
301.000247145
301.455525923
301.439265966
300.996182156
300.585618258
300.585618258
301.443330956
300.536838388
301.028702068
301.459590912
300.57342329
300.553098345
300.569358301
300.569358301
300.553098345
301.471785879
300.569358301
300.589683247
301.012442112
300.622203159
300.589683247
300.569358301
301.032767057
301.471785879

Average distance is : 300.956 cm
Average deviation is : 0.388 cm
Block: 2
======================================
300.589683247
300.601878214
300.605943203
301.471785879
300.585618258
300.569358301
301.049027014
300.589683247
301.016507101
301.91486969
300.146599436
301.87015481
300.585618258
301.886414766
300.12627449
300.585618258
301.012442112
301.032767057
300.589683247
300.569358301
301.016507101
301.439265966
301.459590912
300.569358301
301.012442112
301.028702068
301.475850868
300.57342329
300.569358301
301.882349777
300.589683247
300.569358301
301.439265966
300.589683247
300.569358301
300.569358301
300.569358301
300.569358301
301.471785879
301.866089821
301.012442112
301.032767057
300.589683247
301.475850868
300.569358301
301.012442112
300.162859392
300.569358301
300.553098345
300.605943203

Average distance is : 300.896 cm
Average deviation is : 0.484 cm
Block: 3
======================================
301.471785879
301.016507101
301.016507101
302.309173632
300.996182156
300.57342329
301.439265966
301.016507101
300.996182156
300.557163334
301.012442112
300.585618258
301.032767057
301.471785879
300.57342329
300.585618258
300.553098345
301.443330956
301.455525923
300.57342329
301.032767057
301.016507101
300.569358301
301.439265966
300.569358301
300.569358301
301.882349777
300.996182156
301.475850868
300.569358301
301.459590912
300.553098345
300.557163334
300.57342329
300.589683247
301.443330956
301.032767057
301.016507101
301.000247145
300.57342329
301.012442112
301.032767057
301.459590912
300.996182156
300.585618258
301.459590912
300.569358301
301.016507101
300.996182156
300.553098345

Average distance is : 300.986 cm
Average deviation is : 0.411 cm
Block: 4
======================================
301.475850868
300.553098345
301.918934679
301.012442112
301.016507101
300.57342329
301.049027014
300.569358301
300.57342329
300.601878214
300.569358301
301.032767057
300.601878214
300.569358301
300.569358301
301.471785879
301.012442112
300.569358301
301.902674723
302.325433588
301.032767057
300.569358301
300.589683247
300.589683247
300.57342329
301.475850868
300.996182156
300.569358301
300.57342329
300.589683247
300.589683247
301.049027014
300.996182156
301.012442112
301.032767057
301.028702068
300.589683247
301.032767057
300.996182156
300.605943203
301.028702068
301.012442112
300.585618258
301.012442112
300.996182156
301.475850868
301.459590912
301.032767057
300.585618258
301.882349777

Average distance is : 300.951 cm
Average deviation is : 0.431 cm
Block: 5
======================================
301.42300601
300.569358301
300.589683247
300.569358301
301.459590912
301.028702068
300.605943203
301.016507101
300.553098345
301.459590912
300.57342329
301.902674723
300.569358301
300.589683247
301.012442112
301.049027014
300.589683247
300.589683247
301.455525923
301.016507101
301.032767057
301.012442112
300.589683247
301.032767057
301.016507101
301.012442112
300.569358301
300.605943203
300.605943203
300.569358301
301.016507101
300.553098345
300.589683247
300.553098345
301.455525923
301.032767057
300.553098345
300.996182156
300.605943203
300.536838388
300.589683247
300.57342329
300.57342329
300.605943203
300.605943203
301.012442112
300.57342329
300.553098345
301.439265966
301.902674723

Average distance is : 300.860 cm
Average deviation is : 0.374 cm
Block: 6
======================================
300.585618258
300.569358301
301.443330956
301.455525923
301.012442112
300.996182156
301.439265966
300.996182156
300.589683247
301.475850868
300.996182156
300.589683247
300.553098345
300.553098345
300.553098345
300.553098345
301.459590912
300.553098345
301.012442112
300.553098345
301.455525923
301.032767057
302.325433588
300.569358301
300.569358301
300.569358301
301.439265966
300.996182156
300.536838388
301.012442112
301.439265966
300.996182156
300.57342329
300.553098345
300.553098345
301.012442112
301.42300601
300.585618258
300.996182156
300.589683247
300.569358301
300.996182156
301.032767057
301.012442112
301.882349777
300.585618258
300.57342329
300.996182156
300.569358301
301.000247145

Average distance is : 300.928 cm
Average deviation is : 0.414 cm
Block: 7
======================================
301.028702068
300.553098345
301.012442112
300.536838388
300.569358301
301.455525923
300.979922199
300.553098345
301.049027014
300.536838388
301.443330956
300.569358301
300.57342329
300.553098345
300.57342329
300.996182156
301.455525923
301.866089821
301.87015481
301.886414766
300.57342329
300.996182156
301.42300601
300.569358301
301.000247145
301.898609734
300.536838388
301.459590912
300.553098345
301.443330956
300.557163334
301.459590912
300.553098345
301.016507101
301.459590912
300.57342329
301.455525923
300.557163334
300.553098345
300.996182156
300.996182156
301.849829865
300.996182156
301.439265966
300.57342329
300.536838388
301.032767057
300.557163334
300.557163334
300.553098345

Average distance is : 300.976 cm
Average deviation is : 0.459 cm
Block: 8
======================================
301.000247145
300.553098345
301.439265966
300.589683247
301.455525923
300.589683247
301.459590912
300.553098345
300.553098345
300.569358301
300.553098345
300.979922199
300.557163334
300.569358301
300.536838388
301.012442112
300.996182156
301.012442112
300.569358301
301.455525923
301.455525923
300.146599436
301.000247145
300.569358301
300.553098345
300.996182156
300.536838388
300.569358301
301.882349777
300.569358301
301.000247145
301.459590912
301.886414766
300.553098345
302.735997486
301.882349777
300.569358301
300.553098345
300.569358301
301.882349777
301.012442112
300.553098345
300.996182156
301.459590912
301.012442112
300.996182156
301.000247145
300.536838388
301.459590912
300.536838388

Average distance is : 300.959 cm
Average deviation is : 0.513 cm
Block: 9
======================================
300.553098345
300.57342329
301.012442112
300.569358301
300.979922199
300.557163334
300.589683247
301.028702068
300.589683247
300.557163334
300.589683247
300.536838388
301.012442112
300.996182156
300.57342329
302.292913675
300.557163334
300.57342329
300.553098345
301.455525923
300.589683247
301.459590912
300.585618258
301.882349777
300.589683247
301.028702068
301.032767057
301.455525923
300.536838388
301.866089821
300.585618258
301.016507101
301.032767057
300.585618258
301.016507101
300.569358301
300.553098345
301.898609734
301.032767057
300.569358301
301.016507101
300.57342329
300.569358301
300.569358301
301.032767057
301.028702068
300.569358301
300.585618258
300.996182156
300.569358301

Average distance is : 300.871 cm
Average deviation is : 0.428 cm
Block: 10
======================================
300.585618258
301.012442112
300.601878214
301.471785879
302.309173632
300.996182156
300.589683247
301.032767057
300.589683247
300.569358301
301.455525923
301.455525923
300.605943203
301.032767057
301.459590912
300.589683247
300.553098345
301.032767057
300.569358301
301.032767057
300.622203159
301.028702068
300.622203159
301.049027014
300.605943203
301.028702068
301.032767057
301.455525923
300.57342329
301.016507101
300.605943203
300.589683247
301.032767057
300.589683247
300.57342329
300.569358301
300.57342329
300.601878214
300.569358301
300.589683247
301.028702068
301.016507101
301.882349777
300.605943203
301.012442112
300.589683247
301.012442112
301.049027014
301.475850868
300.605943203

Average distance is : 300.903 cm
Average deviation is : 0.392 cm