
Block: 1
======================================
50.8724083662
50.8847550392
50.4361592531
50.8024438858
50.8189061165
50.4402748108
50.4238125801
50.8353683472
50.8353683472
50.8518305779
50.8682928085
50.8682928085
50.8888705969
50.8559461355
50.8559461355
50.8682928085
50.4731992722
50.8559461355
50.8682928085
50.8559461355
50.8518305779
50.8518305779
50.8888705969
50.8724083662
50.8559461355
50.8682928085
50.8559461355
50.4196970224
50.8559461355
50.8518305779
50.8724083662
50.8559461355
50.4567370415
50.8724083662
50.8724083662
50.8888705969
50.8682928085
50.8559461355
50.8518305779
50.4238125801
50.4361592531
50.4238125801
50.4567370415
50.4402748108
50.4361592531
50.4402748108
50.4402748108
50.4773148298
50.8518305779
50.8724083662

Average distance is : 50.735 cm
Average deviation is : 0.195 cm
Block: 2
======================================
50.8518305779
50.8024438858
50.4402748108
50.7859816551
50.8353683472
50.4073503494
50.7983283281
50.8724083662
50.4073503494
50.8024438858
50.8189061165
50.8518305779
50.8518305779
50.8353683472
50.8724083662
50.8682928085
50.8888705969
50.8518305779
50.8847550392
50.8353683472
50.8724083662
50.8724083662
50.8518305779
50.4238125801
50.8518305779
50.8724083662
50.8888705969
50.8353683472
50.8724083662
50.8724083662
50.8888705969
50.4196970224
50.8394839048
50.8518305779
50.8559461355
50.8682928085
50.8724083662
50.8724083662
50.8682928085
50.8518305779
50.8559461355
50.8518305779
50.8559461355
50.8682928085
50.8518305779
50.8559461355
50.8518305779
50.4731992722
50.8559461355
50.8724083662

Average distance is : 50.803 cm
Average deviation is : 0.142 cm
Block: 3
======================================
50.8353683472
50.8189061165
50.4238125801
50.8353683472
50.4073503494
50.4402748108
50.8024438858
50.8189061165
50.8024438858
50.8353683472
50.4567370415
50.8353683472
50.8724083662
50.8888705969
50.8682928085
50.8518305779
50.8353683472
50.8888705969
50.8518305779
50.8518305779
50.8724083662
50.8518305779
50.8518305779
50.8724083662
50.8724083662
50.8724083662
50.4567370415
50.8682928085
50.8888705969
50.8724083662
50.8682928085
50.8518305779
50.8518305779
50.8353683472
50.8518305779
50.8682928085
50.8559461355
50.8682928085
50.8724083662
50.8724083662
50.8353683472
50.8724083662
50.8888705969
50.8024438858
50.8353683472
50.8724083662
50.8353683472
50.8682928085
50.8724083662
50.8518305779

Average distance is : 50.813 cm
Average deviation is : 0.129 cm
Block: 4
======================================
50.8189061165
50.8518305779
50.8353683472
50.8353683472
50.8353683472
50.8024438858
50.7983283281
50.8559461355
50.8353683472
50.8024438858
50.8353683472
50.4238125801
50.8353683472
50.8888705969
50.8024438858
50.8888705969
50.8559461355
50.8189061165
50.8847550392
50.8724083662
50.8518305779
50.8518305779
50.8682928085
50.8888705969
50.8682928085
50.8724083662
50.8353683472
50.8724083662
50.8189061165
50.8682928085
50.8682928085
50.8189061165
50.8353683472
50.8724083662
50.4402748108
50.8888705969
50.8559461355
50.8888705969
50.8518305779
50.4402748108
50.4567370415
50.8394839048
50.8724083662
50.8724083662
50.8189061165
50.8724083662
50.8189061165
50.8888705969
50.8682928085
50.8024438858

Average distance is : 50.817 cm
Average deviation is : 0.115 cm
Block: 5
======================================
50.8189061165
50.8394839048
50.4238125801
50.3703103304
50.4032347918
50.8189061165
50.4032347918
50.4073503494
50.8682928085
50.4402748108
50.8724083662
50.4196970224
50.8353683472
50.8189061165
50.8518305779
50.8559461355
50.8518305779
50.8682928085
50.8682928085
50.4402748108
50.8724083662
50.8724083662
50.8682928085
50.8518305779
50.8394839048
50.8518305779
50.8518305779
50.8518305779
50.8724083662
50.8682928085
50.8888705969
50.8353683472
50.8724083662
50.8682928085
50.4238125801
50.8518305779
50.8724083662
50.8353683472
50.8394839048
50.8518305779
50.8888705969
50.8724083662
50.4731992722
50.8724083662
50.8518305779
50.8724083662
50.8518305779
50.4238125801
50.8518305779
50.4402748108

Average distance is : 50.752 cm
Average deviation is : 0.188 cm
Block: 6
======================================
50.8353683472
50.8024438858
50.8189061165
50.8559461355
50.8888705969
50.9053328276
50.8724083662
50.8724083662
50.8888705969
50.8353683472
50.8682928085
50.8189061165
50.4567370415
50.4402748108
50.8888705969
50.4567370415
50.8724083662
50.4402748108
50.8559461355
50.8518305779
50.8724083662
50.8724083662
50.4402748108
50.8518305779
50.4567370415
50.8518305779
50.8559461355
50.8724083662
50.8724083662
50.4402748108
51.2839641333
50.8559461355
50.4567370415
50.8682928085
50.8724083662
50.4731992722
50.4402748108
50.4402748108
50.8847550392
50.8353683472
50.8888705969
50.4238125801
50.8724083662
50.8682928085
50.8724083662
50.4196970224
50.8724083662
50.8724083662
50.8888705969
50.4361592531

Average distance is : 50.755 cm
Average deviation is : 0.205 cm
Block: 7
======================================
50.8024438858
50.8353683472
50.4402748108
50.8189061165
50.8518305779
50.7983283281
50.8353683472
50.8024438858
50.4526214838
50.4402748108
50.8394839048
50.8353683472
50.8682928085
50.4567370415
50.4731992722
50.8724083662
50.4361592531
50.8682928085
50.8559461355
50.8559461355
50.8682928085
50.8724083662
50.8353683472
50.8724083662
50.8559461355
50.8518305779
50.8682928085
50.8559461355
50.8518305779
50.4567370415
50.4402748108
50.4567370415
50.4567370415
50.4402748108
50.4402748108
50.4196970224
50.4238125801
50.4361592531
50.4773148298
50.8559461355
50.8518305779
50.8724083662
50.8724083662
50.8682928085
50.8724083662
50.8682928085
50.4361592531
50.8888705969
50.8888705969
50.8888705969

Average distance is : 50.716 cm
Average deviation is : 0.197 cm
Block: 8
======================================
50.8724083662
50.8518305779
50.8189061165
50.8559461355
50.8518305779
50.8518305779
50.8518305779
50.8682928085
50.9053328276
50.8559461355
50.9053328276
50.8518305779
50.4402748108
50.4238125801
50.8518305779
50.4567370415
50.4402748108
50.4567370415
50.8888705969
50.8682928085
50.4567370415
50.8559461355
50.8559461355
50.8518305779
50.8353683472
50.8518305779
50.8559461355
50.8682928085
50.4567370415
50.8518305779
50.8559461355
50.8682928085
50.8559461355
50.8682928085
50.8559461355
50.8559461355
50.8682928085
50.8888705969
50.8888705969
50.7530571938
50.8888705969
50.8559461355
50.4567370415
50.4731992722
50.8847550392
50.8394839048
50.4361592531
50.8559461355
50.8724083662
50.8888705969

Average distance is : 50.778 cm
Average deviation is : 0.168 cm
Block: 9
======================================
50.8559461355
50.8024438858
50.8888705969
50.8888705969
50.8724083662
50.8559461355
50.8189061165
50.9053328276
50.8888705969
50.8024438858
50.8518305779
50.8888705969
50.4361592531
50.4402748108
50.4567370415
50.4402748108
50.8724083662
50.4731992722
50.8559461355
50.8724083662
50.4567370415
50.4361592531
50.4773148298
50.4567370415
50.8724083662
50.4731992722
50.4567370415
50.4402748108
50.4402748108
50.8682928085
50.8724083662
50.4567370415
50.4567370415
50.8518305779
50.4402748108
50.4567370415
50.4773148298
50.4567370415
50.4773148298
50.4567370415
50.4402748108
50.8724083662
50.8559461355
50.8682928085
50.4402748108
50.4238125801
50.4526214838
50.4402748108
50.4361592531
50.8353683472

Average distance is : 50.640 cm
Average deviation is : 0.207 cm
Block: 10
======================================
50.8518305779
50.8888705969
50.4032347918
50.8189061165
50.8559461355
50.4032347918
50.4032347918
50.8518305779
50.8518305779
50.3867725611
50.8189061165
50.8394839048
50.8559461355
50.8682928085
50.8559461355
50.8724083662
50.4196970224
50.8888705969
50.8888705969
50.8888705969
50.8559461355
50.4567370415
50.8847550392
50.8724083662
50.8682928085
50.4402748108
50.4526214838
50.4402748108
50.4567370415
50.4567370415
50.4402748108
50.4773148298
50.4238125801
50.4402748108
50.8888705969
50.8888705969
50.4567370415
50.8559461355
50.8518305779
50.8518305779
50.8888705969
50.8888705969
50.8518305779
50.8394839048
50.8559461355
50.8518305779
50.8724083662
50.9053328276
50.8559461355
50.8518305779

Average distance is : 50.727 cm
Average deviation is : 0.203 cm