
Block: 1
======================================
100.817572474
100.437611938
100.470651984
100.834092498
100.834092498
100.801052451
100.383921862
100.817572474
101.300783157
101.28839314

Block: 2
======================================
100.400441885
100.416961908
101.284263134
100.801052451
100.801052451
100.437611938
100.850612521
100.817572474
100.400441885
100.867132545

Block: 3
======================================
101.664223671
100.400441885
100.87126255
100.834092498
100.400441885
101.680743694
100.801052451
100.416961908
100.834092498
100.817572474

Block: 4
======================================
101.697263718
101.321433187
100.437611938
100.433481932
100.400441885
100.416961908
100.817572474
100.433481932
101.267743111
100.437611938

Block: 5
======================================
100.383921862
101.284263134
100.817572474
100.854742527
100.834092498
100.796922445
100.433481932
100.817572474
100.433481932
100.400441885

Block: 6
======================================
100.437611938
101.230573058
100.92082262
100.416961908
100.813442469
100.850612521
100.400441885
100.817572474
100.817572474
100.817572474

Block: 7
======================================
100.470651984
100.801052451
100.813442469
100.400441885
100.404571891
100.838222504
100.400441885
100.416961908
100.834092498
101.6848737

Block: 8
======================================
101.668353677
100.400441885
100.850612521
101.701393723
100.437611938
101.701393723
100.400441885
100.838222504
100.421091914
100.433481932

Block: 9
======================================
101.701393723
100.400441885
100.330231786
100.796922445
100.433481932
100.416961908
101.701393723
101.230573058
100.850612521
100.817572474

Block: 10
======================================
100.850612521
100.437611938
101.697263718
100.437611938
100.817572474
101.251223087
100.421091914
100.383921862
100.796922445
101.230573058
