
Block: 1
======================================
100.433481932
100.817572474
100.763882399
100.437611938
100.834092498
100.780402422
101.214053035
100.437611938
100.834092498
100.801052451
100.801052451
100.454131961
101.664223671
100.817572474
100.834092498
100.400441885
100.400441885
100.780402422
100.400441885
101.664223671
100.416961908
101.04059279
101.701393723
100.404571891
100.813442469
100.416961908
106.777170897
100.383921862
101.701393723
100.817572474
100.400441885
101.664223671
100.383921862
100.400441885
100.404571891
100.796922445
101.701393723
100.796922445
100.400441885
100.400441885
100.817572474
101.701393723
100.834092498
101.230573058
100.383921862
100.433481932
100.813442469
100.404571891
100.796922445
100.433481932
100.796922445
100.383921862
100.838222504
101.214053035
100.817572474
100.834092498
100.437611938
100.817572474
100.400441885
100.834092498
101.267743111
100.784532428
100.400441885
101.247093081
100.416961908
101.234703064
100.817572474
100.383921862
101.214053035
101.218183041
101.284263134
100.834092498
100.834092498
100.817572474
100.383921862
100.433481932
100.433481932
101.267743111
100.850612521
101.717913747
100.834092498
101.267743111
100.400441885
100.400441885
101.6848737
101.28839314
100.421091914
100.416961908
100.400441885
101.247093081
101.284263134
100.404571891
100.817572474
100.416961908
100.416961908
100.416961908
100.404571891
100.801052451
100.801052451
100.834092498

Block: 2
======================================
100.784532428
100.801052451
100.780402422
101.201663017
100.400441885
100.834092498
100.817572474
100.817572474
100.433481932
101.218183041
100.834092498
100.416961908
100.796922445
100.400441885
101.668353677
100.416961908
101.247093081
101.284263134
100.784532428
101.701393723
101.701393723
100.817572474
100.850612521
100.383921862
100.834092498
100.421091914
100.850612521
100.850612521
101.284263134
100.834092498
100.780402422
100.400441885
100.367401838
101.197533011
100.834092498
100.854742527
100.421091914
100.400441885
100.834092498
100.796922445
100.801052451
100.421091914
100.817572474
100.834092498
100.817572474
100.817572474
100.817572474
100.433481932
101.267743111
100.383921862
100.400441885
100.404571891
101.6848737
100.801052451
100.780402422
100.817572474
100.817572474
100.416961908
100.801052451
100.437611938
100.817572474
100.801052451
100.817572474
100.416961908
100.450001955
100.817572474
100.437611938
100.813442469
100.404571891
101.251223087
100.421091914
100.454131961
100.421091914
100.421091914
101.214053035
100.400441885
100.813442469
100.834092498
100.404571891
100.817572474
100.400441885
100.817572474
100.416961908
100.796922445
100.433481932
101.701393723
100.400441885
100.813442469
101.701393723
101.214053035
100.801052451
101.701393723
101.680743694
100.784532428
100.817572474
100.400441885
100.416961908
100.817572474
100.784532428
100.834092498

Block: 3
======================================
101.230573058
100.454131961
101.073632836
101.267743111
101.664223671
101.214053035
100.796922445
100.400441885
100.400441885
101.680743694
100.450001955
100.834092498
101.267743111
100.834092498
101.247093081
101.664223671
101.701393723
100.834092498
100.400441885
101.214053035
100.796922445
101.247093081
101.697263718
100.416961908
100.801052451
100.416961908
100.383921862
101.251223087
100.383921862
100.817572474
100.834092498
100.817572474
101.697263718
100.817572474
100.850612521
101.701393723
100.400441885
100.796922445
100.817572474
101.251223087
100.433481932
101.701393723
100.400441885
100.400441885
101.267743111
100.416961908
100.416961908
100.400441885
100.817572474
101.234703064
101.267743111
100.780402422
100.817572474
100.854742527
100.416961908
100.437611938
100.834092498
100.416961908
100.817572474
100.817572474
100.416961908
101.664223671
101.267743111
100.834092498
100.416961908
100.416961908
100.416961908
101.230573058
100.801052451
100.817572474
101.701393723
100.817572474
100.437611938
100.437611938
100.817572474
100.813442469
100.433481932
100.400441885
100.400441885
100.400441885
100.400441885
101.680743694
100.801052451
100.416961908
101.251223087
101.697263718
100.416961908
100.437611938
101.230573058
100.416961908
100.834092498
100.817572474
100.834092498
100.801052451
100.421091914
100.817572474
100.416961908
100.400441885
100.404571891
100.400441885

Block: 4
======================================
101.697263718
101.701393723
100.801052451
101.697263718
100.817572474
100.834092498
100.433481932
100.801052451
101.251223087
101.251223087
100.437611938
100.421091914
100.437611938
100.801052451
100.817572474
100.433481932
100.416961908
100.416961908
100.784532428
101.284263134
100.383921862
100.416961908
101.717913747
100.437611938
100.817572474
101.214053035
101.267743111
100.416961908
100.416961908
101.6848737
100.834092498
101.701393723
100.817572474
100.854742527
101.267743111
100.416961908
100.416961908
101.247093081
101.267743111
101.697263718
100.421091914
100.834092498
101.701393723
100.817572474
101.6848737
100.817572474
100.834092498
100.784532428
100.421091914
101.6848737
100.421091914
100.796922445
100.834092498
101.697263718
100.400441885
101.234703064
100.433481932
101.284263134
100.850612521
100.796922445
100.801052451
101.284263134
100.817572474
100.817572474
100.817572474
100.801052451
100.817572474
100.834092498
100.834092498
100.416961908
100.421091914
100.421091914
100.400441885
100.801052451
100.400441885
100.817572474
100.400441885
100.416961908
101.717913747
100.416961908
100.400441885
100.400441885
100.834092498
100.834092498
100.416961908
100.834092498
100.801052451
100.817572474
100.801052451
101.6848737
100.801052451
100.813442469
101.284263134
100.416961908
100.416961908
101.234703064
100.404571891
101.267743111
100.416961908
100.437611938

Block: 5
======================================
100.817572474
101.284263134
101.717913747
100.801052451
100.801052451
100.834092498
100.421091914
100.416961908
100.421091914
100.834092498
100.421091914
100.421091914
100.400441885
101.284263134
100.817572474
100.796922445
101.267743111
100.400441885
100.404571891
101.267743111
100.796922445
100.454131961
101.263613105
100.796922445
100.834092498
100.400441885
100.834092498
100.383921862
101.230573058
100.437611938
100.404571891
101.230573058
100.416961908
100.801052451
100.404571891
100.433481932
101.300783157
101.701393723
100.834092498
100.817572474
100.801052451
100.817572474
100.416961908
100.416961908
100.404571891
100.817572474
100.416961908
100.383921862
100.416961908
101.267743111
100.834092498
100.454131961
100.854742527
100.817572474
100.817572474
101.717913747
101.267743111
100.780402422
101.263613105
101.701393723
100.796922445
100.416961908
101.234703064
101.697263718
100.400441885
100.367401838
100.437611938
100.817572474
101.717913747
100.801052451
101.680743694
101.717913747
100.400441885
100.383921862
100.400441885
101.701393723
100.416961908
100.796922445
100.400441885
101.267743111
101.304913163
100.834092498
100.404571891
100.854742527
100.400441885
100.813442469
100.834092498
100.834092498
100.404571891
100.400441885
101.717913747
101.267743111
101.6848737
100.834092498
101.251223087
100.400441885
101.6848737
100.433481932
101.218183041
100.437611938

Block: 6
======================================
101.300783157
100.850612521
100.421091914
100.834092498
101.701393723
100.817572474
101.267743111
100.421091914
100.796922445
101.230573058
100.817572474
101.701393723
100.416961908
100.416961908
101.701393723
100.400441885
101.284263134
100.817572474
100.416961908
100.834092498
100.801052451
100.454131961
100.416961908
101.284263134
100.834092498
100.416961908
100.400441885
101.234703064
100.801052451
100.834092498
100.834092498
100.421091914
100.400441885
100.383921862
100.421091914
100.834092498
100.400441885
100.87126255
100.421091914
100.416961908
100.400441885
100.400441885
101.717913747
100.400441885
100.421091914
100.854742527
100.817572474
101.284263134
100.421091914
100.421091914
100.400441885
100.834092498
100.450001955
100.416961908
100.416961908
101.300783157
100.817572474
101.251223087
100.834092498
100.834092498
100.796922445
100.383921862
100.813442469
100.817572474
100.433481932
101.267743111
100.437611938
100.437611938
100.433481932
100.813442469
100.817572474
100.834092498
100.834092498
100.437611938
101.284263134
100.87126255
101.267743111
100.400441885
100.400441885
100.437611938
100.400441885
101.218183041
100.450001955
101.73443377
100.834092498
100.416961908
100.416961908
100.817572474
100.801052451
100.780402422
100.383921862
100.400441885
100.400441885
100.834092498
100.400441885
100.433481932
100.421091914
100.416961908
100.801052451
101.214053035

Block: 7
======================================
100.383921862
100.850612521
100.834092498
101.251223087
100.834092498
100.817572474
100.421091914
100.437611938
100.400441885
101.6848737
101.251223087
100.416961908
100.437611938
101.267743111
99.9337512255
100.433481932
100.834092498
100.400441885
100.433481932
100.416961908
100.433481932
100.383921862
100.817572474
100.817572474
100.813442469
100.834092498
100.404571891
100.400441885
100.834092498
101.680743694
100.813442469
100.437611938
100.838222504
100.834092498
100.834092498
100.817572474
100.854742527
100.801052451
100.834092498
100.817572474
101.234703064
100.437611938
101.234703064
100.416961908
100.416961908
100.416961908
100.433481932
100.433481932
100.421091914
101.680743694
100.400441885
100.383921862
101.284263134
100.383921862
100.400441885
100.850612521
100.817572474
100.834092498
100.834092498
101.664223671
100.433481932
100.404571891
100.817572474
100.817572474
101.263613105
100.801052451
100.416961908
100.801052451
100.433481932
100.433481932
100.854742527
100.87126255
101.680743694
101.680743694
100.801052451
100.400441885
100.817572474
100.400441885
100.400441885
100.817572474
100.437611938
100.834092498
100.850612521
100.817572474
101.267743111
100.867132545
100.817572474
100.834092498
100.433481932
100.834092498
101.267743111
100.796922445
100.416961908
100.850612521
100.416961908
100.834092498
100.437611938
100.834092498
100.813442469
100.416961908

Block: 8
======================================
100.867132545
100.801052451
101.267743111
100.404571891
101.701393723
100.796922445
100.416961908
100.817572474
100.817572474
100.801052451
100.433481932
100.834092498
101.218183041
100.801052451
101.267743111
100.433481932
100.817572474
101.284263134
100.437611938
100.416961908
100.834092498
100.421091914
101.251223087
100.850612521
100.817572474
100.433481932
100.416961908
100.850612521
100.850612521
100.416961908
100.454131961
101.680743694
100.404571891
100.801052451
101.247093081
100.437611938
101.680743694
100.87126255
100.437611938
100.834092498
100.416961908
101.701393723
100.834092498
100.834092498
100.817572474
100.817572474
100.834092498
100.433481932
101.697263718
101.680743694
100.834092498
101.218183041
100.400441885
100.400441885
100.383921862
100.784532428
101.251223087
100.400441885
100.817572474
100.383921862
100.421091914
100.796922445
100.433481932
100.817572474
100.421091914
100.433481932
100.854742527
100.400441885
100.834092498
100.421091914
100.383921862
100.421091914
101.680743694
100.813442469
100.813442469
100.817572474
100.854742527
100.400441885
101.6848737
100.400441885
100.801052451
100.784532428
100.416961908
100.834092498
100.416961908
100.834092498
101.680743694
100.416961908
100.416961908
100.400441885
100.421091914
100.421091914
101.701393723
100.437611938
100.817572474
100.421091914
100.834092498
100.404571891
100.817572474
100.416961908

Block: 9
======================================
100.854742527
100.850612521
101.304913163
100.416961908
100.867132545
100.437611938
100.796922445
101.701393723
100.437611938
100.437611938
100.400441885
101.214053035
100.817572474
100.817572474
100.87126255
100.817572474
100.437611938
100.850612521
100.416961908
101.680743694
101.6848737
100.416961908
100.400441885
100.817572474
101.284263134
100.817572474
100.817572474
100.850612521
101.701393723
101.6848737
101.73443377
101.267743111
100.437611938
100.850612521
100.834092498
100.817572474
100.421091914
100.817572474
101.284263134
101.247093081
100.400441885
101.701393723
100.454131961
100.813442469
100.433481932
101.234703064
100.813442469
100.421091914
100.817572474
100.834092498
100.454131961
100.780402422
100.400441885
101.251223087
100.421091914
100.437611938
101.6848737
100.850612521
100.780402422
100.817572474
101.234703064
101.267743111
101.251223087
100.801052451
100.834092498
100.383921862
100.437611938
100.437611938
100.817572474
100.416961908
100.416961908
100.416961908
100.437611938
100.454131961
100.421091914
100.850612521
100.850612521
100.854742527
100.850612521
100.796922445
100.817572474
100.834092498
101.267743111
100.780402422
101.230573058
100.400441885
101.181012988
100.834092498
100.834092498
100.416961908
100.450001955
101.354473233
100.437611938
100.400441885
100.813442469
100.454131961
100.416961908
101.218183041
101.680743694
101.717913747

Block: 10
======================================
100.867132545
101.701393723
101.664223671
101.284263134
101.664223671
101.6848737
100.801052451
100.838222504
100.801052451
100.433481932
100.834092498
100.421091914
101.28839314
100.400441885
100.454131961
100.421091914
101.408163309
101.28839314
100.416961908
101.717913747
100.416961908
101.697263718
100.437611938
100.817572474
100.817572474
101.230573058
100.383921862
100.801052451
100.780402422
101.267743111
100.437611938
101.73443377
101.251223087
100.421091914
100.854742527
100.834092498
100.850612521
101.73443377
100.854742527
100.817572474
100.433481932
101.284263134
100.454131961
100.400441885
100.470651984
101.218183041
100.834092498
100.437611938
100.421091914
100.834092498
100.487172008
100.433481932
100.433481932
100.834092498
100.433481932
101.284263134
100.400441885
100.834092498
100.437611938
100.834092498
100.421091914
100.817572474
101.73443377
100.834092498
100.437611938
100.433481932
101.267743111
100.400441885
100.817572474
100.644112229
100.433481932
100.817572474
100.854742527
100.817572474
100.400441885
100.834092498
100.416961908
100.416961908
101.284263134
100.454131961
100.450001955
100.437611938
101.284263134
101.267743111
100.400441885
100.404571891
100.416961908
100.421091914
100.416961908
101.284263134
101.247093081
100.834092498
100.834092498
101.251223087
100.383921862
100.470651984
100.433481932
100.416961908
100.834092498
101.234703064
