
Block: 1
======================================
401.076814055
400.619919252
401.485189056
400.619919252
400.640135837
401.517535591
400.652265787
401.044467521
401.060640788
401.586271977
400.63609252
400.63609252
400.640135837
401.060640788
401.076814055
400.619919252
400.63609252
400.619919252
401.517535591
400.656309104
402.366632128
401.129377174
401.161723709
400.640135837
401.076814055

Block: 2
======================================
401.060640788
401.925910592
400.704828906
401.521578908
401.076814055
401.060640788
400.619919252
400.619919252
401.521578908
401.076814055
400.704828906
401.064684105
401.586271977
400.652265787
401.060640788
401.09703064
400.721002173
400.668439054
400.195370984
400.640135837
400.63609252
400.211544251
400.247934103
400.199414301
400.199414301

Block: 3
======================================
400.211544251
400.227717519
400.195370984
401.925910592
401.060640788
400.640135837
400.72504549
401.092987323
401.09703064
400.619919252
400.619919252
400.619919252
401.145550442
400.652265787
400.640135837
401.958257127
400.721002173
401.145550442
400.619919252
401.09703064
400.619919252
401.501362324
401.501362324
401.080857372
401.080857372

Block: 4
======================================
401.57009871
400.656309104
400.668439054
400.652265787
401.533708858
401.076814055
400.652265787
402.026993513
400.640135837
401.10916059
401.129377174
401.129377174
400.672482371
401.092987323
400.656309104
401.129377174
401.517535591
402.398978662
402.823526931
401.537752175
401.537752175
402.807353663
401.533708858
401.060640788
401.149593759

Block: 5
======================================
400.688655639
400.688655639
401.10916059
400.668439054
400.672482371
400.688655639
401.125333858
401.606488562
400.741218758
400.753348708
401.198113561
400.757392025
401.129377174
400.26410737
400.890821481
400.300497222
400.280280638
400.26410737
400.26410737
401.57009871
400.280280638
400.704828906
400.247934103
400.78973856
400.280280638

Block: 6
======================================
400.26410737
400.721002173
400.280280638
400.773565292
400.26410737
400.26410737
400.280280638
400.349017024
401.57009871
400.704828906
400.332843757
400.721002173
400.26410737
400.284323955
400.296453905
400.32880044
400.26410737
400.668439054
400.280280638
400.280280638
400.757392025
400.312627172
400.26410737
400.316670489
400.247934103

Block: 7
======================================
400.211544251
400.300497222
400.721002173
400.243890786
400.312627172
400.247934103
400.247934103
400.312627172
400.296453905
400.652265787
400.211544251
400.243890786
400.684612322
400.280280638
400.231760836
400.668439054
400.316670489
400.231760836
400.247934103
400.704828906
400.684612322
400.704828906
400.231760836
401.962300444
400.704828906

Block: 8
======================================
400.247934103
400.704828906
401.129377174
400.741218758
400.652265787
400.231760836
400.684612322
400.227717519
400.231760836
401.533708858
400.231760836
400.211544251
400.672482371
400.247934103
400.231760836
400.668439054
400.195370984
401.10916059
400.211544251
400.296453905
400.247934103
400.280280638
400.688655639
400.231760836
400.227717519

Block: 9
======================================
400.704828906
401.57009871
400.753348708
400.211544251
400.704828906
400.652265787
400.63609252
400.656309104
400.619919252
400.211544251
400.668439054
400.672482371
400.656309104
400.721002173
400.63609252
400.656309104
400.672482371
400.672482371
400.721002173
400.656309104
400.668439054
400.672482371
400.721002173
400.737175441
400.688655639

Block: 10
======================================
401.145550442
400.652265787
400.652265787
400.652265787
401.076814055
401.092987323
401.113203907
400.652265787
401.076814055
401.080857372
401.076814055
401.521578908
401.521578908
400.640135837
401.501362324
401.533708858
401.586271977
401.165767026
401.517535591
401.145550442
401.521578908
401.485189056
401.521578908
401.501362324
401.044467521
