
Block: 1
======================================
400.704828906
401.09703064
400.753348708
401.129377174
401.161723709
401.533708858
401.181940293
400.656309104
401.181940293
400.656309104
401.549882126
401.09703064
401.076814055
401.553925443
401.076814055
401.57009871
401.161723709
401.946127176
401.537752175
401.10916059
400.63609252
401.942083859
400.619919252
401.092987323
400.63609252
401.113203907
401.076814055
401.092987323
401.113203907
401.125333858
401.092987323
401.129377174
401.060640788
401.060640788
401.092987323
401.125333858
401.060640788
401.09703064
400.640135837
401.521578908
401.060640788
401.521578908
400.63609252
401.092987323
401.161723709
401.537752175
401.060640788
401.549882126
401.092987323
401.521578908
401.076814055
401.092987323
401.553925443
401.978473711
400.652265787
400.652265787
401.177896976
400.63609252
400.623962569
401.942083859
401.586271977
400.640135837
401.060640788
401.076814055
401.076814055
401.076814055
400.652265787
401.09703064
401.533708858
401.533708858
400.652265787
401.076814055
401.501362324
401.537752175
401.092987323
401.09703064
401.092987323
401.57009871
401.537752175
401.586271977
400.63609252
401.537752175
400.672482371
401.076814055
401.533708858
400.737175441
400.656309104
400.672482371
400.721002173
401.080857372
400.704828906
400.656309104
400.72504549
400.652265787
400.211544251
401.113203907
400.688655639
400.656309104
400.668439054
401.09703064

Block: 2
======================================
401.161723709
401.129377174
400.656309104
400.652265787
400.619919252
401.09703064
400.656309104
400.668439054
400.652265787
401.537752175
400.672482371
400.243890786
400.684612322
401.553925443
401.517535591
401.113203907
401.113203907
401.161723709
401.10916059
400.688655639
400.672482371
400.668439054
400.247934103
401.177896976
401.129377174
401.537752175
401.10916059
400.652265787
400.656309104
400.668439054
400.231760836
400.652265787
400.652265787
400.672482371
400.63609252
400.704828906
400.72504549
400.652265787
400.656309104
400.721002173
400.704828906
401.092987323
400.63609252
400.737175441
400.652265787
400.640135837
400.619919252
401.080857372
401.092987323
401.076814055
401.076814055
400.684612322
400.72504549
401.060640788
401.076814055
400.63609252
401.060640788
401.080857372
401.942083859
401.076814055
400.619919252
401.060640788
401.064684105
401.040424204
401.060640788
400.619919252
401.505405641
400.619919252
400.640135837
401.501362324
401.553925443
401.113203907
401.024250937
401.501362324
401.994646978
401.469015789
401.485189056
401.942083859
402.35045886
401.485189056
401.925910592
401.501362324
401.566055393
402.791180396
402.366632128
401.501362324
401.076814055
402.010820246
401.076814055
401.505405641
401.517535591
401.076814055
401.076814055
401.129377174
401.129377174
401.602445245
401.076814055
401.060640788
401.076814055
401.145550442

Block: 3
======================================
400.619919252
401.076814055
401.161723709
401.113203907
401.942083859
401.076814055
401.076814055
401.586271977
401.553925443
401.076814055
402.823526931
400.656309104
400.63609252
401.092987323
400.656309104
401.537752175
401.161723709
401.517535591
401.57009871
401.060640788
401.060640788
401.044467521
401.076814055
401.517535591
401.060640788
401.060640788
402.366632128
401.092987323
401.060640788
401.145550442
401.517535591
401.060640788
401.517535591
401.145550442
401.10916059
401.076814055
401.060640788
401.521578908
401.517535591
401.533708858
401.521578908
401.521578908
401.602445245
401.09703064
401.10916059
400.721002173
400.656309104
400.672482371
401.09703064
401.092987323
400.652265787
401.145550442
401.09703064
401.076814055
401.533708858
400.656309104
400.668439054
401.521578908
402.382805395
401.177896976
400.656309104
401.092987323
401.521578908
401.09703064
400.652265787
400.652265787
401.113203907
402.403021979
400.652265787
400.672482371
401.586271977
400.672482371
401.092987323
401.092987323
401.113203907
401.092987323
401.113203907
400.668439054
400.688655639
400.688655639
400.211544251
400.688655639
400.688655639
400.652265787
401.113203907
400.652265787
400.688655639
400.672482371
401.09703064
400.656309104
401.10916059
400.652265787
400.672482371
400.247934103
400.757392025
401.129377174
400.672482371
400.688655639
400.231760836
401.129377174

Block: 4
======================================
400.688655639
400.688655639
400.227717519
400.243890786
400.227717519
400.688655639
400.672482371
400.688655639
400.688655639
400.684612322
401.113203907
400.757392025
400.231760836
400.737175441
400.672482371
400.684612322
400.737175441
401.978473711
401.994646978
401.129377174
400.741218758
401.113203907
400.737175441
400.231760836
401.092987323
400.63609252
401.092987323
400.656309104
400.672482371
400.656309104
401.517535591
400.78973856
400.672482371
400.688655639
401.521578908
400.672482371
400.656309104
400.737175441
401.113203907
400.688655639
400.72504549
401.092987323
400.227717519
400.63609252
400.721002173
400.672482371
400.63609252
401.092987323
400.656309104
401.09703064
400.704828906
400.227717519
400.652265787
400.672482371
401.958257127
401.113203907
401.080857372
400.672482371
400.215587568
400.231760836
400.672482371
400.672482371
400.704828906
400.231760836
400.672482371
401.161723709
400.672482371
400.672482371
400.247934103
400.684612322
401.113203907
400.227717519
400.704828906
400.227717519
400.672482371
400.721002173
400.672482371
400.688655639
400.672482371
400.247934103
401.125333858
400.672482371
400.688655639
401.622661829
400.668439054
400.656309104
400.688655639
400.704828906
401.113203907
402.435368514
400.247934103
401.181940293
400.688655639
400.26410737
400.688655639
401.10916059
401.549882126
401.113203907
400.684612322
401.553925443

Block: 5
======================================
400.688655639
401.57009871
401.145550442
400.688655639
401.113203907
400.684612322
401.622661829
401.092987323
401.57009871
401.537752175
401.161723709
400.672482371
400.668439054
401.10916059
401.09703064
401.092987323
400.688655639
401.129377174
401.974430394
401.129377174
400.688655639
400.737175441
401.129377174
401.129377174
401.145550442
401.129377174
401.145550442
401.113203907
401.125333858
401.113203907
400.652265787
401.113203907
401.129377174
401.09703064
401.129377174
400.652265787
401.09703064
401.10916059
401.129377174
401.161723709
401.113203907
401.092987323
400.72504549
400.668439054
400.656309104
400.668439054
401.161723709
400.672482371
400.668439054
400.656309104
401.129377174
401.076814055
400.672482371
401.10916059
401.129377174
401.10916059
401.125333858
400.672482371
400.63609252
400.672482371
401.09703064
401.129377174
401.10916059
400.672482371
400.672482371
401.553925443
401.10916059
400.688655639
400.672482371
401.129377174
400.668439054
400.757392025
400.704828906
400.688655639
400.688655639
400.668439054
400.704828906
400.688655639
400.704828906
402.41515193
400.672482371
401.194070244
400.688655639
400.704828906
400.704828906
400.704828906
400.672482371
400.704828906
400.688655639
400.688655639
400.688655639
400.231760836
400.684612322
401.553925443
400.332843757
400.280280638
400.704828906
401.145550442
401.181940293
400.72504549

Block: 6
======================================
400.26410737
400.688655639
400.704828906
400.231760836
400.704828906
400.668439054
400.247934103
401.125333858
400.72504549
400.312627172
400.26410737
400.231760836
401.129377174
400.247934103
401.113203907
401.145550442
400.688655639
400.672482371
400.247934103
400.672482371
400.773565292
400.704828906
400.753348708
401.57009871
400.721002173
401.129377174
401.125333858
400.773565292
400.243890786
400.704828906
400.704828906
400.704828906
400.26410737
400.773565292
401.129377174
400.773565292
400.688655639
400.688655639
400.704828906
400.672482371
400.284323955
400.688655639
400.296453905
400.688655639
401.181940293
400.688655639
400.247934103
400.672482371
401.129377174
400.227717519
400.247934103
401.092987323
400.247934103
400.26410737
400.231760836
400.668439054
400.656309104
400.231760836
400.247934103
400.737175441
400.227717519
400.63609252
400.656309104
400.247934103
400.672482371
400.656309104
400.640135837
400.63609252
401.092987323
400.656309104
400.227717519
400.721002173
400.672482371
400.652265787
400.672482371
400.672482371
400.63609252
401.10916059
400.656309104
400.195370984
400.63609252
401.161723709
400.668439054
400.195370984
400.63609252
400.63609252
400.26410737
400.63609252
400.656309104
400.63609252
400.195370984
400.63609252
400.640135837
400.199414301
400.63609252
400.195370984
400.211544251
400.195370984
400.640135837
400.179197717

Block: 7
======================================
400.587572718
401.113203907
401.469015789
400.672482371
401.501362324
400.619919252
401.040424204
401.060640788
401.076814055
401.060640788
401.060640788
400.619919252
401.060640788
400.688655639
400.672482371
400.684612322
400.603745985
401.060640788
401.044467521
401.060640788
400.619919252
400.623962569
400.668439054
401.044467521
400.179197717
401.044467521
401.060640788
401.080857372
401.517535591
401.076814055
400.668439054
400.619919252
401.060640788
400.688655639
400.587572718
401.044467521
400.619919252
401.905694008
400.603745985
401.553925443
401.533708858
400.619919252
400.603745985
401.060640788
401.044467521
401.044467521
401.060640788
401.09703064
400.672482371
400.619919252
400.619919252
400.619919252
401.044467521
401.044467521
401.060640788
401.060640788
401.060640788
401.501362324
401.060640788
401.064684105
400.619919252
401.517535591
401.501362324
401.57009871
401.537752175
401.044467521
400.603745985
400.619919252
401.501362324
400.603745985
400.623962569
400.603745985
401.501362324
401.044467521
401.501362324
401.469015789
401.501362324
401.485189056
401.485189056
401.040424204
401.485189056
401.553925443
401.044467521
403.231901932
401.974430394
401.028294253
401.044467521
401.060640788
401.044467521
401.925910592
401.469015789
401.024250937
401.092987323
401.485189056
401.028294253
401.469015789
401.485189056
401.469015789
401.012120986
401.893564057

Block: 8
======================================
401.448799205
401.958257127
402.318112326
401.432625937
401.889520741
402.318112326
402.297895741
401.909737325
401.909737325
401.942083859
401.893564057
401.873347473
401.958257127
401.87739079
401.448799205
401.909737325
401.452842522
401.452842522
401.452842522
402.334285593
401.893564057
401.893564057
401.909737325
401.905694008
401.889520741
401.893564057
401.452842522
401.889520741
401.905694008
402.366632128
401.044467521
401.469015789
401.024250937
401.909737325
403.199555397
401.925910592
401.485189056
401.909737325
401.553925443
401.485189056
401.925910592
401.064684105
401.469015789
401.549882126
401.57009871
401.044467521
401.044467521
401.113203907
401.517535591
401.028294253
401.113203907
401.064684105
401.485189056
401.501362324
401.501362324
401.060640788
401.060640788
401.060640788
401.925910592
401.485189056
401.501362324
401.10916059
401.485189056
401.028294253
401.060640788
401.57009871
401.485189056
401.501362324
401.060640788
400.63609252
400.63609252
400.63609252
400.619919252
401.076814055
400.619919252
401.09703064
400.63609252
400.63609252
400.63609252
401.978473711
400.619919252
401.076814055
401.537752175
400.656309104
400.672482371
400.704828906
400.656309104
400.672482371
401.076814055
400.721002173
400.652265787
400.652265787
401.533708858
400.652265787
400.640135837
400.652265787
400.668439054
400.72504549
400.640135837
400.672482371

Block: 9
======================================
400.688655639
400.603745985
400.640135837
400.63609252
400.63609252
401.165767026
400.63609252
400.619919252
401.145550442
401.076814055
401.060640788
400.684612322
401.537752175
401.076814055
401.517535591
400.652265787
400.63609252
400.640135837
400.672482371
400.704828906
401.537752175
400.704828906
400.704828906
400.619919252
400.721002173
400.704828906
400.63609252
400.63609252
400.668439054
400.619919252
401.076814055
401.060640788
401.129377174
401.080857372
400.63609252
400.63609252
400.619919252
400.619919252
400.619919252
400.63609252
400.652265787
401.076814055
400.63609252
400.195370984
401.080857372
400.619919252
401.09703064
400.63609252
400.280280638
401.076814055
400.652265787
400.63609252
401.076814055
400.603745985
400.619919252
400.619919252
401.080857372
400.619919252
400.619919252
400.195370984
401.080857372
400.195370984
400.640135837
400.672482371
400.603745985
400.652265787
400.195370984
400.688655639
401.080857372
401.076814055
400.179197717
400.603745985
400.63609252
400.179197717
401.044467521
401.060640788
400.603745985
400.603745985
401.080857372
400.603745985
400.599702668
401.024250937
401.028294253
400.619919252
400.619919252
400.603745985
400.603745985
401.044467521
401.113203907
400.619919252
401.044467521
400.619919252
400.603745985
401.076814055
400.672482371
400.603745985
401.044467521
401.48114574
401.925910592
400.599702668

Block: 10
======================================
401.028294253
401.080857372
401.012120986
401.113203907
401.092987323
401.044467521
401.113203907
401.129377174
400.63609252
400.63609252
401.064684105
400.587572718
400.619919252
400.640135837
400.63609252
401.076814055
401.145550442
401.064684105
402.807353663
401.080857372
401.590315294
400.656309104
401.060640788
400.672482371
401.076814055
401.533708858
401.501362324
401.080857372
401.537752175
401.076814055
401.092987323
400.656309104
400.668439054
401.533708858
401.076814055
401.533708858
401.076814055
401.076814055
401.533708858
401.09703064
401.533708858
400.63609252
401.076814055
401.537752175
401.517535591
401.161723709
401.113203907
401.10916059
401.161723709
401.092987323
401.092987323
401.161723709
401.994646978
401.076814055
401.076814055
401.622661829
401.57009871
401.10916059
401.076814055
401.09703064
401.113203907
401.10916059
401.113203907
401.092987323
401.57009871
401.10916059
401.113203907
401.113203907
401.092987323
400.672482371
401.198113561
401.10916059
401.177896976
400.668439054
401.113203907
401.092987323
400.688655639
400.688655639
400.672482371
400.688655639
401.181940293
400.688655639
401.602445245
400.688655639
400.688655639
400.721002173
401.113203907
401.092987323
401.129377174
401.181940293
401.590315294
401.553925443
401.177896976
401.57009871
401.145550442
400.688655639
401.63479178
401.57009871
401.994646978
400.773565292
