
Block: 1
======================================
50.2468436003
50.2468436003
50.2674213886
50.2838836193
50.6789771557

Block: 2
======================================
50.30034585
50.2838836193
50.6830927134
50.2468436003
50.7324794054

Block: 3
======================================
50.30034585
50.2674213886
50.3168080807
50.662514925
50.2344969273

Block: 4
======================================
50.3209236383
50.7324794054
50.7489416361
50.2838836193
50.30034585

Block: 5
======================================
50.7489416361
50.699554944
50.7489416361
50.7365949631
50.7160171747

Block: 6
======================================
50.2509591579
50.30034585
50.7489416361
50.2838836193
50.2838836193

Block: 7
======================================
50.6954393864
50.2838836193
50.7530571938
50.2838836193
50.7324794054

Block: 8
======================================
50.30034585
50.3209236383
50.7489416361
50.3044614077
50.2838836193

Block: 9
======================================
50.2838836193
50.337385869
50.263305831
50.3209236383
50.2838836193

Block: 10
======================================
50.2838836193
50.3044614077
50.2838836193
50.3168080807
50.30034585
