
Block: 1
======================================
50.3044614077
50.337385869
50.7489416361
50.7160171747
50.662514925
50.7324794054
50.30034585
50.7489416361
50.7324794054
50.3044614077

Block: 2
======================================
50.7324794054
50.7489416361
50.6666304827
50.6954393864
50.3332703114
50.30034585
50.30034585
50.2674213886
50.30034585
50.3168080807

Block: 3
======================================
50.2674213886
50.7324794054
50.7324794054
50.2674213886
50.3209236383
50.337385869
50.3538480997
50.30034585
50.30034585
50.3168080807

Block: 4
======================================
50.2838836193
50.7324794054
50.3168080807
50.2838836193
50.2674213886
50.2838836193
50.2674213886
50.2674213886
50.30034585
50.3209236383

Block: 5
======================================
50.2838836193
50.2674213886
50.3168080807
50.2674213886
50.263305831
50.7160171747
50.7324794054
50.699554944
50.263305831
50.6789771557

Block: 6
======================================
50.30034585
50.2674213886
50.337385869
50.30034585
50.7489416361
50.7160171747
50.2838836193
50.7489416361
50.3168080807
50.6954393864

Block: 7
======================================
50.7324794054
50.6830927134
50.2674213886
50.2468436003
50.2838836193
50.30034585
50.30034585
50.2838836193
50.2509591579
50.2838836193

Block: 8
======================================
50.263305831
50.30034585
50.2838836193
50.2509591579
50.2838836193
50.6954393864
50.6830927134
50.3044614077
50.699554944
50.2838836193

Block: 9
======================================
50.7160171747
50.2674213886
50.2838836193
50.6460526943
50.2838836193
50.2674213886
50.2838836193
50.2509591579
50.2838836193
50.2838836193

Block: 10
======================================
50.263305831
50.2674213886
50.2838836193
50.30034585
50.2674213886
50.7324794054
50.6666304827
50.2674213886
50.2838836193
50.30034585
