
Block: 1
======================================
101.247093081
100.363271832
100.367401838
100.454131961
100.834092498

Block: 2
======================================
100.801052451
100.383921862
100.817572474
100.367401838
100.834092498

Block: 3
======================================
100.817572474
100.400441885
100.834092498
100.437611938
100.834092498

Block: 4
======================================
101.251223087
100.346751809
100.834092498
100.363271832
100.416961908

Block: 5
======================================
101.267743111
100.404571891
100.850612521
100.400441885
100.437611938

Block: 6
======================================
100.416961908
101.234703064
100.817572474
100.433481932
100.817572474

Block: 7
======================================
101.267743111
100.454131961
100.383921862
100.421091914
100.416961908

Block: 8
======================================
101.214053035
100.404571891
100.416961908
100.400441885
100.400441885

Block: 9
======================================
101.251223087
100.450001955
100.784532428
100.400441885
100.850612521

Block: 10
======================================
100.421091914
100.421091914
100.817572474
100.416961908
100.416961908
