
Block: 1
======================================
301.524630737
300.654723072
301.508370781
300.605943203
301.081546926
300.605943203
300.605943203
301.06528697
301.492110825
300.638463116
300.622203159
300.622203159
301.06528697
300.622203159
301.081546926
301.097806883
301.967714548
300.605943203
300.605943203
300.622203159
301.028702068
300.638463116
300.638463116
300.605943203
300.622203159
300.691307974
300.605943203
300.670983028
301.06528697
300.622203159
301.081546926
300.622203159
300.601878214
300.638463116
300.622203159
300.638463116
300.638463116
301.150651741
300.638463116
301.101871872
300.622203159
301.544955683
300.605943203
300.691307974
300.622203159
300.601878214
300.675048018
300.605943203
301.951454592
301.134391785
301.06528697
301.06528697
300.622203159
300.605943203
301.524630737
301.524630737
301.085611916
300.605943203
300.622203159
301.085611916
300.622203159
301.049027014
300.605943203
300.638463116
301.508370781
301.524630737
301.524630737
301.524630737
301.081546926
300.622203159
300.622203159
300.622203159
300.691307974
301.528695726
300.605943203

Average distance is : 300.897 cm
Average deviation is : 0.376 cm
Block: 2
======================================
300.622203159
300.638463116
300.605943203
300.622203159
301.524630737
301.118131828
301.134391785
300.622203159
300.687242985
301.524630737
300.691307974
301.528695726
300.605943203
301.06528697
300.691307974
301.06528697
301.130326796
300.670983028
301.508370781
301.386421108
300.638463116
301.508370781
301.081546926
300.622203159
301.081546926
301.06528697
300.622203159
301.06528697
300.605943203
300.622203159
300.622203159
300.70756793
301.069351959
300.638463116
301.081546926
301.118131828
300.622203159
300.622203159
300.622203159
300.622203159
301.508370781
301.508370781
300.622203159
300.642528105
300.642528105
300.670983028
300.622203159
300.670983028
301.081546926
301.06528697
301.508370781
300.687242985
300.622203159
300.638463116
300.605943203
301.06528697
300.605943203
300.622203159
300.670983028
300.601878214
301.049027014
300.622203159
300.622203159
300.605943203
300.622203159
300.605943203
301.06528697
300.622203159
301.06528697
301.081546926
300.670983028
300.601878214
301.134391785
300.622203159
301.918934679

Average distance is : 300.875 cm
Average deviation is : 0.332 cm
Block: 3
======================================
301.51243577
301.06528697
301.492110825
300.70756793
300.622203159
300.622203159
300.622203159
301.032767057
301.049027014
301.06528697
300.622203159
300.605943203
301.081546926
300.589683247
300.589683247
300.601878214
300.622203159
300.622203159
300.622203159
301.081546926
301.081546926
300.622203159
300.589683247
301.049027014
300.70756793
301.06528697
300.601878214
300.622203159
301.081546926
301.101871872
300.605943203
300.601878214
300.670983028
300.605943203
301.081546926
300.638463116
301.081546926
300.622203159
300.622203159
301.06528697
301.134391785
301.044962025
301.150651741
300.601878214
301.06528697
301.081546926
301.06528697
300.605943203
300.622203159
300.601878214
301.114066839
300.622203159
301.524630737
300.638463116
300.622203159
301.524630737
300.687242985
300.670983028
300.622203159
301.081546926
300.622203159
301.06528697
300.622203159
300.605943203
301.049027014
301.06528697
300.70756793
301.06528697
301.049027014
301.06528697
301.06528697
301.06528697
301.049027014
300.605943203
301.06528697

Average distance is : 300.864 cm
Average deviation is : 0.269 cm
Block: 4
======================================
300.601878214
300.638463116
300.622203159
300.622203159
301.06528697
301.044962025
300.605943203
300.622203159
300.675048018
301.118131828
300.622203159
300.605943203
300.622203159
300.622203159
301.085611916
300.605943203
300.605943203
300.605943203
301.081546926
300.691307974
301.081546926
301.134391785
300.622203159
301.524630737
301.06528697
300.691307974
300.642528105
301.508370781
301.561215639
300.70756793
300.654723072
301.06528697
301.081546926
300.622203159
300.658788061
301.044962025
301.049027014
300.691307974
300.691307974
300.622203159
300.70756793
301.085611916
301.593735552
300.605943203
300.622203159
300.622203159
300.605943203
300.622203159
300.638463116
300.622203159
301.081546926
300.638463116
301.06528697
300.622203159
301.081546926
300.622203159
301.55715065
300.638463116
300.622203159
301.081546926
301.06528697
301.097806883
300.622203159
301.524630737
301.951454592
300.622203159
301.081546926
300.638463116
300.654723072
300.605943203
300.670983028
300.601878214
301.134391785
300.675048018
301.06528697

Average distance is : 300.856 cm
Average deviation is : 0.317 cm
Block: 5
======================================
301.081546926
300.70756793
301.524630737
301.049027014
301.06528697
300.605943203
300.605943203
300.622203159
301.06528697
301.508370781
301.06528697
301.081546926
301.044962025
300.622203159
300.605943203
300.601878214
301.935194635
301.081546926
300.70756793
300.605943203
300.675048018
301.081546926
301.081546926
301.06528697
301.06528697
301.524630737
301.540890694
301.081546926
301.081546926
300.622203159
300.638463116
300.601878214
300.638463116
300.605943203
300.622203159
301.528695726
301.524630737
300.691307974
301.085611916
300.605943203
300.622203159
301.049027014
301.049027014
300.622203159
301.101871872
300.70756793
300.70756793
301.081546926
301.049027014
301.081546926
301.081546926
300.691307974
301.06528697
301.06528697
301.049027014
301.049027014
301.06528697
301.06528697
300.601878214
300.670983028
300.638463116
301.06528697
300.605943203
300.589683247
301.06528697
301.049027014
301.951454592
300.691307974
301.508370781
301.540890694
300.638463116
301.508370781
301.06528697
301.06528697
300.622203159

Average distance is : 300.968 cm
Average deviation is : 0.337 cm
Block: 6
======================================
301.544955683
301.049027014
300.622203159
300.642528105
300.654723072
301.049027014
300.605943203
300.675048018
300.589683247
300.605943203
300.642528105
300.605943203
300.622203159
300.675048018
301.134391785
301.06528697
300.622203159
300.601878214
300.622203159
300.605943203
301.06528697
301.118131828
301.06528697
300.585618258
300.622203159
300.654723072
300.622203159
300.622203159
300.622203159
301.081546926
300.622203159
300.638463116
301.492110825
300.622203159
300.622203159
301.508370781
301.081546926
300.605943203
301.049027014
300.601878214
300.622203159
301.06528697
300.605943203
301.134391785
300.605943203
301.085611916
300.622203159
301.06528697
301.06528697
300.622203159
301.06528697
301.06528697
301.06528697
300.605943203
301.508370781
301.06528697
301.06528697
301.06528697
300.622203159
301.085611916
300.622203159
300.622203159
301.06528697
301.081546926
301.118131828
300.605943203
300.622203159
301.081546926
301.081546926
300.605943203
300.622203159
300.605943203
301.081546926
300.605943203
301.06528697

Average distance is : 300.844 cm
Average deviation is : 0.273 cm
Block: 7
======================================
300.691307974
301.508370781
301.540890694
301.081546926
301.06528697
301.06528697
301.540890694
301.544955683
300.70756793
300.622203159
300.622203159
300.691307974
301.081546926
301.524630737
300.622203159
300.48399353
301.06528697
300.622203159
300.638463116
301.044962025
300.691307974
300.605943203
301.085611916
301.524630737
300.691307974
300.642528105
301.508370781
301.081546926
301.524630737
301.081546926
300.687242985
300.622203159
300.622203159
301.081546926
301.06528697
301.06528697
301.049027014
301.06528697
301.085611916
300.622203159
300.622203159
301.081546926
300.622203159
300.622203159
301.593735552
301.081546926
300.601878214
301.540890694
300.691307974
301.081546926
301.06528697
301.593735552
301.06528697
301.06528697
301.06528697
301.577475595
300.638463116
300.61813817
301.06528697
301.06528697
301.06528697
301.524630737
300.622203159
301.06528697
300.622203159
301.081546926
300.622203159
300.622203159
301.06528697
301.540890694
301.081546926
301.06528697
301.06528697
301.06528697
301.081546926

Average distance is : 300.996 cm
Average deviation is : 0.330 cm
Block: 8
======================================
301.524630737
301.06528697
301.032767057
300.670983028
301.085611916
301.044962025
300.605943203
301.049027014
301.049027014
301.06528697
301.06528697
301.06528697
301.06528697
300.691307974
300.638463116
300.601878214
300.605943203
300.605943203
301.081546926
301.06528697
301.049027014
301.081546926
301.524630737
301.508370781
301.06528697
301.524630737
301.06528697
301.524630737
300.622203159
301.508370781
300.585618258
301.049027014
301.524630737
301.081546926
300.622203159
300.622203159
300.605943203
301.049027014
301.049027014
300.585618258
300.601878214
301.081546926
301.049027014
301.049027014
300.601878214
300.585618258
300.585618258
301.049027014
301.134391785
301.06528697
301.06528697
300.605943203
301.524630737
301.06528697
300.670983028
301.049027014
301.528695726
301.508370781
300.605943203
300.622203159
301.049027014
300.601878214
301.524630737
300.605943203
300.605943203
301.524630737
301.06528697
300.585618258
301.508370781
301.524630737
301.528695726
300.638463116
301.049027014
300.691307974
301.508370781

Average distance is : 301.000 cm
Average deviation is : 0.338 cm
Block: 9
======================================
300.569358301
301.028702068
300.601878214
301.081546926
301.508370781
301.085611916
301.06528697
301.049027014
301.508370781
301.508370781
301.524630737
301.06528697
301.508370781
300.605943203
300.601878214
301.06528697
300.691307974
301.049027014
301.081546926
301.081546926
301.049027014
301.06528697
300.638463116
300.638463116
301.528695726
301.081546926
301.081546926
301.06528697
301.081546926
301.049027014
300.691307974
301.06528697
301.081546926
301.524630737
301.508370781
300.691307974
301.06528697
301.544955683
300.605943203
300.605943203
301.528695726
300.723827887
301.06528697
301.085611916
301.081546926
300.675048018
300.691307974
301.06528697
301.06528697
301.081546926
301.085611916
301.081546926
301.528695726
300.638463116
300.70756793
301.528695726
300.703502941
301.540890694
301.081546926
300.687242985
301.06528697
301.097806883
301.081546926
300.638463116
300.70756793
301.524630737
301.508370781
301.524630737
300.638463116
300.687242985
301.085611916
301.081546926
301.081546926
300.601878214
300.605943203

Average distance is : 301.034 cm
Average deviation is : 0.317 cm
Block: 10
======================================
301.049027014
301.049027014
301.097806883
301.06528697
301.166911697
301.081546926
300.642528105
301.081546926
301.081546926
301.06528697
301.081546926
301.06528697
301.06528697
301.06528697
301.081546926
301.118131828
300.638463116
300.601878214
300.638463116
300.622203159
300.638463116
300.622203159
300.622203159
300.638463116
300.622203159
300.605943203
300.622203159
301.06528697
301.081546926
300.605943203
300.601878214
301.081546926
300.622203159
301.085611916
301.577475595
300.605943203
301.085611916
301.081546926
301.508370781
301.049027014
301.06528697
300.691307974
300.585618258
300.601878214
301.06528697
300.622203159
300.622203159
300.642528105
300.622203159
300.622203159
301.06528697
300.638463116
301.134391785
301.081546926
300.642528105
301.134391785
301.081546926
301.524630737
300.638463116
300.638463116
300.638463116
300.622203159
300.61813817
300.670983028
300.605943203
300.622203159
300.622203159
300.622203159
301.150651741
300.605943203
300.585618258
301.081546926
301.081546926
300.622203159
300.638463116

Average distance is : 300.857 cm
Average deviation is : 0.266 cm