
Block: 1
======================================
100.297191739
100.350881815
100.346751809
99.8965811729
100.346751809
100.297191739
100.350881815
100.297191739
100.334361792
99.9874413013

Average distance is : 100.251 cm
Average deviation is : 0.166 cm
Block: 2
======================================
99.9007111788
55.3957682848
67.2654050589
71.1971706152
55.3957682848
66.6582942009
72.0975118876
56.8495303392
65.3077822924
71.6803812981

Average distance is : 68.175 cm
Average deviation is : 12.951 cm
Block: 3
======================================
99.9007111788
99.9172312021
99.8965811729
100.27654171
54.0452563763
66.7285043001
69.8796987534
52.9549348354
66.5178740025
71.0071903467

Average distance is : 78.112 cm
Average deviation is : 19.750 cm
Block: 4
======================================
99.9007111788
55.0323277712
67.3314851522
71.5069210529
57.1468907595
64.333100915
59.2779737711
62.9495489597
59.4679540396
64.0935605764

Average distance is : 66.104 cm
Average deviation is : 12.839 cm
Block: 5
======================================
99.8635411263
99.9172312021
99.9007111788
100.297191739
100.350881815
99.9007111788
100.297191739
99.8263710737
99.8800611496
99.8965811729

Average distance is : 100.013 cm
Average deviation is : 0.210 cm
Block: 6
======================================
99.9007111788
55.2966481447
67.4553853273
71.0897904634
57.4070811272
64.0398705006
71.9942617416
59.0384334326
62.0161676407
61.0456162691

Average distance is : 66.928 cm
Average deviation is : 12.848 cm
Block: 7
======================================
99.8263710737
100.297191739
52.6782244444
68.1987863779
68.1822663546
51.8976533413
67.6784056425
69.9829488993
50.617351532
67.5049453974

Average distance is : 69.686 cm
Average deviation is : 17.727 cm
Block: 8
======================================
99.9007111788
55.9161490202
66.7780643702
71.0897904634
56.2837195396
65.1673620939
58.8071531057
65.1673620939
70.3629094362
58.7575930357

Average distance is : 66.823 cm
Average deviation is : 12.866 cm
Block: 9
======================================
99.8841911554
99.9172312021
99.8800611496
53.2481652498
68.0088061094
68.9256674051
52.7319145203
68.6489570141
69.1528177261
51.9513434172

Average distance is : 73.235 cm
Average deviation is : 19.688 cm
Block: 10
======================================
99.9007111788
99.8841911554
99.9007111788
100.350881815
99.8800611496
100.297191739
100.313711762
99.8800611496
99.8635411263
100.330231786

Average distance is : 100.060 cm
Average deviation is : 0.227 cm
Average distance for 10x10 is : 78.939 cm
Average deviation for 10x10 is : 10.927 cm
 Percentage of values that failed: 0.000