
Block: 1
======================================
99.8800611496
99.8676711321
99.9502712488
99.8800611496
100.297191739
52.6782244444
68.2359564304
69.3262779713
81.9517058134
70.5859297514
80.9481143951
41.3496184349
68.5126668215
79.8743128777
71.8208014965
51.4474827051
69.0660876036
72.894603014
54.4252169132
66.1048734188
72.944163084
56.5397799015
64.0233504772
73.3778136969
57.2831809521
63.2427793741
60.694565773
63.2592993975
69.9664288759
61.148866415
63.6433899403
69.1486877203
62.0492076874
64.8906517029
67.0010846853
62.9495489597
61.4462268353
61.3181966543
61.7724972963
61.755977273
70.8461201191
61.7724972963
61.2521165609
63.2592993975
60.6986957788
69.8425287008
63.8333702087
60.1081049442
62.0492076874
62.462208271
69.86317873
61.8550974131
60.417855382
64.0068304539
69.8425287008
61.4462268353
61.6857671738
69.9829488993
63.2592993975
60.2320051193
62.9991090298
70.7800400257
60.5252355337
61.7931473255
71.5936511755
60.8391159773
60.645005703
62.4663382769
70.7098299265
61.1984264851
62.4291682243
60.7317358255
62.4993783236
70.6396198273
61.0951763391

Average distance is : 66.896 cm
Average deviation is : 10.908 cm
Block: 2
======================================
99.8676711321
99.8676711321
55.1562279463
66.604604125
70.1770591736
53.5992157459
68.2153064013
69.8962187767
53.7024658918
66.7285043001
71.3706308603
56.4695698023
65.671222806
69.7434085608
56.0028791428
65.3573423624
71.1930406094
58.5345727205
63.2097393274
60.0048547983
62.6728385687
71.1930406094
60.7317358255
64.4941711426
68.599396944
61.7518472672
61.3388466835
63.0858391523
69.5327782631
62.1731078625
64.3000608683
59.3853539228
63.2799494267
70.6933099031
60.872156024
60.9588861465
62.9660689831
60.7358658314
62.4291682243
70.7098299265
61.2686365843
62.3424381018
61.1819064617
62.0492076874
61.4916568995
62.0161676407
61.6362071037
71.0237103701
61.5618669987
60.3517752886
71.9570916891
62.0492076874
90.9096884727
62.3961281776
59.7942245007
63.8870602846
70.2596592903
60.5582755804
61.3553667068
71.556481123
61.7353272438
60.1783150434
62.8958588839
70.6933099031
60.7317358255
62.842168808
60.1783150434
62.6067584753
70.672659874
60.5913156271
66.2411636114
67.0010846853
61.5825170279
64.9608618021
67.7320957184

Average distance is : 65.114 cm
Average deviation is : 7.956 cm
Block: 3
======================================
99.8800611496
54.582157135
66.1048734188
68.5457068682
82.1086460352
69.0660876036
81.7452055216
39.1689753532
68.5457068682
80.7540041208
40.6557774544
68.1120562553
80.3946936131
70.9700202942
79.8082327843
71.556481123
81.2743848562
41.7295789719
71.3169407845
80.8779042959
72.9978531599
80.5144637823
41.7295789719
71.5440911055
79.3002420664
74.0881747007
79.2506819963
74.1749048233
79.3704521656
74.4722652435
78.9368015528
75.0091660023
78.350340724
75.0587260723
78.350340724
44.5008128881
71.0732704401
77.7267098427
75.748437047
77.6771497726
76.1490476131
76.7561584711
77.1898090839
76.202737689
77.1898090839
76.1325275898
77.3632693291
44.8312133551
71.6101711988
77.0700389147
76.7726784945
77.0493888855
75.975587368
77.3797893524
44.8642534018
71.2467306852
77.313709259
76.4464080334
77.3591393232
44.8972934484
71.6101711988
76.859408617
45.4920142889
71.6101711988
99.8800611496
54.6688872576
68.525056839
70.6933099031
53.6818158627
67.7279657125
72.0438218117
54.9332076311
66.0511833429
56.5562999249
65.6505727768

Average distance is : 70.438 cm
Average deviation is : 12.743 cm
Block: 4
======================================
99.8800611496
55.4494583607
67.6247155666
70.8130800724
56.3663196564
65.8075129986
71.7505913973
57.2707909346
65.7579529285
70.2761793137
57.7209615707
64.0605205297
59.988334775
63.9366203547
69.8425287008
60.5954456329
62.1194177866
61.8592274189
60.9423661232
63.4368896484
69.8962187767
60.645005703
61.5453469753
61.9996476173
61.6651171446
70.1398891211
62.3259180784
60.4880654812
63.8994503021
69.4253981113
61.0951763391
61.148866415
62.8297787905
69.9829488993
61.578387022
62.3424381018
69.9829488993
62.4787282944
61.8757474422
62.2185379267
61.3388466835
70.3959494829
62.1524578333
62.1524578333
61.9294375181
61.148866415
71.1971706152
61.2727665901
91.6902595758
62.1028977633
90.8725184202
63.069319129
90.3190976381
64.3867909908
89.1585659981
63.6970800161
58.9640933275
63.6599099636
60.9051960707
62.1689778566
61.7394572496
61.4916568995
61.148866415
62.5324183702
70.2968293428
61.4420968294
60.8886760473
71.5936511755
62.2061479092
59.2614537477
63.4162396193
71.1971706152
59.5753341913
64.3702709675
59.2077636719

Average distance is : 65.414 cm
Average deviation is : 8.294 cm
Block: 5
======================================
99.8800611496
55.5196684599
67.0754247904
71.176520586
57.0436406136
65.6175327301
71.126960516
58.5304427147
94.4243234396
59.3110138178
62.1689778566
72.4774724245
60.5252355337
60.5417555571
63.4492796659
69.8590487242
61.1158263683
61.148866415
61.9253075123
60.8349859715
71.1228305101
62.2887480259
59.2077636719
63.4162396193
71.5936511755
59.3647038937
61.9996476173
61.1116963625
62.0987677574
70.7635200024
61.4255768061
60.872156024
70.2266192436
60.5252355337
60.7854259014
61.6196870804
61.0580062866
60.1783150434
60.3848153353
70.6437498331
60.6656557322
91.029458642
61.9955176115
58.774113059
62.5530683994
59.3977439404
68.75220716
64.5230811834
58.1670022011
65.0599819422
70.6602698565
59.381223917
62.1194177866
60.5417555571
62.0657277107
61.2190765142
62.3424381018
60.7812958956
62.3961281776
60.6986957788
62.1194177866
70.6437498331
61.9955176115
59.988334775
64.45700109
69.3427979946
61.4462268353
62.1152877808
62.3093980551
61.3884067535
69.7929686308
63.0899691582
59.3151438236
63.3129894733
60.2485251427

Average distance is : 64.388 cm
Average deviation is : 7.529 cm
Block: 6
======================================
99.8800611496
55.0488477945
67.5586354733
69.1197776794
82.0921260118
69.5327782631
82.1623361111
40.8457577229
68.2689964771
80.9109443426
71.5771311522
80.167543292
71.5069210529
80.2377533913
71.6803812981
79.9445229769
41.903039217
70.3670394421
80.7044440508
73.1341433525
79.7875827551
74.1583848
79.234161973
43.8771820068
71.176520586
78.8335514069
44.6742731333
70.8296000957
78.4329408407
74.8852658272
78.5238009691
75.3519564867
78.0199402571
75.7856070995
77.7267098427
76.0457974672
77.7060598135
76.0788375139
77.4293494225
44.3975627422
71.9777417183
76.202737689
77.1732890606
76.6363883018
76.3927179575
77.4995595217
75.9425473213
77.9166901112
75.5956268311
77.7803999186
44.0176022053
72.5105124712
76.8965786695
45.3515940905
71.7464613914
76.3927179575
77.4293494225
44.3810427189
71.6803812981
77.4128293991
46.9953364134
69.9994689226
76.9461387396
76.8965786695
76.6157382727
76.3431578875
77.0659089088
76.3225078583
77.6771497726
75.5749768019
77.7762699127
44.6949231625
72.5270324945
76.1655676365
46.6153758764

Average distance is : 71.183 cm
Average deviation is : 12.230 cm
Block: 7
======================================
100.313711762
54.4623869658
67.2447550297
70.4661595821
57.2171008587
67.5090754032
67.9922860861
56.8867003918
64.3867909908
70.8502501249
58.3239424229
62.5530683994
71.4408409595
59.6414142847
92.0206600428
99.9544012547
55.0860178471
67.5586354733
71.5440911055
53.4546655416
68.8389372826
54.7390973568
67.211714983
71.5606111288
54.2021965981
66.831754446
72.8243929148
56.300239563
64.3537509441
58.774113059
64.4239610434
70.6396198273
60.0048547983
61.4957869053
61.6320770979
62.7926087379
60.8515059948
70.6602698565
62.2391879559
59.6248942614
63.800330162
60.1783150434
62.5861084461
71.1434805393
60.492195487
61.3925367594
62.5695884228
70.2390092611
61.5825170279
62.4663382769
61.0786563158
61.2686365843
71.126960516
61.3925367594
60.0709348917
63.0899691582
70.8296000957
60.9382361174
62.1194177866
60.6615257263
62.0492076874
61.0786563158
61.7724972963
70.1729291677
62.2433179617
60.0915849209
63.019759059
60.5624055862
63.1725692749
70.2390092611
61.301676631
60.5954456329
62.9495489597
60.6119656563
61.7022871971

Average distance is : 64.660 cm
Average deviation is : 8.304 cm
Block: 8
======================================
99.8800611496
55.0488477945
66.9143545628
70.2968293428
55.7963788509
64.2339807749
71.6432112455
56.72976017
63.0858391523
71.9570916891
57.9274618626
63.7301200628
58.5510927439
69.8962187767
64.333100915
88.2045346498
65.5679726601
56.6099900007
66.5880841017
70.292699337
58.2372123003
64.0605205297
59.0343034267
65.0806319714
70.2968293428
59.3481838703
62.9660689831
71.6101711988
60.0915849209
61.3223266602
62.6521885395
69.3758380413
62.3589581251
61.1984264851
70.2266192436
62.4828583002
90.4595178366
62.5365483761
60.5252355337
62.2391879559
61.2686365843
70.470289588
62.2391879559
64.6469813585
66.8813145161
62.8256487846
60.2856951952
62.8999888897
70.7098299265
60.6615257263
60.7854259014
62.7760887146
61.2190765142
61.6320770979
61.9294375181
61.5990370512
62.9660689831
61.0249662399
62.1194177866
70.8296000957
99.9337512255
55.4494583607
67.1951949596
71.2467306852
55.8665889502
65.8405530453
71.7877614498
58.1009221077
67.0712947845
68.7687271833
59.4514340162
63.6970800161
60.8391159773
63.5029697418
60.0048547983

Average distance is : 65.226 cm
Average deviation is : 8.414 cm
Block: 9
======================================
99.8635411263
99.9172312021
99.8841911554
100.297191739
99.8470211029
99.9131011963
52.6947444677
67.7981758118
69.0826076269
51.8480932713
69.9292588234
72.0975118876
51.8109232187
69.6195083857
72.514642477
80.8779042959
42.3697298765
70.6933099031
80.72509408
42.9231506586
70.2803093195
80.6714040041
43.4600514174
69.788838625
80.0477731228
44.5173329115
69.359318018
79.461312294
45.5374443531
68.9752274752
79.3167620897
46.5658158064
68.0418461561
78.3338207006
47.9989278316
67.6247155666
78.1438404322
49.8863404989
65.8612030745
58.117442131
64.6635013819
71.1434805393
59.3151438236
62.1689778566
72.4609524012
59.6248942614
61.4255768061
61.6320770979
61.1653864384
62.8462988138
60.2485251427
62.9660689831
70.7139599323
61.0249662399
60.8886760473
72.060341835
61.755977273
59.7116243839
62.5200283527
72.0273017883
59.8148745298
61.5659970045
60.6656557322
63.0569291115
70.292699337
61.3884067535
60.8886760473
62.5861084461
70.2266192436
61.0786563158
65.2706122398
67.9220759869
61.6155570745
65.2540922165
58.724552989

Average distance is : 66.899 cm
Average deviation is : 13.478 cm
Block: 10
======================================
99.8965811729
54.078296423
67.6453655958
70.4868096113
57.2005808353
67.0176047087
67.9385960102
57.1675407887
64.180290699
58.6047828197
63.1932193041
69.8962187767
60.5582755804
65.3779923916
66.6211241484
60.265045166
63.2097393274
59.8809546232
63.3831995726
70.6561398506
60.1948350668
61.2686365843
72.4609524012
60.9919261932
59.5712041855
64.3702709675
70.243139267
59.7116243839
62.5365483761
71.9942617416
59.8148745298
62.4291682243
60.1948350668
63.019759059
70.7098299265
60.4715454578
61.3388466835
72.060341835
61.2686365843
60.1948350668
62.9123789072
60.5954456329
62.2061479092
61.7022871971
61.9459575415
61.5618669987
62.363088131
61.1984264851
70.2266192436
62.7967387438
59.1375535727
63.9572703838
70.6933099031
60.1617950201
61.6362071037
62.3093980551
60.9258460999
70.746999979
63.0362790823
58.8443231583
64.2505007982
70.7263499498
59.4018739462
62.412648201
60.2278751135
62.5530683994
70.7263499498
61.0249662399
60.8556360006
72.0438218117
61.3718867302
59.6248942614
63.9201003313
70.243139267
61.0951763391

Average distance is : 64.021 cm
Average deviation is : 6.038 cm
Average distance for 10x75 is : 66.424 cm
Average deviation for 10x75 is : 9.589 cm
 Percentage of values that failed: 0.000