
Block: 1
======================================
99.8965811729
100.313711762
100.313711762
100.313711762
99.9007111788
53.0210149288
67.0547747612
68.6985170841
55.2966481447
64.5106911659
69.1858577728
57.2294908762
63.9861804247
67.9220759869
57.8572517633
65.2540922165
70.7635200024
59.5216441154
62.7760887146
60.3022152185
63.6392599344
59.5877242088
63.4864497185
71.176520586
60.1287549734
61.2190765142
63.1560492516
61.805537343
69.3964880705
63.523619771
59.2573237419
63.3831995726
71.1434805393
60.3146052361
61.528826952
61.1323463917
61.6320770979
70.7098299265
61.4627468586
59.988334775
63.9903104305
69.3758380413
61.8757474422
61.6816371679
61.805537343
61.3884067535
62.1194177866
70.3794294596
62.3093980551
61.1984264851

Average distance is : 66.958 cm
Average deviation is : 11.902 cm
Block: 2
======================================
99.8841911554
99.9544012547
53.8387560844
66.8813145161
70.2596592903
57.0932006836
62.4498182535
58.9682233334
63.29646945
59.3151438236
62.8297787905
67.9385960102
60.3517752886
65.2706122398
65.5308026075
56.3167595863
66.2246435881
71.1930406094
58.2578623295
63.523619771
72.1677219868
59.0879935026
64.3496209383
70.4661595821
59.988334775
66.4807039499
67.0919448137
56.0070091486
66.175083518
71.2467306852
57.8200817108
64.7832715511
70.8832901716
59.1747236252
65.9974932671
69.2354178429
58.6873829365
63.5194897652
71.7134213448
59.0838634968
64.3537509441
59.3481838703
63.3336395025
60.2485251427
63.8498902321
69.8466587067
60.9754061699
61.8220573664
71.126960516
61.7394572496

Average distance is : 65.200 cm
Average deviation is : 8.594 cm
Block: 3
======================================
99.8841911554
99.9007111788
53.3720654249
67.9220759869
69.7062385082
51.7076730728
99.5331406593
54.7927874327
66.4146238565
69.408878088
56.349799633
63.1395292282
71.2673807144
57.4070811272
63.6433899403
60.9547561407
62.1194177866
71.2467306852
61.4090567827
61.5618669987
62.0822477341
61.4627468586
63.5194897652
69.4130080938
61.8427073956
60.4715454578
63.4534096718
70.2968293428
60.645005703
61.5659970045
62.0161676407
70.3463894129
62.4828583002
59.6909743547
64.3702709675
69.8755687475
60.4385054111
62.7926087379
60.7152158022
63.7136000395
69.5162582397
61.6155570745
61.8592274189
70.4165995121
62.1194177866
61.3388466835
62.2928780317
61.2190765142
70.7098299265
61.983127594

Average distance is : 65.520 cm
Average deviation is : 9.877 cm
Block: 4
======================================
99.8800611496
99.9544012547
100.330231786
53.8594061136
67.3521351814
69.4295281172
54.9290776253
64.9567317963
70.8296000957
57.2005808353
63.0899691582
70.0325089693
58.3239424229
62.4291682243
60.5954456329
62.8958588839
61.2025564909
70.2761793137
62.3424381018
59.9718147516
71.5399610996
63.1601792574
58.3074223995
65.2375721931
69.9127388
59.6248942614
63.3666795492
60.2815651894
63.6970800161
59.4514340162
70.4000794888
64.5272111893
59.3853539228
63.8498902321
70.7098299265
60.1287549734
61.755977273
71.5606111288
61.3925367594
60.5252355337
62.1359378099
71.1434805393
61.1323463917
91.8265497684
61.9789975882
59.9346446991
64.0605205297
69.359318018
61.9129174948
64.1637706757

Average distance is : 66.327 cm
Average deviation is : 10.473 cm
Block: 5
======================================
99.8965811729
99.8965811729
99.9007111788
54.6358472109
66.7945843935
68.9091473818
53.5950857401
67.3851752281
69.9292588234
56.349799633
63.800330162
58.0472320318
68.4094166756
64.2463707924
87.0440030098
65.4482024908
58.6047828197
63.5566598177
60.0048547983
70.3463894129
63.9903104305
60.3848153353
62.4291682243
61.0951763391
61.7022871971
71.5275710821
60.921716094
60.5417555571
63.4534096718
70.3133493662
61.0951763391
60.7152158022
61.528826952
62.6232784986
69.3923580647
62.3093980551
60.492195487
71.126960516
62.6728385687
59.2779737711
64.3165808916
70.7304799557
59.3977439404
62.4291682243
60.7152158022
62.5365483761
70.6933099031
61.0290962458
60.9093260765
62.6026284695

Average distance is : 65.995 cm
Average deviation is : 10.217 cm
Block: 6
======================================
99.8428910971
99.8470211029
99.9007111788
53.5248756409
67.0217347145
70.2968293428
81.2413448095
70.8337301016
80.8779042959
40.4162371159
69.1858577728
80.9852844477
70.5570197105
80.8779042959
41.4033085108
70.2266192436
82.6827168465
71.0774004459
82.2490662336
41.4198285341
70.6891798973
80.8283442259
42.4027699232
70.7098299265
80.2047133446
43.8441419601
70.2266192436
78.7303012609
44.5008128881
70.6437498331
78.6435711384
44.6040630341
70.7098299265
78.4370708466
45.6448245049
70.2761793137
77.3797893524
45.81828475
70.7139599323
77.2930592299
46.3551855087
69.8260086775
77.5862896442
46.4956057072
69.8094886541
76.5992182493
47.1151065826
70.1729291677
76.4092379808
47.7056974173

Average distance is : 67.897 cm
Average deviation is : 16.156 cm
Block: 7
======================================
99.8965811729
54.4789069891
66.2246435881
69.9292588234
56.0524392128
63.8333702087
71.2632507086
55.8996289968
63.1766992807
71.126960516
57.3905611038
62.0822477341
71.2136906385
57.613581419
61.0249662399
60.3517752886
71.126960516
62.8297787905
59.430783987
64.5065611601
69.5492982864
60.7482558489
62.3093980551
62.2226679325
60.8349859715
71.1971706152
62.3424381018
59.9387747049
64.0398705006
69.5327782631
61.2727665901
62.2226679325
69.9829488993
62.1731078625
61.7353272438
61.9294375181
61.1653864384
61.4420968294
60.8886760473
61.755977273
71.1600005627
61.8592274189
60.3682953119
71.6803812981
61.8757474422
60.2980852127
62.8999888897
60.1948350668
62.8999888897
61.2190765142

Average distance is : 64.024 cm
Average deviation is : 6.861 cm
Block: 8
======================================
99.8841911554
99.8800611496
53.3885854483
67.488425374
69.7227585316
52.5419342518
67.5916755199
70.1068490744
51.6870230436
99.0334099531
53.5455256701
68.1285762787
69.0784776211
52.7979946136
66.3815838099
71.9075316191
56.7132401466
64.787401557
72.4072623253
57.9605019093
63.573179841
72.4072623253
58.7039029598
62.363088131
61.5825170279
61.7353272438
69.8260086775
63.1230092049
59.2284137011
63.4162396193
71.1971706152
60.2485251427
61.5453469753
61.0951763391
62.5695884228
60.9423661232
63.3831995726
69.9499088526
61.0290962458
62.4828583002
61.2149465084
70.2968293428
62.7760887146
59.5712041855
63.5070997477
70.292699337
61.0249662399
61.6692471504
71.1104404926
61.6320770979

Average distance is : 65.571 cm
Average deviation is : 10.266 cm
Block: 9
======================================
99.8800611496
100.297191739
99.9502712488
53.8883161545
66.8647944927
69.9333888292
52.2445738316
68.0253261328
70.4868096113
81.0513645411
70.9163302183
80.7581341267
71.3334608078
80.3946936131
41.6593688726
70.6933099031
80.0312530994
44.0878123045
69.7929686308
79.4737023115
45.5415743589
68.9587074518
78.8872414827
45.6448245049
68.9421874285
77.8299599886
45.7852447033
70.2803093195
77.3095792532
45.9050148726
70.7098299265
76.8263685703
47.7717775106
69.359318018
76.3390278816
76.582698226
76.7561584711
77.0659089088
76.4464080334
76.9461387396
76.859408617
76.4464080334
45.8719748259
71.6101711988
76.3225078583
46.4584356546
71.6101711988
75.2982664108
47.0655465126
71.1930406094

Average distance is : 69.208 cm
Average deviation is : 14.617 cm
Block: 10
======================================
99.8800611496
53.4587955475
68.1616163254
69.0826076269
52.2941339016
67.9592460394
70.8461201191
80.4112136364
40.41210711
69.8796987534
79.1804718971
43.0098807812
68.9958775043
78.4205508232
43.2865911722
69.4460481405
79.3043720722
47.3257368803
67.7320957184
77.7597498894
51.0344821215
65.493632555
77.2434991598
75.4221665859
77.970380187
75.4221665859
78.0736303329
75.2652263641
78.0736303329
75.7690870762
77.7597498894
44.4306027889
71.6143012047
77.4128293991
75.9218972921
77.3591393232
43.8937020302
72.5807225704
77.4293494225
45.591134429
71.3499808311
76.9956988096
76.8222385645
76.6859483719
76.6694283485
76.7065984011
76.3225078583
77.0328688622
76.3390278816
77.4830394983

Average distance is : 69.660 cm
Average deviation is : 12.853 cm
Average distance for 10x50 is : 66.636 cm
Average deviation for 10x50 is : 11.182 cm
 Percentage of values that failed: 0.000