
Block: 1
======================================
99.8800611496
54.962117672
66.5178740025
70.7098299265
56.0565692186
64.6304613352
69.9664288759
56.3332796097
63.1395292282
70.7800400257
57.7705216408
61.7022871971
71.2467306852
58.4313225746
60.6284856796
60.8515059948
69.0123975277
61.7518472672
61.8096673489
61.1984264851
63.3295094967
69.3758380413
61.0951763391
61.6857671738
61.4297068119
61.6857671738
70.8337301016
61.8592274189
60.7152158022
62.0657277107
61.0456162691
61.6196870804
71.2632507086
61.5123069286
60.7152158022
62.5530683994
70.6933099031
61.4586168528
59.9181246758
63.573179841
60.3517752886
62.3961281776
71.126960516
60.6656557322
60.7812958956
62.3093980551
60.921716094
63.4534096718
69.4130080938
62.1359378099
64.3496209383
59.6207642555
63.1230092049
71.1600005627
59.9387747049
61.9418275356
60.7317358255
62.8297787905
60.417855382
62.6563185453
61.3223266602
62.7760887146
60.7854259014
70.6891798973
62.9701989889
60.6615257263
62.0120376348
60.7854259014
71.1434805393
62.3465681076
59.154073596
64.836961627
70.3959494829
59.5381641388
66.9308745861
67.438865304
60.0048547983
62.6728385687
61.8963974714
61.6362071037
69.5823383331
62.8999888897
60.1411449909
62.0492076874
62.4828583002
61.0249662399
62.0822477341
61.1323463917
61.5123069286
61.9789975882
60.3682953119
63.1395292282
60.4219853878
63.2592993975
59.8148745298
62.9660689831
71.126960516
60.1081049442
61.3223266602
72.4237823486

Block: 2
======================================
99.8800611496
55.8624589443
66.8978345394
71.0732704401
57.9935419559
63.4699296951
60.0585448742
63.4534096718
59.3481838703
62.866948843
60.3146052361
63.3831995726
69.8094886541
61.528826952
60.8515059948
62.7265286446
61.1984264851
63.3295094967
69.3964880705
61.0786563158
61.2892866135
71.556481123
61.8592274189
60.0585448742
63.953140378
59.761184454
62.8958588839
61.5825170279
62.9660689831
69.359318018
61.9294375181
60.4013353586
63.0734491348
60.0213748217
63.6433899403
60.7317358255
62.3589581251
60.4385054111
63.0858391523
60.9051960707
63.2097393274
59.4514340162
63.7672901154
70.7098299265
59.6414142847
63.4492796659
59.1912436485
64.2505007982
58.5676127672
64.1100805998
70.6933099031
59.988334775
62.2928780317
61.6857671738
61.1653864384
62.412648201
61.1282163858
62.5324183702
70.6933099031
61.0249662399
60.8515059948
61.7353272438
60.5582755804
62.363088131
59.8809546232
62.9495489597
69.4295281172
60.2485251427
60.8886760473
61.8220573664
61.3223266602
69.2023777962
62.2763580084
64.180290699
66.7119842768
61.9129174948
61.5123069286
60.8556360006
63.573179841
59.534034133
64.1100805998
59.7942245007
63.3129894733
60.3517752886
63.6433899403
60.3724253178
62.3961281776
60.6656557322
62.412648201
60.7812958956
70.7098299265
61.8550974131
60.0750648975
63.069319129
70.8502501249
60.9093260765
62.5530683994
60.2443951368
62.4291682243
60.2320051193

Block: 3
======================================
99.8800611496
55.4990184307
66.6582942009
71.5606111288
57.0106005669
65.2045321465
70.9906703234
58.6006528139
65.5473226309
66.4683139324
58.6708629131
100.313711762
99.8635411263
100.280671716
99.8635411263
53.9791762829
66.3444137573
70.3298693895
51.9513434172
67.1415048838
71.6803812981
80.0849431753
43.5839515924
70.243139267
78.6435711384
45.0377136469
70.2059692144
78.5031509399
45.6448245049
69.8094886541
77.4830394983
46.1982452869
70.2803093195
76.4464080334
47.2183567286
70.2968293428
76.2853378057
46.9127362967
71.1930406094
75.2652263641
47.5322371721
71.1806505919
74.711805582
48.0691379309
70.7304799557
75.471726656
47.7759075165
70.2390092611
74.8852658272
48.3334583044
70.6561398506
74.4020551443
48.849709034
70.7263499498
73.8114643097
49.4031298161
70.7263499498
73.6751741171
49.0892493725
73.0143731833
71.2136906385
82.2986263037
42.6299202442
69.8094886541
80.6177139282
72.7541828156
80.6342339516
72.717012763
80.6548839808
73.0680632591
80.3410035372
73.6380040646
79.3869721889
74.4681352377
78.9244115353
74.0716546774
79.2672020197
74.1046947241
79.3002420664
74.6787655354
78.7096512318
43.5302615166
71.2797707319
78.7137812376
46.97881639
68.3515965939
78.6931312084
75.1454561949
78.3668607473
75.0050359964
78.399900794
74.9885159731
78.5031509399
75.31891644
77.5862896442
76.2357777357
76.8428885937
76.5496581793
76.8222385645
77.0163488388

Block: 4
======================================
99.9172312021
55.4453283548
67.3356151581
71.0030603409
58.1339621544
67.0010846853
68.6324369907
60.0750648975
63.0362790823
61.0249662399
62.9701989889
61.0125762224
62.6728385687
61.7518472672
62.2391879559
61.8757474422
60.8019459248
71.556481123
61.9996476173
61.6320770979
60.6119656563
61.9459575415
60.7317358255
62.412648201
60.8349859715
63.1890892982
69.7764486074
61.805537343
62.7223986387
69.2354178429
62.8834688663
64.1100805998
67.3149651289
62.9991090298
59.7116243839
62.6563185453
71.556481123
60.4880654812
61.0290962458
62.9660689831
60.1783150434
63.0858391523
71.1434805393
60.921716094
61.0290962458
62.5365483761
62.363088131
60.4219853878
62.7595686913
61.7022871971
62.0161676407
61.5825170279
61.5123069286
61.2851566076
71.0774004459
61.3718867302
60.5417555571
62.1359378099
61.9996476173
60.7152158022
63.2799494267
59.608374238
63.5070997477
70.7263499498
60.6284856796
61.2190765142
61.4792668819
61.3553667068
71.1434805393
61.7518472672
60.0915849209
63.7466400862
58.9145332575
64.2835408449
71.1434805393
59.2779737711
62.1689778566
72.4568223953
60.0048547983
61.4462268353
62.5324183702
61.0249662399
61.7724972963
71.5606111288
61.3884067535
60.5582755804
71.9736117125
62.6026284695
58.9104032516
63.6433899403
59.5877242088
63.5401397943
60.0048547983
62.7967387438
61.6527271271
62.7967387438
60.9093260765
70.243139267
63.573179841
58.3776324987

Block: 5
======================================
99.9007111788
99.8139810562
54.4582569599
66.7780643702
69.4460481405
52.8682047129
66.5880841017
71.2632507086
55.3090381622
63.6433899403
71.6473412514
56.9734305143
61.5990370512
59.4349139929
62.9330289364
68.4218066931
61.4586168528
61.148866415
62.0822477341
62.363088131
61.5825170279
61.6651171446
70.2390092611
62.3754781485
59.5712041855
64.836961627
59.1582036018
63.6433899403
59.9016046524
63.6227399111
59.5918542147
63.9366203547
70.8667701483
59.5753341913
63.4534096718
59.7446644306
63.6433899403
58.9847433567
64.2670208216
70.5900597572
59.2779737711
62.1896278858
60.9093260765
62.18549788
71.2632507086
60.492195487
62.1028977633
61.5123069286
61.1447364092
63.29646945
60.3848153353
63.1560492516
59.9511647224
64.1968107224
59.3481838703
63.4699296951
71.1434805393
60.1081049442
61.3058066368
72.4774724245
60.8886760473
60.1246249676
62.1152877808
61.0249662399
63.0899691582
70.2803093195
61.3884067535
60.9754061699
62.6067584753
70.7098299265
61.0786563158
61.2190765142
61.9459575415
61.2892866135
71.1434805393
61.8757474422
60.0750648975
71.9901317358
62.2391879559
58.8608431816
64.3000608683
60.1783150434
63.0734491348
71.1434805393
60.9588861465
60.5417555571
63.0362790823
70.3463894129
61.0951763391
60.6615257263
61.2521165609
61.8963974714
61.6857671738
61.9955176115
61.5659970045
61.9996476173
60.3682953119
63.2097393274
60.3682953119
62.4993783236

Block: 6
======================================
100.313711762
54.6193271875
66.3485437632
71.7505913973
56.8330103159
65.7579529285
70.9163302183
58.5510927439
93.5446321964
60.7854259014
62.7967387438
59.8685646057
63.3831995726
71.126960516
60.1783150434
61.3223266602
61.3718867302
61.755977273
61.0786563158
61.6320770979
62.1194177866
60.5954456329
62.1194177866
61.148866415
61.5618669987
61.1323463917
62.1318078041
70.5859297514
61.9253075123
60.492195487
63.523619771
59.6248942614
64.1100805998
69.8094886541
60.3848153353
62.0492076874
60.645005703
62.5158983469
61.2190765142
70.2266192436
62.412648201
59.988334775
62.7223986387
60.9960561991
70.2059692144
63.9366203547
57.9439818859
64.2133307457
58.4808826447
64.787401557
70.6561398506
59.6414142847
62.3093980551
60.2815651894
61.9459575415
61.3388466835
69.7227585316
61.8427073956
59.7281444073
62.5158983469
70.3257393837
59.9511647224
92.1899902821
60.3517752886
91.9669699669
60.9051960707
91.1327087879
64.45700109
87.7750140429
64.1472506523
57.9439818859
64.836961627
71.126960516
59.5546841621
61.8592274189
62.5158983469
69.86317873
61.4957869053
60.6986957788
61.4957869053
62.18549788
70.292699337
62.2557079792
60.5417555571
71.126960516
63.019759059
58.9145332575
63.3129894733
60.2320051193
62.5489383936
71.126960516
61.0290962458
60.872156024
63.1395292282
69.7929686308
62.363088131
59.9346446991
63.2427793741
60.037894845
70.7098299265

Block: 7
======================================
100.763882399
100.330231786
99.8800611496
100.27654171
54.0122163296
66.9886946678
54.8423475027
65.7579529285
69.4460481405
57.5475013256
61.7724972963
71.6101711988
57.8572517633
61.3718867302
71.2467306852
58.4313225746
61.6857671738
61.8757474422
61.805537343
70.2224892378
62.6728385687
59.6909743547
63.8664102554
60.1617950201
62.6563185453
71.126960516
61.3925367594
60.5582755804
63.4534096718
70.2803093195
61.0786563158
61.148866415
61.0786563158
62.6026284695
70.2224892378
61.4420968294
60.921716094
62.18549788
61.9087874889
61.2025564909
71.1434805393
62.0657277107
60.2320051193
62.4828583002
61.2025564909
62.7926087379
60.3146052361
63.3129894733
60.6615257263
63.34602952
60.8019459248
69.8260086775
63.6970800161
58.2372123003
65.3903824091
69.7723186016
59.2284137011
63.9366203547
99.8965811729
55.465978384
68.1822663546
70.6602698565
56.72976017
65.2045321465
57.460771203
64.787401557
72.1470719576
57.8944218159
64.7171914577
59.3977439404
63.6929500103
60.0048547983
63.5896998644
60.7854259014
62.8958588839
60.6615257263
69.788838625
63.8829302788
58.8443231583
63.4492796659
59.381223917
63.3129894733
59.8148745298
63.0032390356
71.1434805393
60.1122349501
61.8220573664
60.872156024
62.2928780317
61.8592274189
69.8094886541
63.5070997477
58.8938832283
63.800330162
59.8850846291
63.24690938
60.2815651894
62.5158983469
71.0732704401
61.0786563158

Block: 8
======================================
99.8800611496
55.9367990494
66.2246435881
71.126960516
56.9734305143
65.2540922165
71.5069210529
58.0637520552
94.4408434629
59.3151438236
62.6026284695
72.0438218117
60.0544148684
61.376016736
62.1152877808
70.7098299265
61.5618669987
61.1323463917
61.528826952
62.0987677574
69.8094886541
61.8757474422
60.0048547983
64.4033110142
69.86317873
60.5252355337
62.1194177866
71.5606111288
60.6986957788
92.2436803579
61.5825170279
60.3352552652
62.7595686913
60.3517752886
63.7631601095
60.1783150434
62.4663382769
61.9624775648
62.0161676407
61.099306345
62.1152877808
70.6602698565
61.4627468586
60.4715454578
62.6026284695
71.2302106619
60.9051960707
61.5659970045
62.0657277107
61.4420968294
61.6692471504
70.8296000957
61.9087874889
61.5825170279
62.0492076874
60.5417555571
62.6026284695
69.5699483156
61.4420968294
62.0822477341
60.3682953119
61.8922674656
61.7394572496
69.206507802
62.3093980551
89.3691962957
65.5473226309
56.300239563
66.0511833429
70.4537695646
57.5103312731
69.3427979946
67.0712947845
60.9588861465
62.1028977633
70.8296000957
61.8757474422
61.148866415
61.6857671738
62.2928780317
60.3517752886
63.3129894733
70.7263499498
59.7653144598
62.1896278858
61.8261873722
61.2521165609
62.8462988138
61.1116963625
62.412648201
61.2521165609
62.2928780317
61.3718867302
62.5861084461
70.3463894129
61.9129174948
59.9181246758
64.0935605764
59.1375535727
63.9572703838

Block: 9
======================================
99.8965811729
99.9172312021
99.9172312021
99.8635411263
100.313711762
100.313711762
100.297191739
54.078296423
66.4517939091
70.0490289927
52.2445738316
68.6861270666
70.2596592903
81.001804471
41.5395987034
69.8796987534
82.0590859652
44.0878123045
67.2447550297
81.1711347103
72.6509326696
80.3946936131
42.7001303434
71.1971706152
79.61412251
43.9473921061
70.6561398506
78.4040307999
74.9554759264
78.4040307999
75.4221665859
78.0736303329
75.7153970003
77.6730197668
76.1696976423
77.3591393232
43.9639121294
72.440302372
76.6033482552
46.5658158064
70.6065797806
75.3726065159
77.5697696209
75.3891265392
78.1768804789
75.6162768602
77.2930592299
45.2813839912
71.3169407845
77.3095792532
76.0292774439
77.9166901112
75.4593366385
77.9166901112
75.3354364634
77.8464800119
44.8146933317
71.5399610996
77.1195989847
75.7897371054
77.5367295742
76.0994875431
76.8263685703
76.9956988096
76.3885879517
77.5532495975
75.7856070995
77.6399797201
76.2192577124
77.2930592299
75.1784962416
77.8836500645
75.4386866093
78.4370708466
75.31891644
77.6028096676
76.2357777357
76.6694283485
76.7065984011
77.1195989847
76.8263685703
76.9502687454
76.4257580042
77.3632693291
44.4636428356
71.9901317358
76.9667887688
45.4176741838
71.5234410763
76.8428885937
46.3882255554
71.1434805393
76.3225078583
47.358776927
70.6396198273
75.2652263641
47.965887785
71.1104404926
74.2409849167
48.0691379309

Block: 10
======================================
99.8841911554
54.9084275961
67.8353458643
70.6561398506
57.9439818859
63.9366203547
71.9901317358
59.2077636719
62.2391879559
72.4072623253
60.4385054111
60.6119656563
61.5990370512
71.9736117125
60.7358658314
92.2065103054
61.5990370512
60.2980852127
63.2262593508
60.7358658314
62.4993783236
70.7098299265
61.0084462166
60.921716094
62.18549788
62.2722280025
62.2928780317
61.6816371679
62.7265286446
60.0709348917
63.4699296951
70.6933099031
60.6284856796
61.6527271271
61.5123069286
61.3058066368
63.1560492516
69.4997382164
62.1731078625
61.3388466835
61.4420968294
62.0657277107
61.5123069286
70.4165995121
62.4993783236
60.9919261932
62.6728385687
59.9346446991
70.5528897047
62.0863777399
58.8649731874
62.9867190123
60.3682953119
61.4420968294
61.7022871971
69.1528177261
61.9087874889
63.7672901154
59.1416835785
62.6563185453
70.2596592903
60.2443951368
91.8430697918
61.4627468586
62.6356685162
69.8094886541
62.2185379267
60.5954456329
62.5695884228
60.1948350668
62.6563185453
71.5234410763
60.0750648975
61.4420968294
63.0362790823
59.7074943781
62.7265286446
71.9240516424
59.9718147516
61.0951763391
61.6320770979
61.0951763391
61.7724972963
62.7265286446
61.8922674656
62.5861084461
69.8301386833
62.0120376348
60.7152158022
61.9955176115
60.8556360006
70.6230998039
62.3424381018
59.6207642555
64.3702709675
69.8094886541
61.099306345
62.0492076874
71.1434805393
61.2190765142
