
Block: 1
======================================
100.297191739
100.317841768
99.9007111788
99.9007111788
99.9007111788
99.9172312021
99.9131011963
99.8841911554
99.9007111788
99.9337512255
99.8965811729
100.350881815
100.313711762
99.8965811729
99.9007111788
99.9172312021
99.8965811729
100.350881815
99.9007111788
99.9007111788
99.9131011963
99.8965811729
99.9172312021
99.9172312021
99.9007111788
100.317841768
99.8841911554
99.9131011963
99.8841911554
99.8965811729
99.9172312021
99.8800611496
99.9007111788
99.8965811729
99.9007111788
99.9007111788
99.9007111788
99.9172312021
99.9007111788
99.9007111788
99.8800611496
99.9172312021
99.9172312021
99.8965811729
99.8635411263
99.9172312021
99.8841911554
99.9007111788
99.8800611496
99.9007111788
99.8841911554
99.9007111788
99.9172312021
99.9172312021
99.9172312021
99.8841911554
99.8841911554
99.9172312021
99.8841911554
99.8800611496
99.8965811729
99.8965811729
99.8800611496
99.8965811729
99.9007111788
99.9172312021
99.8965811729
99.8800611496
99.8841911554
99.9007111788
99.9007111788
99.9007111788
99.8800611496
99.9007111788
99.9172312021
99.8800611496
99.8841911554
99.9007111788
99.9007111788
99.9007111788
99.9007111788
99.8841911554
99.8841911554
99.8800611496
99.9502712488
99.9007111788
99.8635411263
99.9007111788
99.8635411263
99.8841911554
99.8841911554
99.8635411263
99.8841911554
99.9172312021
99.8676711321
99.9172312021
99.9007111788
99.8965811729
99.9007111788
99.9007111788

Average distance is : 99.924 cm
Average deviation is : 0.103 cm
Block: 2
======================================
99.8800611496
99.9337512255
99.8841911554
99.9007111788
99.9007111788
99.8841911554
99.8800611496
99.9172312021
99.9007111788
99.8800611496
99.9131011963
99.9007111788
99.9007111788
99.8800611496
99.8676711321
100.346751809
100.297191739
99.8635411263
99.8800611496
100.297191739
99.9131011963
99.8800611496
99.8800611496
99.8841911554
99.8800611496
99.8841911554
99.8676711321
99.8800611496
99.8800611496
99.8841911554
99.8841911554
99.8635411263
99.8841911554
99.9007111788
99.8965811729
99.8965811729
99.8800611496
99.8965811729
100.297191739
99.9172312021
99.8841911554
99.9172312021
99.9172312021
99.8965811729
99.9007111788
99.8965811729
99.8965811729
100.313711762
99.8676711321
99.9131011963
99.9172312021
99.9172312021
99.8800611496
99.9172312021
99.9172312021
100.334361792
99.9172312021
99.8965811729
99.9007111788
100.297191739
99.9337512255
99.8965811729
99.9007111788
99.9131011963
99.8965811729
99.8800611496
99.8965811729
99.9007111788
99.9007111788
99.9007111788
99.9007111788
100.334361792
99.9172312021
99.9007111788
99.9007111788
99.8965811729
99.8800611496
99.8841911554
99.8800611496
99.8800611496
99.9172312021
99.8841911554
99.8800611496
99.8965811729
99.8800611496
99.8800611496
99.9007111788
99.8841911554
99.9007111788
99.8800611496
99.9172312021
99.9172312021
99.8841911554
100.297191739
99.8965811729
99.8800611496
99.8841911554
99.8841911554
99.9007111788
99.8635411263

Average distance is : 99.932 cm
Average deviation is : 0.122 cm
Block: 3
======================================
99.8800611496
99.9007111788
100.297191739
99.9007111788
99.8800611496
99.8635411263
99.9007111788
99.8965811729
99.8800611496
99.8800611496
99.8635411263
99.8800611496
99.8965811729
99.8800611496
99.8841911554
99.9007111788
99.8841911554
99.8841911554
99.9172312021
99.9007111788
99.9007111788
99.9007111788
99.9131011963
99.8841911554
99.8841911554
99.8965811729
99.8800611496
99.8470211029
99.8635411263
99.8800611496
99.8676711321
99.9172312021
99.8800611496
99.9337512255
99.8800611496
99.8841911554
99.8800611496
99.9131011963
99.8800611496
99.8800611496
99.8635411263
99.9131011963
99.8841911554
99.8841911554
99.8800611496
99.8800611496
99.8965811729
99.8800611496
99.8800611496
99.8841911554
99.9172312021
99.8635411263
99.8800611496
99.8841911554
99.9172312021
99.8965811729
99.8841911554
99.8635411263
99.9007111788
100.346751809
99.9337512255
99.9172312021
99.9172312021
99.9337512255
99.8635411263
99.8965811729
99.9502712488
99.8841911554
99.9337512255
99.8841911554
99.8800611496
99.8800611496
99.8800611496
99.8841911554
100.334361792
99.9337512255
99.8800611496
99.9172312021
99.8841911554
99.8841911554
99.9337512255
99.8800611496
99.9172312021
99.9337512255
100.210461617
99.8800611496
99.8800611496
99.8965811729
99.8800611496
99.8800611496
99.8841911554
99.8800611496
99.8800611496
99.8800611496
99.8800611496
99.9502712488
99.8841911554
99.9131011963
99.9007111788
99.8635411263

Average distance is : 99.908 cm
Average deviation is : 0.083 cm
Block: 4
======================================
99.9337512255
99.8800611496
100.330231786
99.9337512255
99.9337512255
99.9337512255
99.9007111788
100.280671716
99.9337512255
99.9337512255
99.8841911554
99.9172312021
99.8676711321
100.280671716
99.9131011963
100.363271832
99.8800611496
99.8800611496
99.9131011963
99.8965811729
99.8965811729
99.8635411263
99.8841911554
99.9337512255
99.8841911554
99.8841911554
99.8841911554
99.9337512255
99.8841911554
99.8635411263
100.334361792
99.8841911554
99.8800611496
99.9007111788
99.9007111788
99.8965811729
99.8841911554
99.9131011963
99.9007111788
99.9337512255
99.9007111788
100.27654171
99.8841911554
99.9337512255
99.9007111788
99.9172312021
99.9007111788
100.350881815
99.9172312021
99.9172312021
99.8841911554
99.9131011963
99.9172312021
99.9172312021
99.9131011963
99.9172312021
99.8965811729
99.9296212196
99.9337512255
99.9007111788
99.9337512255
99.8676711321
99.9172312021
99.9172312021
99.9172312021
99.9172312021
99.8965811729
99.8800611496
100.363271832
99.9131011963
99.9131011963
99.8965811729
99.9172312021
100.334361792
99.8676711321
99.9172312021
99.8635411263
99.9172312021
99.9502712488
99.8800611496
99.9337512255
99.8965811729
100.313711762
99.9172312021
99.9131011963
99.8965811729
99.8635411263
99.9007111788
100.280671716
99.8800611496
99.9337512255
99.9172312021
100.280671716
99.9172312021
99.9007111788
99.8635411263
99.8800611496
99.8635411263
99.9337512255
99.9544012547

Average distance is : 99.954 cm
Average deviation is : 0.137 cm
Block: 5
======================================
99.8841911554
99.8635411263
99.8800611496
99.8800611496
99.9131011963
99.8635411263
99.8841911554
99.8800611496
99.8841911554
99.8470211029
99.9502712488
99.8635411263
99.8800611496
99.9337512255
99.9007111788
99.8635411263
99.9007111788
99.9337512255
99.8800611496
99.8965811729
99.9131011963
99.9337512255
99.9007111788
99.8841911554
99.8800611496
99.9337512255
99.9296212196
99.8635411263
99.8635411263
99.8800611496
99.9172312021
99.8800611496
99.8635411263
99.8965811729
99.8800611496
99.8800611496
99.8635411263
99.8635411263
99.9337512255
99.8635411263
99.9337512255
99.9337512255
100.297191739
99.9337512255
100.313711762
99.8635411263
99.8635411263
99.9337512255
99.9337512255
99.8676711321
99.8470211029
99.8965811729
99.8635411263
99.8841911554
99.8800611496
99.8965811729
99.8635411263
99.8676711321
99.8800611496
99.9131011963
99.8470211029
99.9337512255
99.8635411263
99.8841911554
99.8800611496
99.8841911554
99.8800611496
99.8800611496
99.8841911554
100.297191739
99.8965811729
99.8800611496
99.8800611496
99.8800611496
99.9337512255
99.8965811729
99.8800611496
99.8470211029
99.9337512255
100.346751809
99.9337512255
99.8635411263
99.9172312021
99.9007111788
99.8635411263
99.8965811729
99.8800611496
99.8841911554
99.9337512255
99.8676711321
99.8965811729
99.8841911554
99.9007111788
99.8635411263
99.8635411263
99.9172312021
99.9337512255
99.9337512255
99.8841911554
99.9337512255

Average distance is : 99.908 cm
Average deviation is : 0.087 cm
Block: 6
======================================
99.8965811729
99.8841911554
100.297191739
99.8800611496
100.297191739
99.8800611496
99.8800611496
99.9337512255
99.8841911554
99.8635411263
99.8635411263
99.8635411263
99.9337512255
99.9337512255
99.9007111788
99.9502712488
99.9337512255
99.8965811729
99.8841911554
99.9172312021
99.9172312021
99.9337512255
99.9337512255
99.9131011963
99.9131011963
99.8800611496
99.9007111788
99.8635411263
99.8965811729
100.280671716
100.367401838
99.8676711321
99.9007111788
99.9172312021
99.8965811729
99.9296212196
99.8800611496
99.9007111788
99.9337512255
99.8841911554
100.313711762
99.8800611496
99.8800611496
99.9337512255
99.8841911554
99.8965811729
99.8635411263
99.9131011963
99.8635411263
99.8800611496
99.8676711321
99.8965811729
99.8800611496
100.27654171
99.9131011963
99.8800611496
99.9172312021
100.297191739
99.9337512255
99.8800611496
99.8800611496
99.8635411263
99.8800611496
100.27654171
100.297191739
99.9131011963
100.330231786
99.8635411263
99.8635411263
99.8841911554
99.8800611496
100.297191739
99.9337512255
99.8965811729
99.9131011963
99.8841911554
99.8635411263
99.9131011963
99.9172312021
99.9172312021
100.346751809
99.9172312021
99.8800611496
99.8965811729
99.8965811729
99.9544012547
99.8470211029
99.9337512255
99.9337512255
99.9172312021
99.9172312021
99.8965811729
99.8635411263
99.8965811729
99.8965811729
99.9131011963
99.8800611496
99.9337512255
99.8635411263
99.8635411263

Average distance is : 99.947 cm
Average deviation is : 0.136 cm
Block: 7
======================================
99.9007111788
100.280671716
99.8635411263
99.8965811729
99.9172312021
99.8635411263
99.8841911554
99.9172312021
99.9131011963
99.8676711321
99.8800611496
99.9337512255
99.9172312021
100.280671716
99.8800611496
99.9131011963
100.280671716
99.8965811729
99.9007111788
99.8635411263
99.8841911554
99.8965811729
99.8635411263
99.9172312021
100.260021687
99.8841911554
99.8305010796
99.9007111788
99.8800611496
99.9337512255
99.9007111788
99.9007111788
99.9172312021
100.350881815
100.313711762
99.9007111788
100.280671716
99.8635411263
99.8841911554
99.8800611496
99.8635411263
100.313711762
99.8841911554
99.8635411263
99.8800611496
99.8965811729
99.8841911554
99.8676711321
99.8635411263
99.8841911554
99.8800611496
99.9296212196
99.8965811729
99.8841911554
99.8635411263
99.8965811729
99.8841911554
99.8635411263
99.9007111788
99.8800611496
99.8470211029
99.9172312021
99.8635411263
99.9172312021
99.9172312021
99.8800611496
99.8841911554
99.8800611496
99.8800611496
99.8841911554
99.9131011963
99.8800611496
99.8635411263
99.8841911554
99.8841911554
99.9007111788
99.8635411263
99.8965811729
99.8800611496
100.297191739
99.8841911554
99.8635411263
99.9007111788
99.8841911554
99.8965811729
99.8800611496
99.8800611496
99.8470211029
99.8470211029
99.8635411263
99.9337512255
100.280671716
99.8635411263
99.9172312021
99.8676711321
99.8841911554
99.8965811729
99.9131011963
99.8635411263
99.8841911554

Average distance is : 99.928 cm
Average deviation is : 0.125 cm
Block: 8
======================================
99.9007111788
100.301321745
99.8470211029
99.8800611496
99.8800611496
99.9007111788
99.8841911554
93.404211998
99.8470211029
100.313711762
99.9007111788
99.8841911554
99.9007111788
99.8635411263
99.8676711321
99.9007111788
99.8800611496
99.8800611496
99.8635411263
99.8676711321
99.9131011963
99.8470211029
99.8635411263
99.8635411263
99.8841911554
99.8800611496
99.8635411263
99.9131011963
99.8676711321
99.8800611496
99.9131011963
100.346751809
100.280671716
99.9172312021
99.9131011963
99.8841911554
100.280671716
99.9007111788
99.8635411263
99.8676711321
99.8965811729
99.8635411263
99.8635411263
99.8635411263
99.8800611496
99.8800611496
99.8800611496
99.9007111788
99.8965811729
99.8635411263
100.280671716
100.280671716
99.8635411263
99.8635411263
99.8635411263
99.8841911554
99.8965811729
99.8635411263
99.8800611496
99.9337512255
99.8676711321
99.8800611496
99.9007111788
99.8965811729
99.8800611496
99.8635411263
99.8800611496
99.8800611496
99.8800611496
99.8841911554
99.8800611496
99.8841911554
99.8800611496
99.8965811729
99.8841911554
99.8635411263
100.313711762
99.8965811729
99.9007111788
99.8800611496
99.8841911554
99.8635411263
99.9172312021
99.8800611496
99.8800611496
99.8841911554
99.8635411263
99.8800611496
99.9172312021
100.330231786
99.8635411263
99.8841911554
99.8965811729
99.9337512255
99.8800611496
99.8635411263
99.9172312021
100.280671716
99.8635411263
99.8800611496

Average distance is : 99.860 cm
Average deviation is : 0.664 cm
Block: 9
======================================
99.8676711321
100.297191739
99.8841911554
100.297191739
99.8965811729
99.8965811729
99.8470211029
100.330231786
100.297191739
99.9337512255
99.8800611496
100.350881815
99.9172312021
99.9337512255
100.297191739
99.8635411263
99.8841911554
99.8635411263
100.297191739
99.9172312021
99.8800611496
99.8965811729
100.297191739
99.8800611496
99.9007111788
99.8841911554
99.8800611496
99.8800611496
99.9337512255
99.8800611496
99.8841911554
99.8800611496
99.8800611496
99.8800611496
99.8841911554
99.9172312021
99.8841911554
99.8676711321
99.9337512255
99.9007111788
100.330231786
99.9007111788
99.9337512255
99.8470211029
99.8635411263
99.9007111788
99.9337512255
99.9337512255
99.8635411263
99.9007111788
99.9172312021
99.8635411263
100.330231786
99.8676711321
99.9337512255
99.9502712488
99.9172312021
99.9172312021
99.9007111788
99.9007111788
99.9337512255
99.9172312021
99.8635411263
99.9337512255
99.8800611496
99.8841911554
99.8635411263
99.8965811729
99.8635411263
99.8965811729
99.8800611496
99.9131011963
99.8841911554
99.9172312021
99.8635411263
99.8800611496
99.8841911554
99.8635411263
99.9007111788
99.9172312021
99.8841911554
99.8800611496
99.8841911554
99.8800611496
99.9172312021
99.8470211029
99.8800611496
99.8965811729
99.8841911554
99.8841911554
99.8841911554
99.8841911554
99.8800611496
99.8800611496
99.8800611496
99.8676711321
99.8800611496
99.8635411263
99.9172312021
99.8676711321

Average distance is : 99.934 cm
Average deviation is : 0.129 cm
Block: 10
======================================
99.9007111788
99.8800611496
99.8965811729
99.8800611496
100.27654171
99.8800611496
99.9172312021
99.9007111788
99.9007111788
99.8635411263
99.8635411263
99.8635411263
99.8800611496
99.9131011963
99.9502712488
100.280671716
99.9172312021
99.9007111788
99.9172312021
99.9131011963
99.9337512255
99.9337512255
99.9007111788
99.9337512255
99.9337512255
100.334361792
99.8635411263
99.9172312021
99.9337512255
99.8841911554
99.8635411263
99.8800611496
99.9131011963
99.8800611496
99.9131011963
100.297191739
99.9337512255
99.9337512255
99.8800611496
100.297191739
100.280671716
100.297191739
100.313711762
100.280671716
99.8676711321
99.9337512255
100.280671716
99.9337512255
99.9131011963
99.9337512255
99.9131011963
99.9172312021
99.9337512255
99.9502712488
99.9337512255
99.9337512255
99.8800611496
99.8800611496
99.8676711321
99.8800611496
100.330231786
100.297191739
99.8635411263
99.8800611496
99.9172312021
99.9172312021
100.037001371
99.8635411263
99.9007111788
99.8635411263
99.8800611496
99.8800611496
99.8635411263
99.8800611496
100.297191739
99.8800611496
99.9007111788
99.8800611496
99.9172312021
99.9007111788
99.8800611496
99.9337512255
99.8800611496
99.8965811729
99.9172312021
99.9172312021
100.350881815
99.8841911554
99.9337512255
100.280671716
99.8635411263
99.8841911554
100.350881815
99.8800611496
99.8800611496
99.9007111788
99.9172312021
99.9172312021
99.8841911554
99.8965811729

Average distance is : 99.966 cm
Average deviation is : 0.151 cm
Average distance for 10x100 is : 99.926 cm
Average deviation for 10x100 is : 0.174 cm
 Percentage of values that failed: 0.000