
Block: 1
======================================
99.9007111788
99.9007111788
100.330231786
99.9007111788
100.210461617
99.8965811729
99.9007111788
99.9172312021
99.8965811729
99.9007111788
99.8965811729
99.9131011963
99.9007111788
99.9007111788
100.280671716
99.8841911554
99.9172312021
99.8800611496
99.8676711321
99.8965811729
100.313711762
99.8635411263
100.313711762
100.334361792
100.330231786
99.9172312021
99.9172312021
100.313711762
100.330231786
99.9337512255
99.9007111788
99.9007111788
99.8800611496
99.8800611496
99.8965811729
99.8965811729
99.8965811729
99.9131011963
99.9131011963
100.330231786
99.9172312021
100.313711762
99.8841911554
99.9007111788
99.8965811729
99.8965811729
99.9172312021
99.9007111788
99.8965811729
99.8800611496

Block: 2
======================================
99.9337512255
99.9007111788
99.8800611496
99.8965811729
99.8841911554
99.8841911554
99.8635411263
99.8965811729
99.9172312021
99.9337512255
99.8800611496
99.9172312021
100.334361792
99.8965811729
99.8965811729
99.8965811729
99.9007111788
99.8800611496
99.8965811729
99.8800611496
99.9337512255
99.9172312021
99.8965811729
100.313711762
99.8965811729
99.8965811729
100.280671716
99.9007111788
99.8800611496
99.9007111788
100.334361792
99.9007111788
99.9131011963
99.8841911554
99.8841911554
99.9007111788
99.9131011963
99.8800611496
99.9131011963
99.8800611496
99.8841911554
99.9007111788
100.297191739
99.8635411263
99.9007111788
99.8800611496
99.9007111788
99.8635411263
99.8800611496
99.8800611496

Block: 3
======================================
99.8635411263
99.9172312021
99.9337512255
99.9172312021
99.9007111788
99.8965811729
99.8470211029
99.9337512255
100.330231786
99.8635411263
99.8965811729
100.297191739
99.9131011963
99.9007111788
99.9131011963
99.9172312021
99.8841911554
99.8841911554
99.8965811729
99.8965811729
99.8965811729
99.8800611496
99.8965811729
99.8800611496
99.9007111788
99.8841911554
99.8800611496
99.8965811729
99.8965811729
99.8965811729
99.8800611496
99.8800611496
99.8965811729
99.9172312021
99.8965811729
99.8965811729
99.8965811729
99.9007111788
99.8841911554
99.9007111788
99.8800611496
99.8800611496
99.8841911554
99.9007111788
100.297191739
99.8800611496
99.8965811729
99.8965811729
99.8965811729
99.9172312021

Block: 4
======================================
99.8841911554
99.8800611496
99.9007111788
99.8841911554
99.9007111788
99.9172312021
99.9007111788
99.8841911554
99.9172312021
99.9337512255
99.9172312021
99.9172312021
99.8965811729
100.313711762
99.9007111788
99.8841911554
99.8965811729
99.8841911554
99.9172312021
99.9007111788
99.8841911554
99.9007111788
99.9007111788
99.8965811729
99.8965811729
99.9007111788
99.9131011963
99.8841911554
99.9337512255
99.9172312021
99.8635411263
99.8800611496
99.8800611496
99.9172312021
99.9131011963
99.9007111788
99.8841911554
99.8841911554
99.8841911554
99.8800611496
99.9007111788
99.8676711321
99.8800611496
99.9007111788
99.8841911554
100.313711762
99.8965811729
99.9172312021
99.9007111788
99.8841911554

Block: 5
======================================
99.9131011963
99.8800611496
99.9007111788
99.8841911554
99.8800611496
99.8965811729
99.9007111788
99.8965811729
100.313711762
99.8635411263
99.9007111788
99.9337512255
99.9007111788
99.8635411263
99.8965811729
99.8800611496
99.8965811729
99.8800611496
99.8841911554
99.9007111788
99.9172312021
99.9007111788
99.8965811729
99.8965811729
99.9007111788
99.8676711321
99.8635411263
99.9007111788
99.8965811729
99.9007111788
99.9131011963
99.9172312021
99.9007111788
99.9007111788
99.8841911554
99.9172312021
99.8635411263
99.9007111788
99.8965811729
99.8800611496
99.8800611496
99.8800611496
99.8800611496
100.317841768
99.8965811729
100.313711762
100.350881815
99.8841911554
99.8965811729
99.8841911554

Block: 6
======================================
99.8800611496
99.8965811729
99.8841911554
99.9172312021
99.9172312021
99.9007111788
99.8965811729
99.9337512255
99.9007111788
99.8800611496
99.9007111788
99.8841911554
99.9007111788
99.9007111788
99.9007111788
99.8800611496
99.9007111788
99.9007111788
99.9007111788
99.9172312021
99.8841911554
99.9172312021
99.9007111788
99.9172312021
99.9007111788
99.8841911554
99.9172312021
99.9007111788
99.9131011963
99.8800611496
99.8965811729
99.8800611496
99.9131011963
99.8800611496
100.330231786
99.8965811729
99.9172312021
99.9007111788
99.8841911554
99.8965811729
99.9172312021
99.8841911554
99.8841911554
99.8800611496
99.8676711321
99.8800611496
99.8635411263
99.8635411263
99.8635411263
99.9172312021

Block: 7
======================================
99.8965811729
100.317841768
99.9172312021
99.9502712488
99.9337512255
99.9007111788
99.9502712488
99.8305010796
100.297191739
99.9172312021
99.9172312021
99.9007111788
100.297191739
99.8800611496
99.8800611496
99.8965811729
99.8800611496
99.8965811729
99.8635411263
99.8841911554
100.313711762
99.9007111788
99.9172312021
100.280671716
99.8800611496
100.313711762
99.9007111788
99.8965811729
99.8635411263
99.8965811729
99.8800611496
99.9172312021
99.9007111788
99.8965811729
99.9007111788
99.8841911554
99.9007111788
99.9007111788
99.9007111788
99.8800611496
99.8800611496
99.9172312021
99.9007111788
99.9172312021
99.8965811729
99.9007111788
99.9007111788
99.9007111788
99.8841911554
99.8800611496

Block: 8
======================================
100.330231786
99.8841911554
99.9007111788
99.8635411263
99.8965811729
99.8965811729
99.8470211029
99.8635411263
99.8841911554
99.9337512255
100.317841768
99.9131011963
100.330231786
99.9007111788
99.8965811729
100.313711762
99.8965811729
99.9007111788
99.8841911554
99.8841911554
99.8676711321
99.8841911554
99.8841911554
99.8800611496
99.9007111788
99.9007111788
99.8965811729
99.8800611496
99.8800611496
99.8800611496
99.9007111788
99.8800611496
100.280671716
99.8841911554
99.8676711321
99.9007111788
99.8800611496
99.8470211029
99.9007111788
99.8800611496
99.8965811729
99.9007111788
99.8841911554
99.9007111788
99.9007111788
99.8800611496
99.8841911554
99.9007111788
99.8841911554
99.8800611496

Block: 9
======================================
99.8470211029
99.8800611496
99.8470211029
99.9172312021
100.334361792
99.516620636
99.8800611496
99.8965811729
99.8305010796
100.313711762
99.8800611496
99.8841911554
100.297191739
99.9172312021
100.313711762
99.8965811729
99.8841911554
99.8800611496
99.8965811729
99.8800611496
99.8965811729
99.9337512255
99.9172312021
99.8965811729
99.9007111788
99.9007111788
99.8965811729
99.8965811729
99.8800611496
99.9172312021
99.9337512255
99.9131011963
99.8800611496
99.9007111788
99.9007111788
99.8841911554
99.8841911554
99.9007111788
99.9337512255
99.8965811729
99.8965811729
99.8800611496
99.8800611496
99.9172312021
99.8841911554
99.9172312021
99.9172312021
99.9172312021
99.9172312021
99.8965811729

Block: 10
======================================
99.8841911554
99.8676711321
99.8841911554
99.9007111788
100.280671716
99.8800611496
99.9007111788
99.8800611496
99.9007111788
99.8635411263
99.9007111788
99.9007111788
99.8800611496
99.8965811729
99.9007111788
99.9007111788
99.8965811729
99.9172312021
99.8965811729
99.9131011963
99.8841911554
99.9172312021
99.9337512255
99.9131011963
99.9007111788
99.8800611496
99.8800611496
99.8800611496
99.8965811729
99.9337512255
99.9337512255
99.8800611496
99.8800611496
99.8635411263
99.9502712488
99.8841911554
99.8676711321
99.9007111788
99.8676711321
99.8676711321
99.9007111788
99.9007111788
99.8800611496
99.8635411263
99.8800611496
99.9007111788
99.8841911554
99.8841911554
99.8800611496
99.9007111788
