
Block: 1
======================================
99.8965811729
99.8800611496
100.317841768
99.9172312021
99.9502712488

Average distance is : 99.992 cm
Average deviation is : 0.184 cm
Block: 2
======================================
99.9337512255
99.9337512255
100.350881815
99.9172312021
100.350881815

Average distance is : 100.097 cm
Average deviation is : 0.232 cm
Block: 3
======================================
99.8841911554
99.9131011963
99.8635411263
99.9131011963
99.8841911554

Average distance is : 99.892 cm
Average deviation is : 0.021 cm
Block: 4
======================================
99.9502712488
99.8800611496
100.346751809
99.9007111788
99.8635411263

Average distance is : 99.988 cm
Average deviation is : 0.203 cm
Block: 5
======================================
99.9337512255
99.8841911554
99.8635411263
99.8676711321
99.8635411263

Average distance is : 99.883 cm
Average deviation is : 0.030 cm
Block: 6
======================================
99.9007111788
99.8470211029
99.8635411263
99.8800611496
99.8841911554

Average distance is : 99.875 cm
Average deviation is : 0.021 cm
Block: 7
======================================
99.8841911554
100.280671716
99.8965811729
99.8841911554
100.280671716

Average distance is : 100.045 cm
Average deviation is : 0.215 cm
Block: 8
======================================
99.8635411263
99.9007111788
99.9007111788
99.9172312021
99.9007111788

Average distance is : 99.897 cm
Average deviation is : 0.020 cm
Block: 9
======================================
99.8800611496
100.317841768
99.8635411263
99.9131011963
99.8635411263

Average distance is : 99.968 cm
Average deviation is : 0.197 cm
Block: 10
======================================
99.9172312021
100.330231786
99.8635411263
99.9337512255
99.8470211029

Average distance is : 99.978 cm
Average deviation is : 0.200 cm
Average distance for 10x5 is : 99.962 cm
Average deviation for 10x5 is : 0.132 cm
 Percentage of values that failed: 0.000