
Block: 1
======================================
99.8841911554
99.8470211029
99.8676711321
99.8800611496
99.9007111788
99.8965811729
99.8800611496
99.8635411263
99.8635411263
99.8965811729

Average distance is : 99.878 cm
Average deviation is : 0.017 cm
Block: 2
======================================
99.8841911554
99.8841911554
99.8965811729
99.8800611496
99.8635411263
99.8800611496
100.313711762
99.9172312021
99.8800611496
99.9007111788

Average distance is : 99.930 cm
Average deviation is : 0.136 cm
Block: 3
======================================
99.8965811729
99.9502712488
99.8965811729
99.8965811729
99.9172312021
99.9337512255
99.8841911554
99.9131011963
99.9296212196
99.8800611496

Average distance is : 99.910 cm
Average deviation is : 0.023 cm
Block: 4
======================================
99.8841911554
99.9337512255
100.346751809
99.8676711321
99.9007111788
99.8800611496
99.8635411263
99.8800611496
100.297191739
99.9172312021

Average distance is : 99.977 cm
Average deviation is : 0.183 cm
Block: 5
======================================
99.9007111788
99.9007111788
99.8263710737
100.317841768
100.330231786
100.313711762
99.9172312021
99.8841911554
99.9172312021
99.8841911554

Average distance is : 100.019 cm
Average deviation is : 0.210 cm
Block: 6
======================================
99.9007111788
99.8841911554
99.9337512255
100.313711762
99.8841911554
99.8800611496
99.8841911554
99.8635411263
99.8965811729
99.8965811729

Average distance is : 99.934 cm
Average deviation is : 0.135 cm
Block: 7
======================================
99.8635411263
99.9131011963
99.9007111788
99.8841911554
99.8470211029
99.8800611496
99.8965811729
99.9007111788
99.8800611496
100.264151692

Average distance is : 99.923 cm
Average deviation is : 0.121 cm
Block: 8
======================================
99.8800611496
99.8841911554
99.9007111788
99.8965811729
99.9172312021
99.8635411263
99.8635411263
99.8965811729
99.8965811729
100.313711762

Average distance is : 99.931 cm
Average deviation is : 0.135 cm
Block: 9
======================================
99.9172312021
99.9007111788
99.9172312021
99.8965811729
99.8965811729
99.9172312021
99.8965811729
99.8800611496
99.8800611496
100.280671716

Average distance is : 99.938 cm
Average deviation is : 0.121 cm
Block: 10
======================================
99.8800611496
100.350881815
99.8841911554
99.8635411263
99.8841911554
100.280671716
99.9007111788
99.9007111788
99.8965811729
99.9007111788

Average distance is : 99.974 cm
Average deviation is : 0.181 cm
Average distance for 10x10 is : 99.941 cm
Average deviation for 10x10 is : 0.126 cm
 Percentage of values that failed: 0.000