
Block: 1
======================================
200.11262753
200.519848847
200.12484417
200.075977612
200.556498766
200.556498766
200.075977612
200.556498766
200.075977612
200.075977612
200.556498766
200.980008936
200.092266464
200.108555317
200.092266464
200.552426553
200.096338677
201.000370002
201.032947707
200.075977612
200.080049825
200.540209913
200.556498766
200.108555317
200.108555317
200.092266464
200.568715405
200.092266464
200.075977612
200.092266464
200.108555317
200.108555317
200.096338677
200.108555317
200.092266464
200.572787619
200.059688759
200.11262753
200.096338677
200.5361377
200.552426553
200.092266464
200.11262753
200.092266464
200.556498766
200.059688759
200.5361377
200.5361377
200.092266464
200.540209913
200.556498766
200.568715405
200.556498766
200.540209913
200.075977612
200.980008936
200.5361377
200.556498766
200.092266464
200.096338677
200.075977612
200.540209913
200.5361377
200.096338677
200.540209913
200.556498766
200.092266464
200.092266464
200.556498766
200.5361377
200.11262753
200.096338677
200.572787619
200.519848847
200.11262753
200.092266464
200.556498766
200.5361377
200.075977612
200.092266464
200.075977612
200.092266464
200.108555317
200.5361377
200.552426553
200.075977612
200.568715405
200.5361377
200.556498766
201.016658854
200.519848847
200.572787619
200.572787619
200.108555317
200.12484417
200.605365324
200.552426553
200.075977612
200.568715405
201.04923656

Average distance is : 200.345 cm
Average deviation is : 0.280 cm
Block: 2
======================================
200.12484417
200.092266464
201.012586641
200.589076471
200.108555317
200.12484417
200.075977612
200.128916383
200.11262753
200.568715405
200.552426553
200.556498766
200.075977612
200.552426553
200.572787619
200.5361377
200.092266464
200.075977612
200.128916383
200.11262753
200.556498766
200.11262753
200.552426553
200.572787619
200.092266464
200.11262753
200.552426553
200.108555317
200.540209913
200.996297789
201.000370002
201.032947707
200.092266464
201.032947707
200.108555317
200.092266464
201.032947707
201.032947707
200.572787619
200.145205235
200.128916383
200.572787619
201.032947707
200.5361377
201.000370002
200.568715405
201.016658854
200.540209913
200.589076471
200.568715405
200.572787619
200.11262753
200.108555317
200.568715405
200.11262753
200.556498766
200.128916383
200.540209913
200.568715405
200.572787619
200.092266464
200.568715405
200.11262753
201.032947707
201.000370002
200.108555317
200.556498766
200.556498766
200.552426553
200.572787619
200.540209913
200.540209913
201.012586641
200.092266464
200.075977612
200.5361377
200.108555317
200.096338677
200.556498766
200.556498766
200.552426553
200.075977612
200.12484417
200.108555317
200.075977612
200.096338677
200.540209913
200.572787619
200.552426553
200.11262753
200.11262753
200.568715405
200.11262753
200.108555317
200.092266464
200.096338677
200.128916383
200.075977612
200.5361377
200.108555317

Average distance is : 200.410 cm
Average deviation is : 0.318 cm
Block: 3
======================================
201.012586641
200.996297789
200.556498766
201.000370002
200.145205235
200.572787619
200.589076471
200.572787619
201.032947707
199.685045147
200.552426553
200.128916383
200.12484417
200.12484417
201.012586641
201.032947707
200.572787619
200.092266464
200.5361377
201.028875494
200.552426553
200.161494088
199.648395228
200.552426553
200.572787619
200.11262753
200.552426553
200.556498766
200.556498766
200.589076471
200.075977612
201.016658854
201.016658854
200.996297789
201.032947707
201.028875494
200.12484417
200.556498766
201.012586641
200.5361377
201.016658854
200.556498766
201.016658854
200.984081149
201.016658854
201.016658854
201.032947707
200.690881801
201.032947707
201.000370002
200.092266464
200.145205235
199.664684081
201.000370002
201.032947707
201.032947707
200.556498766
201.016658854
200.11262753
200.080049825
200.572787619
200.075977612
200.128916383
200.984081149
200.12484417
200.568715405
200.128916383
200.141133022
201.016658854
201.000370002
200.128916383
200.589076471
200.141133022
200.145205235
200.128916383
201.016658854
199.664684081
201.000370002
200.572787619
200.556498766
200.145205235
200.161494088
201.016658854
200.145205235
200.589076471
200.589076471
200.589076471
200.12484417
200.141133022
200.11262753
201.012586641
201.000370002
201.000370002
200.552426553
201.032947707
200.572787619
200.609437537
200.145205235
200.128916383
200.108555317

Average distance is : 200.552 cm
Average deviation is : 0.406 cm
Block: 4
======================================
201.000370002
201.016658854
201.000370002
200.963720083
200.589076471
200.996297789
201.016658854
200.980008936
200.980008936
200.996297789
201.032947707
200.556498766
201.000370002
200.540209913
200.540209913
201.000370002
200.552426553
201.016658854
200.572787619
200.552426553
200.556498766
200.552426553
200.11262753
200.092266464
200.092266464
200.572787619
200.572787619
200.128916383
201.012586641
200.568715405
201.016658854
201.000370002
201.032947707
200.108555317
200.568715405
201.016658854
200.996297789
200.12484417
200.108555317
200.145205235
200.12484417
200.11262753
200.092266464
200.108555317
200.589076471
200.11262753
200.589076471
200.572787619
200.556498766
201.000370002
200.568715405
200.996297789
200.552426553
201.000370002
200.145205235
200.568715405
200.898564672
200.519848847
201.000370002
200.572787619
200.984081149
200.552426553
200.552426553
201.032947707
201.016658854
200.572787619
201.000370002
201.016658854
200.605365324
201.012586641
200.572787619
200.161494088
201.016658854
201.016658854
200.12484417
200.161494088
201.016658854
200.996297789
200.108555317
200.161494088
201.032947707
200.12484417
200.145205235
200.996297789
201.012586641
200.605365324
200.128916383
200.145205235
200.128916383
200.128916383
200.12484417
200.141133022
201.032947707
201.016658854
200.605365324
200.145205235
200.145205235
200.092266464
200.11262753
200.145205235

Average distance is : 200.597 cm
Average deviation is : 0.371 cm
Block: 5
======================================
200.572787619
199.685045147
200.128916383
200.605365324
200.161494088
200.177782941
200.128916383
200.161494088
200.145205235
200.141133022
200.145205235
200.161494088
200.145205235
201.04923656
200.145205235
200.145205235
200.12484417
200.161494088
200.145205235
200.621654177
201.04923656
200.62572639
200.589076471
200.621654177
200.161494088
200.194071794
200.177782941
200.161494088
201.102175331
200.161494088
200.605365324
200.621654177
200.161494088
201.085886478
200.605365324
200.145205235
200.161494088
201.069597626
201.032947707
201.04923656
201.085886478
200.605365324
200.181855154
200.194071794
200.177782941
200.145205235
201.065525413
201.069597626
200.141133022
201.102175331
200.181855154
201.085886478
200.214432859
199.717622852
201.081814265
199.717622852
201.065525413
199.733911705
200.637943029
200.621654177
200.177782941
201.085886478
201.069597626
201.065525413
200.62572639
200.198144007
200.605365324
199.733911705
199.733911705
201.098103118
199.733911705
200.194071794
200.161494088
201.065525413
200.658304095
200.194071794
200.161494088
201.920690179
201.04923656
200.181855154
200.605365324
200.674592948
200.181855154
200.181855154
201.069597626
201.069597626
201.085886478
200.181855154
200.177782941
200.177782941
201.081814265
201.098103118
201.065525413
200.637943029
201.04923656
201.065525413
201.081814265
200.194071794
201.065525413
200.621654177

Average distance is : 200.510 cm
Average deviation is : 0.462 cm
Block: 6
======================================
201.04923656
200.621654177
200.181855154
200.12484417
200.621654177
200.605365324
201.065525413
200.161494088
200.161494088
200.161494088
200.161494088
201.069597626
200.145205235
200.605365324
200.637943029
200.637943029
201.065525413
201.04923656
201.085886478
200.621654177
201.065525413
201.04923656
200.177782941
201.081814265
201.081814265
199.717622852
200.161494088
200.194071794
201.065525413
200.609437537
200.145205235
201.069597626
200.605365324
200.609437537
201.085886478
201.081814265
200.605365324
201.069597626
201.102175331
200.609437537
200.62572639
200.605365324
200.621654177
201.081814265
200.621654177
200.589076471
200.198144007
200.128916383
200.585004258
200.165566301
200.161494088
200.637943029
200.621654177
200.605365324
200.605365324
201.069597626
200.145205235
201.04923656
200.621654177
200.605365324
200.609437537
200.161494088
200.605365324
200.12484417
200.198144007
201.085886478
200.605365324
200.145205235
200.605365324
201.065525413
201.065525413
201.085886478
200.605365324
200.161494088
200.589076471
200.637943029
200.605365324
200.141133022
200.621654177
200.198144007
200.194071794
201.069597626
200.198144007
200.621654177
201.081814265
201.065525413
200.161494088
201.069597626
200.181855154
201.04923656
201.069597626
201.04923656
201.065525413
201.053308773
200.194071794
200.177782941
200.161494088
201.085886478
200.181855154
200.658304095

Average distance is : 200.617 cm
Average deviation is : 0.375 cm
Block: 7
======================================
200.198144007
200.161494088
199.701334
199.701334
200.198144007
199.717622852
200.161494088
201.069597626
199.750200558
200.605365324
200.177782941
200.161494088
200.177782941
200.161494088
200.470982289
201.081814265
201.065525413
200.605365324
200.589076471
200.177782941
200.605365324
201.069597626
199.754272771
200.11262753
200.609437537
201.04923656
199.717622852
201.065525413
199.701334
201.069597626
200.214432859
200.621654177
200.621654177
201.065525413
201.065525413
200.605365324
201.069597626
201.081814265
200.621654177
200.141133022
200.621654177
200.605365324
201.04923656
200.177782941
200.589076471
200.62572639
200.589076471
200.585004258
201.04923656
200.145205235
200.605365324
200.637943029
200.605365324
200.589076471
200.621654177
200.165566301
201.069597626
200.605365324
200.145205235
200.589076471
200.605365324
200.145205235
200.161494088
200.605365324
200.145205235
201.032947707
200.11262753
200.589076471
200.589076471
200.589076471
200.621654177
200.177782941
200.12484417
200.145205235
201.053308773
201.081814265
200.589076471
200.589076471
201.065525413
201.028875494
201.065525413
199.737983918
200.161494088
200.589076471
200.621654177
200.605365324
200.589076471
200.177782941
200.621654177
199.750200558
200.145205235
200.637943029
200.177782941
201.032947707
200.161494088
200.621654177
199.733911705
200.605365324
199.717622852
200.161494088

Average distance is : 200.474 cm
Average deviation is : 0.414 cm
Block: 8
======================================
200.605365324
200.145205235
200.128916383
200.141133022
200.161494088
200.609437537
200.145205235
200.12484417
200.161494088
201.032947707
200.108555317
200.11262753
200.589076471
200.605365324
200.128916383
200.585004258
200.145205235
200.161494088
200.145205235
200.141133022
200.145205235
200.589076471
200.605365324
200.609437537
199.685045147
200.161494088
200.605365324
200.589076471
200.605365324
201.032947707
200.128916383
200.589076471
201.032947707
201.04923656
200.128916383
201.069597626
200.141133022
200.605365324
200.589076471
200.161494088
200.621654177
200.128916383
200.589076471
200.108555317
200.572787619
200.145205235
200.12484417
199.701334
200.141133022
200.161494088
200.145205235
200.589076471
200.145205235
200.145205235
200.161494088
200.12484417
200.145205235
200.128916383
200.145205235
200.128916383
200.605365324
201.012586641
200.128916383
200.128916383
200.605365324
200.128916383
200.568715405
201.032947707
200.145205235
200.161494088
201.032947707
200.12484417
200.605365324
201.016658854
201.032947707
200.996297789
200.128916383
200.128916383
200.12484417
200.108555317
201.032947707
200.589076471
201.016658854
201.032947707
201.016658854
200.128916383
200.108555317
200.128916383
200.12484417
200.11262753
200.589076471
200.572787619
200.141133022
200.128916383
200.128916383
200.128916383
200.11262753
200.108555317
200.11262753
200.145205235

Average distance is : 200.375 cm
Average deviation is : 0.347 cm
Block: 9
======================================
200.108555317
200.145205235
200.552426553
200.996297789
201.032947707
200.128916383
200.11262753
200.11262753
200.145205235
200.145205235
200.585004258
201.012586641
200.145205235
200.996297789
200.996297789
201.000370002
199.664684081
199.664684081
200.145205235
199.685045147
201.000370002
200.556498766
200.128916383
200.145205235
200.12484417
200.108555317
200.605365324
200.568715405
200.5361377
200.996297789
201.032947707
200.996297789
201.016658854
200.572787619
200.996297789
200.984081149
200.996297789
200.108555317
200.145205235
200.128916383
200.108555317
200.145205235
200.589076471
201.016658854
200.552426553
200.108555317
201.000370002
200.128916383
200.145205235
201.032947707
201.04923656
200.552426553
200.128916383
201.012586641
200.568715405
200.145205235
200.12484417
200.108555317
200.605365324
200.572787619
200.572787619
201.032947707
201.032947707
199.685045147
200.145205235
200.161494088
201.032947707
200.161494088
200.161494088
200.145205235
200.12484417
200.161494088
201.032947707
200.145205235
200.145205235
200.12484417
200.12484417
200.145205235
200.589076471
200.128916383
200.11262753
200.145205235
200.141133022
200.12484417
200.145205235
200.145205235
200.108555317
200.108555317
200.605365324
200.605365324
200.609437537
200.128916383
200.589076471
200.128916383
200.145205235
200.12484417
200.161494088
200.589076471
200.12484417
200.642015243

Average distance is : 200.412 cm
Average deviation is : 0.391 cm
Block: 10
======================================
201.053308773
201.081814265
200.177782941
200.194071794
201.102175331
201.032947707
200.589076471
201.053308773
200.128916383
200.198144007
200.585004258
200.572787619
201.04923656
201.065525413
200.605365324
201.04923656
200.642015243
200.177782941
201.04923656
200.181855154
200.194071794
201.04923656
200.161494088
200.177782941
201.065525413
200.605365324
201.081814265
200.194071794
200.194071794
201.065525413
201.085886478
200.177782941
200.177782941
200.161494088
200.198144007
200.181855154
200.194071794
200.177782941
200.165566301
200.214432859
200.214432859
200.198144007
200.177782941
200.177782941
200.198144007
200.177782941
200.658304095
200.181855154
200.198144007
200.214432859
200.177782941
200.637943029
200.177782941
200.642015243
200.642015243
200.642015243
200.198144007
200.214432859
200.194071794
200.658304095
200.177782941
200.177782941
200.194071794
200.198144007
200.658304095
200.654231882
200.194071794
200.637943029
201.081814265
200.177782941
200.161494088
200.674592948
200.177782941
200.198144007
200.194071794
200.177782941
200.214432859
200.214432859
200.230721712
200.194071794
200.194071794
200.210360646
200.194071794
200.230721712
200.194071794
201.098103118
200.674592948
199.733911705
200.198144007
200.214432859
200.198144007
200.214432859
200.214432859
200.230721712
200.177782941
200.658304095
200.198144007
200.194071794
201.509396648
200.642015243

Average distance is : 200.425 cm
Average deviation is : 0.356 cm