
Block: 1
======================================
299.378316498
298.935232687
299.378316498
299.410836411
298.951492643
299.410836411
299.410836411
298.951492643
299.374251509
298.9677526
299.427096367
299.374251509
298.9677526
299.394576454
299.378316498
168.741762114
138.392553568
168.278353357
139.262461233
168.282418346
141.24211092
165.449120951
142.502257538
164.205234289
143.746144199
165.058881998
141.941289043
164.733682871
299.410836411
299.4149014
299.362056541
298.935232687
299.447421312
298.988077545
298.951492643
299.378316498
299.374251509
299.427096367
299.394576454
298.951492643
299.362056541
299.394576454
298.951492643
299.410836411
299.410836411
299.394576454
299.410836411
298.931167698
299.394576454
299.410836411

Average distance is : 261.693 cm
Average deviation is : 64.364 cm
Block: 2
======================================
299.431161356
298.951492643
299.410836411
298.984012556
299.378316498
298.9677526
299.378316498
299.443356323
298.951492643
299.394576454
299.410836411
298.935232687
299.4149014
299.362056541
299.410836411
299.394576454
299.378316498
298.951492643
299.410836411
299.394576454
299.378316498
298.951492643
299.410836411
299.378316498
299.410836411
299.394576454
299.357991552
299.427096367
298.931167698
299.378316498
299.394576454
299.394576454
298.9677526
298.951492643
299.410836411
298.951492643
299.394576454
299.410836411
298.951492643
299.394576454
298.951492643
299.362056541
299.447421312
298.971817589
298.9677526
299.362056541
299.410836411
298.918972731
299.378316498
299.378316498

Average distance is : 299.255 cm
Average deviation is : 0.210 cm
Block: 3
======================================
299.394576454
299.378316498
299.410836411
299.410836411
299.4149014
298.951492643
299.410836411
299.362056541
299.394576454
298.918972731
299.378316498
299.394576454
299.410836411
299.410836411
299.4149014
299.427096367
298.914907742
299.378316498
299.410836411
299.362056541
298.931167698
298.935232687
299.410836411
299.427096367
299.378316498
299.362056541
298.935232687
299.410836411
299.394576454
299.378316498
299.410836411
298.988077545
299.394576454
298.918972731
298.951492643
299.394576454
299.378316498
299.427096367
299.410836411
298.931167698
299.378316498
299.362056541
299.410836411
299.394576454
299.378316498
299.427096367
298.935232687
299.394576454
298.898647785
299.394576454

Average distance is : 299.286 cm
Average deviation is : 0.201 cm
Block: 4
======================================
299.427096367
298.914907742
299.374251509
299.394576454
299.4149014
298.914907742
299.431161356
299.427096367
299.394576454
299.378316498
299.427096367
298.951492643
299.357991552
299.394576454
299.410836411
299.020597458
299.427096367
298.931167698
299.410836411
298.951492643
298.951492643
298.951492643
299.378316498
299.378316498
299.427096367
298.9677526
299.394576454
299.378316498
299.4149014
298.951492643
298.914907742
299.410836411
299.427096367
299.431161356
299.378316498
298.951492643
299.394576454
299.410836411
299.431161356
299.410836411
298.524668789
299.410836411
298.9677526
299.410836411
299.394576454
299.000272512
299.427096367
299.394576454
299.394576454
299.427096367

Average distance is : 299.261 cm
Average deviation is : 0.232 cm
Block: 5
======================================
299.394576454
298.951492643
299.410836411
299.443356323
298.988077545
299.410836411
299.443356323
298.951492643
298.988077545
298.988077545
299.447421312
298.9677526
298.9677526
299.431161356
299.410836411
298.984012556
299.427096367
299.410836411
299.431161356
299.394576454
299.431161356
299.427096367
299.394576454
299.443356323
299.410836411
298.988077545
299.410836411
298.984012556
299.447421312
299.410836411
298.9677526
298.988077545
298.9677526
299.394576454
299.410836411
299.410836411
298.984012556
299.394576454
299.447421312
299.410836411
299.410836411
298.988077545
299.410836411
299.410836411
298.9677526
299.394576454
299.427096367
298.951492643
299.427096367
299.447421312

Average distance is : 299.268 cm
Average deviation is : 0.213 cm
Block: 6
======================================
299.394576454
299.000272512
299.394576454
299.431161356
298.988077545
298.951492643
298.935232687
298.918972731
298.9677526
299.410836411
299.410836411
298.508408833
299.410836411
299.410836411
299.463681269
298.984012556
299.431161356
299.020597458
298.9677526
299.410836411
298.9677526
299.427096367
299.431161356
299.443356323
299.410836411
299.45961628
299.394576454
299.431161356
298.9677526
299.427096367
299.427096367
298.935232687
299.020597458
299.427096367
298.9677526
298.951492643
299.427096367
299.427096367
299.410836411
299.427096367
299.394576454
299.427096367
299.4149014
299.378316498
299.4149014
298.951492643
298.9677526
298.9677526
299.016532469
299.378316498

Average distance is : 299.230 cm
Average deviation is : 0.243 cm
Block: 7
======================================
300.179119349
299.394576454
298.9677526
299.378316498
299.410836411
299.394576454
299.394576454
299.394576454
298.984012556
298.984012556
299.394576454
299.004337502
299.004337502
299.431161356
298.9677526
299.394576454
299.427096367
299.427096367
298.988077545
299.394576454
299.4149014
298.935232687
299.410836411
299.431161356
299.463681269
299.378316498
299.4149014
298.951492643
298.9677526
299.378316498
299.394576454
298.988077545
299.410836411
299.004337502
299.410836411
298.9677526
298.951492643
298.971817589
298.9677526
299.431161356
299.427096367
298.935232687
298.984012556
299.394576454
299.431161356
299.427096367
299.431161356
299.431161356
298.9677526
299.410836411

Average distance is : 299.260 cm
Average deviation is : 0.252 cm
Block: 8
======================================
298.9677526
298.951492643
298.951492643
299.431161356
299.410836411
299.410836411
299.447421312
298.971817589
299.4149014
299.020597458
299.362056541
299.427096367
299.394576454
299.427096367
298.984012556
299.410836411
299.4149014
298.9677526
298.951492643
299.374251509
298.9677526
298.971817589
298.9677526
299.410836411
299.410836411
299.410836411
299.000272512
299.4149014
299.410836411
299.410836411
299.463681269
299.394576454
299.447421312
298.951492643
298.951492643
299.447421312
299.427096367
299.378316498
298.935232687
298.951492643
299.378316498
299.447421312
298.918972731
299.410836411
299.004337502
298.988077545
299.362056541
298.9677526
299.394576454
299.427096367

Average distance is : 299.234 cm
Average deviation is : 0.222 cm
Block: 9
======================================
299.431161356
299.394576454
299.4149014
299.410836411
299.427096367
299.394576454
299.394576454
299.410836411
299.394576454
299.410836411
299.004337502
299.362056541
299.394576454
298.9677526
299.427096367
299.431161356
299.394576454
299.427096367
298.951492643
299.447421312
299.256366825
299.410836411
298.971817589
299.394576454
299.410836411
298.935232687
299.45961628
298.951492643
299.394576454
299.427096367
299.374251509
299.443356323
299.443356323
299.431161356
299.427096367
299.394576454
298.918972731
299.000272512
298.984012556
299.394576454
298.9677526
299.4149014
299.410836411
299.410836411
299.378316498
299.4149014
299.394576454
298.9677526
299.431161356
299.410836411

Average distance is : 299.310 cm
Average deviation is : 0.188 cm
Block: 10
======================================
299.394576454
298.9677526
299.410836411
299.378316498
299.443356323
299.020597458
299.427096367
299.427096367
299.431161356
298.984012556
299.447421312
299.4149014
299.427096367
298.951492643
299.004337502
299.463681269
299.447421312
298.9677526
299.004337502
298.984012556
299.394576454
299.447421312
299.410836411
299.427096367
299.447421312
299.463681269
299.004337502
299.410836411
299.427096367
299.410836411
299.394576454
298.984012556
299.443356323
299.447421312
299.447421312
298.9677526
298.935232687
299.410836411
298.984012556
298.984012556
298.984012556
298.9677526
299.410836411
299.447421312
299.427096367
298.971817589
299.309211683
299.378316498
299.394576454
299.447421312

Average distance is : 299.272 cm
Average deviation is : 0.213 cm