
Block: 1
======================================
197.75074389
198.198687339
198.166109633
198.182398486
198.182398486
198.198687339
198.145748568
198.182398486
198.16203742
198.194615126
197.754816103
198.16203742
198.182398486
198.145748568
198.214976192
198.145748568
198.194615126
198.182398486
198.16203742
198.235337257
198.178326273
198.182398486
198.16203742
198.198687339
198.16203742
198.178326273
198.198687339
197.718166184
198.182398486
197.767032743
197.734455037
198.16203742
197.754816103
198.182398486
197.734455037
197.73852725
198.145748568
198.145748568
198.145748568
198.166109633
197.734455037
198.166109633
198.166109633
198.194615126
198.166109633
198.16203742
198.214976192
198.182398486
198.166109633
198.16203742

Block: 2
======================================
198.198687339
198.182398486
198.182398486
198.214976192
198.198687339
198.145748568
198.166109633
197.718166184
198.214976192
198.198687339
198.178326273
198.198687339
198.198687339
198.198687339
198.166109633
198.198687339
198.166109633
198.182398486
198.178326273
198.166109633
198.178326273
198.16203742
198.182398486
198.145748568
198.166109633
198.16203742
197.705949545
198.178326273
198.178326273
198.166109633
198.182398486
198.198687339
198.182398486
198.194615126
198.214976192
198.178326273
198.178326273
198.16203742
197.722238398
198.145748568
198.194615126
198.178326273
198.231265044
198.166109633
198.182398486
198.182398486
197.718166184
198.194615126
198.178326273
198.145748568

Block: 3
======================================
197.754816103
198.194615126
197.734455037
197.73852725
198.25162611
198.198687339
197.718166184
198.145748568
198.182398486
198.182398486
198.182398486
198.198687339
198.166109633
197.75074389
197.722238398
198.178326273
198.231265044
197.734455037
197.754816103
197.807754874
197.754816103
197.73852725
198.194615126
198.166109633
198.210903978
198.198687339
198.166109633
198.178326273
198.194615126
198.231265044
198.198687339
198.214976192
198.194615126
198.198687339
198.198687339
198.214976192
198.231265044
198.198687339
197.754816103
198.182398486
198.214976192
198.182398486
198.178326273
198.231265044
197.718166184
198.198687339
198.145748568
198.194615126
197.754816103
198.182398486

Block: 4
======================================
198.182398486
198.194615126
198.178326273
198.198687339
198.194615126
198.182398486
198.198687339
198.214976192
197.771104956
198.198687339
198.182398486
198.198687339
198.198687339
198.194615126
198.198687339
198.198687339
198.198687339
198.198687339
198.214976192
198.198687339
198.235337257
197.718166184
198.214976192
197.718166184
198.178326273
198.198687339
198.214976192
197.73852725
197.767032743
198.166109633
198.214976192
198.16203742
197.718166184
198.231265044
198.194615126
197.73852725
198.16203742
198.198687339
198.178326273
198.166109633
198.16203742
198.214976192
198.231265044
198.231265044
198.231265044
197.75074389
198.182398486
198.198687339
198.178326273
198.182398486

Block: 5
======================================
198.231265044
198.178326273
197.754816103
198.231265044
198.214976192
198.16203742
198.235337257
198.16203742
198.231265044
198.214976192
198.214976192
197.771104956
198.198687339
197.771104956
198.231265044
197.787393808
198.214976192
197.771104956
198.231265044
198.231265044
198.214976192
198.198687339
198.210903978
198.214976192
197.771104956
197.787393808
197.771104956
198.214976192
198.214976192
198.231265044
197.75074389
198.231265044
198.214976192
198.214976192
198.231265044
198.231265044
198.231265044
198.231265044
198.214976192
197.75074389
197.787393808
197.754816103
198.214976192
198.16203742
198.182398486
197.73852725
198.198687339
198.247553897
198.231265044
198.16203742

Block: 6
======================================
198.25162611
198.26384275
198.198687339
198.194615126
198.214976192
197.803682661
198.214976192
197.767032743
198.25162611
198.210903978
198.214976192
198.198687339
198.231265044
197.803682661
198.182398486
198.214976192
197.754816103
198.235337257
197.771104956
198.166109633
198.214976192
198.194615126
197.787393808
197.771104956
198.214976192
198.214976192
198.214976192
198.231265044
198.16203742
198.214976192
197.73852725
198.247553897
198.231265044
197.771104956
198.198687339
198.198687339
198.198687339
197.754816103
198.214976192
198.198687339
198.198687339
198.231265044
197.75074389
198.214976192
198.182398486
198.194615126
198.231265044
197.767032743
197.767032743
197.754816103

Block: 7
======================================
198.178326273
198.26384275
197.734455037
198.247553897
197.771104956
198.214976192
198.182398486
198.16203742
198.198687339
198.198687339
197.754816103
198.198687339
198.198687339
198.210903978
198.198687339
197.734455037
198.182398486
198.25162611
198.210903978
198.178326273
198.214976192
198.214976192
198.231265044
198.178326273
198.16203742
197.73852725
197.73852725
198.214976192
198.25162611
197.791466022
198.214976192
197.734455037
198.194615126
197.75074389
198.178326273
198.198687339
198.182398486
197.718166184
198.182398486
198.231265044
197.754816103
198.214976192
198.214976192
197.754816103
198.214976192
197.754816103
198.231265044
197.787393808
197.771104956
198.182398486

Block: 8
======================================
197.754816103
198.178326273
197.73852725
198.194615126
198.231265044
198.194615126
197.787393808
198.16203742
198.214976192
198.178326273
197.771104956
198.16203742
198.214976192
198.198687339
198.182398486
198.198687339
198.198687339
198.182398486
198.210903978
198.198687339
198.16203742
198.214976192
198.214976192
198.214976192
198.178326273
198.210903978
198.178326273
198.198687339
198.235337257
198.178326273
198.182398486
197.734455037
198.16203742
198.145748568
198.166109633
197.75074389
198.178326273
197.754816103
198.178326273
198.194615126
197.75074389
198.182398486
198.178326273
198.16203742
198.182398486
197.75074389
198.214976192
197.754816103
197.75074389
197.754816103

Block: 9
======================================
197.771104956
197.701877332
198.16203742
198.178326273
198.182398486
198.198687339
198.198687339
198.214976192
198.198687339
198.214976192
197.718166184
198.194615126
198.214976192
198.194615126
198.182398486
198.178326273
198.210903978
198.182398486
198.178326273
198.182398486
197.734455037
197.73852725
198.194615126
198.182398486
197.75074389
198.235337257
197.734455037
198.231265044
198.16203742
198.214976192
198.214976192
197.771104956
198.214976192
198.145748568
197.75074389
198.178326273
198.194615126
198.235337257
197.734455037
198.231265044
198.178326273
198.166109633
198.231265044
198.231265044
198.194615126
198.182398486
198.194615126
198.182398486
198.166109633
198.231265044

Block: 10
======================================
198.231265044
197.771104956
197.754816103
197.807754874
197.803682661
198.182398486
197.754816103
198.214976192
198.214976192
198.214976192
198.231265044
198.194615126
198.182398486
198.214976192
197.734455037
198.214976192
198.194615126
198.214976192
197.787393808
198.214976192
198.214976192
198.247553897
198.231265044
198.182398486
198.231265044
197.771104956
198.231265044
198.247553897
198.235337257
198.178326273
198.198687339
198.247553897
198.231265044
198.25162611
198.231265044
198.231265044
198.214976192
198.214976192
197.771104956
198.214976192
198.267914963
198.247553897
198.198687339
198.247553897
198.247553897
198.267914963
197.787393808
198.214976192
198.214976192
198.231265044
