
Block: 1
======================================
5.02208709717
4.58843648434
4.59256649017
4.62560653687
4.60908651352
4.64212656021
5.02208709717
4.97252702713
4.60908651352
4.64212656021

Block: 2
======================================
5.026217103
4.59256649017
4.59256649017
4.60495650768
4.59256649017
4.96839702129
4.58843648434
7.56617069244
5.05512714386
5.04273712635

Block: 3
======================================
4.59256649017
5.02208709717
7.46705055237
4.98904705048
5.02208709717
5.04273712635
4.98904705048
4.98904705048
4.98904705048
4.57191646099

Block: 4
======================================
5.03860712051
5.04273712635
5.05512714386
5.00556707382
5.03860712051
5.026217103
4.98904705048
4.58843648434
5.04273712635
5.026217103

Block: 5
======================================
7.60747075081
4.60908651352
4.59256649017
5.026217103
5.03860712051
4.98904705048
7.60747075081
4.58843648434
5.02208709717
5.00969707966

Block: 6
======================================
4.98904705048
5.00969707966
4.98904705048
4.98904705048
5.00556707382
5.02208709717
5.026217103
5.02208709717
4.98904705048
7.58682072163

Block: 7
======================================
7.60747075081
7.57030069828
5.00556707382
4.60495650768
7.57030069828
7.5496506691
5.00556707382
5.02208709717
5.00556707382
4.57191646099

Block: 8
======================================
4.98904705048
7.59095072746
5.04273712635
5.03860712051
4.97252702713
5.00556707382
5.00556707382
7.57030069828
7.55378067493
4.97252702713

Block: 9
======================================
5.05512714386
7.55378067493
5.03860712051
5.026217103
7.16969013214
4.98904705048
5.00556707382
7.57030069828
7.57030069828
5.00556707382

Block: 10
======================================
5.00556707382
4.98904705048
4.98904705048
4.98904705048
4.55539643764
5.026217103
5.00556707382
4.98904705048
4.98904705048
5.00556707382
