
Block: 1
======================================
99.8305010796
91.5828794241
97.5755178928
93.1233716011
97.7159380913
93.7676525116
98.7566995621
93.9576327801
99.136660099
92.6608109474
99.8635411263
96.662786603
99.9007111788
96.1754459143
99.0168899298
97.0592671633
99.0127599239
97.0551371574
99.9172312021
95.2751046419
99.4835805893
96.9890570641
99.1036200523
96.0515457392
100.730842352
94.5275735855
100.763882399
95.3287947178
99.4298905134
95.1388144493
99.3803304434
96.2952160835
98.4965091944
96.7288666964
98.9631998539
98.4634691477
98.0298185349
98.9466798306
95.8450454473
99.8635411263
95.3081446886
99.0168899298
97.1088272333
99.9172312021
95.3081446886
99.8965811729
96.2291359901
98.9838498831
96.2415260077
99.4505405426

Average distance is : 97.481 cm
Average deviation is : 2.256 cm
Block: 2
======================================
100.297191739
99.8841911554
90.5958080292
99.8841911554
92.0330500603
97.8522282839
94.5275735855
98.5625892878
96.6751766205
95.8450454473
100.747362375
95.3122746944
99.4835805893
97.8893983364
96.5554064512
98.1330686808
97.0386171341
98.1330686808
97.0427471399
97.7654981613
97.9265683889
97.319457531
97.9389584064
97.2492474318
97.9926484823
96.8155968189
100.144381523
95.5683350563
100.264151692
94.9612241983
99.4298905134
95.7954853773
101.143842936
95.8450454473
100.747362375
94.490403533
99.3803304434
95.4279148579
100.330231786
95.3618347645
98.9631998539
97.5589978695
96.8858069181
97.8026682138
98.7195295095
97.7861481905
98.7732195854
96.4149862528
100.747362375
94.4780135155

Average distance is : 97.530 cm
Average deviation is : 2.246 cm
Block: 3
======================================
100.780402422
93.3009618521
98.6864894629
96.0721957684
97.6828980446
95.1512044668
99.9172312021
95.8615654707
98.7030094862
95.0851243734
99.4835805893
95.601375103
99.0499299765
93.8006925583
99.0003699064
96.0887157917
99.9502712488
94.6845138073
100.313711762
96.9560170174
97.7654981613
97.8357082605
98.6534494162
98.2363188267
97.5094377995
100.747362375
94.3747633696
99.8965811729
95.6922352314
99.0334099531
96.1754459143
99.0334099531
96.2250059843
99.0334099531
96.1547958851
98.5625892878
96.1547958851
99.5042306185
97.4722677469
98.3560889959
97.7861481905
97.4722677469
97.2657674551
98.7732195854
96.4686763287
98.25283885
98.25283885
97.7654981613
97.4392277002
97.7696281672

Average distance is : 97.597 cm
Average deviation is : 1.797 cm
Block: 4
======================================
100.313711762
92.8136211634
98.4758591652
94.8249340057
97.7159380913
94.2715132236
100.763882399
91.913279891
99.8800611496
92.8838312626
99.4835805893
93.3505219221
99.0168899298
92.4997407198
100.330231786
97.4722677469
97.7159380913
97.8687483072
97.3029375076
98.7732195854
96.8527668715
100.280671716
95.7913553715
99.8635411263
96.208485961
100.330231786
96.1547958851
99.0664499998
96.1713159084
98.5460692644
96.6256165504
99.4835805893
96.5017163754
99.136660099
96.0887157917
100.813442469
93.9039427042
99.4670605659
95.2751046419
99.0292799473
95.9689456224
100.763882399
94.4243234396
101.631183624
93.5405021906
99.4340205193
95.2709746361
99.9172312021
95.6922352314
99.0829700232

Average distance is : 97.380 cm
Average deviation is : 2.592 cm
Block: 5
======================================
100.784532428
93.2472717762
99.4835805893
95.4650849104
96.761906743
94.7712439299
99.0994900465
94.110442996
99.1036200523
94.0278428793
99.9172312021
95.0314342976
98.6864894629
95.0479543209
100.313711762
94.7877639532
99.4835805893
95.7087552547
99.4835805893
96.2250059843
99.4464105368
96.208485961
98.5997593403
96.5719264746
98.2197988033
97.8191882372
97.369017601
98.7525695562
96.055675745
100.747362375
94.4408434629
99.8841911554
94.8373240232
99.9007111788
96.5719264746
99.5372706652
97.3896676302
99.087100029
96.5595364571
98.5997593403
97.0757871866
97.6457279921
97.6292079687
97.1294772625
98.5460692644
96.2621760368
98.4965091944
96.2415260077
99.8470211029
95.778965354

Average distance is : 97.456 cm
Average deviation is : 1.994 cm
Block: 6
======================================
100.297191739
90.8725184202
99.9502712488
92.3262804747
99.0003699064
92.1734702587
99.8800611496
93.680922389
98.479989171
95.0149142742
95.1346844435
99.4835805893
96.1713159084
98.5832393169
97.4598777294
98.5997593403
96.5719264746
98.5625892878
96.662786603
98.0793786049
98.8434296846
96.7825567722
99.7602909803
94.4243234396
100.330231786
94.8373240232
99.9007111788
95.2420645952
100.363271832
95.7046252489
100.346751809
96.1382758617
99.0003699064
97.976128459
97.2492474318
101.164492965
93.6107122898
99.8305010796
95.3081446886
99.4505405426
95.7583153248
99.9172312021
95.7954853773
99.9172312021
95.7954853773
98.9797198772
96.1919659376
99.0168899298
95.7376652956
98.9631998539

Average distance is : 97.386 cm
Average deviation is : 2.474 cm
Block: 7
======================================
100.747362375
92.520390749
100.747362375
92.7764511108
100.247631669
90.8229583502
100.330231786
93.8543826342
99.4298905134
95.2048945427
99.5331406593
96.055675745
97.748978138
96.0019856691
98.3065289259
99.4505405426
95.7211452723
99.9337512255
95.2751046419
99.0499299765
96.6916966438
98.4965091944
98.4965091944
96.2952160835
99.8305010796
96.2126159668
99.4133704901
96.2621760368
98.5460692644
98.4469491243
97.6622480154
97.1459972858
101.147972941
94.0071928501
100.313711762
95.7211452723
99.9172312021
96.5884464979
98.2363188267
96.5719264746
98.25283885
96.5058463812
99.5372706652
95.7417953014
99.0168899298
97.9265683889
96.8321168423
98.2858788967
96.5223664045
98.6699694395

Average distance is : 97.541 cm
Average deviation is : 2.294 cm
Block: 8
======================================
100.334361792
90.7155781984
98.9260298014
92.7103710175
98.2693588734
92.5038707256
100.297191739
92.3964905739
99.4835805893
91.1698788404
100.301321745
96.6256165504
98.1826287508
97.9224383831
96.8692868948
98.7360495329
97.7654981613
97.8893983364
99.0664499998
96.6090965271
99.0664499998
97.9224383831
98.1165486574
96.6793066263
99.0334099531
95.8822154999
100.297191739
95.0149142742
100.730842352
94.490403533
100.313711762
96.5017163754
98.3230489492
97.7861481905
97.4061876535
97.3524975777
98.7030094862
96.105235815
99.0705800056
95.7211452723
99.0664499998
96.6256165504
99.0664499998
95.7252752781
100.280671716
95.3783547878
100.330231786
96.6049665213
99.0168899298
96.712346673

Average distance is : 97.402 cm
Average deviation is : 2.434 cm
Block: 9
======================================
100.313711762
91.6737395525
98.0958986282
94.1806530952
98.479989171
91.8595898151
99.4175004959
92.9003512859
99.9007111788
93.1935817003
99.8470211029
96.208485961
98.5460692644
96.1919659376
98.5501992702
96.1919659376
98.9962399006
97.0592671633
99.4835805893
96.1547958851
99.9131011963
95.778965354
99.0168899298
97.0386171341
97.7696281672
98.8558197021
95.8946055174
99.793331027
96.712346673
98.5460692644
97.9967784882
97.6622480154
97.6126879454
97.6787680387
97.5094377995
98.5501992702
98.3932590485
96.8155968189
98.8062596321
97.7159380913
97.9059183598
96.8155968189
98.8269096613
97.2492474318
97.5053077936
97.7861481905
97.9059183598
98.1289386749
97.9224383831
97.7696281672

Average distance is : 97.462 cm
Average deviation is : 1.951 cm
Block: 10
======================================
99.8800611496
93.0407714844
99.1697001457
93.7139624357
98.7566995621
93.2101017237
99.0334099531
95.1677244902
98.9466798306
94.9983942509
100.747362375
94.9116641283
99.4133704901
95.3081446886
99.0168899298
96.2621760368
99.0127599239
96.1919659376
99.0127599239
97.0757871866
97.7531081438
97.5094377995
99.0499299765
100.747362375
94.9116641283
99.4298905134
98.3932590485
96.8858069181
98.7732195854
97.7531081438
99.9667912722
95.3081446886
99.4835805893
96.6751766205
98.0628585815
97.5424778461
99.8470211029
95.3783547878
99.4340205193
95.7954853773
99.4133704901
96.2621760368
98.9962399006
96.6751766205
98.0793786049
98.0628585815
98.4428191185
96.3117361069
98.9797198772
97.5259578228

Average distance is : 97.606 cm
Average deviation is : 1.950 cm
Average distance for 10x50 is : 97.484 cm
Average deviation for 10x50 is : 2.199 cm
 Percentage of values that failed: 0.000