
Block: 1
======================================
100.768012404
100.264151692
99.8263710737
78.6435711384
97.976128459

Block: 2
======================================
100.280671716
92.3469305038
99.8470211029
89.6459066868
99.793331027

Block: 3
======================================
101.143842936
90.9096884727
99.1036200523
93.0903315544
97.0427471399

Block: 4
======================================
100.280671716
92.0206600428
93.7635225058
97.9430884123
96.1217558384

Block: 5
======================================
99.8098510504
92.1032601595
97.4392277002
93.8874226809
97.4392277002

Block: 6
======================================
100.280671716
91.5498393774
98.4262990952
92.0165300369
98.6369293928

Block: 7
======================================
100.231111646
90.8229583502
98.2197988033
91.4465892315
99.970921278

Block: 8
======================================
100.280671716
92.0330500603
98.8971197605
92.0330500603
99.7602909803

Block: 9
======================================
99.8635411263
93.3835619688
96.9518870115
93.6478823423
98.5501992702

Block: 10
======================================
99.8470211029
91.6696095467
97.5755178928
92.569950819
121.967332363
