
Block: 1
======================================
399.552483606
399.091545486
399.568656874
399.127935338
399.144108605
399.144108605
399.127935338
398.70338707
398.671040535
398.687213802
399.111762071
399.079415536
399.127935338
399.107718754
355.74718895
399.095588803
399.160281873
399.127935338
399.144108605
399.111762071
399.532267022
399.127935338
399.111762071
399.532267022
399.552483606
399.584830141
398.654867268
399.075372219
399.520137072
399.552483606
399.548440289
399.107718754
399.107718754
399.516093755
398.666997218
399.552483606
399.144108605
399.536310339
399.520137072
399.111762071
398.687213802
399.127935338
399.548440289
399.075372219
399.568656874
399.127935338
399.552483606
399.536310339
399.48374722
398.650823951

Average distance is : 398.341 cm
Average deviation is : 6.154 cm
Block: 2
======================================
399.536310339
399.552483606
399.516093755
399.536310339
399.536310339
399.536310339
399.127935338
399.568656874
399.144108605
399.095588803
399.552483606
399.516093755
399.532267022
399.095588803
399.568656874
399.499920487
399.107718754
399.536310339
399.536310339
398.666997218
399.552483606
399.079415536
399.552483606
399.095588803
399.520137072
399.091545486
399.552483606
399.107718754
399.536310339
399.520137072
399.111762071
399.552483606
399.568656874
399.548440289
399.568656874
399.552483606
399.532267022
399.584830141
399.960858607
399.972988558
399.95681529
399.960858607
399.960858607
399.977031875
399.536310339
399.977031875
399.993205142
399.568656874
399.516093755
399.960858607

Average distance is : 399.515 cm
Average deviation is : 0.296 cm
Block: 3
======================================
399.536310339
399.552483606
399.568656874
399.584830141
399.568656874
399.552483606
399.552483606
399.601003408
399.127935338
399.111762071
399.568656874
399.127935338
284.839541507
399.552483606
399.552483606
399.584830141
399.568656874
399.536310339
399.568656874
399.617176676
399.160281873
399.588873458
399.568656874
399.621219993
399.605046725
399.552483606
399.552483606
399.601003408
399.568656874
399.568656874
399.144108605
399.621219993
399.536310339
399.16432519
399.621219993
399.601003408
399.568656874
399.568656874
399.584830141
399.568656874
399.584830141
399.617176676
399.144108605
399.160281873
399.621219993
399.601003408
399.617176676
399.584830141
399.621219993
399.605046725

Average distance is : 397.216 cm
Average deviation is : 16.218 cm
Block: 4
======================================
399.977031875
400.009378409
399.568656874
399.617176676
399.621219993
399.993205142
399.584830141
399.552483606
399.633349943
399.127935338
400.025551677
399.633349943
399.601003408
399.584830141
399.568656874
399.16432519
400.009378409
399.568656874
399.601003408
400.057898211
399.584830141
399.568656874
400.025551677
400.025551677
400.025551677
400.029594994
400.025551677
399.601003408
400.041724944
399.601003408
400.029594994
400.025551677
400.025551677
400.045768261
399.584830141
400.009378409
400.045768261
400.061941528
399.584830141
399.908295488
400.041724944
399.633349943
400.041724944
399.584830141
400.057898211
400.041724944
400.041724944
399.605046725
400.009378409
399.601003408

Average distance is : 399.800 cm
Average deviation is : 0.253 cm
Block: 5
======================================
400.025551677
400.094288063
399.621219993
399.63739326
400.025551677
400.045768261
399.160281873
400.078114796
399.584830141
400.061941528
400.045768261
400.041724944
400.029594994
400.045768261
400.025551677
400.057898211
400.025551677
400.061941528
400.094288063
400.025551677
399.601003408
400.009378409
399.601003408
400.094288063
400.045768261
400.045768261
400.041724944
399.617176676
399.63739326
400.078114796
400.094288063
400.074071479
400.045768261
400.078114796
399.63739326
399.180498457
399.17645514
399.633349943
399.63739326
399.601003408
400.061941528
399.653566527
400.078114796
399.17645514
399.63739326
400.078114796
399.617176676
399.160281873
399.617176676
399.633349943

Average distance is : 399.829 cm
Average deviation is : 0.298 cm
Block: 6
======================================
399.63739326
399.180498457
399.633349943
399.653566527
399.196671724
399.63739326
399.669739795
399.196671724
399.601003408
399.617176676
399.669739795
399.653566527
399.160281873
399.617176676
399.17645514
399.192628407
399.229018259
399.63739326
399.621219993
399.180498457
399.196671724
399.144108605
399.16432519
399.673783112
399.605046725
399.180498457
399.621219993
399.584830141
399.605046725
399.63739326
399.633349943
399.621219993
399.601003408
399.617176676
399.160281873
399.180498457
399.192628407
399.17645514
399.63739326
399.17645514
399.621219993
399.196671724
399.621219993
399.621219993
399.584830141
399.621219993
398.707430387
399.196671724
399.63739326
399.601003408

Average distance is : 399.440 cm
Average deviation is : 0.241 cm
Block: 7
======================================
399.588873458
398.751906872
399.63739326
399.160281873
399.63739326
399.144108605
399.621219993
399.192628407
399.196671724
399.621219993
399.621219993
399.160281873
399.601003408
399.621219993
399.63739326
399.584830141
399.605046725
399.63739326
399.605046725
399.621219993
399.212844992
399.180498457
399.568656874
399.621219993
398.735733604
399.601003408
399.144108605
399.192628407
399.63739326
399.605046725
399.621219993
399.160281873
399.17645514
399.63739326
399.601003408
399.601003408
398.719560337
399.617176676
399.601003408
399.617176676
399.601003408
399.617176676
399.605046725
399.584830141
399.617176676
399.601003408
399.584830141
399.63739326
399.617176676
399.180498457

Average distance is : 399.455 cm
Average deviation is : 0.262 cm
Block: 8
======================================
399.552483606
399.17645514
399.552483606
399.127935338
399.588873458
399.588873458
399.568656874
399.144108605
399.568656874
399.601003408
399.584830141
399.584830141
398.719560337
399.584830141
398.687213802
399.568656874
399.601003408
399.584830141
399.617176676
399.568656874
399.552483606
399.160281873
399.588873458
399.552483606
399.111762071
399.584830141
399.584830141
399.568656874
399.621219993
399.568656874
399.605046725
399.127935338
399.160281873
399.144108605
399.127935338
399.584830141
399.127935338
399.584830141
399.17645514
399.144108605
399.605046725
399.568656874
398.723603654
399.160281873
399.552483606
399.111762071
399.588873458
399.127935338
399.107718754
399.601003408

Average distance is : 399.388 cm
Average deviation is : 0.269 cm
Block: 9
======================================
399.520137072
399.111762071
399.588873458
399.144108605
399.552483606
399.568656874
399.584830141
399.144108605
399.127935338
399.568656874
399.552483606
399.552483606
399.107718754
399.568656874
399.16432519
399.111762071
399.160281873
399.160281873
399.127935338
399.144108605
399.584830141
399.536310339
399.160281873
399.127935338
399.127935338
399.568656874
398.687213802
399.584830141
399.552483606
399.127935338
398.70338707
399.111762071
399.144108605
399.568656874
399.091545486
398.671040535
399.160281873
399.568656874
399.584830141
399.536310339
399.532267022
399.584830141
399.584830141
399.111762071
399.601003408
399.107718754
399.568656874
399.601003408
399.568656874
399.584830141

Average distance is : 399.332 cm
Average deviation is : 0.269 cm
Block: 10
======================================
399.160281873
398.687213802
399.548440289
398.687213802
399.111762071
399.516093755
399.516093755
399.568656874
399.568656874
399.568656874
399.568656874
399.127935338
399.568656874
399.568656874
399.552483606
398.671040535
399.095588803
399.584830141
399.123892021
399.568656874
398.687213802
399.127935338
399.127935338
399.552483606
399.568656874
399.127935338
399.148151922
399.111762071
399.144108605
399.127935338
398.687213802
399.144108605
399.196671724
399.144108605
399.605046725
399.568656874
399.552483606
399.552483606
398.687213802
399.127935338
399.536310339
399.568656874
399.536310339
399.552483606
399.127935338
399.568656874
399.552483606
399.568656874
399.568656874
399.601003408

Average distance is : 399.311 cm
Average deviation is : 0.306 cm