
Block: 1
======================================
400.672482371
400.78973856
400.721002173
400.284323955
400.721002173
401.145550442
401.161723709
400.704828906
401.57009871
400.243890786
401.129377174
400.704828906
401.974430394
400.704828906
400.704828906
400.72504549
400.672482371
400.704828906
400.688655639
400.721002173
400.769521976
400.773565292
401.125333858
401.586271977
401.129377174
400.753348708
401.113203907
401.129377174
401.194070244
401.129377174
400.704828906
400.684612322
400.688655639
400.688655639
401.994646978
400.688655639
400.672482371
401.10916059
400.280280638
401.145550442
400.26410737
400.737175441
401.129377174
400.704828906
401.10916059
401.10916059
401.129377174
401.145550442
402.435368514
400.688655639

Block: 2
======================================
400.672482371
400.652265787
400.688655639
401.10916059
401.113203907
400.672482371
400.668439054
400.672482371
400.668439054
400.63609252
400.741218758
400.211544251
401.113203907
400.737175441
401.10916059
401.602445245
401.09703064
401.092987323
400.656309104
401.113203907
401.113203907
401.092987323
400.619919252
401.092987323
400.652265787
401.129377174
401.177896976
401.092987323
401.09703064
401.129377174
401.076814055
401.044467521
400.63609252
401.485189056
401.501362324
401.485189056
401.501362324
401.060640788
401.044467521
401.024250937
401.57009871
401.501362324
401.553925443
401.485189056
401.028294253
401.553925443
401.925910592
401.909737325
401.962300444
401.028294253

Block: 3
======================================
402.754790545
401.448799205
401.464972472
401.41645267
401.505405641
401.452842522
402.72244401
401.889520741
401.925910592
401.41645267
401.432625937
401.87739079
401.87739079
403.146992278
402.72244401
401.857174206
402.35045886
401.87739079
401.857174206
401.400279403
401.873347473
401.841000938
402.72244401
401.857174206
401.485189056
401.861217523
401.841000938
401.857174206
402.297895741
401.41645267
401.400279403
401.873347473
401.925910592
402.807353663
401.857174206
401.857174206
401.873347473
402.72244401
401.909737325
402.72244401
402.382805395
401.861217523
401.436669254
401.857174206
401.857174206
401.893564057
401.889520741
401.861217523
401.521578908
402.386848712

Block: 4
======================================
401.028294253
401.893564057
401.028294253
401.537752175
401.028294253
401.09703064
401.978473711
401.113203907
401.113203907
401.024250937
401.028294253
401.092987323
401.113203907
401.09703064
401.024250937
401.044467521
401.549882126
401.028294253
401.044467521
401.044467521
401.024250937
401.044467521
401.044467521
401.044467521
401.485189056
401.044467521
401.485189056
401.485189056
401.044467521
401.028294253
401.10916059
401.501362324
400.619919252
401.044467521
401.485189056
401.060640788
401.060640788
401.076814055
401.501362324
401.942083859
401.129377174
401.501362324
401.485189056
401.076814055
401.145550442
401.517535591
401.517535591
401.060640788
401.09703064
401.064684105

Block: 5
======================================
400.652265787
400.619919252
401.09703064
401.517535591
401.129377174
400.63609252
400.656309104
401.517535591
401.092987323
400.652265787
400.656309104
401.521578908
401.501362324
400.652265787
401.076814055
401.09703064
401.060640788
400.652265787
400.652265787
400.640135837
401.092987323
401.076814055
401.076814055
401.080857372
401.521578908
401.080857372
401.517535591
401.092987323
401.505405641
401.129377174
401.092987323
401.076814055
401.060640788
401.09703064
401.145550442
401.080857372
401.092987323
401.165767026
401.533708858
400.652265787
401.553925443
401.537752175
401.501362324
400.656309104
400.640135837
401.092987323
401.09703064
401.092987323
401.553925443
401.076814055

Block: 6
======================================
401.080857372
400.619919252
401.092987323
400.72504549
400.684612322
401.974430394
401.618618512
400.721002173
400.757392025
400.688655639
400.72504549
401.076814055
400.672482371
400.668439054
400.231760836
400.684612322
400.247934103
401.129377174
401.129377174
400.231760836
400.737175441
401.553925443
400.688655639
400.688655639
400.684612322
400.227717519
400.721002173
400.721002173
401.113203907
400.737175441
401.295153165
400.652265787
401.129377174
400.672482371
401.129377174
400.672482371
400.672482371
400.247934103
400.227717519
400.741218758
401.129377174
402.419195247
400.688655639
400.26410737
400.672482371
400.280280638
400.753348708
400.757392025
400.26410737
400.704828906

Block: 7
======================================
400.26410737
400.349017024
400.280280638
400.26410737
400.280280638
400.280280638
400.26410737
400.32880044
401.165767026
400.332843757
401.590315294
400.300497222
400.72504549
401.246633363
400.721002173
400.26410737
401.177896976
400.26410737
400.280280638
401.165767026
401.214286828
400.247934103
400.26410737
401.161723709
400.688655639
400.704828906
400.684612322
401.214286828
401.129377174
400.741218758
400.26410737
400.26410737
400.344973707
400.280280638
401.145550442
400.688655639
402.41515193
400.316670489
401.145550442
401.194070244
401.129377174
401.194070244
400.227717519
400.26410737
400.688655639
400.332843757
400.688655639
400.704828906
401.129377174
400.672482371

Block: 8
======================================
400.688655639
400.26410737
400.247934103
400.247934103
401.113203907
401.145550442
400.243890786
400.688655639
400.284323955
400.247934103
401.129377174
400.704828906
400.684612322
400.704828906
400.688655639
400.672482371
400.684612322
400.757392025
400.757392025
400.688655639
400.243890786
400.231760836
400.688655639
400.737175441
400.231760836
400.672482371
400.741218758
401.129377174
401.113203907
400.684612322
400.704828906
401.57009871
400.721002173
400.688655639
400.672482371
400.227717519
400.668439054
400.688655639
400.672482371
401.09703064
400.688655639
401.210243511
401.113203907
400.72504549
400.741218758
401.09703064
401.092987323
401.181940293
400.640135837
401.549882126

Block: 9
======================================
401.076814055
401.076814055
401.060640788
401.533708858
401.076814055
401.501362324
401.076814055
401.501362324
401.485189056
401.060640788
401.501362324
401.060640788
401.57009871
401.925910592
401.57009871
402.435368514
401.044467521
401.537752175
401.57009871
401.469015789
401.533708858
401.060640788
402.334285593
401.909737325
402.775007129
401.925910592
401.942083859
402.775007129
401.909737325
401.925910592
401.909737325
401.925910592
401.076814055
401.978473711
401.501362324
401.909737325
401.925910592
401.448799205
401.469015789
401.909737325
401.974430394
401.469015789
401.452842522
401.469015789
401.469015789
401.942083859
401.925910592
401.925910592
401.925910592
401.469015789

Block: 10
======================================
401.905694008
401.517535591
401.485189056
401.925910592
401.553925443
402.35045886
401.501362324
401.501362324
401.505405641
401.501362324
401.942083859
401.060640788
401.946127176
401.040424204
401.537752175
401.501362324
401.517535591
401.942083859
401.076814055
401.505405641
401.064684105
401.060640788
401.517535591
401.060640788
401.57009871
401.076814055
400.656309104
401.549882126
401.533708858
401.10916059
401.517535591
401.537752175
401.521578908
401.517535591
401.517535591
400.656309104
401.145550442
401.962300444
400.656309104
400.672482371
400.672482371
401.549882126
401.080857372
401.129377174
400.672482371
401.129377174
400.668439054
401.181940293
401.09703064
401.161723709
