
Block: 1
======================================
401.792481136
400.911038065
402.621361089
403.50280416
403.082299209

Average distance is : 402.382 cm
Average deviation is : 1.039 cm
Block: 2
======================================
401.367932868
401.367932868
401.367932868
400.9433846
401.772264552

Average distance is : 401.364 cm
Average deviation is : 0.293 cm
Block: 3
======================================
400.939341283
400.906994748
400.939341283
402.229159355
402.653707623

Average distance is : 401.534 cm
Average deviation is : 0.842 cm
Block: 4
======================================
401.351759601
400.959557867
400.939341283
402.265549207
401.367932868

Average distance is : 401.377 cm
Average deviation is : 0.538 cm
Block: 5
======================================
401.384106135
401.857174206
401.804611087
401.857174206
401.400279403

Average distance is : 401.661 cm
Average deviation is : 0.246 cm
Block: 6
======================================
400.959557867
400.959557867
400.927211332
401.384106135
400.959557867

Average distance is : 401.038 cm
Average deviation is : 0.194 cm
Block: 7
======================================
400.975731134
400.535009599
401.41645267
401.384106135
402.281722474

Average distance is : 401.319 cm
Average deviation is : 0.647 cm
Block: 8
======================================
400.57139945
400.959557867
400.9433846
401.400279403
401.400279403

Average distance is : 401.055 cm
Average deviation is : 0.351 cm
Block: 9
======================================
401.841000938
400.906994748
401.384106135
402.265549207
402.690097475

Average distance is : 401.818 cm
Average deviation is : 0.703 cm
Block: 10
======================================
402.621361089
402.669880891
402.19681282
402.653707623
403.518977427

Average distance is : 402.732 cm
Average deviation is : 0.482 cm