
Block: 1
======================================
400.009378409
400.029594994
400.009378409
400.045768261
399.993205142
400.009378409
400.009378409
400.013421726
322.846719813
93.833253932
399.605046725
399.617176676
399.601003408
399.552483606
399.605046725
399.568656874
399.601003408
399.588873458
400.041724944
321.811630702
399.621219993
399.601003408
399.601003408
399.568656874
399.584830141
399.605046725
399.148151922
399.584830141
321.880367088
399.63739326
400.009378409
400.029594994
400.009378409
400.025551677
399.977031875
321.015097284
398.278838801
322.458561397
400.041724944
320.962534165
399.212844992
321.864193821
399.617176676
399.127935338
399.993205142
321.524555206
399.552483606
321.492208672
398.719560337
399.977031875
399.960858607
321.896540356
398.70338707
399.584830141
322.304915357
399.16432519
399.601003408
399.584830141
399.993205142
399.568656874
399.552483606
320.626938868
399.111762071
399.552483606
399.584830141
399.601003408
399.552483606
399.977031875
320.186217332
399.075372219
399.520137072
399.552483606
399.568656874
321.488165355
399.127935338

Average distance is : 380.981 cm
Average deviation is : 45.424 cm
Block: 2
======================================
399.520137072
318.407157922
399.908295488
399.532267022
399.940642023
320.728021789
399.043025684
322.931629467
399.536310339
399.536310339
322.458561397
399.091545486
399.940642023
399.043025684
399.503963804
399.516093755
399.924468756
399.499920487
399.516093755
399.940642023
399.516093755
323.356177735
398.650823951
322.931629467
398.246492267
399.48374722
399.536310339
399.48374722
399.516093755
399.48374722
399.516093755
399.059198952
399.520137072
399.908295488
399.48374722
399.48374722
399.499920487
399.924468756
399.94468534
399.499920487
399.467573953
399.924468756
399.908295488
399.487790537
399.940642023
399.924468756
399.48374722
399.516093755
399.924468756
399.467573953
399.908295488
399.499920487
399.892122221
399.924468756
399.924468756
319.99618144
399.48374722
322.980149269
399.520137072
399.924468756
399.924468756
399.924468756
399.924468756
399.467573953
399.908295488
399.48374722
399.908295488
399.892122221
399.940642023
399.940642023
399.95681529
399.48374722
399.924468756
399.451400685
399.940642023

Average distance is : 391.316 cm
Average deviation is : 24.218 cm
Block: 3
======================================
399.960858607
399.940642023
399.972988558
399.960858607
399.940642023
399.95681529
399.520137072
399.95681529
399.516093755
399.499920487
399.48374722
399.48374722
399.960858607
399.95681529
399.48374722
399.960858607
399.924468756
399.908295488
399.924468756
399.924468756
399.940642023
399.960858607
399.924468756
399.499920487
399.467573953
399.960858607
321.116180205
399.924468756
399.520137072
322.9154562
397.348875928
399.95681529
399.94468534
400.349017024
399.960858607
399.908295488
323.813072538
397.753207612
399.924468756
399.94468534
399.95681529
399.924468756
399.48374722
399.924468756
399.928512073
399.467573953
399.924468756
399.94468534
399.467573953
399.94468534
399.940642023
399.960858607
399.95681529
399.079415536
399.95681529
399.48374722
399.924468756
399.95681529
399.94468534
399.536310339
399.532267022
399.924468756
399.924468756
399.059198952
399.467573953
399.536310339
399.48374722
399.95681529
399.94468534
399.940642023
399.48374722
399.95681529
399.940642023
399.532267022
399.499920487

Average distance is : 396.644 cm
Average deviation is : 15.221 cm
Block: 4
======================================
399.972988558
399.972988558
400.401580143
399.908295488
400.349017024
400.381363559
399.908295488
399.95681529
400.401580143
400.349017024
399.977031875
399.940642023
322.066359663
399.536310339
399.940642023
321.625638127
399.499920487
399.924468756
399.972988558
320.695675254
399.568656874
399.993205142
399.94468534
399.924468756
399.520137072
399.532267022
399.059198952
399.993205142
399.924468756
399.536310339
399.536310339
399.993205142
399.924468756
399.516093755
399.989161825
399.977031875
399.95681529
399.503963804
399.960858607
399.993205142
399.972988558
399.972988558
400.009378409
399.536310339
322.458561397
399.568656874
399.993205142
399.977031875
399.568656874
400.029594994
399.617176676
399.516093755
399.601003408
399.127935338
399.532267022
399.536310339
399.601003408
399.568656874
399.516093755
399.95681529
399.568656874
399.532267022
399.584830141
400.025551677
399.95681529
399.532267022
399.180498457
399.584830141
399.536310339
399.601003408
399.552483606
399.127935338
399.605046725
399.568656874
323.319787884

Average distance is : 394.588 cm
Average deviation is : 19.525 cm
Block: 5
======================================
192.348668766
399.977031875
399.960858607
399.568656874
399.532267022
399.993205142
400.009378409
399.127935338
399.552483606
399.536310339
399.588873458
399.548440289
399.568656874
399.091545486
399.536310339
399.532267022
399.584830141
399.568656874
399.568656874
399.536310339
399.107718754
399.552483606
399.552483606
399.568656874
399.095588803
399.091545486
399.111762071
399.568656874
321.589248276
398.683170485
322.931629467
399.107718754
322.050186396
398.70338707
399.520137072
399.568656874
399.552483606
399.552483606
399.552483606
399.552483606
399.520137072
399.960858607
399.536310339
399.552483606
399.552483606
399.552483606
399.095588803
399.095588803
399.532267022
399.532267022
399.95681529
399.503963804
399.516093755
398.958116031
399.552483606
399.552483606
399.516093755
399.568656874
399.075372219
399.94468534
399.516093755
321.285999513
399.111762071
399.026852417
399.568656874
321.678201246
399.091545486
399.516093755
399.075372219
399.552483606
399.516093755
399.059198952
399.552483606
399.552483606
399.520137072

Average distance is : 391.526 cm
Average deviation is : 30.370 cm
Block: 6
======================================
399.536310339
399.059198952
399.548440289
399.548440289
321.556901741
398.719560337
399.532267022
399.568656874
399.536310339
399.588873458
399.48374722
399.095588803
399.516093755
399.079415536
320.776541591
399.127935338
399.568656874
399.568656874
399.977031875
399.95681529
399.532267022
323.356177735
397.789597464
399.993205142
399.940642023
399.516093755
399.940642023
399.516093755
399.972988558
399.516093755
399.516093755
399.972988558
399.548440289
399.95681529
319.672716093
400.025551677
399.111762071
399.94468534
399.568656874
399.993205142
399.940642023
399.552483606
400.009378409
399.977031875
399.989161825
399.532267022
399.075372219
399.516093755
399.552483606
399.95681529
399.532267022
399.552483606
399.993205142
399.516093755
399.516093755
399.924468756
399.503963804
399.977031875
399.520137072
399.960858607
399.075372219
399.960858607
399.940642023
399.95681529
399.568656874
399.95681529
399.520137072
399.977031875
399.977031875
399.977031875
399.520137072
399.993205142
399.94468534
399.451400685
399.940642023

Average distance is : 395.461 cm
Average deviation is : 17.718 cm
Block: 7
======================================
399.924468756
399.94468534
399.924468756
399.924468756
399.924468756
399.940642023
399.48374722
400.381363559
399.924468756
399.892122221
400.365190291
321.249609661
399.043025684
399.924468756
400.349017024
400.349017024
400.365190291
400.332843757
399.940642023
400.312627172
400.332843757
320.436902976
399.48374722
322.539427733
398.230318999
323.829245806
396.871764541
400.332843757
400.349017024
321.30217278
399.892122221
322.575817585
399.467573953
322.555601001
398.17775588
400.365190291
319.895098519
399.059198952
322.947802734
398.618477416
400.349017024
321.657984662
399.079415536
322.490907931
399.908295488
399.892122221
399.888078904
399.908295488
399.892122221
321.742894316
399.451400685
399.892122221
399.904252172
399.875948954
399.924468756
320.897841096
399.499920487
320.861451244
398.941942763
399.908295488
399.447357368
399.908295488
399.892122221
399.924468756
399.875948954
399.95681529
399.95681529
399.908295488
399.924468756
399.451400685
399.451400685
399.754649448
399.888078904
399.940642023
320.792714858

Average distance is : 384.144 cm
Average deviation is : 31.431 cm
Block: 8
======================================
399.451400685
399.972988558
399.908295488
399.467573953
322.220005703
399.892122221
321.237479711
399.989161825
399.940642023
399.95681529
399.908295488
399.940642023
399.499920487
399.908295488
399.95681529
399.940642023
399.48374722
399.940642023
399.924468756
399.48374722
399.940642023
399.924468756
399.924468756
399.924468756
399.059198952
399.48374722
399.924468756
399.977031875
399.516093755
399.928512073
399.940642023
399.48374722
399.940642023
399.940642023
399.499920487
399.487790537
399.928512073
399.940642023
399.977031875
399.503963804
399.940642023
399.977031875
399.977031875
399.960858607
399.48374722
399.48374722
399.940642023
399.95681529
399.94468534
399.977031875
400.381363559
399.48374722
399.960858607
399.960858607
399.924468756
399.924468756
399.503963804
399.95681529
399.520137072
399.536310339
399.989161825
400.009378409
399.95681529
399.960858607
399.536310339
399.940642023
399.993205142
322.422171545
398.671040535
399.972988558
399.532267022
399.960858607
399.552483606
399.532267022
399.993205142

Average distance is : 396.681 cm
Average deviation is : 15.358 cm
Block: 9
======================================
399.516093755
399.075372219
399.532267022
322.304915357
398.347575188
399.091545486
399.552483606
399.520137072
206.900566077
399.532267022
399.552483606
399.063242269
322.879066348
399.059198952
399.536310339
399.520137072
399.552483606
399.075372219
399.552483606
399.552483606
399.536310339
399.536310339
399.552483606
399.503963804
399.972988558
399.552483606
399.960858607
399.516093755
399.989161825
320.52181263
400.009378409
399.95681529
321.45581882
398.230318999
399.972988558
320.590549016
399.026852417
399.924468756
399.924468756
399.95681529
399.924468756
399.48374722
400.365190291
399.503963804
399.95681529
399.924468756
400.365190291
400.332843757
320.202390599
399.536310339
320.626938868
398.654867268
399.95681529
399.95681529
399.977031875
400.365190291
399.993205142
320.998924017
398.671040535
399.993205142
400.381363559
399.972988558
399.977031875
399.977031875
399.960858607
399.940642023
399.536310339
399.993205142
399.499920487
399.95681529
399.960858607
399.940642023
399.516093755
399.924468756
399.940642023

Average distance is : 388.729 cm
Average deviation is : 32.355 cm
Block: 10
======================================
399.520137072
399.532267022
399.940642023
399.940642023
399.94468534
399.940642023
399.503963804
399.043025684
322.034013128
397.773424196
399.95681529
322.017839861
399.123892021
399.536310339
399.972988558
319.846578717
399.568656874
320.808888125
400.365190291
320.707805204
399.127935338
322.442388129
396.447216272
399.520137072
322.442388129
397.789597464
400.009378409
399.972988558
322.001666594
398.70338707
321.92888689
399.960858607
399.993205142
400.013421726
399.516093755
399.95681529
399.516093755
321.560945058
399.552483606
399.940642023
399.972988558
400.009378409
399.960858607
320.218563867
398.687213802
322.866936398
397.805770731
399.95681529
320.679501987
399.548440289
399.993205142
321.508381939
399.127935338
322.814373279
398.246492267
400.397536826
319.777842331
398.650823951
400.413710093
320.170044065
400.025551677
321.45581882
399.144108605
400.397536826
319.353294063
399.536310339
321.912713623
398.654867268
323.23487823
399.091545486
400.433926678
322.284698772
399.127935338
400.41775341
400.41775341

Average distance is : 376.610 cm
Average deviation is : 35.784 cm