
Block: 1
======================================
300.585618258
301.402681065
300.585618258
301.016507101
300.569358301
301.016507101
300.553098345
300.553098345
301.012442112
300.57342329
300.553098345
300.553098345
300.557163334
300.553098345
300.569358301
302.71973753
300.553098345
300.553098345
301.898609734
300.557163334
300.536838388
300.553098345
300.553098345
300.536838388
301.000247145
301.016507101
301.028702068
300.569358301
300.979922199
300.996182156
301.032767057
301.016507101
300.569358301
300.57342329
300.979922199
300.996182156
302.325433588
300.553098345
301.439265966
300.536838388
301.443330956
301.000247145
300.536838388
300.569358301
301.012442112
300.57342329
300.979922199
300.996182156
301.028702068
300.569358301
300.996182156
301.016507101
301.459590912
300.553098345
300.557163334
300.536838388
300.569358301
300.979922199
300.553098345
301.443330956
300.553098345
300.996182156
300.996182156
300.553098345
300.57342329
301.439265966
300.569358301
301.866089821
301.028702068
302.292913675
300.553098345
300.553098345
300.979922199
300.536838388
300.979922199

Block: 2
======================================
300.569358301
301.028702068
300.996182156
300.996182156
300.996182156
300.585618258
300.996182156
300.553098345
300.589683247
300.536838388
301.42300601
301.443330956
301.016507101
301.455525923
300.553098345
300.569358301
301.918934679
300.553098345
300.979922199
301.886414766
300.996182156
300.996182156
300.553098345
300.963662243
300.996182156
300.569358301
301.829504919
300.557163334
300.553098345
300.536838388
300.996182156
300.979922199
300.979922199
300.553098345
300.553098345
300.589683247
302.292913675
300.996182156
300.979922199
301.42300601
301.42300601
300.553098345
302.292913675
300.979922199
300.996182156
301.443330956
301.427070999
300.553098345
301.42300601
300.520578432
300.979922199
300.557163334
300.557163334
300.979922199
300.557163334
300.536838388
301.866089821
300.979922199
300.553098345
300.536838388
301.42300601
300.996182156
301.866089821
300.553098345
300.536838388
300.979922199
300.979922199
300.569358301
300.569358301
300.500253487
300.553098345
301.439265966
300.996182156
300.536838388
301.439265966

Block: 3
======================================
302.309173632
301.898609734
301.443330956
300.553098345
300.553098345
301.000247145
302.276653719
300.553098345
301.849829865
301.42300601
301.866089821
300.553098345
302.325433588
300.553098345
301.000247145
301.443330956
300.996182156
300.536838388
301.439265966
300.996182156
301.42300601
300.516513443
300.979922199
300.516513443
300.536838388
301.42300601
300.553098345
301.012442112
300.536838388
300.996182156
300.979922199
300.536838388
301.87015481
300.996182156
302.309173632
300.536838388
300.979922199
300.557163334
300.536838388
300.536838388
302.309173632
300.536838388
300.516513443
300.979922199
300.553098345
300.553098345
300.520578432
301.42300601
300.963662243
301.443330956
300.959597254
300.553098345
300.536838388
300.536838388
301.42300601
300.557163334
301.42300601
301.866089821
300.569358301
300.553098345
300.536838388
301.439265966
301.000247145
300.979922199
300.585618258
300.557163334
301.882349777
300.553098345
301.012442112
300.553098345
300.553098345
301.87015481
300.536838388
300.536838388
302.309173632

Block: 4
======================================
301.849829865
300.553098345
301.882349777
300.996182156
300.979922199
301.459590912
300.57342329
301.016507101
300.553098345
300.557163334
300.553098345
301.439265966
300.996182156
300.589683247
300.557163334
301.882349777
300.996182156
301.443330956
301.032767057
300.536838388
301.012442112
300.569358301
300.585618258
300.12627449
301.42300601
300.536838388
301.443330956
300.569358301
301.882349777
300.589683247
300.553098345
301.87015481
301.459590912
300.569358301
300.589683247
300.536838388
300.996182156
300.553098345
300.553098345
302.329498577
300.569358301
301.016507101
300.57342329
300.57342329
300.569358301
301.443330956
300.996182156
300.553098345
300.996182156
301.012442112
300.553098345
301.016507101
300.569358301
300.553098345
301.439265966
300.569358301
300.553098345
301.032767057
300.569358301
301.439265966
300.57342329
300.996182156
300.57342329
300.996182156
301.439265966
300.589683247
301.012442112
301.439265966
301.845764875
300.569358301
300.553098345
302.345758533
300.536838388
301.000247145
300.553098345

Block: 5
======================================
301.459590912
302.292913675
300.569358301
301.000247145
300.536838388
300.589683247
301.459590912
300.553098345
300.57342329
300.996182156
301.87015481
301.882349777
301.866089821
301.455525923
300.57342329
300.996182156
300.569358301
300.553098345
300.536838388
300.557163334
301.028702068
300.585618258
301.471785879
301.439265966
300.553098345
300.589683247
300.569358301
301.475850868
300.57342329
300.553098345
300.979922199
300.57342329
301.000247145
301.439265966
300.553098345
300.979922199
300.536838388
301.42300601
300.996182156
300.516513443
300.57342329
300.996182156
302.325433588
300.996182156
301.439265966
300.553098345
300.569358301
302.276653719
300.57342329
300.996182156
300.979922199
300.536838388
301.42300601
300.569358301
302.309173632
300.536838388
301.016507101
302.313238621
300.569358301
300.569358301
301.016507101
300.520578432
300.996182156
300.536838388
302.309173632
301.016507101
300.553098345
300.996182156
300.963662243
300.57342329
300.553098345
300.553098345
300.996182156
301.016507101
300.979922199

Block: 6
======================================
300.520578432
300.979922199
300.569358301
300.979922199
300.532773399
301.439265966
300.520578432
300.996182156
300.996182156
301.459590912
300.536838388
301.42300601
301.42300601
301.443330956
300.57342329
301.849829865
300.553098345
300.979922199
301.439265966
300.569358301
300.979922199
301.42300601
300.979922199
300.520578432
301.42300601
300.979922199
300.553098345
300.553098345
301.032767057
301.439265966
300.536838388
301.406746054
300.536838388
300.557163334
300.536838388
300.963662243
300.553098345
300.979922199
300.536838388
300.553098345
300.979922199
300.979922199
301.427070999
301.42300601
301.012442112
300.996182156
301.886414766
300.557163334
300.553098345
300.996182156
300.553098345
301.42300601
302.309173632
300.963662243
300.553098345
300.979922199
300.979922199
300.557163334
300.979922199
301.439265966
300.536838388
300.996182156
301.833569908
301.42300601
300.536838388
300.520578432
300.553098345
300.996182156
302.276653719
301.406746054
300.979922199
300.979922199
300.536838388
301.439265966
300.536838388

Block: 7
======================================
300.963662243
300.504318476
301.459590912
301.443330956
300.553098345
301.000247145
300.553098345
300.553098345
300.553098345
300.536838388
300.57342329
302.309173632
301.000247145
300.536838388
301.42300601
301.016507101
302.325433588
301.000247145
300.553098345
301.012442112
301.455525923
300.553098345
301.000247145
300.553098345
300.553098345
301.028702068
301.439265966
300.996182156
301.439265966
300.57342329
301.849829865
301.475850868
301.000247145
302.309173632
301.016507101
300.557163334
300.996182156
301.032767057
301.882349777
300.979922199
301.012442112
302.309173632
301.866089821
301.455525923
300.57342329
300.996182156
300.979922199
302.325433588
300.979922199
300.553098345
301.000247145
301.866089821
301.42300601
300.996182156
300.979922199
301.439265966
300.979922199
301.000247145
300.553098345
300.979922199
301.866089821
300.553098345
300.996182156
301.000247145
301.016507101
300.536838388
300.536838388
300.553098345
300.569358301
300.569358301
300.553098345
300.979922199
300.516513443
300.553098345
300.569358301

Block: 8
======================================
301.829504919
300.963662243
301.459590912
300.57342329
301.443330956
300.536838388
301.032767057
300.553098345
300.553098345
300.569358301
301.886414766
301.016507101
301.443330956
300.996182156
301.012442112
300.979922199
300.557163334
300.589683247
301.016507101
300.553098345
300.553098345
300.996182156
301.012442112
301.000247145
301.012442112
301.439265966
300.569358301
300.569358301
300.536838388
301.475850868
301.012442112
302.325433588
300.569358301
301.443330956
301.439265966
301.012442112
300.57342329
300.996182156
300.996182156
300.557163334
301.886414766
300.569358301
301.016507101
301.849829865
300.57342329
300.553098345
301.016507101
300.536838388
300.557163334
300.557163334
301.016507101
301.016507101
300.553098345
300.57342329
301.016507101
300.983987188
300.553098345
300.553098345
300.585618258
300.569358301
301.028702068
300.996182156
300.569358301
300.979922199
301.42300601
300.996182156
300.553098345
300.553098345
300.57342329
300.996182156
301.882349777
300.557163334
301.012442112
300.553098345
300.979922199

Block: 9
======================================
300.536838388
300.569358301
300.569358301
301.42300601
301.87015481
301.000247145
300.996182156
300.553098345
301.882349777
301.000247145
301.439265966
300.536838388
300.553098345
300.553098345
300.553098345
300.553098345
300.553098345
300.553098345
300.996182156
300.553098345
300.589683247
302.71973753
301.42300601
301.016507101
301.016507101
301.866089821
300.996182156
301.455525923
301.42300601
301.459590912
300.605943203
301.032767057
301.459590912
301.012442112
300.57342329
300.585618258
300.569358301
301.902674723
301.000247145
300.996182156
300.557163334
301.032767057
300.569358301
300.536838388
300.589683247
301.439265966
301.439265966
300.57342329
300.569358301
300.57342329
300.57342329
301.866089821
301.439265966
301.849829865
300.569358301
300.569358301
300.57342329
300.585618258
301.455525923
300.585618258
300.57342329
300.569358301
300.589683247
301.475850868
300.589683247
300.569358301
301.455525923
301.012442112
301.012442112
300.569358301
301.475850868
301.032767057
301.471785879
301.016507101
301.044962025

Block: 10
======================================
302.345758533
301.475850868
301.012442112
300.536838388
300.569358301
301.475850868
300.553098345
301.459590912
301.016507101
301.475850868
301.028702068
301.032767057
301.028702068
301.049027014
301.016507101
301.028702068
300.146599436
301.028702068
300.553098345
301.866089821
300.569358301
300.589683247
301.455525923
301.439265966
300.996182156
300.569358301
300.57342329
300.569358301
300.589683247
301.032767057
300.195379305
300.57342329
300.589683247
301.455525923
301.012442112
300.569358301
301.016507101
300.589683247
301.012442112
301.455525923
300.585618258
300.57342329
300.553098345
301.443330956
300.12627449
300.996182156
300.996182156
300.996182156
301.459590912
300.553098345
301.849829865
301.012442112
300.589683247
300.996182156
300.585618258
301.455525923
301.866089821
300.589683247
300.57342329
300.996182156
301.012442112
301.902674723
300.553098345
301.016507101
301.459590912
300.57342329
300.996182156
300.553098345
300.569358301
300.57342329
301.000247145
300.536838388
300.996182156
300.569358301
300.996182156
