
Block: 1
======================================
401.125333858
402.382805395
401.113203907
401.076814055
401.09703064
401.942083859
401.129377174
400.688655639
401.521578908
401.517535591
401.129377174
401.958257127
401.533708858
401.092987323
401.533708858
400.672482371
401.092987323
400.672482371
401.076814055
401.076814055
401.10916059
401.537752175
400.688655639
401.092987323
401.076814055
400.656309104
402.398978662
401.092987323
401.09703064
401.076814055
401.517535591
402.382805395
400.640135837
401.060640788
401.09703064
401.09703064
402.35045886
401.501362324
402.386848712
401.092987323
402.35045886
400.63609252
401.060640788
401.080857372
401.09703064
400.63609252
401.485189056
402.35045886
401.09703064
401.076814055
401.060640788
401.521578908
402.366632128
401.064684105
401.517535591
401.517535591
401.076814055
400.63609252
400.640135837
401.076814055
401.076814055
401.533708858
400.672482371
400.466273212
400.652265787
401.09703064
400.640135837
401.521578908
400.640135837
400.63609252
402.382805395
401.076814055
401.517535591
400.688655639
401.517535591
400.63609252
402.398978662
401.080857372
400.652265787
400.688655639
400.619919252
400.656309104
400.668439054
401.09703064
400.231760836
401.113203907
400.688655639
400.227717519
401.10916059
401.113203907
400.668439054
401.113203907
400.688655639
400.247934103
400.247934103
400.672482371
401.129377174
400.26410737
400.280280638
400.247934103

Block: 2
======================================
400.247934103
400.652265787
400.231760836
400.247934103
400.26410737
400.211544251
400.668439054
400.652265787
400.672482371
400.652265787
402.398978662
401.113203907
401.521578908
400.215587568
400.211544251
400.243890786
401.113203907
400.195370984
400.215587568
400.652265787
401.113203907
400.211544251
400.652265787
400.656309104
400.672482371
401.517535591
400.231760836
400.672482371
400.211544251
401.129377174
401.129377174
400.668439054
400.227717519
401.060640788
401.076814055
400.656309104
400.215587568
400.215587568
400.652265787
401.942083859
401.09703064
400.231760836
400.211544251
400.227717519
401.076814055
401.909737325
400.211544251
400.215587568
400.656309104
400.652265787
400.619919252
400.672482371
400.63609252
401.946127176
400.640135837
401.113203907
401.925910592
400.656309104
401.060640788
401.060640788
401.060640788
400.63609252
401.060640788
402.382805395
402.775007129
403.199555397
401.505405641
401.925910592
401.092987323
400.656309104
400.63609252
401.517535591
401.925910592
401.060640788
401.533708858
400.63609252
400.63609252
400.652265787
401.092987323
402.366632128
401.080857372
401.064684105
401.092987323
401.485189056
402.775007129
401.942083859
401.909737325
401.485189056
401.028294253
402.330242276
401.060640788
402.775007129
401.464972472
400.603745985
401.060640788
401.076814055
401.505405641
400.619919252
402.770963812
401.485189056

Block: 3
======================================
401.09703064
401.501362324
401.060640788
400.640135837
401.060640788
400.619919252
400.640135837
401.076814055
401.501362324
401.060640788
401.044467521
400.656309104
400.603745985
400.656309104
401.501362324
401.469015789
401.501362324
401.080857372
401.925910592
401.060640788
401.060640788
401.517535591
401.076814055
401.958257127
402.807353663
401.521578908
401.060640788
401.517535591
401.521578908
400.652265787
400.63609252
401.076814055
401.060640788
400.63609252
401.076814055
401.092987323
401.958257127
401.962300444
401.092987323
401.521578908
401.553925443
401.501362324
401.060640788
401.080857372
401.076814055
401.076814055
401.09703064
401.974430394
401.113203907
401.113203907
401.549882126
401.113203907
401.57009871
401.537752175
401.10916059
401.57009871
402.435368514
400.688655639
401.161723709
401.161723709
402.435368514
402.026993513
401.181940293
401.145550442
400.721002173
400.300497222
400.773565292
400.312627172
400.312627172
400.737175441
402.467715049
400.300497222
400.312627172
402.04316678
401.586271977
401.602445245
402.026993513
400.757392025
400.741218758
400.312627172
400.757392025
401.586271977
400.753348708
400.332843757
400.312627172
400.753348708
400.737175441
400.280280638
400.450099945
401.177896976
401.177896976
401.181940293
400.312627172
401.181940293
400.312627172
400.280280638
400.296453905
399.904252172
400.773565292
402.04316678

Block: 4
======================================
400.296453905
401.181940293
400.737175441
400.757392025
400.737175441
400.296453905
400.721002173
400.704828906
400.300497222
399.892122221
400.704828906
400.280280638
400.737175441
400.280280638
401.161723709
400.741218758
400.737175441
400.72504549
400.721002173
401.145550442
402.04316678
402.010820246
400.316670489
402.026993513
400.721002173
400.296453905
400.312627172
400.296453905
400.296453905
400.741218758
401.165767026
401.602445245
401.586271977
400.737175441
401.57009871
400.280280638
400.753348708
400.284323955
400.280280638
400.737175441
400.280280638
400.296453905
400.296453905
400.737175441
400.316670489
400.737175441
400.72504549
401.145550442
401.145550442
401.161723709
400.737175441
400.721002173
400.688655639
401.177896976
400.704828906
400.280280638
400.300497222
402.859916782
400.296453905
402.451541781
400.721002173
400.721002173
400.280280638
400.280280638
400.704828906
401.161723709
401.586271977
400.721002173
400.721002173
400.721002173
400.704828906
401.57009871
401.145550442
401.586271977
401.149593759
400.721002173
401.145550442
400.741218758
401.181940293
401.586271977
400.741218758
402.87609005
400.704828906
400.72504549
400.688655639
400.721002173
402.010820246
400.72504549
400.721002173
400.704828906
400.280280638
401.145550442
400.72504549
401.57009871
400.684612322
400.721002173
400.721002173
401.974430394
401.145550442
400.704828906

Block: 5
======================================
400.672482371
401.145550442
400.704828906
401.113203907
401.145550442
401.145550442
400.652265787
401.129377174
401.549882126
401.10916059
401.533708858
401.09703064
401.994646978
401.092987323
401.092987323
401.549882126
401.113203907
401.533708858
401.517535591
401.974430394
401.978473711
401.09703064
402.839700198
400.684612322
401.145550442
401.09703064
401.553925443
401.113203907
401.09703064
401.113203907
401.09703064
401.549882126
401.129377174
401.57009871
401.09703064
401.09703064
400.704828906
400.672482371
401.113203907
401.533708858
402.807353663
400.704828906
400.668439054
400.688655639
401.553925443
401.517535591
400.684612322
400.672482371
401.994646978
400.684612322
400.26410737
401.57009871
400.721002173
400.280280638
401.129377174
400.704828906
400.688655639
400.72504549
401.145550442
400.684612322
400.668439054
400.26410737
401.974430394
401.974430394
401.10916059
401.57009871
400.688655639
400.688655639
401.165767026
401.129377174
400.684612322
400.688655639
401.145550442
400.704828906
400.672482371
400.704828906
400.668439054
400.688655639
401.10916059
400.231760836
400.231760836
400.688655639
401.09703064
400.672482371
400.652265787
401.113203907
401.113203907
400.672482371
401.942083859
400.668439054
400.63609252
400.672482371
400.652265787
401.076814055
401.060640788
400.656309104
400.656309104
401.942083859
400.640135837
400.672482371

Block: 6
======================================
401.092987323
400.26410737
401.092987323
401.958257127
401.113203907
400.704828906
400.247934103
400.26410737
400.231760836
400.684612322
400.668439054
401.553925443
400.26410737
400.280280638
400.672482371
400.26410737
400.688655639
400.243890786
400.688655639
400.247934103
400.704828906
400.838258362
400.247934103
400.688655639
400.688655639
400.227717519
400.26410737
400.668439054
401.125333858
400.688655639
400.704828906
401.129377174
400.704828906
400.296453905
400.243890786
400.211544251
400.247934103
401.129377174
400.227717519
400.656309104
401.553925443
400.668439054
401.113203907
401.537752175
400.247934103
400.247934103
400.652265787
401.533708858
400.247934103
400.227717519
401.521578908
400.227717519
400.247934103
400.227717519
400.656309104
400.247934103
400.247934103
400.688655639
400.227717519
400.26410737
400.688655639
400.231760836
400.668439054
400.231760836
401.10916059
401.978473711
400.227717519
401.978473711
400.498619747
400.672482371
400.688655639
400.668439054
400.231760836
400.227717519
400.656309104
400.247934103
400.672482371
400.26410737
401.537752175
400.247934103
401.958257127
400.652265787
401.092987323
400.247934103
401.113203907
400.247934103
400.211544251
401.125333858
400.656309104
401.533708858
400.215587568
400.247934103
401.533708858
400.63609252
400.672482371
400.672482371
400.231760836
400.688655639
400.247934103
400.243890786

Block: 7
======================================
399.823385835
401.978473711
400.668439054
400.215587568
400.243890786
400.215587568
401.092987323
399.786995983
400.231760836
401.553925443
399.786995983
399.823385835
400.215587568
400.688655639
400.688655639
399.770822716
399.80316925
399.786995983
400.227717519
400.247934103
400.231760836
400.231760836
399.7910393
400.215587568
399.7910393
400.227717519
399.80316925
400.672482371
400.227717519
400.243890786
400.656309104
400.231760836
400.231760836
400.227717519
399.7910393
400.247934103
400.672482371
399.774866033
399.80316925
400.231760836
399.7910393
399.80316925
401.09703064
401.501362324
400.652265787
399.7910393
399.80316925
399.807212567
400.243890786
400.215587568
400.227717519
400.672482371
400.231760836
400.211544251
399.807212567
401.092987323
399.823385835
399.786995983
399.774866033
399.770822716
399.770822716
401.501362324
399.754649448
401.092987323
399.774866033
400.656309104
399.754649448
400.211544251
400.211544251
400.215587568
400.215587568
399.786995983
399.754649448
399.774866033
402.346415544
399.770822716
399.786995983
399.7910393
399.754649448
401.044467521
400.195370984
401.076814055
400.179197717
399.770822716
401.040424204
400.63609252
399.738476181
400.179197717
400.195370984
399.770822716
400.63609252
399.758692765
400.179197717
401.076814055
399.738476181
400.195370984
400.195370984
399.754649448
400.199414301
400.179197717

Block: 8
======================================
400.640135837
400.179197717
399.758692765
400.599702668
400.163024449
401.501362324
400.195370984
400.179197717
400.195370984
400.179197717
399.754649448
399.722302914
401.501362324
400.163024449
401.469015789
399.722302914
400.63609252
399.754649448
399.738476181
399.754649448
400.163024449
400.179197717
401.044467521
400.179197717
401.905694008
399.758692765
400.179197717
400.195370984
399.738476181
400.179197717
399.754649448
400.195370984
399.754649448
400.179197717
400.619919252
401.469015789
399.738476181
400.179197717
400.619919252
400.195370984
399.754649448
401.044467521
400.163024449
399.754649448
400.195370984
400.619919252
399.754649448
399.738476181
400.179197717
400.619919252
399.738476181
401.909737325
400.195370984
400.179197717
400.603745985
400.603745985
400.163024449
399.738476181
400.619919252
399.722302914
400.163024449
400.163024449
400.179197717
399.738476181
400.163024449
400.179197717
400.179197717
399.722302914
399.722302914
401.469015789
400.163024449
401.452842522
400.179197717
399.722302914
400.179197717
400.603745985
400.179197717
399.722302914
399.738476181
401.873347473
399.722302914
400.163024449
400.163024449
400.130677915
399.734432864
401.448799205
400.551182866
399.738476181
399.722302914
399.722302914
399.702086329
399.722302914
400.142807865
400.567356133
399.702086329
401.452842522
400.163024449
401.024250937
399.706129646
399.706129646

Block: 9
======================================
400.146851182
399.722302914
400.158981133
399.702086329
399.685913062
399.706129646
400.146851182
400.130677915
399.738476181
400.995947719
400.146851182
399.685913062
399.689956379
400.126634598
399.722302914
400.126634598
400.975731134
399.669739795
400.126634598
400.146851182
399.702086329
400.567356133
399.689956379
400.551182866
399.685913062
399.669739795
399.685913062
400.551182866
400.555226183
400.130677915
399.685913062
399.685913062
400.567356133
399.706129646
401.400279403
399.669739795
400.11046133
399.685913062
399.722302914
400.126634598
400.114504647
400.11046133
400.11046133
400.551182866
400.130677915
400.959557867
400.11046133
400.587572718
400.555226183
400.551182866
400.959557867
401.400279403
400.094288063
400.126634598
400.094288063
400.078114796
400.126634598
401.400279403
400.094288063
400.094288063
401.384106135
400.535009599
399.653566527
400.514793015
399.63739326
400.518836331
400.927211332
400.518836331
399.669739795
400.514793015
400.114504647
401.808654404
399.669739795
399.685913062
400.11046133
400.078114796
399.653566527
400.094288063
400.094288063
399.653566527
399.63739326
399.653566527
399.653566527
400.094288063
400.094288063
399.63739326
399.653566527
399.653566527
400.094288063
400.518836331
400.518836331
399.621219993
399.653566527
400.514793015
400.094288063
399.617176676
400.078114796
399.63739326
400.518836331
399.617176676

Block: 10
======================================
400.078114796
399.63739326
401.808654404
400.502663064
400.057898211
399.63739326
399.653566527
399.63739326
400.078114796
400.057898211
400.074071479
400.498619747
399.633349943
399.653566527
400.923168015
400.939341283
400.078114796
399.617176676
399.653566527
399.621219993
399.653566527
399.63739326
399.669739795
401.380062819
399.633349943
399.653566527
400.078114796
400.078114796
400.061941528
399.63739326
400.061941528
399.63739326
400.959557867
399.633349943
400.502663064
399.653566527
400.518836331
399.605046725
399.653566527
399.653566527
400.975731134
399.653566527
400.094288063
400.078114796
400.094288063
400.078114796
400.078114796
399.63739326
400.535009599
400.959557867
399.669739795
399.63739326
400.094288063
399.653566527
399.653566527
400.074071479
400.094288063
399.653566527
400.518836331
399.63739326
399.669739795
400.518836331
399.63739326
399.653566527
399.63739326
400.061941528
400.078114796
400.078114796
400.498619747
400.114504647
400.518836331
400.114504647
399.653566527
399.617176676
400.074071479
400.094288063
400.518836331
400.518836331
400.535009599
400.514793015
399.653566527
399.653566527
400.959557867
400.094288063
401.804611087
399.633349943
400.094288063
400.535009599
400.078114796
399.532267022
399.673783112
400.9433846
400.518836331
399.63739326
399.63739326
400.9433846
399.63739326
399.63739326
400.9433846
399.633349943
