
Block: 1
======================================
200.967792296
200.963720083
199.61174531
200.519848847
200.963720083
200.075977612
200.092266464
200.503559995
200.503559995
200.043399906

Average distance is : 200.425 cm
Average deviation is : 0.464 cm
Block: 2
======================================
200.059688759
200.075977612
200.075977612
200.055616546
200.027111053
200.947431231
200.963720083
200.984081149
200.499487782
200.984081149

Average distance is : 200.467 cm
Average deviation is : 0.453 cm
Block: 3
======================================
200.552426553
199.636178589
200.963720083
200.523921061
199.652467442
200.043399906
200.075977612
200.059688759
200.519848847
200.519848847

Average distance is : 200.255 cm
Average deviation is : 0.430 cm
Block: 4
======================================
200.523921061
200.503559995
200.499487782
200.519848847
200.967792296
200.523921061
200.039327693
200.503559995
200.059688759
200.947431231

Average distance is : 200.509 cm
Average deviation is : 0.303 cm
Block: 5
======================================
200.931142378
200.02303884
200.947431231
200.540209913
200.487271142
200.519848847
200.059688759
200.055616546
200.039327693
200.059688759

Average distance is : 200.366 cm
Average deviation is : 0.370 cm
Block: 6
======================================
200.055616546
200.519848847
200.059688759
200.059688759
200.059688759
200.967792296
200.540209913
200.947431231
200.503559995
200.503559995

Average distance is : 200.422 cm
Average deviation is : 0.356 cm
Block: 7
======================================
200.043399906
200.059688759
200.059688759
199.632106376
200.059688759
200.059688759
200.039327693
200.503559995
200.075977612
200.059688759

Average distance is : 200.059 cm
Average deviation is : 0.206 cm
Block: 8
======================================
199.632106376
200.108555317
200.5361377
200.519848847
200.519848847
200.967792296
200.503559995
200.059688759
200.075977612
200.984081149

Average distance is : 200.391 cm
Average deviation is : 0.424 cm
Block: 9
======================================
200.080049825
200.540209913
200.967792296
200.519848847
199.615817523
200.984081149
200.11262753
200.519848847
200.503559995
200.075977612

Average distance is : 200.392 cm
Average deviation is : 0.425 cm
Block: 10
======================================
200.483198929
200.503559995
200.055616546
200.523921061
200.963720083
200.963720083
200.963720083
200.499487782
200.519848847
200.519848847

Average distance is : 200.600 cm
Average deviation is : 0.288 cm