
Block: 1
======================================
401.129377174
401.129377174
401.145550442
401.113203907
401.537752175
400.688655639
401.537752175
401.113203907
400.684612322
400.672482371
401.553925443
400.652265787
400.672482371
401.113203907
401.113203907
401.553925443
400.684612322
400.656309104
401.958257127
400.704828906
401.962300444
401.113203907
401.113203907
403.264248466
401.113203907
400.668439054
401.09703064
401.129377174
400.668439054
403.284465051
400.672482371
401.129377174
400.923168015
402.403021979
400.668439054
400.704828906
400.704828906
401.10916059
400.668439054
400.688655639
401.145550442
400.688655639
400.688655639
400.688655639
400.704828906
400.656309104
401.958257127
401.129377174
401.129377174
400.688655639
401.974430394
401.129377174
400.688655639
400.668439054
402.843743515
400.688655639
401.129377174
401.553925443
400.721002173
400.688655639
401.129377174
402.398978662
401.145550442
402.41515193
400.688655639
400.704828906
401.113203907
402.859916782
402.419195247
400.704828906
401.10916059
400.704828906
401.129377174
400.741218758
400.704828906
402.419195247
402.41515193
401.145550442
400.704828906
401.145550442
400.284323955
400.721002173
400.721002173
401.113203907
400.704828906
401.990603662
400.721002173
400.280280638
401.57009871
400.688655639
400.688655639
400.280280638
400.26410737
401.990603662
400.704828906
400.26410737
400.688655639
401.962300444
401.125333858
400.652265787

Block: 2
======================================
400.721002173
400.26410737
401.978473711
400.704828906
401.553925443
401.994646978
400.704828906
400.688655639
401.113203907
400.672482371
401.537752175
401.10916059
401.537752175
401.09703064
401.113203907
401.10916059
401.537752175
401.533708858
400.688655639
401.076814055
402.807353663
401.092987323
401.080857372
403.215728664
401.09703064
401.076814055
400.656309104
400.672482371
400.668439054
400.672482371
401.537752175
400.652265787
401.09703064
401.537752175
401.533708858
400.656309104
401.060640788
401.044467521
401.080857372
401.521578908
401.485189056
401.925910592
401.060640788
401.505405641
401.060640788
401.501362324
402.791180396
401.946127176
401.942083859
401.942083859
401.517535591
401.533708858
401.942083859
401.501362324
401.501362324
401.501362324
401.076814055
401.501362324
402.386848712
401.501362324
401.464972472
401.517535591
401.925910592
403.231901932
402.366632128
401.080857372
401.537752175
404.076955152
401.517535591
404.50150342
403.231901932
401.942083859
401.10916059
403.6564502
401.092987323
401.537752175
401.092987323
401.076814055
402.807353663
401.994646978
403.672623467
401.10916059
401.533708858
401.129377174
401.113203907
401.113203907
402.419195247
401.533708858
402.843743515
401.09703064
401.553925443
401.10916059
401.125333858
401.145550442
401.145550442
401.994646978
401.129377174
401.57009871
401.57009871
401.113203907

Block: 3
======================================
401.549882126
402.859916782
401.165767026
400.704828906
401.57009871
401.145550442
400.704828906
400.300497222
400.280280638
401.161723709
401.181940293
400.721002173
402.451541781
400.32880044
401.586271977
400.284323955
400.296453905
400.26410737
400.280280638
400.296453905
400.753348708
402.435368514
400.296453905
400.296453905
401.161723709
400.704828906
400.721002173
400.704828906
400.296453905
401.161723709
400.312627172
401.161723709
401.57009871
400.280280638
400.737175441
400.280280638
400.296453905
400.721002173
400.737175441
399.855732369
400.280280638
400.280280638
401.145550442
400.721002173
400.721002173
401.161723709
400.296453905
400.26410737
400.280280638
402.403021979
400.296453905
400.704828906
400.26410737
400.704828906
400.688655639
400.688655639
400.684612322
400.688655639
400.72504549
402.435368514
401.129377174
400.688655639
400.704828906
401.129377174
400.704828906
400.688655639
400.688655639
401.129377174
401.553925443
401.537752175
401.549882126
400.704828906
402.382805395
402.827570248
400.672482371
401.09703064
401.533708858
401.517535591
401.09703064
401.09703064
401.517535591
401.113203907
402.807353663
401.501362324
401.553925443
401.092987323
401.076814055
401.942083859
401.942083859
401.925910592
401.517535591
401.517535591
401.942083859
402.823526931
401.501362324
401.501362324
401.501362324
401.942083859
401.533708858
404.060781884

Block: 4
======================================
401.485189056
401.925910592
403.215728664
401.942083859
401.942083859
401.942083859
402.382805395
402.787137079
401.942083859
402.366632128
403.6564502
402.827570248
401.080857372
401.09703064
401.521578908
401.517535591
401.501362324
401.09703064
401.974430394
401.09703064
401.501362324
401.113203907
401.553925443
401.076814055
401.553925443
401.10916059
401.553925443
401.125333858
401.129377174
400.672482371
401.994646978
402.839700198
401.113203907
401.586271977
401.553925443
402.398978662
400.672482371
401.129377174
401.553925443
401.553925443
400.704828906
401.990603662
401.553925443
402.41515193
400.721002173
401.57009871
401.113203907
400.688655639
400.672482371
402.398978662
402.41515193
401.129377174
400.688655639
401.10916059
401.129377174
401.145550442
401.113203907
400.688655639
400.63609252
400.656309104
401.129377174
401.553925443
400.619919252
401.517535591
402.823526931
400.668439054
400.672482371
400.656309104
401.113203907
401.09703064
402.807353663
401.092987323
401.113203907
400.684612322
403.264248466
403.248075199
402.382805395
401.501362324
401.553925443
401.553925443
400.688655639
401.994646978
401.10916059
401.113203907
401.09703064
400.672482371
401.113203907
402.419195247
402.382805395
401.113203907
401.129377174
401.549882126
400.688655639
401.129377174
400.684612322
401.553925443
401.129377174
400.672482371
400.656309104
400.688655639

Block: 5
======================================
401.958257127
402.839700198
400.741218758
402.41515193
400.704828906
401.125333858
401.129377174
400.704828906
400.721002173
400.688655639
400.688655639
401.129377174
401.129377174
401.129377174
401.994646978
401.129377174
401.145550442
400.688655639
401.10916059
401.57009871
401.549882126
400.688655639
401.09703064
401.10916059
401.129377174
401.553925443
403.264248466
401.994646978
401.129377174
401.537752175
401.994646978
401.978473711
401.566055393
401.978473711
401.129377174
401.129377174
401.092987323
401.092987323
401.537752175
401.553925443
401.125333858
401.060640788
401.537752175
400.672482371
401.537752175
401.113203907
402.398978662
401.09703064
401.521578908
401.537752175
402.386848712
401.521578908
401.958257127
401.517535591
401.060640788
402.366632128
401.958257127
401.09703064
401.064684105
401.517535591
401.517535591
401.092987323
401.537752175
401.517535591
401.092987323
401.113203907
401.521578908
401.076814055
401.537752175
401.09703064
401.537752175
402.791180396
401.295153165
401.10916059
401.10916059
401.10916059
401.533708858
403.252118516
401.092987323
400.672482371
401.092987323
401.092987323
402.41515193
400.672482371
401.09703064
401.10916059
401.09703064
401.978473711
401.10916059
401.09703064
401.09703064
404.097171736
401.974430394
401.57009871
401.113203907
401.537752175
401.113203907
401.10916059
402.823526931
401.549882126

Block: 6
======================================
402.366632128
401.076814055
401.958257127
402.366632128
401.060640788
401.10916059
401.533708858
401.553925443
401.958257127
401.09703064
401.553925443
401.553925443
402.398978662
401.537752175
401.553925443
401.092987323
401.125333858
400.688655639
401.145550442
400.704828906
402.419195247
400.704828906
401.978473711
401.10916059
401.113203907
400.688655639
401.113203907
401.113203907
400.684612322
400.672482371
400.688655639
400.704828906
400.688655639
401.57009871
401.586271977
401.129377174
400.704828906
401.586271977
400.704828906
400.704828906
402.41515193
401.129377174
402.419195247
401.113203907
401.145550442
400.704828906
401.10916059
401.994646978
400.684612322
400.688655639
401.994646978
401.145550442
400.704828906
400.704828906
401.125333858
400.704828906
402.403021979
401.145550442
400.704828906
401.145550442
401.129377174
401.145550442
400.688655639
401.129377174
401.145550442
400.672482371
400.668439054
400.668439054
401.145550442
400.26410737
400.26410737
400.684612322
400.704828906
400.737175441
400.280280638
400.688655639
400.280280638
400.684612322
401.553925443
400.26410737
401.145550442
401.978473711
401.145550442
400.688655639
400.704828906
400.26410737
401.533708858
400.704828906
400.684612322
400.688655639
400.704828906
400.247934103
401.145550442
401.145550442
400.737175441
400.704828906
400.26410737
400.704828906
401.553925443
400.300497222

Block: 7
======================================
400.195370984
400.296453905
400.247934103
401.533708858
400.26410737
400.688655639
400.260064054
400.688655639
400.231760836
400.247934103
400.672482371
401.553925443
401.113203907
401.549882126
401.994646978
401.129377174
402.398978662
401.974430394
400.704828906
400.688655639
401.129377174
400.688655639
400.26410737
400.300497222
401.129377174
400.704828906
400.684612322
401.129377174
401.10916059
402.398978662
401.553925443
400.688655639
400.704828906
400.688655639
401.129377174
400.688655639
400.672482371
400.668439054
401.10916059
401.09703064
400.688655639
400.704828906
401.129377174
400.688655639
401.113203907
400.688655639
400.668439054
401.946127176
402.807353663
400.668439054
401.129377174
401.113203907
401.149593759
402.419195247
401.145550442
401.113203907
401.113203907
401.09703064
401.925910592
401.09703064
401.10916059
401.537752175
401.533708858
401.092987323
401.517535591
401.09703064
401.129377174
402.791180396
400.688655639
401.113203907
401.129377174
400.688655639
401.113203907
400.704828906
401.129377174
400.243890786
400.688655639
400.688655639
400.684612322
400.704828906
401.113203907
400.668439054
401.978473711
400.688655639
401.10916059
401.533708858
401.113203907
400.684612322
401.09703064
401.537752175
400.672482371
402.839700198
401.533708858
401.129377174
401.57009871
401.521578908
401.092987323
402.010820246
401.521578908
400.672482371

Block: 8
======================================
401.113203907
400.688655639
400.672482371
401.09703064
400.652265787
401.09703064
401.092987323
400.668439054
401.942083859
401.10916059
401.521578908
401.113203907
401.080857372
401.958257127
401.537752175
402.791180396
401.076814055
402.386848712
401.076814055
403.231901932
401.501362324
401.080857372
401.501362324
402.775007129
401.092987323
401.060640788
401.517535591
401.517535591
401.962300444
401.925910592
401.942083859
401.09703064
401.044467521
401.024250937
403.215728664
401.521578908
401.485189056
401.044467521
401.076814055
401.060640788
402.330242276
401.501362324
401.485189056
401.044467521
401.044467521
401.909737325
401.925910592
401.028294253
401.485189056
401.076814055
401.060640788
401.060640788
402.35045886
401.060640788
400.619919252
400.619919252
401.076814055
401.521578908
402.366632128
401.060640788
401.060640788
401.076814055
400.619919252
401.060640788
400.640135837
401.537752175
403.199555397
400.619919252
401.909737325
400.619919252
401.060640788
402.330242276
401.060640788
401.060640788
400.619919252
401.909737325
401.076814055
400.63609252
401.060640788
401.060640788
401.044467521
401.060640788
401.485189056
401.044467521
401.076814055
401.040424204
401.469015789
401.028294253
401.044467521
401.909737325
401.060640788
401.024250937
401.893564057
401.469015789
401.469015789
401.889520741
402.754790545
401.485189056
401.889520741
401.452842522

Block: 9
======================================
401.044467521
401.501362324
402.35045886
400.603745985
401.060640788
401.044467521
401.464972472
402.366632128
400.599702668
401.060640788
401.469015789
402.334285593
401.905694008
401.044467521
401.485189056
401.505405641
400.603745985
401.448799205
401.485189056
401.060640788
401.060640788
401.044467521
401.909737325
401.044467521
401.464972472
401.485189056
401.485189056
401.505405641
401.909737325
401.044467521
401.925910592
401.076814055
401.060640788
401.060640788
401.942083859
401.505405641
401.946127176
401.517535591
400.619919252
400.619919252
401.501362324
401.080857372
401.060640788
401.113203907
400.656309104
401.517535591
400.63609252
400.652265787
401.946127176
400.688655639
400.640135837
400.656309104
402.807353663
400.656309104
400.231760836
401.09703064
400.640135837
401.080857372
400.656309104
401.076814055
400.63609252
400.63609252
402.807353663
401.080857372
400.652265787
401.533708858
401.517535591
401.10916059
401.517535591
400.652265787
401.113203907
400.656309104
401.537752175
402.827570248
401.521578908
401.553925443
401.10916059
401.962300444
401.974430394
400.668439054
400.704828906
401.10916059
401.10916059
401.974430394
400.684612322
401.129377174
401.145550442
402.419195247
401.57009871
401.586271977
400.704828906
400.721002173
401.161723709
400.704828906
402.435368514
401.145550442
401.161723709
400.72504549
400.704828906
401.57009871

Block: 10
======================================
400.684612322
401.145550442
401.145550442
400.741218758
400.704828906
400.741218758
401.129377174
401.57009871
400.668439054
400.688655639
401.129377174
401.113203907
401.57009871
402.419195247
401.994646978
401.161723709
400.737175441
400.704828906
400.688655639
400.704828906
400.704828906
400.684612322
401.129377174
400.704828906
401.57009871
400.721002173
400.704828906
400.704828906
400.721002173
401.145550442
401.113203907
400.704828906
401.113203907
400.721002173
401.990603662
401.145550442
401.129377174
400.704828906
400.704828906
400.672482371
401.129377174
400.668439054
401.57009871
400.721002173
400.721002173
401.129377174
401.57009871
400.704828906
401.978473711
401.129377174
400.688655639
401.586271977
400.704828906
403.264248466
401.994646978
401.129377174
400.688655639
401.145550442
401.129377174
401.129377174
401.129377174
401.145550442
402.843743515
400.688655639
402.859916782
401.129377174
401.113203907
402.398978662
401.553925443
400.688655639
400.704828906
401.990603662
400.741218758
400.704828906
402.419195247
401.57009871
400.704828906
401.129377174
400.741218758
401.129377174
400.688655639
400.704828906
401.145550442
401.129377174
400.704828906
401.161723709
400.72504549
400.721002173
400.704828906
402.451541781
401.113203907
401.994646978
402.010820246
400.688655639
400.672482371
400.688655639
400.688655639
401.145550442
400.688655639
401.537752175
