
Block: 1
======================================
199.786850476
200.230721712
199.819428182
199.786850476
199.819428182
200.230721712
200.230721712
200.230721712
199.770561624
200.247010565
200.230721712
200.230721712
200.230721712
201.118464184
200.674592948
200.694954014
200.658304095
200.674592948
200.674592948
200.654231882
200.658304095
200.230721712
200.210360646
200.674592948
200.230721712
199.823500395
199.770561624
200.690881801
200.230721712
200.690881801
199.803139329
200.690881801
200.670520735
199.803139329
200.674592948
200.674592948
199.803139329
200.674592948
200.654231882
199.819428182
199.803139329
200.690881801
199.803139329
200.674592948
200.690881801
200.690881801
200.674592948
200.194071794
200.247010565
200.690881801

Block: 2
======================================
200.690881801
200.690881801
200.674592948
200.674592948
199.782778263
200.247010565
200.690881801
200.690881801
199.76648941
199.770561624
199.803139329
199.803139329
201.509396648
200.247010565
200.690881801
200.210360646
111.770034957
198.899108005
200.674592948
199.76648941
200.670520735
200.690881801
200.674592948
199.823500395
199.803139329
200.670520735
112.470455623
196.932229042
200.263299417
199.803139329
200.226649499
200.674592948
199.803139329
199.819428182
200.247010565
199.839789248
200.230721712
199.803139329
200.690881801
199.823500395
200.674592948
199.839789248
200.230721712
200.674592948
200.690881801
109.640267467
198.911324644
200.247010565
110.507648873
198.487814474

Block: 3
======================================
199.786850476
200.226649499
199.770561624
199.782778263
199.786850476
199.770561624
199.803139329
199.819428182
199.803139329
110.405843544
199.391845798
200.674592948
200.690881801
200.674592948
200.670520735
200.283660483
199.803139329
199.786850476
199.799067116
199.819428182
200.674592948
200.674592948
199.803139329
200.674592948
199.823500395
111.737457252
197.595999789
199.803139329
200.247010565
199.819428182
199.803139329
199.819428182
201.529757714
199.823500395
199.819428182
200.690881801
200.690881801
199.819428182
201.56233542
199.819428182
199.819428182
199.733911705
199.819428182
199.819428182
199.823500395
199.819428182
199.803139329
199.803139329
200.263299417
111.293586016

Block: 4
======================================
200.263299417
200.711242867
200.707170653
200.711242867
199.823500395
199.803139329
200.690881801
200.230721712
200.690881801
200.230721712
200.230721712
200.247010565
200.654231882
200.263299417
200.247010565
200.690881801
199.839789248
200.707170653
199.819428182
200.707170653
199.803139329
200.247010565
200.690881801
200.690881801
200.690881801
200.707170653
200.707170653
200.690881801
200.247010565
200.247010565
199.803139329
200.690881801
200.674592948
200.674592948
200.690881801
200.230721712
200.226649499
199.819428182
199.839789248
200.674592948
199.819428182
200.690881801
200.263299417
200.247010565
199.819428182
199.803139329
200.707170653
200.711242867
200.674592948
200.707170653

Block: 5
======================================
199.819428182
199.839789248
199.819428182
200.299949336
199.803139329
112.079523158
197.359811425
199.819428182
199.823500395
200.263299417
199.803139329
199.819428182
200.27958827
112.095812011
197.722238398
199.819428182
200.263299417
110.369193625
198.182398486
200.267371631
200.27958827
200.263299417
199.819428182
199.835717034
200.263299417
200.27958827
200.247010565
199.786850476
200.263299417
200.263299417
199.819428182
199.835717034
111.208069539
198.198687339
199.8560781
199.819428182
200.295877123
112.079523158
197.734455037
200.316238189
199.835717034
199.835717034
199.839789248
199.835717034
112.095812011
197.274294949
199.823500395
199.819428182
199.819428182
200.27958827

Block: 6
======================================
199.819428182
201.118464184
199.852005887
199.803139329
200.247010565
200.27958827
199.835717034
200.707170653
200.711242867
199.819428182
199.839789248
200.707170653
199.819428182
199.835717034
200.674592948
200.707170653
109.587328696
198.915396857
199.835717034
199.803139329
199.839789248
199.819428182
199.819428182
200.711242867
200.27958827
199.835717034
110.800848222
197.722238398
115.035949922
194.374879169
115.887042475
193.51564219
199.835717034
110.442493463
198.968335629
111.668229628
198.092809796
200.690881801
199.803139329
199.835717034
110.458782315
197.64893856
199.819428182
199.819428182
113.394848013
195.926392388
199.819428182
199.839789248
200.27958827
199.819428182

Block: 7
======================================
199.823500395
111.501268888
196.985167813
114.881205821
193.124709725
199.803139329
113.732841706
195.20968287
200.247010565
200.247010565
111.191780686
197.343522573
114.111557531
194.590706468
112.217978406
196.781557155
113.105720878
195.4662323
111.908490205
194.985711145
200.690881801
108.255714989
199.412206864
112.914326859
196.472068954
116.709629536
193.108420873
118.399598002
189.691834021
120.570087624
188.413159084
122.276344943
186.275247169
123.559092093
184.976211166
123.998891115
184.463112307
124.528278828
183.60794754
125.40380466
183.18443737
125.798809338
184.414245749
124.12105751
185.692920685
122.42701683
187.814543748
120.362404752
188.221765065
122.463666749

Block: 8
======================================
199.803139329
108.683297372
199.412206864
200.230721712
200.711242867
200.690881801
199.803139329
110.866003633
197.274294949
112.079523158
196.077064276
200.247010565
200.674592948
199.803139329
200.263299417
200.210360646
111.651940775
197.225428391
115.154044104
194.269001627
118.517692184
189.622606397
120.24431057
188.751152778
118.981924486
191.727940607
117.218656182
190.889064693
118.554342103
190.424832392
119.05115211
189.520801067
117.784693813
191.622063065
120.75740943
188.119959736
120.789987135
186.90644021
122.51660552
186.466641188
122.125673056
186.890151358
121.726596165
187.708666205
121.319374847
187.232217264
120.928442383
187.232217264
121.783607149
188.071093178

Block: 9
======================================
200.711242867
112.678138494
197.086973143
116.864373636
192.098512006
116.880662489
192.098512006
120.602665329
187.93263793
123.094859791
185.04543879
123.96631341
186.73947947
122.703927326
185.440443468
123.96631341
184.157696319
125.607415318
183.815630412
125.232771707
182.51659441
127.313672638
182.109373093
124.683022928
182.553244328
128.148476338
179.152946329
128.254353881
178.265203857
129.533028817
180.248371673
128.303220439
181.132041931
128.303220439
181.115753078
127.399189115
181.922051287
127.52135551
181.954628992
128.783741593
179.376918054
130.05019989
179.820789289
130.05019989
178.53804214
131.772746062
177.634010816
132.184039593
176.526368833
132.473166728

Block: 10
======================================
200.247010565
200.690881801
199.835717034
200.247010565
201.134753036
200.299949336
200.690881801
200.707170653
112.079523158
197.685588479
200.707170653
110.813064861
199.44478457
112.079523158
196.492430019
200.263299417
200.690881801
110.33661592
198.198687339
112.902110219
196.895579123
117.084273148
191.023447728
200.247010565
109.994550014
198.113170862
115.394304681
193.161359644
118.346659231
190.20493288
120.517148852
188.482386708
120.961020088
188.44573679
199.803139329
200.247010565
199.786850476
112.112100863
197.294656014
199.786850476
111.704879546
196.830423713
200.263299417
199.786850476
113.256392765
195.600615335
200.707170653
109.005002213
200.299949336
114.469912291
