
Block: 1
======================================
199.717622852
199.717622852
199.733911705
199.701334
199.717622852
200.177782941
199.717622852
200.181855154
200.145205235
200.605365324
200.589076471
200.605365324
199.754272771
200.145205235
199.717622852
199.717622852
200.198144007
200.605365324
199.717622852
199.717622852
199.701334
199.717622852
199.733911705
199.717622852
201.440169024

Block: 2
======================================
199.717622852
200.161494088
199.750200558
199.733911705
200.589076471
199.754272771
199.717622852
199.685045147
200.145205235
199.717622852
200.161494088
200.145205235
200.161494088
199.733911705
199.717622852
199.717622852
199.733911705
199.717622852
199.701334
200.161494088
200.145205235
199.717622852
199.701334
200.161494088
200.161494088

Block: 3
======================================
199.717622852
199.717622852
199.754272771
199.717622852
199.717622852
200.181855154
200.572787619
199.754272771
200.605365324
200.161494088
200.177782941
200.161494088
200.181855154
200.621654177
200.621654177
110.544298792
197.64893856
200.145205235
200.621654177
200.621654177
199.754272771
199.750200558
200.642015243
200.621654177
200.642015243

Block: 4
======================================
200.637943029
200.194071794
200.658304095
199.754272771
200.210360646
200.637943029
200.637943029
200.637943029
200.181855154
200.230721712
199.76648941
199.754272771
200.621654177
200.637943029
199.750200558
200.642015243
200.198144007
200.642015243
199.750200558
200.621654177
200.642015243
200.621654177
200.637943029
199.737983918
199.733911705

Block: 5
======================================
200.198144007
200.194071794
200.642015243
200.621654177
200.658304095
200.621654177
200.658304095
199.76648941
200.642015243
200.658304095
200.658304095
200.637943029
200.658304095
200.621654177
199.76648941
199.76648941
199.750200558
199.76648941
199.770561624
199.750200558
199.786850476
199.76648941
200.230721712
199.770561624
199.754272771

Block: 6
======================================
200.674592948
199.770561624
200.674592948
200.642015243
200.210360646
200.674592948
199.770561624
199.782778263
200.658304095
199.770561624
199.770561624
199.76648941
199.750200558
200.654231882
200.642015243
199.770561624
200.658304095
199.770561624
200.230721712
200.654231882
199.786850476
200.637943029
199.76648941
200.670520735
200.637943029

Block: 7
======================================
200.62572639
200.658304095
200.621654177
199.786850476
199.750200558
199.76648941
200.214432859
200.247010565
199.754272771
199.770561624
200.247010565
199.754272771
199.770561624
201.085886478
199.754272771
199.754272771
199.750200558
199.76648941
199.770561624
201.102175331
199.786850476
200.194071794
199.76648941
199.76648941
199.76648941

Block: 8
======================================
199.786850476
199.786850476
200.247010565
199.803139329
199.803139329
200.247010565
200.247010565
200.674592948
200.214432859
199.786850476
200.247010565
200.230721712
199.76648941
200.214432859
199.76648941
199.770561624
199.770561624
199.786850476
199.770561624
199.770561624
199.786850476
200.230721712
199.786850476
200.247010565
199.782778263

Block: 9
======================================
199.803139329
200.670520735
199.819428182
200.177782941
200.674592948
200.658304095
200.674592948
200.654231882
199.803139329
199.786850476
200.214432859
199.803139329
201.102175331
199.76648941
201.085886478
201.118464184
200.247010565
201.098103118
200.230721712
199.754272771
201.118464184
199.786850476
201.085886478
200.210360646
199.750200558

Block: 10
======================================
200.247010565
199.803139329
199.770561624
199.786850476
199.750200558
199.786850476
200.230721712
200.210360646
200.214432859
199.786850476
199.786850476
199.786850476
199.803139329
200.210360646
199.76648941
200.247010565
200.247010565
200.226649499
199.786850476
201.085886478
199.770561624
200.230721712
200.230721712
200.230721712
200.690881801
