
Block: 1
======================================
199.253390551
199.701334
199.750200558
199.733911705
200.605365324
199.717622852
201.053308773
200.145205235
200.605365324
200.181855154

Average distance is : 200.075 cm
Average deviation is : 0.548 cm
Block: 2
======================================
199.733911705
200.177782941
199.257462764
200.161494088
200.572787619
199.717622852
200.161494088
199.273751616
199.294112682
199.306329322

Average distance is : 199.766 cm
Average deviation is : 0.480 cm
Block: 3
======================================
199.680972934
199.733911705
200.177782941
199.701334
199.733911705
200.177782941
199.737983918
199.290040469
199.253390551
199.717622852

Average distance is : 199.720 cm
Average deviation is : 0.303 cm
Block: 4
======================================
199.717622852
200.605365324
200.161494088
199.717622852
199.717622852
199.717622852
200.141133022
199.257462764
199.257462764
199.701334

Average distance is : 199.799 cm
Average deviation is : 0.411 cm
Block: 5
======================================
200.145205235
199.717622852
199.697261786
199.754272771
200.145205235
200.161494088
200.177782941
200.161494088
199.290040469
199.701334

Average distance is : 199.895 cm
Average deviation is : 0.306 cm
Block: 6
======================================
199.733911705
199.733911705
199.754272771
200.128916383
199.697261786
200.605365324
199.273751616
199.717622852
200.161494088
199.697261786

Average distance is : 199.850 cm
Average deviation is : 0.362 cm
Block: 7
======================================
200.198144007
200.194071794
199.717622852
201.069597626
199.717622852
199.733911705
200.161494088
199.750200558
199.290040469
199.717622852

Average distance is : 199.955 cm
Average deviation is : 0.483 cm
Block: 8
======================================
199.770561624
200.161494088
199.224885058
199.717622852
201.016658854
200.589076471
199.750200558
200.621654177
200.145205235
199.306329322

Average distance is : 200.030 cm
Average deviation is : 0.585 cm
Block: 9
======================================
200.589076471
199.306329322
199.306329322
199.697261786
200.161494088
200.161494088
200.161494088
199.273751616
199.733911705
199.717622852

Average distance is : 199.811 cm
Average deviation is : 0.447 cm
Block: 10
======================================
200.181855154
200.161494088
199.750200558
199.257462764
200.194071794
199.701334
200.177782941
200.145205235
199.697261786
199.782778263

Average distance is : 199.905 cm
Average deviation is : 0.316 cm