
Block: 1
======================================
50.8324114799
50.3517364502
50.3846031189
50.3353031158
50.3681697845

Average distance is : 50.454 cm
Average deviation is : 0.212 cm
Block: 2
======================================
50.3681697845
50.3846031189
50.3887114525
50.3353031158
50.3517364502

Average distance is : 50.366 cm
Average deviation is : 0.022 cm
Block: 3
======================================
50.7954364777
50.3887114525
50.7790031433
50.3476281166
50.3517364502

Average distance is : 50.533 cm
Average deviation is : 0.233 cm
Block: 4
======================================
50.8159781456
50.3353031158
50.7954364777
50.3311947823
50.8159781456

Average distance is : 50.619 cm
Average deviation is : 0.261 cm
Block: 5
======================================
50.7297031403
50.3846031189
50.8159781456
50.8324114799
50.8324114799

Average distance is : 50.719 cm
Average deviation is : 0.192 cm
Block: 6
======================================
50.3681697845
50.762569809
50.8159781456
50.7831114769
50.3846031189

Average distance is : 50.623 cm
Average deviation is : 0.226 cm
Block: 7
======================================
32.4969186783
50.4215781212
50.8159781456
50.8159781456
50.7995448112

Average distance is : 47.070 cm
Average deviation is : 8.148 cm
Block: 8
======================================
50.0764780998
50.8159781456
50.3681697845
50.8324114799
50.8488448143

Average distance is : 50.588 cm
Average deviation is : 0.350 cm
Block: 9
======================================
50.4010364532
50.8159781456
50.4010364532
50.8159781456
50.4051447868

Average distance is : 50.568 cm
Average deviation is : 0.227 cm
Block: 10
======================================
50.3846031189
50.8159781456
50.4010364532
50.8159781456
50.3681697845

Average distance is : 50.557 cm
Average deviation is : 0.237 cm