
Block: 1
======================================
50.0230697632
50.4010364532
50.4174697876
50.3681697845
50.3846031189
50.0066364288
49.9902030945
50.0230697632
50.4215781212
49.9696614265
49.9696614265
50.4010364532
50.4174697876
50.0025280952
50.4010364532
50.4010364532
49.9737697601
50.4010364532
50.3846031189
49.9737697601
49.9532280922
50.4010364532
49.9696614265
49.9902030945
50.4010364532

Average distance is : 50.202 cm
Average deviation is : 0.211 cm
Block: 2
======================================
50.1627531052
50.4215781212
50.4010364532
50.4051447868
49.9902030945
50.4215781212
50.4051447868
50.8159781456
50.4010364532
50.4339031219
50.4051447868
50.4010364532
50.3846031189
50.4010364532
49.9737697601
49.9573364258
49.9902030945
50.4174697876
50.4051447868
50.3846031189
50.4010364532
49.9737697601
49.9573364258
49.9902030945
50.4051447868

Average distance is : 50.292 cm
Average deviation is : 0.224 cm
Block: 3
======================================
50.3681697845
50.8365198135
50.8159781456
50.8324114799
50.3887114525
50.8159781456
50.4174697876
50.3846031189
50.8488448143
50.4010364532
50.4215781212
50.8159781456
50.3846031189
49.9902030945
50.3846031189
50.0066364288
49.9902030945
49.9532280922
49.9737697601
50.0066364288
49.9737697601
50.0066364288
49.9737697601
49.9737697601
49.9737697601

Average distance is : 50.318 cm
Average deviation is : 0.344 cm
Block: 4
======================================
50.3681697845
50.8324114799
50.4051447868
50.4174697876
50.4010364532
49.9902030945
50.4174697876
50.4051447868
50.0230697632
50.3846031189
50.0066364288
50.3681697845
50.4051447868
50.0066364288
49.9902030945
50.4010364532
50.4010364532
49.9902030945
49.9696614265
49.9902030945
50.0066364288
50.4010364532
49.9902030945
50.4215781212
49.9573364258

Average distance is : 50.238 cm
Average deviation is : 0.238 cm
Block: 5
======================================
24.5021015167
50.4010364532
50.4010364532
50.4010364532
50.4051447868
49.9902030945
49.9860947609
49.9367947578
50.3846031189
50.4380114555
50.3887114525
50.4380114555
50.3846031189
49.9902030945
49.9737697601
50.4010364532
50.4051447868
49.9696614265
49.9696614265
49.9902030945
49.9696614265
50.0066364288
50.4174697876
49.9737697601
49.9737697601

Average distance is : 49.164 cm
Average deviation is : 5.142 cm
Block: 6
======================================
50.3846031189
49.9737697601
49.9737697601
50.3681697845
49.9696614265
49.9860947609
50.4010364532
49.9696614265
50.4051447868
50.4339031219
50.4051447868
49.9696614265
50.3681697845
49.9902030945
50.0066364288
50.3846031189
49.9902030945
49.9737697601
50.3846031189
50.3846031189
50.3846031189
49.9737697601
49.9902030945
50.0066364288
50.3846031189

Average distance is : 50.179 cm
Average deviation is : 0.209 cm
Block: 7
======================================
50.4010364532
50.3681697845
50.4010364532
50.3846031189
50.4215781212
50.4215781212
50.4010364532
50.4010364532
50.3681697845
50.4051447868
50.4215781212
49.9860947609
50.4010364532
49.9573364258
49.9696614265
50.4010364532
50.4051447868
49.9902030945
50.3846031189
50.4051447868
50.3846031189
49.9737697601
50.3846031189
50.4051447868
49.9532280922

Average distance is : 50.296 cm
Average deviation is : 0.187 cm
Block: 8
======================================
49.9696614265
50.8693864822
50.3681697845
50.4051447868
50.8324114799
50.4174697876
50.4544447899
50.4215781212
50.7995448112
50.8488448143
50.3846031189
50.3681697845
50.4010364532
50.4051447868
50.4010364532
50.4051447868
50.0066364288
49.9696614265
50.3846031189
50.3681697845
49.9696614265
49.9902030945
50.3846031189
49.9737697601
49.9696614265

Average distance is : 50.351 cm
Average deviation is : 0.286 cm
Block: 9
======================================
50.4051447868
50.3681697845
50.4215781212
50.8159781456
50.7831114769
50.8693864822
50.8529531479
50.3681697845
50.8365198135
50.4215781212
50.3846031189
50.8159781456
50.0066364288
50.0066364288
49.9696614265
50.2284864426
50.4174697876
50.3681697845
49.9696614265
49.9902030945
49.9737697601
49.9737697601
49.9902030945
49.9860947609
49.9696614265

Average distance is : 50.328 cm
Average deviation is : 0.338 cm
Block: 10
======================================
50.8488448143
50.7995448112
50.8159781456
50.4010364532
50.8324114799
50.7995448112
50.8529531479
50.7831114769
50.8159781456
50.7995448112
50.8159781456
50.7995448112
49.9696614265
49.9902030945
49.9696614265
49.9902030945
49.9860947609
49.9902030945
49.9737697601
49.9532280922
49.9737697601
49.9860947609
49.9860947609
49.9902030945
49.9737697601

Average distance is : 50.364 cm
Average deviation is : 0.417 cm