
Block: 1
======================================
50.8324114799
50.3517364502
50.3846031189
50.3353031158
50.3681697845

Block: 2
======================================
50.3681697845
50.3846031189
50.3887114525
50.3353031158
50.3517364502

Block: 3
======================================
50.7954364777
50.3887114525
50.7790031433
50.3476281166
50.3517364502

Block: 4
======================================
50.8159781456
50.3353031158
50.7954364777
50.3311947823
50.8159781456

Block: 5
======================================
50.7297031403
50.3846031189
50.8159781456
50.8324114799
50.8324114799

Block: 6
======================================
50.3681697845
50.762569809
50.8159781456
50.7831114769
50.3846031189

Block: 7
======================================
32.4969186783
50.4215781212
50.8159781456
50.8159781456
50.7995448112

Block: 8
======================================
50.0764780998
50.8159781456
50.3681697845
50.8324114799
50.8488448143

Block: 9
======================================
50.4010364532
50.8159781456
50.4010364532
50.8159781456
50.4051447868

Block: 10
======================================
50.3846031189
50.8159781456
50.4010364532
50.8159781456
50.3681697845
