
Block: 1
======================================
49.3000030518
50.8488448143
50.3517364502
50.8324114799
50.8365198135
50.8159781456
50.7995448112
50.7790031433
50.3846031189
50.3681697845

Average distance is : 50.532 cm
Average deviation is : 0.483 cm
Block: 2
======================================
50.8324114799
50.8159781456
50.8159781456
50.8488448143
50.8488448143
50.7995448112
50.7831114769
50.3846031189
50.3846031189
50.8529531479

Average distance is : 50.737 cm
Average deviation is : 0.187 cm
Block: 3
======================================
50.7790031433
50.3887114525
50.3681697845
50.8324114799
50.3681697845
50.8488448143
50.3681697845
50.7995448112
50.7666781425
50.7995448112

Average distance is : 50.632 cm
Average deviation is : 0.224 cm
Block: 4
======================================
50.8159781456
50.8529531479
50.7995448112
50.8324114799
50.4010364532
50.3846031189
50.4215781212
50.8324114799
50.7954364777
50.8324114799

Average distance is : 50.697 cm
Average deviation is : 0.204 cm
Block: 5
======================================
49.9902030945
50.7995448112
50.6598614693
50.8365198135
50.7995448112
50.7790031433
50.8324114799
50.8488448143
50.8159781456
50.4051447868

Average distance is : 50.677 cm
Average deviation is : 0.276 cm
Block: 6
======================================
49.9860947609
49.9573364258
50.8324114799
49.9696614265
49.9532280922
50.4010364532
49.9737697601
50.0066364288
50.3846031189
49.9902030945

Average distance is : 50.145 cm
Average deviation is : 0.297 cm
Block: 7
======================================
50.4339031219
50.8488448143
50.7954364777
50.8529531479
50.4010364532
50.8324114799
50.7995448112
48.4536863327
50.4174697876
50.7831114769

Average distance is : 50.462 cm
Average deviation is : 0.731 cm
Block: 8
======================================
50.0066364288
50.4544447899
50.7995448112
50.8488448143
50.8159781456
50.4010364532
50.3846031189
50.8159781456
50.8324114799
50.3846031189

Average distance is : 50.574 cm
Average deviation is : 0.288 cm
Block: 9
======================================
50.4010364532
50.4051447868
49.9696614265
50.4174697876
50.3681697845
26.7247099876
49.9902030945
50.4339031219
50.8365198135
50.4051447868

Average distance is : 47.995 cm
Average deviation is : 7.478 cm
Block: 10
======================================
30.5701102257
50.0066364288
49.9737697601
50.0230697632
50.0066364288
50.0066364288
50.4174697876
50.4380114555
50.3846031189
49.9696614265

Average distance is : 48.180 cm
Average deviation is : 6.190 cm