
Block: 1
======================================
199.701334
199.664684081
201.016658854
199.680972934
199.664684081
200.572787619
200.145205235
199.668756294
201.032947707
199.685045147
199.697261786
199.632106376
200.12484417
199.717622852
199.685045147
199.241173911
165.266699409
144.563567638
163.169509625
145.809664869
162.668627405
145.471671176
163.100282001
145.878892493
162.721566176

Average distance is : 183.903 cm
Average deviation is : 22.497 cm
Block: 2
======================================
200.128916383
199.701334
199.668756294
201.016658854
199.701334
199.717622852
199.685045147
199.664684081
199.241173911
199.701334
199.685045147
199.253390551
200.128916383
199.685045147
199.717622852
199.257462764
200.128916383
199.701334
200.145205235
199.685045147
199.685045147
200.128916383
200.568715405
200.145205235
200.128916383

Average distance is : 199.851 cm
Average deviation is : 0.400 cm
Block: 3
======================================
199.220812845
199.237101698
200.075977612
200.108555317
200.11262753
200.145205235
199.680972934
199.685045147
109.208612871
198.422659063
200.568715405
199.685045147
199.680972934
200.12484417
199.273751616
200.568715405
200.141133022
97.9855933666
200.145205235
199.680972934
199.257462764
199.273751616
199.697261786
199.701334
200.145205235

Average distance is : 192.073 cm
Average deviation is : 26.682 cm
Block: 4
======================================
199.257462764
199.652467442
199.701334
199.632106376
199.701334
200.128916383
200.589076471
199.664684081
200.128916383
199.701334
199.697261786
200.552426553
199.701334
199.680972934
200.11262753
199.220812845
199.253390551
199.701334
199.701334
200.12484417
199.680972934
199.717622852
200.984081149
200.145205235
200.12484417

Average distance is : 199.862 cm
Average deviation is : 0.420 cm
Block: 5
======================================
200.5361377
200.128916383
199.680972934
200.128916383
200.11262753
200.568715405
199.680972934
199.701334
200.12484417
199.680972934
200.589076471
200.12484417
199.701334
200.996297789
200.128916383
199.685045147
200.589076471
199.697261786
200.145205235
200.12484417
200.128916383
199.680972934
199.685045147
199.701334
199.290040469

Average distance is : 200.025 cm
Average deviation is : 0.403 cm
Block: 6
======================================
200.11262753
200.11262753
199.733911705
199.664684081
200.096338677
199.273751616
200.141133022
199.664684081
200.11262753
200.11262753
199.680972934
199.273751616
199.701334
199.668756294
200.145205235
199.668756294
200.12484417
199.461073422
200.128916383
200.145205235
199.220812845
199.680972934
200.11262753
199.701334
199.685045147

Average distance is : 199.817 cm
Average deviation is : 0.308 cm
Block: 7
======================================
199.680972934
199.685045147
199.685045147
199.697261786
200.092266464
199.680972934
200.161494088
110.010838866
198.011365533
199.701334
200.108555317
199.680972934
200.108555317
200.568715405
199.241173911
200.589076471
199.701334
200.141133022
200.980008936
200.108555317
200.572787619
201.427952385
200.128916383
199.685045147
199.220812845

Average distance is : 196.347 cm
Average deviation is : 17.998 cm
Block: 8
======================================
199.220812845
199.685045147
199.717622852
200.12484417
199.685045147
199.685045147
200.572787619
199.685045147
200.556498766
200.108555317
199.685045147
188.514964414
200.572787619
200.145205235
200.128916383
199.664684081
200.12484417
199.648395228
199.685045147
200.12484417
200.572787619
200.12484417
199.664684081
199.680972934
199.717622852

Average distance is : 199.484 cm
Average deviation is : 2.314 cm
Block: 9
======================================
199.717622852
199.273751616
200.161494088
199.701334
199.664684081
200.145205235
199.685045147
200.128916383
199.668756294
199.717622852
200.108555317
200.108555317
199.664684081
200.552426553
199.697261786
201.423880172
199.701334
201.000370002
200.128916383
200.980008936
199.701334
199.717622852
199.680972934
200.141133022
199.701334

Average distance is : 200.007 cm
Average deviation is : 0.507 cm
Block: 10
======================================
199.701334
199.697261786
199.680972934
199.652467442
199.685045147
200.12484417
199.566950965
199.701334
200.589076471
200.11262753
200.12484417
199.664684081
200.572787619
199.701334
200.12484417
199.701334
200.589076471
199.701334
199.701334
199.664684081
199.701334
199.717622852
200.145205235
200.11262753
199.701334

Average distance is : 199.897 cm
Average deviation is : 0.321 cm