
Block: 1
======================================
201.016658854
200.161494088
200.128916383
199.680972934
200.161494088
199.737983918
199.241173911
199.701334
201.427952385
200.568715405
200.161494088
200.145205235
199.290040469
199.680972934
200.12484417
199.273751616
199.701334
200.145205235
199.241173911
199.701334
199.685045147
200.145205235
200.161494088
199.680972934
199.701334
200.128916383
199.685045147
200.145205235
200.12484417
199.697261786
199.257462764
200.145205235
200.141133022
199.257462764
199.241173911
199.237101698
199.237101698
200.145205235
199.685045147
199.273751616
199.273751616
199.257462764
199.257462764
200.589076471
199.717622852
199.717622852
199.685045147
200.145205235
200.145205235
199.273751616

Block: 2
======================================
200.605365324
201.032947707
199.257462764
199.701334
199.701334
200.145205235
200.145205235
199.680972934
199.717622852
200.128916383
199.257462764
199.717622852
200.145205235
200.589076471
199.701334
200.145205235
199.697261786
199.701334
199.273751616
199.701334
199.224885058
200.145205235
199.583239818
199.257462764
200.589076471
199.717622852
200.141133022
199.664684081
199.685045147
199.685045147
199.257462764
199.685045147
200.12484417
200.161494088
199.697261786
199.701334
200.996297789
199.680972934
199.701334
200.145205235
199.701334
199.701334
199.257462764
200.128916383
200.145205235
199.701334
199.685045147
199.241173911
199.294112682
199.701334

Block: 3
======================================
199.701334
199.717622852
199.733911705
199.273751616
200.128916383
200.145205235
199.685045147
199.737983918
199.253390551
199.701334
199.273751616
200.568715405
199.269679403
199.685045147
200.161494088
199.701334
199.241173911
106.765284967
141.391313577
168.479675603
200.145205235
199.701334
200.145205235
199.220812845
199.717622852
200.141133022
199.701334
199.257462764
199.717622852
200.145205235
200.145205235
199.257462764
199.701334
200.12484417
200.585004258
200.145205235
199.717622852
200.161494088
200.128916383
199.697261786
199.253390551
199.241173911
199.257462764
146.273897171
200.141133022
199.273751616
199.701334
201.444241238
188.494603348
175.581615376

Block: 4
======================================
200.568715405
199.717622852
200.589076471
199.685045147
199.237101698
200.161494088
199.273751616
200.589076471
199.717622852
199.273751616
199.717622852
200.161494088
200.145205235
201.444241238
199.717622852
200.145205235
200.589076471
200.572787619
199.685045147
199.701334
200.589076471
199.273751616
200.145205235
200.589076471
199.717622852
200.145205235
199.717622852
199.685045147
200.145205235
200.605365324
200.145205235
200.556498766
199.717622852
199.701334
200.145205235
200.145205235
199.253390551
199.717622852
199.701334
199.701334
201.012586641
200.145205235
200.161494088
199.257462764
200.589076471
199.717622852
199.701334
199.717622852
200.161494088
200.572787619

Block: 5
======================================
199.664684081
199.701334
200.12484417
200.605365324
199.697261786
200.145205235
199.257462764
199.737983918
200.145205235
200.572787619
199.237101698
201.032947707
199.697261786
200.092266464
200.963720083
200.161494088
199.680972934
200.141133022
199.701334
200.145205235
200.568715405
199.701334
199.701334
199.701334
199.685045147
200.128916383
199.685045147
199.701334
200.128916383
200.589076471
200.145205235
199.697261786
199.685045147
199.273751616
199.257462764
200.145205235
199.290040469
199.257462764
199.717622852
200.161494088
199.685045147
199.701334
199.701334
199.717622852
199.697261786
200.12484417
199.697261786
200.161494088
200.145205235
200.572787619

Block: 6
======================================
200.165566301
200.589076471
200.589076471
200.605365324
199.685045147
199.701334
199.253390551
200.145205235
199.701334
200.585004258
200.145205235
200.12484417
199.685045147
199.701334
200.161494088
199.680972934
199.697261786
199.273751616
199.717622852
199.717622852
199.290040469
199.237101698
199.701334
199.257462764
200.585004258
200.589076471
200.145205235
200.141133022
200.161494088
199.253390551
199.717622852
200.165566301
199.717622852
199.733911705
199.717622852
199.717622852
199.257462764
199.685045147
199.701334
199.697261786
200.161494088
199.737983918
199.717622852
200.161494088
199.290040469
200.589076471
199.290040469
199.717622852
201.04923656
199.717622852

Block: 7
======================================
201.476818943
199.680972934
200.980008936
199.701334
199.290040469
199.717622852
200.194071794
199.701334
199.737983918
200.161494088
199.717622852
199.273751616
199.717622852
199.306329322
199.717622852
199.701334
199.733911705
200.141133022
199.737983918
199.273751616
199.733911705
199.290040469
199.717622852
199.273751616
200.161494088
200.177782941
200.145205235
199.717622852
200.165566301
199.290040469
199.273751616
199.717622852
199.273751616
200.165566301
200.605365324
199.733911705
199.733911705
199.733911705
199.733911705
199.717622852
200.161494088
199.701334
200.177782941
199.273751616
199.290040469
200.161494088
199.717622852
200.589076471
199.685045147
199.273751616

Block: 8
======================================
199.290040469
199.273751616
201.456457877
199.701334
200.161494088
199.257462764
199.737983918
200.161494088
199.701334
200.161494088
199.770561624
199.273751616
199.290040469
199.290040469
199.680972934
199.257462764
199.701334
199.290040469
199.717622852
199.737983918
199.717622852
199.290040469
199.306329322
199.290040469
200.609437537
199.273751616
200.177782941
200.609437537
199.717622852
199.257462764
199.717622852
199.717622852
199.733911705
199.733911705
199.253390551
199.273751616
199.717622852
199.290040469
200.177782941
200.161494088
199.290040469
199.701334
199.273751616
200.161494088
199.733911705
199.737983918
199.273751616
199.717622852
199.253390551
199.717622852

Block: 9
======================================
199.701334
200.161494088
199.733911705
199.701334
200.589076471
199.733911705
199.717622852
110.971881175
199.680972934
199.717622852
109.212685084
199.786850476
200.161494088
200.585004258
108.390098023
198.829880381
199.697261786
200.145205235
201.000370002
200.141133022
200.161494088
199.701334
200.145205235
200.141133022
199.733911705
199.717622852
199.253390551
199.273751616
199.273751616
199.273751616
199.701334
200.161494088
200.161494088
199.701334
200.145205235
199.269679403
199.717622852
200.589076471
199.717622852
199.717622852
199.697261786
200.161494088
199.257462764
200.145205235
199.273751616
199.701334
199.733911705
200.161494088
199.290040469
199.717622852

Block: 10
======================================
199.717622852
199.701334
199.237101698
199.717622852
200.145205235
199.717622852
200.177782941
199.701334
199.257462764
199.701334
199.701334
199.717622852
200.161494088
199.701334
199.717622852
200.605365324
199.701334
199.701334
200.145205235
200.145205235
199.733911705
199.717622852
199.717622852
200.605365324
200.161494088
199.701334
199.701334
199.220812845
199.717622852
200.161494088
199.701334
200.145205235
199.680972934
200.572787619
200.605365324
200.141133022
200.605365324
199.257462764
200.605365324
199.717622852
201.032947707
199.717622852
199.701334
199.697261786
201.012586641
199.717622852
199.717622852
199.733911705
200.589076471
200.589076471
