
Block: 1
======================================
201.444241238
199.733911705
199.717622852
200.556498766
199.754272771

Average distance is : 200.241 cm
Average deviation is : 0.761 cm
Block: 2
======================================
200.128916383
199.697261786
199.685045147
200.145205235
200.108555317

Average distance is : 199.953 cm
Average deviation is : 0.239 cm
Block: 3
======================================
200.128916383
199.664684081
199.680972934
200.177782941
200.11262753

Average distance is : 199.953 cm
Average deviation is : 0.257 cm
Block: 4
======================================
199.664684081
199.685045147
110.507648873
196.675679612
200.145205235

Average distance is : 181.336 cm
Average deviation is : 39.618 cm
Block: 5
======================================
199.668756294
199.701334
199.717622852
199.701334
199.652467442

Average distance is : 199.688 cm
Average deviation is : 0.027 cm
Block: 6
======================================
200.568715405
200.128916383
200.141133022
201.000370002
199.701334

Average distance is : 200.308 cm
Average deviation is : 0.494 cm
Block: 7
======================================
199.652467442
199.754272771
200.145205235
200.128916383
200.12484417

Average distance is : 199.961 cm
Average deviation is : 0.238 cm
Block: 8
======================================
200.177782941
199.273751616
199.733911705
199.685045147
199.697261786

Average distance is : 199.714 cm
Average deviation is : 0.320 cm
Block: 9
======================================
199.257462764
199.750200558
201.032947707
199.717622852
199.717622852

Average distance is : 199.895 cm
Average deviation is : 0.668 cm
Block: 10
======================================
199.697261786
200.108555317
199.717622852
140.434343481
166.533157706

Average distance is : 181.298 cm
Average deviation is : 27.016 cm