
Block: 1
======================================
199.257462764
199.680972934
200.589076471
199.680972934
199.697261786
200.12484417
199.717622852
200.145205235
200.128916383
199.685045147

Block: 2
======================================
199.717622852
199.648395228
201.016658854
199.701334
200.11262753
199.701334
200.589076471
199.697261786
199.717622852
199.680972934

Block: 3
======================================
199.717622852
199.701334
199.701334
199.273751616
200.128916383
199.737983918
200.145205235
200.12484417
200.177782941
199.733911705

Block: 4
======================================
200.11262753
199.717622852
200.572787619
199.733911705
200.589076471
200.145205235
200.145205235
199.697261786
200.568715405
199.685045147

Block: 5
======================================
199.701334
199.680972934
200.161494088
199.717622852
200.12484417
199.701334
200.568715405
200.161494088
199.733911705
199.685045147

Block: 6
======================================
200.11262753
199.680972934
200.145205235
199.680972934
199.685045147
199.701334
199.680972934
199.273751616
199.220812845
199.237101698

Block: 7
======================================
200.128916383
201.032947707
200.145205235
199.701334
199.697261786
200.145205235
199.224885058
200.572787619
200.141133022
199.685045147

Block: 8
======================================
200.177782941
199.701334
199.685045147
199.733911705
200.980008936
200.128916383
200.572787619
200.128916383
199.680972934
199.685045147

Block: 9
======================================
199.701334
199.668756294
199.241173911
199.701334
200.108555317
200.128916383
199.680972934
199.237101698
199.664684081
200.585004258

Block: 10
======================================
200.128916383
199.701334
199.701334
200.128916383
200.145205235
199.701334
199.680972934
199.685045147
199.253390551
199.701334
