
Block: 1
======================================
99.8635411263
99.8470211029
99.8965811729
99.8470211029
99.8098510504
99.8305010796
99.8470211029
99.8635411263
99.8139810562
99.8470211029
99.8470211029
99.8470211029
99.8470211029
99.8305010796
99.8635411263
99.8305010796
99.8263710737
99.8635411263
99.8635411263
99.8139810562
99.8263710737
99.8635411263
100.747362375
100.297191739
99.7974610329
99.8263710737
99.8139810562
99.8098510504
99.8635411263
99.8676711321
99.7974610329
99.8305010796
99.8470211029
99.8305010796
99.8470211029
99.8098510504
99.8263710737
99.8470211029
99.8470211029
99.8635411263
99.8139810562
99.8305010796
100.330231786
99.8470211029
99.8635411263
99.8635411263
99.793331027
99.8470211029
100.317841768
99.8635411263
99.8800611496
99.8305010796
99.8470211029
99.8263710737
99.8676711321
99.8470211029
99.8305010796
99.8470211029
99.8098510504
100.264151692
100.297191739
99.8470211029
100.730842352
99.8098510504
99.8305010796
99.8305010796
99.8470211029
99.8305010796
99.8470211029
99.8470211029
99.8470211029
99.8676711321
99.8139810562
100.297191739
99.8305010796
99.8305010796
99.8305010796
99.8263710737
99.8470211029
99.8263710737
99.8470211029
99.8305010796
99.8263710737
100.317841768
100.297191739
99.8305010796
99.8470211029
99.8470211029
99.8635411263
99.8470211029
99.8263710737
99.8305010796
99.8139810562
99.8305010796
99.8263710737
99.8305010796
99.8470211029
99.8263710737
99.8139810562
99.8139810562

Average distance is : 99.893 cm
Average deviation is : 0.176 cm
Block: 2
======================================
99.8263710737
99.8635411263
99.8470211029
100.747362375
99.8470211029
99.8841911554
100.260021687
99.8470211029
99.8470211029
100.730842352
99.8139810562
99.8263710737
100.313711762
99.8635411263
99.8470211029
100.726712346
100.747362375
99.8470211029
99.8470211029
100.297191739
100.313711762
100.313711762
99.8676711321
99.8635411263
99.8470211029
99.8305010796
99.8470211029
99.8470211029
100.313711762
99.8470211029
99.8676711321
99.8470211029
99.8470211029
99.8263710737
99.8098510504
99.8470211029
100.730842352
99.8470211029
99.8676711321
99.8305010796
99.8305010796
99.8305010796
99.8676711321
100.726712346
99.8470211029
99.8263710737
99.8305010796
99.8470211029
99.8470211029
99.8635411263
99.8305010796
99.8098510504
99.8470211029
99.8263710737
100.714322329
100.714322329
99.8800611496
99.9833112955
100.710192323
100.730842352
99.8470211029
100.730842352
99.8305010796
99.8305010796
100.730842352
99.8305010796
100.747362375
99.793331027
99.8470211029
99.7974610329
99.8470211029
100.714322329
99.8139810562
100.297191739
99.8139810562
100.313711762
99.8305010796
99.8635411263
100.730842352
99.8263710737
100.730842352
99.8305010796
99.8305010796
99.8263710737
100.710192323
99.8470211029
99.8470211029
99.8305010796
100.747362375
99.8470211029
99.8305010796
99.8263710737
99.8635411263
99.8470211029
100.747362375
99.8470211029
99.8305010796
99.8305010796
99.8470211029
100.747362375

Average distance is : 100.057 cm
Average deviation is : 0.361 cm
Block: 3
======================================
100.747362375
100.730842352
100.763882399
100.747362375
99.8470211029
99.8470211029
99.8470211029
99.8470211029
99.8305010796
100.710192323
99.8139810562
99.8470211029
99.8139810562
99.8470211029
99.8470211029
99.8470211029
99.743770957
99.8305010796
99.8470211029
99.8305010796
100.751492381
100.693672299
100.693672299
100.747362375
99.8470211029
99.8139810562
99.8470211029
99.8470211029
99.8470211029
99.8305010796
99.8305010796
100.280671716
99.8470211029
100.714322329
99.8305010796
100.313711762
100.330231786
99.8470211029
100.297191739
99.8139810562
99.8800611496
99.8470211029
99.8676711321
100.330231786
100.334361792
99.8305010796
99.8470211029
99.8098510504
100.313711762
99.8098510504
100.710192323
99.8800611496
100.710192323
99.8635411263
99.3803304434
99.8139810562
99.8635411263
99.8305010796
100.313711762
99.8098510504
99.8098510504
99.8635411263
99.8470211029
99.8470211029
99.8139810562
99.8470211029
100.730842352
100.260021687
100.747362375
100.730842352
99.8470211029
99.8305010796
99.8470211029
99.8470211029
100.726712346
99.8470211029
99.8470211029
99.8470211029
99.8635411263
99.8470211029
99.8470211029
99.8470211029
99.8305010796
99.8470211029
100.730842352
99.8470211029
99.8305010796
99.8263710737
99.8635411263
100.751492381
100.730842352
99.8635411263
99.8305010796
99.8635411263
99.8470211029
99.8098510504
99.8470211029
99.8263710737
99.8305010796
99.8428910971

Average distance is : 100.046 cm
Average deviation is : 0.363 cm
Block: 4
======================================
100.768012404
100.730842352
100.264151692
99.8470211029
99.8263710737
99.793331027
99.8470211029
100.747362375
99.8841911554
100.747362375
99.8470211029
99.8470211029
99.8139810562
99.8635411263
99.8635411263
99.8139810562
100.313711762
99.793331027
99.8098510504
99.8139810562
100.714322329
99.8305010796
99.8470211029
99.1697001457
99.8305010796
99.8470211029
99.8263710737
99.8676711321
100.714322329
99.8470211029
99.8470211029
99.8263710737
99.8635411263
100.714322329
99.8470211029
99.8470211029
99.8635411263
99.8263710737
99.8470211029
99.8139810562
99.8139810562
99.8470211029
100.710192323
99.8305010796
99.8263710737
100.264151692
100.726712346
99.8470211029
100.433481932
99.8470211029
100.747362375
99.8098510504
99.8470211029
99.8263710737
99.8139810562
99.8676711321
99.8305010796
99.8305010796
99.8470211029
99.8676711321
99.8305010796
99.8470211029
99.8305010796
100.730842352
99.8139810562
99.8470211029
99.8470211029
100.747362375
100.730842352
99.8841911554
99.8470211029
99.8139810562
99.8139810562
99.8470211029
99.8470211029
99.793331027
99.8305010796
99.8635411263
99.7974610329
99.8428910971
99.8470211029
99.8305010796
99.8800611496
100.730842352
99.8676711321
99.8263710737
100.710192323
100.751492381
99.8635411263
99.8470211029
99.8305010796
99.8635411263
99.8305010796
100.313711762
100.280671716
100.730842352
99.8470211029
100.710192323
100.714322329
99.8470211029

Average distance is : 100.030 cm
Average deviation is : 0.367 cm
Block: 5
======================================
99.8635411263
99.8139810562
99.793331027
100.747362375
100.714322329
100.730842352
99.8305010796
99.8305010796
100.730842352
101.024072766
100.730842352
99.8263710737
99.8470211029
100.747362375
99.7974610329
100.693672299
100.747362375
100.297191739
100.730842352
100.747362375
100.751492381
100.714322329
99.8470211029
100.747362375
99.8635411263
99.8470211029
99.7768110037
100.730842352
99.8139810562
99.8098510504
99.8470211029
99.8305010796
99.8263710737
99.8305010796
100.730842352
100.730842352
100.730842352
99.8305010796
99.8635411263
100.747362375
100.747362375
99.8305010796
99.8098510504
99.8470211029
100.710192323
99.8305010796
100.730842352
99.8305010796
100.330231786
99.8305010796
99.8635411263
100.710192323
100.726712346
99.8470211029
99.8470211029
99.8305010796
100.693672299
99.8139810562
100.730842352
99.8305010796
100.730842352
100.710192323
99.8470211029
100.730842352
100.747362375
100.747362375
99.8305010796
99.8263710737
99.8139810562
100.726712346
100.730842352
100.751492381
99.8470211029
100.693672299
99.8139810562
99.8470211029
99.8098510504
100.726712346
99.8098510504
99.8305010796
99.8305010796
99.8470211029
99.8098510504
100.730842352
100.714322329
100.693672299
99.8098510504
99.8305010796
99.8305010796
100.730842352
100.730842352
100.747362375
100.710192323
99.8305010796
99.8635411263
99.8470211029
99.8305010796
99.8470211029
99.8676711321
100.747362375

Average distance is : 100.239 cm
Average deviation is : 0.449 cm
Block: 6
======================================
100.747362375
100.264151692
100.730842352
100.730842352
100.730842352
100.677152276
99.8305010796
99.8139810562
99.8139810562
99.8139810562
100.714322329
100.247631669
99.8263710737
99.8305010796
100.730842352
100.710192323
100.697802305
100.693672299
100.730842352
100.697802305
100.714322329
99.8263710737
100.763882399
99.8139810562
83.0420273542
99.8263710737
99.793331027
99.8263710737
100.260021687
100.280671716
100.710192323
99.8305010796
99.8098510504
99.8305010796
99.8305010796
99.8305010796
99.793331027
99.8470211029
99.7809410095
100.313711762
100.714322329
100.710192323
99.8263710737
100.714322329
100.693672299
99.8139810562
99.8470211029
100.747362375
99.793331027
99.8098510504
99.8470211029
100.710192323
99.8098510504
99.8470211029
100.714322329
100.730842352
100.730842352
99.8676711321
99.8305010796
99.8470211029
99.8305010796
100.747362375
100.730842352
99.8139810562
100.730842352
99.8305010796
100.747362375
99.8305010796
99.8470211029
100.714322329
99.8470211029
99.8470211029
100.714322329
100.677152276
99.8635411263
99.8305010796
100.730842352
100.714322329
100.768012404
100.730842352
99.8098510504
100.747362375
100.747362375
100.730842352
100.697802305
99.8305010796
100.730842352
100.730842352
100.710192323
100.264151692
99.5207506418
99.8139810562
100.264151692
99.8139810562
100.730842352
99.8635411263
99.8263710737
100.747362375
100.730842352
100.710192323

Average distance is : 100.099 cm
Average deviation is : 1.777 cm
Block: 7
======================================
100.243501663
99.8098510504
100.280671716
100.27654171
99.8139810562
100.730842352
100.730842352
100.726712346
100.710192323
100.730842352
100.697802305
100.768012404
100.747362375
100.280671716
99.8305010796
100.681282282
100.730842352
99.793331027
100.730842352
100.747362375
99.8635411263
99.8139810562
100.297191739
100.714322329
100.280671716
99.8098510504
100.714322329
100.260021687
100.280671716
100.280671716
100.247631669
100.714322329
99.8470211029
99.8635411263
99.8470211029
100.747362375
100.243501663
100.243501663
100.22698164
100.730842352
100.714322329
99.8305010796
99.8470211029
100.677152276
99.8305010796
100.693672299
99.8305010796
99.8305010796
99.8305010796
100.747362375
100.714322329
99.8470211029
100.264151692
100.730842352
100.697802305
100.747362375
100.747362375
99.8305010796
100.697802305
100.730842352
99.8470211029
99.8470211029
100.714322329
99.8841911554
100.730842352
100.697802305
100.710192323
100.747362375
100.714322329
100.714322329
100.730842352
100.714322329
99.8098510504
99.8098510504
100.280671716
100.27654171
99.8263710737
99.8305010796
100.697802305
99.8139810562
99.8470211029
100.730842352
100.747362375
100.697802305
100.710192323
100.730842352
100.243501663
99.8139810562
100.747362375
100.710192323
100.726712346
99.8305010796
100.710192323
99.8305010796
99.8139810562
99.8470211029
99.7974610329
100.730842352
99.793331027
99.8470211029

Average distance is : 100.332 cm
Average deviation is : 0.405 cm
Block: 8
======================================
100.210461617
100.730842352
100.730842352
99.8470211029
100.710192323
99.8305010796
99.8635411263
100.693672299
99.8470211029
99.8470211029
99.8098510504
100.730842352
99.8305010796
100.730842352
100.710192323
100.730842352
100.693672299
99.8263710737
99.8263710737
99.8470211029
99.8263710737
99.8470211029
100.747362375
100.693672299
99.8305010796
99.8305010796
99.8635411263
99.7974610329
99.8305010796
99.8470211029
99.8139810562
99.8098510504
99.8139810562
100.297191739
99.8305010796
99.8470211029
99.8676711321
99.8098510504
100.714322329
100.710192323
99.8470211029
99.8305010796
99.8470211029
99.8139810562
100.730842352
100.751492381
99.793331027
99.8305010796
99.8470211029
99.8470211029
100.714322329
100.693672299
99.8098510504
99.8470211029
99.8305010796
100.726712346
100.747362375
99.8305010796
100.714322329
99.8305010796
99.8263710737
99.8139810562
99.7974610329
100.730842352
99.8305010796
99.8470211029
100.697802305
100.747362375
99.8470211029
99.8263710737
100.726712346
100.710192323
100.730842352
99.8139810562
99.793331027
100.697802305
100.693672299
99.8263710737
100.710192323
100.710192323
100.714322329
100.710192323
100.747362375
100.730842352
99.8305010796
99.8470211029
100.714322329
99.8305010796
100.747362375
100.747362375
100.730842352
100.243501663
100.714322329
100.243501663
100.247631669
100.726712346
100.280671716
100.297191739
100.714322329
100.264151692

Average distance is : 100.230 cm
Average deviation is : 0.427 cm
Block: 9
======================================
99.8305010796
100.264151692
100.264151692
100.280671716
99.8098510504
100.264151692
101.143842936
100.264151692
100.710192323
99.8470211029
100.730842352
100.714322329
100.747362375
100.697802305
100.730842352
100.747362375
99.8305010796
100.710192323
99.8305010796
99.8305010796
100.730842352
99.8470211029
100.730842352
99.8305010796
99.8635411263
100.763882399
100.697802305
100.747362375
100.693672299
100.730842352
100.247631669
100.27654171
100.27654171
99.8470211029
100.747362375
100.247631669
100.697802305
99.8139810562
100.264151692
99.4133704901
99.8305010796
100.710192323
99.8470211029
100.22698164
100.747362375
99.8305010796
99.8139810562
99.7768110037
99.8305010796
99.8470211029
99.8635411263
100.726712346
100.714322329
100.730842352
99.8305010796
100.730842352
100.677152276
100.714322329
100.714322329
100.247631669
100.714322329
100.710192323
99.8305010796
100.693672299
100.730842352
99.8305010796
100.260021687
99.793331027
100.730842352
100.697802305
99.8305010796
100.714322329
100.730842352
100.730842352
100.693672299
99.8263710737
99.8470211029
100.693672299
100.747362375
100.730842352
100.710192323
100.697802305
100.730842352
100.730842352
99.8139810562
100.714322329
100.710192323
220.236691236
100.710192323
100.730842352
100.763882399
100.710192323
99.8470211029
100.710192323
100.714322329
100.710192323
100.714322329
100.714322329
99.8635411263
100.714322329

Average distance is : 101.589 cm
Average deviation is : 11.992 cm
Block: 10
======================================
100.297191739
100.763882399
100.22698164
100.280671716
99.8305010796
100.714322329
99.8305010796
100.763882399
100.22698164
100.747362375
99.8139810562
99.8635411263
100.730842352
100.730842352
100.714322329
100.264151692
100.714322329
100.697802305
100.714322329
100.730842352
100.714322329
100.747362375
100.710192323
99.8470211029
100.726712346
100.714322329
100.730842352
100.714322329
100.693672299
100.730842352
99.8470211029
99.793331027
99.7768110037
99.8139810562
99.8305010796
100.726712346
100.243501663
99.8470211029
99.8305010796
100.730842352
99.8470211029
100.714322329
99.8139810562
100.693672299
99.8635411263
100.697802305
100.730842352
100.710192323
99.8098510504
100.697802305
100.714322329
99.8098510504
100.693672299
100.730842352
100.747362375
100.714322329
100.243501663
100.22698164
99.8428910971
100.714322329
100.710192323
99.8305010796
100.730842352
99.8305010796
100.297191739
99.8305010796
100.280671716
100.710192323
99.8470211029
99.8098510504
100.714322329
99.7974610329
99.8098510504
100.726712346
100.730842352
100.714322329
99.8676711321
100.730842352
100.247631669
100.697802305
99.7974610329
100.260021687
100.747362375
100.714322329
100.730842352
99.8470211029
99.8470211029
100.714322329
100.697802305
100.747362375
100.247631669
100.714322329
100.714322329
100.714322329
100.747362375
99.8098510504
100.730842352
100.264151692
100.297191739
99.8305010796

Average distance is : 100.375 cm
Average deviation is : 0.402 cm
Average distance for 10x100 is : 100.289 cm
Average deviation for 10x100 is : 1.672 cm
 Percentage of values that failed: 0.000