
Block: 1
======================================
200.589076471
199.680972934
199.685045147
200.145205235
199.701334
199.701334
199.257462764
200.556498766
200.483198929
199.701334
200.145205235
200.145205235
200.572787619
200.12484417
199.680972934
199.701334
199.685045147
200.145205235
200.145205235
200.145205235
199.717622852
199.685045147
199.701334
199.733911705
200.589076471

Block: 2
======================================
201.000370002
199.717622852
199.257462764
199.701334
200.145205235
199.701334
199.701334
200.145205235
200.605365324
200.141133022
200.589076471
200.145205235
200.128916383
200.589076471
200.145205235
200.589076471
199.253390551
200.145205235
200.145205235
199.680972934
200.585004258
199.701334
200.556498766
200.12484417
200.145205235

Block: 3
======================================
199.685045147
199.733911705
199.701334
199.701334
199.701334
200.161494088
200.589076471
199.701334
199.717622852
200.609437537
200.145205235
200.589076471
201.04923656
199.664684081
200.128916383
199.717622852
199.717622852
199.685045147
200.161494088
199.717622852
200.161494088
200.141133022
199.697261786
199.237101698
199.273751616

Block: 4
======================================
199.664684081
200.161494088
200.145205235
201.032947707
200.12484417
199.701334
199.668756294
199.717622852
200.589076471
200.128916383
199.697261786
199.685045147
200.572787619
201.46053009
199.220812845
200.128916383
200.128916383
200.145205235
199.701334
200.572787619
200.161494088
200.145205235
199.241173911
200.568715405
199.717622852

Block: 5
======================================
199.701334
200.589076471
199.717622852
199.717622852
199.685045147
199.701334
199.290040469
201.444241238
201.032947707
200.128916383
199.701334
199.685045147
200.145205235
199.701334
199.717622852
199.685045147
199.685045147
200.145205235
200.128916383
199.701334
200.145205235
199.717622852
199.701334
199.269679403
200.12484417

Block: 6
======================================
200.128916383
200.11262753
199.717622852
201.411663532
199.717622852
199.664684081
199.717622852
199.701334
201.427952385
200.128916383
199.701334
199.697261786
200.572787619
199.257462764
199.648395228
200.12484417
199.685045147
200.128916383
200.11262753
199.685045147
200.145205235
199.701334
199.273751616
200.145205235
200.12484417

Block: 7
======================================
200.128916383
200.108555317
199.701334
200.556498766
199.733911705
200.128916383
199.664684081
200.589076471
199.697261786
199.701334
200.572787619
199.664684081
199.685045147
199.701334
199.701334
199.273751616
199.717622852
199.701334
199.685045147
199.697261786
199.701334
199.701334
200.145205235
199.717622852
200.589076471

Block: 8
======================================
200.128916383
199.668756294
200.572787619
200.128916383
199.701334
199.685045147
199.697261786
200.589076471
199.685045147
199.237101698
200.12484417
199.701334
199.701334
200.145205235
199.717622852
199.701334
199.241173911
200.145205235
199.701334
199.697261786
200.145205235
200.572787619
199.273751616
200.145205235
199.685045147

Block: 9
======================================
200.589076471
199.648395228
199.237101698
200.552426553
200.128916383
199.701334
108.646647453
200.5361377
199.685045147
199.680972934
199.737983918
199.680972934
199.253390551
199.680972934
200.128916383
199.717622852
199.664684081
199.701334
199.701334
199.680972934
199.257462764
199.685045147
200.568715405
199.697261786
200.11262753

Block: 10
======================================
199.664684081
199.664684081
199.615817523
200.145205235
199.717622852
200.165566301
200.589076471
199.701334
199.237101698
199.685045147
201.427952385
199.701334
199.697261786
199.273751616
199.701334
199.273751616
200.108555317
200.12484417
199.697261786
199.701334
199.257462764
200.568715405
199.237101698
200.12484417
199.685045147
