
Block: 1
======================================
400.737175441
400.26410737
400.316670489
400.195370984
400.247934103
400.231760836
400.227717519
400.215587568
400.211544251
400.231760836
401.092987323
400.280280638
400.296453905
400.231760836
400.215587568
400.231760836
401.958257127
400.280280638
400.227717519
400.280280638
400.741218758
400.227717519
400.296453905
400.227717519
401.10916059

Block: 2
======================================
400.672482371
400.652265787
400.215587568
401.533708858
401.145550442
400.619919252
400.668439054
401.517535591
400.672482371
400.672482371
400.656309104
400.672482371
400.668439054
400.668439054
400.231760836
401.177896976
400.312627172
400.656309104
400.672482371
400.656309104
400.26410737
400.668439054
400.247934103
401.129377174
400.247934103

Block: 3
======================================
401.181940293
400.672482371
400.688655639
400.753348708
400.26410737
400.652265787
400.672482371
400.668439054
401.553925443
400.668439054
400.721002173
401.092987323
400.652265787
400.672482371
400.688655639
400.668439054
401.092987323
400.668439054
400.672482371
401.553925443
400.652265787
401.113203907
401.145550442
401.129377174
400.684612322

Block: 4
======================================
401.590315294
401.655008364
401.194070244
401.57009871
401.566055393
401.129377174
401.145550442
401.129377174
401.57009871
401.994646978
401.57009871
401.549882126
401.145550442
401.655008364
401.145550442
401.129377174
401.177896976
401.198113561
401.145550442
401.198113561
401.113203907
401.214286828
401.165767026
401.194070244
401.145550442

Block: 5
======================================
400.704828906
401.606488562
401.214286828
401.125333858
400.704828906
401.149593759
402.431325197
401.129377174
401.145550442
401.181940293
400.688655639
401.194070244
401.145550442
401.145550442
401.57009871
401.194070244
401.177896976
401.553925443
401.113203907
401.962300444
401.638835096
401.145550442
401.161723709
401.177896976
401.586271977

Block: 6
======================================
401.113203907
401.990603662
401.537752175
401.177896976
401.553925443
401.129377174
401.129377174
401.177896976
401.09703064
401.129377174
401.198113561
401.10916059
401.129377174
401.113203907
402.435368514
401.181940293
401.113203907
401.181940293
401.129377174
401.994646978
401.145550442
401.145550442
402.419195247
401.549882126
400.684612322

Block: 7
======================================
401.145550442
401.145550442
401.181940293
401.129377174
401.129377174
400.684612322
401.161723709
400.773565292
400.247934103
400.684612322
402.026993513
401.978473711
400.247934103
400.247934103
401.129377174
400.672482371
401.129377174
400.26410737
400.26410737
400.688655639
400.26410737
401.129377174
401.125333858
400.688655639
401.129377174

Block: 8
======================================
401.198113561
400.773565292
401.161723709
400.704828906
401.129377174
400.672482371
401.978473711
400.704828906
400.688655639
401.622661829
400.688655639
400.684612322
400.684612322
400.652265787
400.668439054
401.533708858
401.09703064
401.129377174
401.09703064
401.113203907
401.129377174
401.533708858
400.652265787
401.10916059
401.092987323

Block: 9
======================================
400.688655639
401.113203907
400.672482371
400.63609252
400.63609252
401.09703064
401.113203907
400.656309104
401.145550442
400.672482371
401.129377174
400.652265787
401.09703064
401.080857372
401.076814055
401.076814055
401.060640788
400.63609252
400.668439054
401.09703064
401.925910592
401.586271977
401.09703064
400.656309104
401.09703064

Block: 10
======================================
401.533708858
401.076814055
401.092987323
401.060640788
401.10916059
400.652265787
401.113203907
401.113203907
401.09703064
401.10916059
401.978473711
401.129377174
401.57009871
400.668439054
400.672482371
401.165767026
401.57009871
400.672482371
400.668439054
401.129377174
400.668439054
401.129377174
401.145550442
400.688655639
401.092987323
