
Block: 1
======================================
100.313711762
100.334361792
100.317841768
100.27654171
100.317841768
100.297191739
100.297191739
100.334361792
100.313711762
100.313711762
100.334361792
100.334361792
100.330231786
100.297191739
100.313711762
100.313711762
100.330231786
100.297191739
100.330231786
100.297191739
100.330231786
100.297191739
100.350881815
100.317841768
100.330231786
100.313711762
100.330231786
100.330231786
100.297191739
100.297191739
100.297191739
100.297191739
100.313711762
100.313711762
100.330231786
100.313711762
100.297191739
100.297191739
100.334361792
100.313711762
100.346751809
100.350881815
100.730842352
101.197533011
99.9337512255
100.763882399
100.313711762
100.330231786
100.313711762
100.330231786
100.313711762

Average distance is : 100.344 cm
Average deviation is : 0.161 cm
Block: 2
======================================
100.334361792
100.334361792
100.297191739
100.297191739
100.317841768
100.280671716
100.297191739
100.313711762
100.280671716
101.160362959
100.313711762
100.346751809
100.280671716
100.313711762
100.313711762
100.313711762
100.346751809
100.297191739
100.280671716
100.330231786
100.317841768
100.350881815
101.160362959
100.313711762
100.280671716
100.350881815
100.313711762
100.330231786
100.313711762
100.297191739
100.350881815
100.313711762
100.297191739
100.330231786
100.317841768
100.297191739
100.317841768
100.313711762
100.330231786
100.280671716
100.280671716
100.330231786
100.330231786
100.330231786
100.334361792
100.334361792
100.334361792
100.334361792
100.334361792
100.747362375

Average distance is : 100.358 cm
Average deviation is : 0.177 cm
Block: 3
======================================
100.346751809
100.363271832
100.747362375
100.367401838
100.313711762
100.297191739
100.334361792
100.330231786
101.181012988
100.330231786
100.313711762
100.313711762
100.330231786
100.313711762
100.317841768
100.313711762
100.330231786
100.330231786
100.350881815
100.313711762
100.313711762
100.297191739
100.367401838
100.297191739
100.330231786
100.313711762
100.313711762
100.334361792
100.350881815
100.330231786
100.317841768
100.297191739
100.280671716
100.313711762
100.317841768
100.280671716
100.330231786
100.330231786
100.297191739
100.330231786
100.313711762
100.313711762
100.313711762
100.346751809
100.330231786
100.313711762
100.313711762
100.313711762
100.330231786
100.330231786

Average distance is : 100.348 cm
Average deviation is : 0.136 cm
Block: 4
======================================
100.346751809
100.313711762
100.330231786
100.280671716
100.297191739
100.280671716
100.297191739
100.313711762
100.346751809
100.350881815
100.330231786
100.107211471
100.330231786
100.334361792
100.330231786
100.330231786
100.330231786
100.313711762
100.27654171
100.330231786
100.313711762
100.346751809
100.297191739
100.350881815
100.330231786
100.334361792
100.334361792
100.313711762
100.334361792
100.330231786
100.330231786
100.313711762
100.297191739
100.297191739
100.297191739
100.317841768
100.334361792
100.330231786
100.334361792
100.280671716
100.350881815
100.330231786
100.330231786
100.313711762
100.780402422
100.317841768
100.346751809
100.313711762
100.350881815
100.346751809

Average distance is : 100.327 cm
Average deviation is : 0.075 cm
Block: 5
======================================
99.9337512255
99.9337512255
100.297191739
100.313711762
100.297191739
100.313711762
100.297191739
100.330231786
101.197533011
100.313711762
100.317841768
100.313711762
100.330231786
100.313711762
100.317841768
100.346751809
100.346751809
100.350881815
100.313711762
100.334361792
100.350881815
100.346751809
100.367401838
100.330231786
100.313711762
100.346751809
100.317841768
100.297191739
100.313711762
100.297191739
100.297191739
100.297191739
100.144381523
100.313711762
100.317841768
100.330231786
100.334361792
100.330231786
100.350881815
100.317841768
100.330231786
100.297191739
100.346751809
100.346751809
100.317841768
100.334361792
100.334361792
100.297191739
100.313711762
100.346751809

Average distance is : 100.322 cm
Average deviation is : 0.151 cm
Block: 6
======================================
100.350881815
100.334361792
100.330231786
99.9502712488
101.044722795
100.334361792
100.313711762
100.297191739
100.313711762
100.747362375
100.763882399
100.763882399
100.297191739
100.330231786
100.297191739
100.317841768
100.313711762
100.313711762
100.330231786
99.8800611496
100.313711762
100.350881815
100.313711762
100.330231786
100.297191739
100.350881815
100.330231786
100.350881815
100.297191739
100.313711762
100.313711762
100.313711762
100.350881815
100.297191739
100.317841768
100.730842352
100.334361792
100.297191739
100.313711762
100.297191739
100.330231786
100.313711762
100.317841768
100.350881815
100.313711762
100.280671716
100.317841768
100.297191739
101.164492965
100.334361792

Average distance is : 100.369 cm
Average deviation is : 0.212 cm
Block: 7
======================================
100.313711762
100.330231786
100.730842352
100.297191739
100.350881815
100.313711762
100.710192323
101.143842936
101.197533011
100.297191739
100.346751809
100.297191739
100.313711762
100.313711762
100.313711762
100.350881815
100.313711762
100.330231786
100.334361792
100.313711762
100.297191739
100.330231786
100.313711762
100.334361792
100.334361792
99.9667912722
100.330231786
100.264151692
100.297191739
100.313711762
100.334361792
100.280671716
100.297191739
100.330231786
100.280671716
100.313711762
100.346751809
100.313711762
100.350881815
100.297191739
100.334361792
100.363271832
100.330231786
100.313711762
101.160362959
100.710192323
99.9007111788
100.768012404
100.313711762
100.317841768

Average distance is : 100.387 cm
Average deviation is : 0.244 cm
Block: 8
======================================
100.317841768
100.313711762
100.346751809
100.313711762
100.334361792
100.313711762
100.367401838
100.330231786
100.330231786
100.297191739
100.350881815
100.297191739
100.313711762
100.297191739
100.334361792
100.330231786
100.313711762
100.350881815
100.334361792
100.297191739
100.297191739
100.297191739
100.313711762
100.297191739
100.350881815
100.313711762
100.297191739
100.330231786
100.317841768
100.334361792
100.334361792
100.367401838
100.334361792
100.330231786
100.297191739
100.280671716
100.313711762
100.317841768
100.313711762
100.313711762
100.330231786
100.313711762
100.330231786
100.714322329
100.330231786
100.317841768
100.313711762
100.313711762
100.346751809
100.317841768

Average distance is : 100.329 cm
Average deviation is : 0.059 cm
Block: 9
======================================
100.313711762
100.350881815
100.313711762
100.317841768
100.313711762
100.334361792
100.280671716
100.297191739
100.367401838
100.350881815
100.297191739
100.313711762
100.317841768
101.197533011
100.317841768
100.350881815
100.346751809
100.330231786
100.297191739
100.346751809
100.350881815
100.280671716
100.350881815
100.313711762
100.317841768
100.330231786
100.317841768
100.297191739
100.297191739
100.313711762
100.313711762
100.297191739
100.334361792
100.350881815
100.297191739
100.350881815
100.330231786
100.317841768
100.313711762
100.297191739
100.350881815
100.330231786
100.334361792
100.334361792
100.297191739
100.346751809
100.350881815
100.334361792
100.313711762
100.297191739

Average distance is : 100.340 cm
Average deviation is : 0.126 cm
Block: 10
======================================
100.313711762
100.330231786
100.313711762
100.363271832
100.313711762
100.330231786
100.280671716
100.730842352
100.346751809
100.297191739
100.363271832
100.297191739
100.297191739
100.330231786
100.330231786
100.330231786
100.330231786
100.313711762
100.317841768
100.297191739
100.297191739
100.330231786
100.330231786
100.330231786
100.350881815
100.313711762
100.313711762
100.330231786
100.346751809
100.334361792
100.313711762
100.330231786
100.330231786
100.507822037
100.317841768
100.297191739
100.346751809
100.330231786
100.334361792
100.334361792
100.313711762
100.334361792
100.346751809
100.317841768
100.330231786
100.350881815
100.297191739
100.313711762
101.164492965
100.330231786

Average distance is : 100.353 cm
Average deviation is : 0.134 cm
Average distance for 10x50 is : 100.348 cm
Average deviation for 10x50 is : 0.148 cm
 Percentage of values that failed: 0.000