
Block: 1
======================================
100.346751809
100.350881815
100.297191739
100.297191739
100.350881815
100.313711762
100.297191739
100.334361792
100.297191739
100.313711762
100.350881815
100.313711762
100.330231786
100.346751809
100.313711762
100.346751809
100.313711762
100.297191739
100.350881815
100.317841768
100.330231786
100.334361792
100.346751809
100.313711762
100.334361792
100.334361792
100.313711762
100.317841768
100.350881815
100.350881815
100.313711762
100.346751809
100.350881815
100.317841768
100.330231786
100.313711762
100.350881815
100.317841768
100.330231786
100.350881815
100.334361792
100.313711762
100.313711762
100.330231786
100.317841768
100.330231786
100.297191739
100.313711762
100.330231786
100.330231786
100.297191739
100.350881815
100.297191739
100.330231786
100.350881815
100.330231786
100.313711762
100.334361792
100.313711762
100.334361792
100.330231786
100.350881815
100.334361792
100.313711762
100.313711762
100.330231786
100.313711762
100.317841768
100.313711762
100.297191739
100.297191739
100.313711762
100.334361792
100.346751809
100.350881815
100.367401838
100.334361792
100.330231786
100.313711762
100.763882399
100.350881815
100.730842352
100.330231786
100.313711762
100.330231786
100.297191739
100.346751809
100.330231786
100.334361792
100.297191739
100.334361792
100.350881815
100.330231786
100.317841768
100.313711762
100.313711762
100.334361792
100.313711762
100.313711762
100.297191739

Block: 2
======================================
100.334361792
100.334361792
100.297191739
100.367401838
100.334361792
100.297191739
100.313711762
100.334361792
100.297191739
100.346751809
100.350881815
100.334361792
100.280671716
100.301321745
100.313711762
100.317841768
100.297191739
100.313711762
100.297191739
100.334361792
100.334361792
100.330231786
100.317841768
100.297191739
100.334361792
100.297191739
100.330231786
100.297191739
100.27654171
100.297191739
100.330231786
100.317841768
100.313711762
100.297191739
100.334361792
100.330231786
100.330231786
100.280671716
100.350881815
100.363271832
100.317841768
100.330231786
100.317841768
100.313711762
100.330231786
100.334361792
100.297191739
100.297191739
100.317841768
100.313711762
100.313711762
100.313711762
100.313711762
100.313711762
100.334361792
100.330231786
100.297191739
100.313711762
100.346751809
100.350881815
100.334361792
100.313711762
100.313711762
100.350881815
100.730842352
101.181012988
100.313711762
100.334361792
100.313711762
100.313711762
100.313711762
100.330231786
100.334361792
100.330231786
100.363271832
100.334361792
100.346751809
100.330231786
100.313711762
100.313711762
100.330231786
100.297191739
100.297191739
100.367401838
100.330231786
100.330231786
100.330231786
100.297191739
100.330231786
100.297191739
100.297191739
100.334361792
100.297191739
100.297191739
100.313711762
100.334361792
100.313711762
100.313711762
100.350881815
100.350881815

Block: 3
======================================
100.714322329
100.317841768
100.346751809
100.313711762
100.330231786
100.313711762
100.297191739
100.330231786
100.330231786
100.313711762
100.330231786
100.330231786
100.297191739
100.313711762
100.297191739
100.301321745
100.313711762
100.330231786
100.330231786
100.350881815
100.297191739
100.297191739
100.334361792
100.330231786
100.313711762
100.140251517
100.334361792
100.297191739
100.313711762
100.297191739
100.330231786
100.334361792
100.334361792
100.313711762
100.313711762
100.297191739
100.346751809
100.350881815
100.330231786
100.367401838
100.317841768
100.330231786
100.334361792
100.280671716
100.280671716
100.350881815
100.317841768
100.350881815
100.334361792
101.181012988
101.197533011
101.181012988
100.350881815
100.280671716
100.346751809
100.334361792
100.346751809
100.297191739
100.280671716
100.350881815
100.297191739
100.313711762
100.297191739
100.317841768
100.330231786
100.334361792
100.313711762
100.313711762
100.330231786
100.317841768
100.330231786
100.317841768
100.330231786
100.313711762
100.334361792
100.334361792
100.346751809
100.330231786
100.313711762
100.317841768
100.297191739
100.280671716
100.317841768
100.330231786
100.334361792
100.330231786
100.350881815
100.297191739
100.297191739
100.334361792
100.313711762
100.330231786
100.334361792
100.334361792
100.330231786
100.313711762
100.317841768
100.313711762
100.280671716
100.313711762

Block: 4
======================================
100.350881815
100.313711762
100.330231786
100.330231786
100.346751809
100.313711762
100.350881815
100.334361792
100.297191739
100.330231786
100.346751809
100.350881815
100.313711762
100.334361792
100.317841768
100.334361792
100.334361792
100.313711762
100.330231786
100.297191739
100.313711762
100.297191739
100.330231786
100.330231786
100.367401838
100.330231786
100.313711762
100.900172591
100.330231786
100.317841768
100.330231786
100.297191739
100.330231786
100.350881815
100.334361792
100.730842352
101.214053035
100.763882399
100.313711762
100.313711762
100.313711762
100.346751809
100.334361792
100.334361792
100.297191739
100.313711762
100.313711762
100.313711762
100.334361792
100.313711762
100.280671716
100.313711762
100.330231786
100.330231786
100.330231786
100.334361792
100.334361792
100.297191739
100.313711762
100.346751809
100.334361792
100.330231786
100.330231786
100.334361792
100.313711762
100.346751809
100.317841768
100.313711762
100.350881815
100.330231786
100.350881815
100.330231786
100.297191739
100.317841768
100.330231786
100.330231786
100.313711762
100.330231786
100.317841768
100.330231786
100.280671716
100.313711762
100.313711762
100.313711762
100.297191739
100.330231786
100.334361792
100.313711762
100.334361792
100.297191739
100.297191739
100.350881815
100.317841768
100.297191739
100.313711762
100.313711762
100.350881815
100.334361792
100.330231786
100.313711762

Block: 5
======================================
100.350881815
100.330231786
100.334361792
100.317841768
100.334361792
100.334361792
100.317841768
100.334361792
100.367401838
100.334361792
100.313711762
100.313711762
100.350881815
100.367401838
100.334361792
100.330231786
100.330231786
100.334361792
100.297191739
100.313711762
101.181012988
100.280671716
100.334361792
100.317841768
100.313711762
100.313711762
100.313711762
100.297191739
100.346751809
100.297191739
100.350881815
100.350881815
100.330231786
100.313711762
100.317841768
100.313711762
100.334361792
100.313711762
100.297191739
100.313711762
100.313711762
100.346751809
100.313711762
100.346751809
100.330231786
100.313711762
100.313711762
100.350881815
100.334361792
100.297191739
100.313711762
100.350881815
100.334361792
100.346751809
100.330231786
100.334361792
100.334361792
100.330231786
100.383921862
100.367401838
100.350881815
100.330231786
100.334361792
100.297191739
100.317841768
100.350881815
100.330231786
100.313711762
100.346751809
100.313711762
100.313711762
100.313711762
100.346751809
100.313711762
100.313711762
100.313711762
100.297191739
100.346751809
100.330231786
100.330231786
100.330231786
100.334361792
100.313711762
100.317841768
100.330231786
100.330231786
100.313711762
100.346751809
100.313711762
100.313711762
100.317841768
100.330231786
100.334361792
100.313711762
100.334361792
100.297191739
100.346751809
100.313711762
100.313711762
100.334361792

Block: 6
======================================
100.297191739
100.367401838
100.330231786
100.317841768
100.334361792
101.181012988
100.730842352
101.197533011
100.297191739
100.330231786
100.334361792
100.313711762
100.346751809
100.334361792
100.297191739
100.313711762
100.313711762
100.334361792
100.297191739
100.313711762
100.297191739
100.346751809
100.297191739
100.330231786
100.313711762
100.350881815
100.297191739
100.297191739
100.313711762
100.350881815
100.330231786
100.313711762
100.330231786
100.330231786
100.334361792
100.317841768
100.313711762
100.367401838
100.313711762
100.350881815
100.330231786
100.330231786
100.330231786
100.346751809
100.334361792
100.330231786
100.317841768
100.330231786
100.346751809
100.297191739
100.301321745
100.346751809
100.346751809
100.297191739
100.317841768
100.313711762
100.313711762
100.297191739
100.330231786
101.234703064
100.346751809
100.297191739
100.334361792
100.313711762
100.313711762
100.367401838
100.330231786
100.297191739
100.330231786
100.334361792
100.313711762
100.317841768
100.313711762
100.334361792
100.297191739
100.317841768
100.280671716
100.313711762
100.297191739
100.313711762
100.297191739
100.297191739
100.350881815
100.313711762
100.313711762
100.313711762
100.330231786
100.710192323
100.313711762
100.313711762
100.280671716
100.330231786
100.313711762
100.330231786
100.297191739
100.297191739
100.330231786
100.313711762
100.313711762
100.330231786

Block: 7
======================================
100.334361792
100.330231786
100.297191739
100.363271832
100.317841768
100.317841768
100.313711762
100.313711762
100.313711762
100.350881815
100.313711762
100.297191739
100.330231786
100.313711762
100.160901546
100.313711762
100.330231786
100.330231786
100.330231786
100.313711762
100.330231786
100.330231786
100.346751809
100.317841768
100.330231786
100.317841768
100.330231786
100.317841768
100.313711762
100.313711762
100.334361792
100.363271832
100.330231786
100.313711762
100.297191739
100.334361792
100.313711762
100.350881815
100.297191739
100.297191739
100.714322329
100.313711762
100.313711762
100.313711762
100.297191739
100.297191739
100.297191739
100.27654171
100.350881815
100.350881815
100.330231786
100.313711762
100.313711762
100.313711762
100.330231786
99.8635411263
100.297191739
100.313711762
100.330231786
100.264151692
100.330231786
100.297191739
100.330231786
100.313711762
100.330231786
100.334361792
100.350881815
100.313711762
100.346751809
100.313711762
100.297191739
100.313711762
100.313711762
100.297191739
100.346751809
100.317841768
100.334361792
100.317841768
100.330231786
100.330231786
100.334361792
100.313711762
100.330231786
100.330231786
100.301321745
100.297191739
100.346751809
100.317841768
100.313711762
100.350881815
100.346751809
100.297191739
100.346751809
100.313711762
100.747362375
101.214053035
100.801052451
100.297191739
100.313711762
100.367401838

Block: 8
======================================
100.313711762
100.330231786
100.313711762
100.334361792
100.297191739
100.297191739
100.297191739
100.330231786
100.334361792
100.297191739
100.123731494
100.297191739
100.330231786
100.334361792
100.313711762
100.350881815
100.334361792
100.297191739
100.330231786
100.330231786
100.313711762
100.297191739
100.350881815
100.350881815
100.313711762
100.330231786
100.334361792
100.317841768
100.297191739
100.313711762
100.714322329
100.297191739
100.330231786
100.334361792
100.317841768
100.313711762
100.317841768
100.313711762
100.334361792
100.330231786
100.317841768
100.330231786
100.334361792
100.297191739
100.350881815
100.313711762
100.297191739
100.330231786
100.297191739
100.313711762
100.297191739
100.297191739
100.317841768
100.346751809
100.334361792
100.350881815
100.297191739
100.297191739
100.297191739
100.313711762
100.330231786
100.330231786
100.297191739
100.313711762
100.313711762
100.330231786
100.346751809
100.330231786
100.330231786
100.301321745
100.334361792
100.330231786
100.313711762
100.367401838
100.313711762
100.334361792
100.313711762
100.313711762
100.317841768
99.9337512255
100.330231786
100.280671716
99.3101203442
100.334361792
99.9172312021
100.346751809
100.297191739
100.350881815
100.330231786
100.346751809
100.330231786
100.334361792
100.297191739
100.367401838
100.297191739
100.346751809
100.334361792
100.297191739
100.313711762
100.317841768

Block: 9
======================================
100.330231786
100.330231786
100.330231786
100.334361792
100.297191739
100.297191739
100.313711762
100.280671716
100.313711762
100.747362375
100.330231786
100.297191739
100.334361792
100.313711762
100.297191739
100.330231786
100.317841768
100.297191739
100.334361792
100.297191739
100.297191739
100.313711762
100.97038269
100.313711762
100.313711762
100.330231786
100.334361792
100.334361792
100.330231786
100.317841768
100.27654171
100.313711762
100.330231786
100.280671716
100.313711762
100.317841768
100.346751809
100.297191739
101.181012988
100.697802305
100.313711762
100.330231786
100.330231786
100.714322329
100.313711762
100.334361792
99.7066009045
100.317841768
100.714322329
100.317841768
99.9337512255
100.730842352
100.330231786
100.330231786
100.313711762
101.181012988
100.710192323
100.710192323
100.334361792
100.297191739
100.350881815
100.330231786
100.330231786
100.280671716
101.181012988
99.9502712488
100.346751809
100.747362375
100.313711762
100.334361792
100.313711762
100.313711762
100.297191739
100.330231786
100.334361792
100.313711762
100.297191739
100.334361792
100.317841768
100.317841768
100.334361792
100.297191739
100.313711762
100.297191739
100.330231786
100.330231786
100.297191739
100.334361792
100.297191739
100.330231786
100.557382107
100.330231786
100.334361792
101.164492965
100.330231786
100.313711762
100.313711762
100.280671716
100.350881815
100.317841768

Block: 10
======================================
100.334361792
100.350881815
100.751492381
100.383921862
100.693672299
101.214053035
100.730842352
100.330231786
100.363271832
100.313711762
100.313711762
100.297191739
100.297191739
100.313711762
100.313711762
100.334361792
100.297191739
100.330231786
100.350881815
100.346751809
100.313711762
100.330231786
100.313711762
100.313711762
100.346751809
100.297191739
100.297191739
100.334361792
100.334361792
100.350881815
100.330231786
100.297191739
100.330231786
100.334361792
100.334361792
100.346751809
100.317841768
100.346751809
100.350881815
100.313711762
100.334361792
100.297191739
100.334361792
100.330231786
100.313711762
100.330231786
100.330231786
100.313711762
100.350881815
100.350881815
100.297191739
100.317841768
100.334361792
100.330231786
100.350881815
100.317841768
100.350881815
100.280671716
100.330231786
100.330231786
100.313711762
100.350881815
100.330231786
100.313711762
100.330231786
100.313711762
100.313711762
100.330231786
100.330231786
100.334361792
100.330231786
100.330231786
100.346751809
100.313711762
100.367401838
100.334361792
100.330231786
100.330231786
100.297191739
100.330231786
100.330231786
100.313711762
100.313711762
100.334361792
100.313711762
100.350881815
100.313711762
100.346751809
100.346751809
100.330231786
100.334361792
100.297191739
100.313711762
100.346751809
100.334361792
100.317841768
100.350881815
100.297191739
100.334361792
100.297191739
