
Block: 1
======================================
100.350881815
100.317841768
100.334361792
100.330231786
100.297191739
100.280671716
100.297191739
100.297191739
100.297191739
100.334361792

Average distance is : 100.314 cm
Average deviation is : 0.023 cm
Block: 2
======================================
100.313711762
100.297191739
100.367401838
100.297191739
100.313711762
100.297191739
100.334361792
99.8841911554
100.330231786
100.313711762

Average distance is : 100.275 cm
Average deviation is : 0.139 cm
Block: 3
======================================
99.8965811729
100.330231786
100.346751809
100.330231786
100.280671716
100.313711762
100.313711762
100.297191739
100.313711762
100.317841768

Average distance is : 100.274 cm
Average deviation is : 0.134 cm
Block: 4
======================================
100.297191739
100.330231786
100.297191739
100.330231786
100.301321745
100.334361792
100.313711762
100.330231786
100.280671716
100.350881815

Average distance is : 100.317 cm
Average deviation is : 0.022 cm
Block: 5
======================================
100.317841768
100.313711762
101.800513864
100.350881815
100.367401838
100.297191739
100.330231786
100.334361792
100.330231786
100.297191739

Average distance is : 100.474 cm
Average deviation is : 0.467 cm
Block: 6
======================================
100.313711762
101.147972941
100.330231786
100.313711762
100.330231786
100.297191739
100.334361792
100.317841768
100.313711762
100.297191739

Average distance is : 100.400 cm
Average deviation is : 0.263 cm
Block: 7
======================================
100.346751809
100.330231786
100.313711762
100.367401838
100.334361792
100.334361792
100.297191739
100.330231786
100.334361792
100.330231786

Average distance is : 100.332 cm
Average deviation is : 0.018 cm
Block: 8
======================================
100.346751809
100.297191739
100.730842352
100.350881815
100.313711762
101.143842936
100.297191739
100.313711762
100.313711762
100.330231786

Average distance is : 100.444 cm
Average deviation is : 0.278 cm
Block: 9
======================================
100.27654171
100.346751809
100.730842352
100.297191739
101.164492965
101.160362959
100.714322329
100.346751809
100.297191739
100.697802305

Average distance is : 100.603 cm
Average deviation is : 0.348 cm
Block: 10
======================================
100.313711762
100.330231786
100.317841768
100.297191739
100.763882399
101.181012988
100.317841768
100.313711762
100.297191739
100.297191739

Average distance is : 100.443 cm
Average deviation is : 0.296 cm
Average distance for 10x10 is : 100.388 cm
Average deviation for 10x10 is : 0.199 cm
 Percentage of values that failed: 0.000