
Block: 1
======================================
100.350881815
100.317841768
100.334361792
100.330231786
100.297191739
100.280671716
100.297191739
100.297191739
100.297191739
100.334361792

Block: 2
======================================
100.313711762
100.297191739
100.367401838
100.297191739
100.313711762
100.297191739
100.334361792
99.8841911554
100.330231786
100.313711762

Block: 3
======================================
99.8965811729
100.330231786
100.346751809
100.330231786
100.280671716
100.313711762
100.313711762
100.297191739
100.313711762
100.317841768

Block: 4
======================================
100.297191739
100.330231786
100.297191739
100.330231786
100.301321745
100.334361792
100.313711762
100.330231786
100.280671716
100.350881815

Block: 5
======================================
100.317841768
100.313711762
101.800513864
100.350881815
100.367401838
100.297191739
100.330231786
100.334361792
100.330231786
100.297191739

Block: 6
======================================
100.313711762
101.147972941
100.330231786
100.313711762
100.330231786
100.297191739
100.334361792
100.317841768
100.313711762
100.297191739

Block: 7
======================================
100.346751809
100.330231786
100.313711762
100.367401838
100.334361792
100.334361792
100.297191739
100.330231786
100.334361792
100.330231786

Block: 8
======================================
100.346751809
100.297191739
100.730842352
100.350881815
100.313711762
101.143842936
100.297191739
100.313711762
100.313711762
100.330231786

Block: 9
======================================
100.27654171
100.346751809
100.730842352
100.297191739
101.164492965
101.160362959
100.714322329
100.346751809
100.297191739
100.697802305

Block: 10
======================================
100.313711762
100.330231786
100.317841768
100.297191739
100.763882399
101.181012988
100.317841768
100.313711762
100.297191739
100.297191739
