
Block: 1
======================================
99.1201400757
99.0994900465
99.136660099
99.136660099
99.1036200523

Block: 2
======================================
99.1201400757
99.1201400757
99.136660099
99.1201400757
99.1573101282

Block: 3
======================================
99.0829700232
99.1201400757
99.0994900465
99.6363908052
99.136660099

Block: 4
======================================
99.1036200523
99.1036200523
99.136660099
99.136660099
99.136660099

Block: 5
======================================
99.1201400757
99.1036200523
99.1036200523
99.1531801224
99.1531801224

Block: 6
======================================
99.0829700232
99.5868307352
98.9631998539
99.1201400757
99.0994900465

Block: 7
======================================
99.1201400757
99.1531801224
99.0829700232
99.136660099
99.0994900465

Block: 8
======================================
99.1036200523
99.0994900465
99.1201400757
99.0829700232
99.136660099

Block: 9
======================================
99.136660099
99.1036200523
99.136660099
99.5703107119
99.5537906885

Block: 10
======================================
99.1201400757
95.7954853773
99.1201400757
99.136660099
99.1531801224
