
Block: 1
======================================
99.5331406593
99.5042306185
99.136660099
99.5001006126
99.1697001457
99.1201400757
99.0994900465
99.1201400757
99.1201400757
99.5001006126
99.1036200523
99.087100029
99.0664499998
99.0994900465
99.1160100698
99.0994900465
99.087100029
99.1036200523
99.0829700232
99.0664499998
99.1201400757
99.1036200523
99.5372706652
99.1036200523
99.1201400757
99.0994900465
99.5331406593
99.1201400757
99.1036200523
99.5372706652
99.1201400757
99.136660099
99.1201400757
99.5496606827
99.1201400757
99.1201400757
99.1201400757
99.1036200523
99.4835805893
99.1201400757
99.1201400757
99.0994900465
99.1201400757
99.1036200523
99.136660099
99.1201400757
99.1201400757
99.1036200523
99.1201400757
99.0829700232
99.516620636
99.1201400757
99.4835805893
99.5372706652
99.136660099
99.1036200523
99.1201400757
99.1201400757
99.5331406593
99.1201400757
99.5537906885
99.0994900465
99.1036200523
99.1201400757
99.5372706652
99.0829700232
99.1160100698
99.566180706
99.136660099
99.1201400757
99.1201400757
99.0994900465
99.0994900465
99.0829700232
99.136660099

Block: 2
======================================
99.1573101282
99.5001006126
99.1531801224
99.5372706652
99.1201400757
99.0994900465
99.1036200523
99.0994900465
99.136660099
99.1036200523
99.5372706652
99.1036200523
99.1036200523
99.136660099
99.136660099
99.5703107119
99.1201400757
99.1160100698
99.136660099
99.5042306185
99.136660099
99.5537906885
99.1201400757
99.1201400757
99.5001006126
99.516620636
99.1201400757
99.0829700232
99.1036200523
99.136660099
99.1036200523
99.136660099
99.5372706652
99.4835805893
99.1201400757
99.1201400757
99.5537906885
99.0994900465
99.516620636
99.0994900465
99.1036200523
99.136660099
99.4794505835
99.5372706652
99.5372706652
99.5372706652
99.1201400757
99.1160100698
99.1201400757
99.4835805893
99.5496606827
99.1160100698
99.0829700232
99.5331406593
99.1036200523
99.1201400757
99.0994900465
99.1201400757
99.4835805893
99.1036200523
99.1201400757
99.1160100698
99.5537906885
99.136660099
99.1160100698
99.4835805893
99.1201400757
99.0994900465
99.1160100698
99.136660099
99.5001006126
99.0994900465
99.4835805893
99.1036200523
99.1201400757

Block: 3
======================================
99.0829700232
99.1036200523
99.1036200523
99.0829700232
99.1036200523
99.1160100698
99.1036200523
99.5331406593
99.136660099
99.1201400757
99.136660099
99.5703107119
99.136660099
99.136660099
99.1036200523
99.136660099
99.1201400757
99.1201400757
99.1036200523
99.087100029
99.0994900465
99.1201400757
99.0994900465
99.1036200523
99.5207506418
100.784532428
99.0994900465
99.136660099
99.087100029
99.5001006126
99.0829700232
99.1036200523
99.1036200523
99.5372706652
99.0829700232
99.0994900465
99.0994900465
99.0829700232
99.1160100698
99.1160100698
99.5331406593
99.5496606827
99.516620636
99.0829700232
99.1036200523
99.5207506418
99.1036200523
99.0994900465
99.1036200523
99.5331406593
99.1036200523
99.5372706652
99.136660099
99.5331406593
99.5331406593
99.1160100698
99.136660099
99.0994900465
99.5331406593
99.1036200523
99.136660099
99.1201400757
99.1201400757
99.5496606827
99.1160100698
99.1036200523
99.5496606827
99.5496606827
99.5001006126
99.5372706652
99.5207506418
99.1201400757
99.1201400757
99.1036200523
99.1036200523

Block: 4
======================================
99.136660099
99.1201400757
99.5207506418
99.1738301516
99.136660099
99.1036200523
99.5537906885
99.136660099
99.1201400757
99.1036200523
99.1160100698
99.5001006126
99.5372706652
99.136660099
99.1036200523
99.1201400757
99.087100029
99.1036200523
99.1160100698
99.1036200523
99.5331406593
99.4835805893
99.136660099
99.4794505835
99.0994900465
99.5496606827
99.0994900465
99.5207506418
99.516620636
99.1201400757
99.1201400757
99.1036200523
99.4794505835
99.1201400757
99.136660099
99.0829700232
99.516620636
99.5703107119
99.516620636
99.5331406593
99.5331406593
98.909509778
99.5331406593
99.5703107119
99.1036200523
99.136660099
99.5537906885
99.136660099
99.1036200523
99.5207506418
99.5331406593
99.0829700232
99.5331406593
99.1036200523
99.5372706652
99.087100029
99.1201400757
99.0994900465
99.1201400757
99.136660099
99.1201400757
99.5372706652
99.1036200523
99.1036200523
99.136660099
99.1201400757
99.1036200523
99.5372706652
99.136660099
99.5537906885
99.516620636
99.5372706652
99.5372706652
99.1036200523
99.1201400757

Block: 5
======================================
99.5001006126
99.5042306185
99.5703107119
99.5372706652
99.516620636
99.4629305601
99.1201400757
99.5001006126
99.5331406593
99.136660099
99.136660099
99.5331406593
99.1201400757
99.5331406593
99.516620636
99.136660099
99.087100029
99.1036200523
99.1201400757
99.5372706652
99.4835805893
99.5496606827
99.5372706652
99.136660099
99.5001006126
99.087100029
99.136660099
99.1201400757
99.1160100698
99.0994900465
99.0664499998
99.136660099
99.136660099
99.5042306185
99.1036200523
99.087100029
99.0705800056
99.5001006126
99.4794505835
99.4670605659
99.136660099
99.1201400757
99.0829700232
99.516620636
99.5001006126
99.0829700232
99.1160100698
99.4835805893
99.1201400757
99.136660099
99.136660099
99.5537906885
99.087100029
99.0829700232
99.1201400757
99.1036200523
99.5372706652
99.5537906885
99.0994900465
99.1201400757
99.6405208111
99.5703107119
99.0994900465
99.5372706652
99.5331406593
99.1036200523
99.1036200523
99.5496606827
99.5372706652
99.1201400757
99.1036200523
99.1036200523
99.5537906885
99.136660099
99.1201400757

Block: 6
======================================
99.136660099
99.4835805893
99.1036200523
99.1201400757
99.4835805893
99.516620636
99.4835805893
99.5042306185
99.5496606827
99.4835805893
99.136660099
99.5207506418
99.5537906885
99.5001006126
99.0664499998
99.1036200523
99.087100029
99.136660099
99.5001006126
99.5331406593
99.4835805893
99.1201400757
99.1201400757
99.4835805893
99.5001006126
99.1531801224
99.516620636
99.5207506418
99.1531801224
99.5001006126
99.1201400757
99.136660099
99.4835805893
99.5331406593
99.0994900465
99.1201400757
99.0829700232
99.136660099
99.0829700232
99.0829700232
99.4835805893
99.516620636
99.5001006126
99.4629305601
99.516620636
99.5001006126
99.0705800056
99.136660099
99.1201400757
99.1201400757
99.0664499998
99.1201400757
99.5372706652
99.5001006126
99.1201400757
99.136660099
99.136660099
99.1201400757
99.5331406593
99.5537906885
99.4835805893
99.5537906885
99.5537906885
99.5001006126
99.5537906885
99.1036200523
99.136660099
99.1201400757
99.1201400757
99.516620636
99.136660099
99.5372706652
99.5537906885
99.1201400757
99.5537906885

Block: 7
======================================
99.0994900465
99.1201400757
99.136660099
99.136660099
99.516620636
99.5703107119
99.0994900465
99.1531801224
99.5496606827
99.1160100698
99.1201400757
99.5537906885
99.1573101282
99.1201400757
99.516620636
99.5372706652
99.4835805893
99.1201400757
99.136660099
99.1036200523
99.1036200523
99.5331406593
99.1160100698
99.0829700232
99.087100029
99.1201400757
99.1201400757
99.1201400757
99.0829700232
99.5537906885
99.1036200523
99.1201400757
99.1036200523
99.1036200523
99.1036200523
99.1036200523
99.1201400757
99.1201400757
99.1201400757
99.5537906885
99.5496606827
99.516620636
99.5372706652
99.1201400757
99.0994900465
99.0994900465
99.5372706652
99.5537906885
99.5537906885
99.5331406593
99.136660099
99.1160100698
99.0994900465
99.1201400757
99.0829700232
99.0994900465
99.5537906885
99.087100029
99.136660099
99.5331406593
99.5331406593
99.5372706652
99.1531801224
99.136660099
99.1201400757
99.136660099
99.0829700232
99.4835805893
99.4835805893
99.136660099
99.0994900465
99.1201400757
99.5537906885
99.5496606827
99.5001006126

Block: 8
======================================
99.1201400757
99.4629305601
99.4835805893
99.4794505835
99.5372706652
99.5331406593
99.4835805893
99.5703107119
99.4835805893
99.516620636
99.5331406593
99.136660099
99.5207506418
99.4835805893
99.4835805893
99.136660099
99.0664499998
99.1573101282
99.1531801224
99.0705800056
99.516620636
99.1036200523
99.1036200523
99.0829700232
99.1036200523
99.5001006126
99.1201400757
99.1201400757
99.516620636
99.4835805893
99.136660099
99.136660099
99.1531801224
99.5001006126
99.4835805893
99.5001006126
99.4835805893
99.0705800056
99.5207506418
99.0994900465
99.1531801224
99.5001006126
99.1573101282
99.5537906885
99.5537906885
99.4835805893
99.5001006126
99.516620636
99.0664499998
99.0499299765
99.136660099
99.136660099
99.5496606827
99.4835805893
99.5537906885
99.5001006126
99.1201400757
99.1201400757
99.5537906885
99.0829700232
99.4835805893
99.1201400757
99.0994900465
99.5331406593
99.5537906885
99.1201400757
99.1201400757
99.1036200523
99.1160100698
99.4835805893
99.1036200523
99.5331406593
99.1201400757
99.136660099
99.1036200523

Block: 9
======================================
99.1160100698
99.1036200523
99.136660099
99.0994900465
99.5207506418
99.1160100698
99.3803304434
99.136660099
99.1201400757
99.5537906885
99.1531801224
99.1036200523
99.0829700232
99.5331406593
99.1036200523
99.0994900465
99.1201400757
99.5207506418
99.0994900465
99.516620636
99.0994900465
99.5001006126
99.087100029
99.0829700232
99.136660099
99.0829700232
99.5372706652
99.1201400757
99.1036200523
99.1036200523
99.5537906885
99.1036200523
99.1201400757
99.5331406593
99.087100029
99.1201400757
99.1201400757
99.1160100698
99.1201400757
99.136660099
99.1201400757
99.1036200523
99.1201400757
99.5537906885
99.0994900465
99.1036200523
99.1201400757
99.1201400757
99.0994900465
99.1036200523
99.5372706652
99.0994900465
99.0994900465
99.1160100698
99.0994900465
99.0994900465
99.1201400757
99.136660099
99.1201400757
99.5496606827
99.1160100698
99.1201400757
99.5372706652
99.1036200523
99.0994900465
99.1201400757
99.1201400757
99.1036200523
99.5207506418
99.136660099
99.5537906885
99.1201400757
99.5331406593
99.0829700232
99.1201400757

Block: 10
======================================
99.1160100698
99.136660099
99.087100029
99.1201400757
99.5537906885
99.5331406593
99.5331406593
99.136660099
99.5372706652
99.566180706
99.1201400757
99.1201400757
99.1531801224
99.1036200523
99.0994900465
99.1201400757
99.4835805893
99.5372706652
99.0829700232
99.5537906885
99.5331406593
99.5331406593
99.5001006126
99.4835805893
99.1036200523
99.516620636
99.1201400757
99.1201400757
99.0829700232
99.1036200523
99.1036200523
99.0994900465
99.5331406593
99.1036200523
99.0829700232
99.1201400757
99.1160100698
99.5331406593
99.136660099
99.516620636
99.0829700232
99.5207506418
99.0829700232
99.0664499998
99.0829700232
99.1201400757
99.1201400757
99.1036200523
99.1201400757
98.8103896379
99.5331406593
99.1201400757
99.1201400757
99.1201400757
99.5496606827
99.5001006126
99.1160100698
99.136660099
99.1201400757
99.5331406593
99.0994900465
99.1036200523
99.1201400757
99.1201400757
99.136660099
99.1201400757
99.1201400757
99.5372706652
99.5331406593
99.136660099
99.1036200523
99.5331406593
99.136660099
99.1201400757
99.5537906885
