
Block: 1
======================================
400.939341283
400.939341283
400.975731134
401.841000938
401.824827671
400.959557867
401.41645267
401.400279403
400.959557867
401.845044255
401.384106135
401.841000938
400.959557867
400.518836331
400.959557867
400.975731134
400.959557867
400.959557867
402.297895741
401.857174206
401.448799205
401.41645267
400.975731134
400.959557867
400.518836331
400.959557867
400.975731134
400.535009599
400.555226183
400.975731134
400.975731134
401.420495987
401.400279403
400.551182866
401.448799205
401.012120986
401.41645267
400.975731134
400.535009599
400.975731134
400.555226183
400.551182866
400.587572718
400.975731134
401.841000938
401.857174206
400.535009599
400.991904402
401.861217523
401.400279403
400.535009599
400.518836331
400.991904402
400.995947719
401.436669254
400.975731134
401.841000938
400.975731134
400.979774451
400.535009599
401.432625937
400.535009599
401.41645267
400.975731134
401.400279403
400.975731134
400.535009599
401.41645267
400.995947719
400.567356133
401.452842522
401.012120986
401.448799205
400.587572718
400.535009599

Average distance is : 401.094 cm
Average deviation is : 0.439 cm
Block: 2
======================================
401.012120986
400.587572718
401.028294253
400.57139945
401.909737325
400.603745985
400.587572718
400.587572718
400.587572718
400.57139945
400.603745985
400.551182866
401.044467521
401.909737325
401.028294253
401.469015789
401.012120986
400.599702668
400.551182866
400.603745985
400.57139945
401.889520741
401.024250937
400.146851182
400.619919252
400.599702668
400.179197717
400.587572718
401.060640788
400.163024449
400.619919252
400.163024449
400.603745985
400.603745985
400.603745985
400.623962569
400.619919252
401.909737325
400.163024449
400.603745985
400.603745985
400.587572718
400.603745985
400.163024449
400.603745985
400.146851182
400.179197717
401.060640788
400.195370984
401.060640788
401.076814055
400.603745985
400.603745985
400.619919252
400.179197717
400.603745985
400.158981133
401.044467521
400.619919252
400.619919252
400.619919252
400.199414301
401.505405641
400.619919252
400.619919252
401.060640788
401.505405641
400.619919252
400.215587568
402.334285593
400.146851182
400.603745985
401.044467521
401.044467521
400.603745985

Average distance is : 400.731 cm
Average deviation is : 0.469 cm
Block: 3
======================================
400.57139945
400.619919252
401.012120986
401.060640788
400.567356133
401.028294253
401.028294253
401.044467521
400.567356133
401.452842522
400.991904402
401.028294253
400.583529401
402.301939058
401.448799205
401.464972472
401.873347473
401.464972472
401.873347473
401.028294253
401.452842522
400.587572718
401.469015789
401.87739079
400.587572718
401.452842522
400.535009599
401.873347473
401.87739079
401.008077669
400.991904402
400.975731134
401.008077669
400.539052916
400.959557867
400.535009599
402.285765791
400.551182866
400.959557867
401.432625937
400.9433846
401.857174206
400.535009599
401.400279403
400.975731134
400.57139945
401.012120986
400.991904402
400.975731134
401.857174206
400.991904402
401.400279403
400.979774451
401.400279403
401.41645267
401.41645267
400.551182866
400.975731134
400.975731134
401.41645267
401.400279403
401.857174206
401.857174206
403.163165545
400.995947719
400.995947719
400.535009599
400.518836331
400.975731134
402.281722474
400.995947719
400.551182866
401.436669254
401.432625937
401.432625937

Average distance is : 401.187 cm
Average deviation is : 0.527 cm
Block: 4
======================================
400.502663064
400.518836331
400.959557867
401.400279403
401.824827671
401.384106135
401.804611087
401.384106135
401.400279403
401.808654404
401.824827671
400.9433846
403.979915547
401.380062819
400.927211332
400.927211332
400.9433846
401.384106135
400.9433846
400.9433846
400.535009599
401.384106135
400.975731134
400.979774451
400.57139945
400.514793015
400.555226183
401.41645267
400.995947719
402.330242276
400.975731134
400.991904402
401.432625937
400.975731134
401.432625937
400.995947719
400.975731134
400.535009599
400.975731134
400.535009599
401.008077669
400.551182866
400.991904402
401.008077669
400.995947719
400.57139945
400.991904402
401.448799205
401.857174206
401.008077669
402.314069009
400.991904402
400.130677915
400.555226183
401.012120986
400.57139945
401.448799205
400.551182866
401.012120986
400.555226183
400.991904402
402.297895741
401.008077669
400.567356133
400.991904402
400.599702668
401.469015789
400.57139945
401.857174206
401.008077669
400.603745985
400.599702668
400.587572718
400.619919252
401.889520741

Average distance is : 401.100 cm
Average deviation is : 0.585 cm
Block: 5
======================================
400.959557867
403.146992278
400.551182866
401.012120986
400.567356133
400.551182866
400.587572718
400.603745985
401.012120986
400.619919252
401.024250937
400.583529401
400.587572718
400.587572718
401.028294253
400.587572718
400.599702668
401.008077669
401.060640788
400.603745985
401.48114574
400.603745985
400.63609252
400.603745985
401.044467521
400.195370984
401.044467521
401.044467521
401.060640788
401.044467521
401.080857372
400.619919252
400.603745985
400.587572718
400.603745985
402.35045886
400.619919252
401.044467521
400.179197717
401.060640788
400.640135837
401.909737325
401.060640788
401.942083859
400.652265787
400.619919252
400.63609252
401.925910592
401.925910592
400.63609252
400.63609252
400.231760836
400.199414301
400.63609252
400.215587568
400.652265787
400.656309104
401.946127176
402.382805395
400.652265787
401.080857372
400.63609252
400.619919252
400.63609252
401.09703064
401.076814055
400.619919252
400.603745985
400.603745985
402.366632128
400.619919252
400.603745985
401.060640788
401.060640788
400.599702668

Average distance is : 400.910 cm
Average deviation is : 0.561 cm
Block: 6
======================================
401.080857372
400.656309104
400.211544251
401.076814055
401.113203907
400.227717519
400.652265787
400.668439054
400.688655639
401.990603662
400.672482371
400.688655639
400.704828906
400.26410737
401.537752175
400.688655639
401.549882126
400.684612322
400.243890786
400.684612322
400.672482371
401.57009871
400.231760836
400.26410737
400.247934103
400.688655639
400.672482371
400.211544251
400.684612322
400.668439054
400.672482371
400.688655639
400.247934103
401.10916059
400.672482371
400.688655639
400.672482371
401.092987323
401.129377174
401.092987323
402.35045886
401.076814055
401.942083859
401.076814055
401.501362324
401.485189056
401.040424204
401.469015789
401.485189056
401.925910592
402.754790545
401.024250937
401.857174206
401.909737325
401.873347473
403.620060349
401.893564057
401.432625937
401.41645267
402.334285593
401.41645267
402.330242276
402.334285593
401.485189056
401.452842522
402.346415544
402.330242276
402.35045886
402.35045886
402.35045886
403.199555397
404.080998468
401.469015789
402.791180396
401.925910592

Average distance is : 401.330 cm
Average deviation is : 0.844 cm
Block: 7
======================================
401.533708858
401.553925443
401.113203907
401.076814055
401.076814055
401.994646978
401.57009871
401.129377174
401.549882126
401.974430394
401.092987323
401.57009871
401.553925443
401.994646978
402.419195247
401.145550442
402.451541781
401.145550442
401.145550442
401.125333858
402.010820246
401.113203907
401.994646978
401.129377174
401.113203907
401.113203907
400.656309104
400.652265787
400.668439054
401.553925443
400.672482371
400.668439054
401.076814055
401.553925443
401.501362324
401.978473711
400.656309104
401.129377174
401.553925443
401.553925443
400.668439054
401.076814055
401.537752175
400.656309104
401.10916059
401.076814055
401.080857372
401.060640788
402.366632128
401.076814055
401.060640788
401.09703064
401.092987323
401.080857372
401.501362324
401.537752175
401.076814055
402.807353663
401.080857372
401.080857372
401.092987323
401.113203907
401.553925443
401.113203907
401.958257127
401.092987323
401.113203907
403.264248466
401.533708858
403.264248466
401.113203907
401.958257127
403.264248466
402.398978662
400.26410737

Average distance is : 401.411 cm
Average deviation is : 0.618 cm
Block: 8
======================================
401.10916059
401.113203907
401.113203907
402.419195247
401.129377174
401.09703064
401.09703064
401.092987323
402.823526931
401.942083859
402.807353663
401.113203907
401.942083859
401.501362324
401.942083859
401.958257127
401.060640788
403.215728664
401.501362324
401.501362324
401.044467521
400.640135837
401.925910592
400.619919252
401.517535591
401.485189056
401.080857372
401.076814055
401.517535591
401.09703064
401.521578908
400.63609252
401.537752175
400.619919252
400.63609252
400.652265787
400.227717519
401.501362324
400.211544251
400.668439054
401.092987323
400.652265787
402.827570248
400.63609252
400.63609252
401.076814055
401.501362324
401.060640788
400.63609252
400.652265787
401.501362324
401.517535591
401.501362324
401.060640788
401.044467521
401.469015789
402.366632128
401.044467521
401.464972472
401.060640788
403.19551208
401.485189056
401.044467521
401.925910592
401.028294253
401.044467521
401.028294253
400.587572718
401.909737325
401.012120986
401.008077669
401.432625937
402.281722474
400.991904402
401.87739079

Average distance is : 401.338 cm
Average deviation is : 0.645 cm
Block: 9
======================================
401.400279403
401.820784354
401.824827671
401.400279403
401.841000938
402.281722474
402.249375939
402.297895741
402.249375939
402.265549207
403.992045498
402.217029405
402.690097475
402.690097475
403.535150695
401.804611087
401.804611087
403.130819011
401.808654404
402.285765791
401.857174206
402.297895741
402.702227426
401.824827671
403.130819011
402.706270742
401.400279403
401.841000938
403.110602427
401.363889551
401.400279403
401.380062819
401.384106135
401.824827671
402.26150589
401.41645267
401.41645267
400.959557867
402.706270742
401.41645267
400.959557867
401.41645267
401.841000938
401.41645267
401.41645267
402.281722474
401.841000938
401.432625937
400.995947719
401.41645267
401.420495987
400.975731134
400.939341283
400.95551455
401.380062819
401.384106135
401.857174206
401.400279403
401.400279403
401.400279403
400.975731134
400.959557867
401.857174206
401.400279403
401.400279403
401.857174206
400.959557867
401.028294253
400.979774451
400.9433846
401.384106135
400.959557867
401.384106135
400.939341283
401.384106135

Average distance is : 401.740 cm
Average deviation is : 0.667 cm
Block: 10
======================================
401.363889551
401.808654404
402.265549207
401.400279403
400.486489797
400.9433846
401.384106135
400.959557867
400.535009599
401.432625937
400.975731134
400.995947719
400.959557867
400.518836331
401.41645267
401.436669254
400.975731134
401.432625937
400.555226183
400.567356133
400.535009599
401.432625937
400.555226183
400.146851182
401.028294253
400.11046133
400.130677915
400.991904402
401.012120986
401.893564057
400.567356133
400.555226183
401.028294253
400.567356133
400.567356133
401.012120986
400.57139945
401.012120986
401.012120986
400.551182866
401.024250937
400.587572718
400.587572718
401.028294253
400.587572718
401.485189056
401.469015789
400.603745985
401.485189056
401.501362324
401.024250937
401.485189056
401.060640788
401.060640788
401.942083859
400.603745985
400.603745985
401.060640788
400.603745985
400.619919252
401.044467521
400.63609252
401.501362324
401.080857372
402.823526931
401.925910592
401.517535591
401.521578908
401.09703064
400.603745985
401.501362324
401.060640788
400.587572718
401.060640788
401.485189056

Average distance is : 401.034 cm
Average deviation is : 0.501 cm