
Block: 1
======================================
49.3331897974
49.3496520281
49.3537675858
49.3496520281
49.3373053551
49.2838031054
49.300265336
48.9216340303
49.3167275667
49.3496520281

Average distance is : 49.290 cm
Average deviation is : 0.131 cm
Block: 2
======================================
49.3167275667
49.3373053551
49.3537675858
49.3331897974
49.2796875477
49.3331897974
49.3331897974
49.3331897974
49.2961497784
49.2838031054

Average distance is : 49.320 cm
Average deviation is : 0.025 cm
Block: 3
======================================
49.3167275667
49.3331897974
49.3167275667
49.300265336
49.2796875477
49.2838031054
49.3167275667
49.3373053551
49.3167275667
49.300265336

Average distance is : 49.310 cm
Average deviation is : 0.019 cm
Block: 4
======================================
48.8722473383
48.901056242
49.3373053551
49.3331897974
49.3167275667
49.3331897974
49.300265336
49.300265336
49.3331897974
49.300265336

Average distance is : 49.233 cm
Average deviation is : 0.183 cm
Block: 5
======================================
49.3167275667
49.300265336
49.3331897974
49.300265336
49.2796875477
49.2796875477
49.2838031054
49.3167275667
49.3167275667
49.3208431244

Average distance is : 49.305 cm
Average deviation is : 0.019 cm
Block: 6
======================================
49.3167275667
49.3167275667
49.300265336
49.3331897974
49.3373053551
49.3331897974
49.3167275667
49.2838031054
49.3373053551
49.3373053551

Average distance is : 49.321 cm
Average deviation is : 0.018 cm
Block: 7
======================================
49.3496520281
49.3331897974
49.3167275667
49.3331897974
49.3537675858
49.3167275667
49.3331897974
49.3331897974
49.3537675858
49.3167275667

Average distance is : 49.334 cm
Average deviation is : 0.015 cm
Block: 8
======================================
49.300265336
49.300265336
49.3167275667
49.3331897974
49.300265336
49.3167275667
49.300265336
49.3373053551
49.300265336
49.3331897974

Average distance is : 49.314 cm
Average deviation is : 0.016 cm
Block: 9
======================================
49.3537675858
49.3167275667
49.3167275667
49.3496520281
49.3537675858
49.3167275667
49.300265336
49.3167275667
49.3167275667
49.300265336

Average distance is : 49.324 cm
Average deviation is : 0.021 cm
Block: 10
======================================
49.300265336
49.3167275667
49.300265336
49.300265336
49.3331897974
49.300265336
49.3167275667
49.3373053551
49.3167275667
49.3331897974

Average distance is : 49.315 cm
Average deviation is : 0.015 cm