
Block: 1
======================================
49.3496520281
49.3331897974
49.3331897974
49.3702298164
49.3331897974
49.3331897974
49.3331897974
49.300265336
49.3331897974
49.3167275667
49.3167275667
49.300265336
49.3331897974
49.2796875477
49.300265336
49.3537675858
49.3167275667
49.3331897974
49.3331897974
49.3167275667
49.3167275667
49.300265336
49.3373053551
49.3167275667
49.3167275667

Average distance is : 49.324 cm
Average deviation is : 0.020 cm
Block: 2
======================================
49.3167275667
49.3702298164
49.3496520281
49.3167275667
49.3167275667
49.3331897974
49.3373053551
49.300265336
49.300265336
49.3537675858
49.3208431244
49.300265336
49.3167275667
49.3167275667
49.3167275667
49.3167275667
49.300265336
49.3331897974
49.3167275667
49.3373053551
49.3331897974
49.3373053551
49.300265336
49.3331897974
49.3167275667

Average distance is : 49.324 cm
Average deviation is : 0.018 cm
Block: 3
======================================
49.3167275667
49.3373053551
48.8845940113
49.3331897974
49.3331897974
49.3167275667
48.8681317806
49.3373053551
48.888709569
49.3331897974
49.3167275667
49.3496520281
49.3331897974
48.9216340303
48.9051717997
48.8845940113
49.3702298164
48.8845940113
48.901056242
49.2838031054
49.300265336
49.3373053551
49.3167275667
49.3167275667
49.300265336

Average distance is : 49.187 cm
Average deviation is : 0.207 cm
Block: 4
======================================
49.300265336
49.3167275667
49.3331897974
49.3537675858
49.3167275667
49.2838031054
49.3167275667
49.3167275667
49.3373053551
49.3496520281
49.3331897974
49.3373053551
49.3167275667
49.3702298164
49.3373053551
49.3373053551
49.3537675858
49.3167275667
49.3208431244
49.300265336
49.3167275667
49.300265336
49.3496520281
49.300265336
49.3167275667

Average distance is : 49.325 cm
Average deviation is : 0.021 cm
Block: 5
======================================
49.3537675858
49.3208431244
49.3208431244
49.3373053551
49.3496520281
49.2838031054
49.3167275667
49.300265336
49.3167275667
49.3373053551
49.300265336
49.3496520281
49.3331897974
49.3373053551
49.3331897974
49.3167275667
48.938096261
49.3167275667
49.300265336
49.3167275667
49.300265336
49.3496520281
49.3537675858
49.3537675858
49.3537675858

Average distance is : 49.312 cm
Average deviation is : 0.080 cm
Block: 6
======================================
49.2838031054
49.300265336
49.3373053551
49.2838031054
49.3167275667
49.3496520281
49.3331897974
49.3167275667
49.300265336
49.300265336
49.3167275667
49.3331897974
49.3167275667
49.3373053551
49.3331897974
49.2961497784
49.3167275667
49.2961497784
49.3167275667
49.300265336
49.3496520281
49.300265336
49.3331897974
49.3331897974
49.3167275667

Average distance is : 49.317 cm
Average deviation is : 0.019 cm
Block: 7
======================================
49.3373053551
49.3373053551
49.3167275667
49.3167275667
49.300265336
49.300265336
49.3702298164
49.3331897974
49.3373053551
49.3373053551
49.3167275667
49.3167275667
48.9545584917
49.3208431244
49.3331897974
49.3167275667
49.2796875477
49.3331897974
49.3167275667
49.3167275667
49.3496520281
49.3331897974
49.3373053551
49.3331897974
49.3537675858

Average distance is : 49.312 cm
Average deviation is : 0.077 cm
Block: 8
======================================
49.2796875477
49.2673408747
49.3331897974
49.3167275667
49.3496520281
49.2838031054
49.3167275667
49.3167275667
49.3167275667
49.3373053551
49.2838031054
49.3167275667
49.3167275667
49.3167275667
49.2796875477
49.3167275667
49.3496520281
49.3167275667
49.3496520281
49.300265336
49.3167275667
49.3331897974
49.300265336
49.3331897974
49.3167275667

Average distance is : 49.315 cm
Average deviation is : 0.023 cm
Block: 9
======================================
49.4031542778
49.3373053551
49.3167275667
49.3331897974
49.3331897974
49.3331897974
49.2838031054
49.3167275667
49.3208431244
49.3331897974
49.3167275667
49.3331897974
49.3167275667
49.300265336
49.3331897974
49.3702298164
49.3167275667
49.3331897974
49.3208431244
49.3331897974
49.3167275667
49.2838031054
49.300265336
49.3496520281
49.300265336

Average distance is : 49.325 cm
Average deviation is : 0.025 cm
Block: 10
======================================
49.3537675858
49.3167275667
49.3167275667
49.300265336
49.3496520281
49.300265336
49.3373053551
49.300265336
49.3537675858
49.3331897974
49.3167275667
49.300265336
49.3167275667
49.3661142588
49.3537675858
49.3373053551
49.3331897974
49.3167275667
49.300265336
49.3167275667
49.3373053551
49.3373053551
49.2961497784
49.300265336
49.3537675858

Average distance is : 49.326 cm
Average deviation is : 0.022 cm