
Block: 1
======================================
300.744152832
301.118131828
301.597800541
300.675048018
300.740087843
300.740087843
300.687242985
300.654723072
300.740087843
300.691307974
300.670983028
300.691307974
301.561215639
300.691307974
301.150651741
300.670983028
301.130326796
301.577475595
301.55715065
301.577475595
301.55715065
301.561215639
301.101871872
301.614060497
301.134391785
301.134391785
301.609995508
301.609995508
301.626255465
301.544955683
300.675048018
301.118131828
301.561215639
301.183171654
301.118131828
300.675048018
301.55715065
300.654723072
300.70756793
300.675048018
301.577475595
300.687242985
300.740087843
301.55715065
301.577475595
301.540890694
300.675048018
300.675048018
300.723827887
300.654723072

Block: 2
======================================
300.675048018
301.134391785
301.203496599
300.675048018
300.723827887
300.658788061
301.614060497
301.097806883
300.691307974
301.118131828
301.187236643
300.675048018
300.675048018
301.114066839
301.134391785
300.675048018
301.101871872
301.203496599
301.187236643
300.658788061
301.134391785
300.654723072
301.097806883
301.134391785
300.654723072
300.670983028
301.118131828
301.219756556
300.670983028
301.134391785
301.134391785
300.670983028
300.658788061
301.118131828
300.675048018
301.134391785
301.134391785
300.691307974
301.134391785
301.101871872
300.658788061
300.70756793
301.561215639
300.675048018
301.118131828
301.118131828
301.577475595
300.744152832
300.740087843
301.55715065

Block: 3
======================================
300.756347799
301.134391785
301.134391785
300.675048018
301.118131828
301.134391785
301.134391785
300.691307974
301.134391785
300.760412788
301.118131828
301.130326796
301.134391785
300.675048018
300.675048018
300.675048018
300.675048018
300.675048018
301.150651741
300.675048018
300.723827887
300.675048018
300.687242985
301.183171654
300.687242985
300.760412788
300.691307974
300.691307974
300.70756793
300.723827887
300.740087843
300.670983028
301.130326796
300.691307974
300.675048018
300.756347799
300.691307974
300.691307974
300.740087843
300.691307974
300.691307974
301.150651741
300.691307974
301.134391785
301.593735552
301.593735552
300.675048018
301.150651741
300.670983028
300.760412788

Block: 4
======================================
300.670983028
300.675048018
300.70756793
300.723827887
300.687242985
301.134391785
300.687242985
301.134391785
300.675048018
300.670983028
301.134391785
301.150651741
301.134391785
301.130326796
301.114066839
300.675048018
300.670983028
300.675048018
300.675048018
300.691307974
300.675048018
300.670983028
301.134391785
300.691307974
301.134391785
300.675048018
300.744152832
301.134391785
300.687242985
301.203496599
300.744152832
300.691307974
300.756347799
300.675048018
300.675048018
300.670983028
300.70756793
301.118131828
301.134391785
300.760412788
301.577475595
300.70756793
301.134391785
301.577475595
301.118131828
301.134391785
301.134391785
301.130326796
300.675048018
301.134391785

Block: 5
======================================
301.130326796
301.118131828
301.114066839
300.687242985
300.675048018
301.134391785
301.166911697
301.130326796
301.573410606
301.114066839
300.756347799
300.776672745
301.134391785
301.219756556
300.760412788
301.577475595
301.577475595
301.219756556
301.561215639
301.561215639
301.134391785
301.626255465
301.134391785
301.134391785
301.114066839
301.130326796
300.670983028
300.687242985
300.691307974
300.675048018
301.134391785
301.203496599
301.134391785
301.134391785
301.134391785
301.134391785
301.593735552
301.134391785
301.134391785
301.64658041
301.134391785
300.691307974
301.593735552
301.130326796
301.150651741
301.134391785
301.64658041
301.166911697
301.593735552
301.150651741

Block: 6
======================================
300.691307974
300.687242985
301.134391785
300.675048018
301.150651741
302.036819363
300.687242985
301.150651741
301.150651741
301.166911697
301.134391785
301.134391785
300.727892876
302.020559406
301.134391785
301.593735552
301.593735552
301.134391785
301.134391785
301.150651741
301.577475595
301.134391785
300.675048018
301.593735552
300.760412788
301.593735552
301.150651741
301.593735552
301.150651741
301.130326796
301.150651741
301.642515421
300.691307974
301.593735552
301.118131828
301.183171654
300.691307974
301.150651741
301.134391785
301.150651741
301.150651741
301.150651741
300.670983028
301.134391785
300.70756793
301.150651741
301.134391785
301.626255465
300.675048018
300.687242985

Block: 7
======================================
300.723827887
301.166911697
301.130326796
301.609995508
301.203496599
300.687242985
300.670983028
300.691307974
301.183171654
300.691307974
300.776672745
301.577475595
300.691307974
300.675048018
300.670983028
301.134391785
300.723827887
300.691307974
301.130326796
300.670983028
300.691307974
300.687242985
301.150651741
301.134391785
300.670983028
301.166911697
301.130326796
301.150651741
301.150651741
300.675048018
300.723827887
301.219756556
300.691307974
301.150651741
300.691307974
301.134391785
301.150651741
300.691307974
301.561215639
300.654723072
301.130326796
301.134391785
301.134391785
301.134391785
301.118131828
301.561215639
300.670983028
300.658788061
300.675048018
301.134391785

Block: 8
======================================
301.573410606
301.118131828
300.654723072
301.097806883
301.134391785
301.573410606
300.670983028
301.114066839
300.654723072
301.130326796
300.675048018
300.691307974
300.675048018
300.703502941
301.118131828
300.670983028
300.687242985
300.670983028
301.114066839
300.670983028
300.675048018
300.670983028
301.561215639
301.130326796
300.723827887
301.187236643
301.203496599
301.544955683
301.55715065
301.203496599
301.540890694
300.691307974
301.577475595
301.577475595
301.118131828
301.118131828
301.097806883
301.118131828
301.118131828
301.561215639
301.097806883
302.447383261
300.675048018
301.540890694
301.101871872
301.597800541
301.561215639
301.118131828
300.654723072
300.654723072

Block: 9
======================================
301.577475595
301.134391785
301.118131828
301.544955683
301.983974504
300.691307974
300.670983028
300.691307974
301.219756556
301.150651741
301.183171654
301.183171654
301.187236643
300.670983028
300.691307974
301.561215639
300.654723072
301.55715065
301.577475595
300.744152832
301.55715065
301.183171654
300.675048018
301.183171654
300.658788061
300.675048018
301.561215639
301.114066839
301.561215639
300.691307974
300.691307974
300.675048018
300.658788061
301.118131828
300.654723072
301.540890694
301.55715065
301.187236643
301.55715065
301.203496599
301.573410606
301.203496599
300.675048018
301.114066839
301.561215639
300.675048018
300.670983028
301.561215639
301.573410606
300.691307974

Block: 10
======================================
300.675048018
301.118131828
300.687242985
301.203496599
301.118131828
301.134391785
301.118131828
301.114066839
301.118131828
301.130326796
301.114066839
300.70756793
300.670983028
301.134391785
301.577475595
301.593735552
301.134391785
301.118131828
301.118131828
301.150651741
301.134391785
301.134391785
301.130326796
300.670983028
301.130326796
300.675048018
301.118131828
300.675048018
300.675048018
300.675048018
300.675048018
301.134391785
301.577475595
300.760412788
300.740087843
300.744152832
300.691307974
301.134391785
300.675048018
300.70756793
300.687242985
300.691307974
300.654723072
301.118131828
301.118131828
301.219756556
300.70756793
301.114066839
300.744152832
301.134391785
