
Block: 1
======================================
301.166911697
301.524630737
301.524630737
300.638463116
300.658788061

Block: 2
======================================
301.118131828
300.670983028
301.118131828
301.544955683
301.524630737

Block: 3
======================================
301.118131828
300.605943203
300.675048018
301.081546926
300.670983028

Block: 4
======================================
301.577475595
301.085611916
300.675048018
300.675048018
301.988039494

Block: 5
======================================
301.215691566
301.097806883
301.114066839
300.675048018
301.524630737

Block: 6
======================================
300.658788061
301.55715065
301.183171654
301.540890694
300.638463116

Block: 7
======================================
301.118131828
301.150651741
301.097806883
301.097806883
300.691307974

Block: 8
======================================
300.675048018
300.691307974
300.654723072
301.55715065
301.118131828

Block: 9
======================================
301.150651741
301.508370781
301.06528697
301.577475595
301.134391785

Block: 10
======================================
300.658788061
300.675048018
301.166911697
300.675048018
301.187236643
