
Block: 1
======================================
99.9007111788
99.8635411263
99.8800611496
99.9172312021
99.8428910971
99.8470211029
99.8800611496
99.9172312021
99.8635411263
99.8635411263
99.8470211029
99.8635411263
99.8800611496
100.334361792
100.297191739
99.8841911554
100.313711762
100.330231786
100.313711762
99.9502712488
99.8841911554
99.9007111788
100.334361792
99.8841911554
99.8800611496

Average distance is : 99.987 cm
Average deviation is : 0.193 cm
Block: 2
======================================
99.8841911554
99.9007111788
100.334361792
99.8800611496
99.9007111788
99.9172312021
99.9007111788
99.8470211029
99.8965811729
99.9007111788
99.8676711321
99.9007111788
99.9172312021
99.8965811729
99.9172312021
99.9172312021
99.8635411263
99.9131011963
99.9337512255
99.9007111788
99.9131011963
100.334361792
99.8841911554
99.8841911554
99.9172312021

Average distance is : 99.933 cm
Average deviation is : 0.122 cm
Block: 3
======================================
99.8800611496
99.8800611496
100.313711762
99.8800611496
99.8965811729
99.9007111788
100.297191739
99.8800611496
99.8965811729
99.8635411263
99.9172312021
99.8965811729
100.330231786
99.8841911554
99.8841911554
99.8841911554
99.9131011963
99.8676711321
99.8800611496
99.8841911554
99.8635411263
99.9172312021
99.8635411263
99.8305010796
99.8635411263

Average distance is : 99.935 cm
Average deviation is : 0.144 cm
Block: 4
======================================
99.8635411263
99.8800611496
100.313711762
99.9007111788
100.317841768
99.8800611496
99.8800611496
99.8800611496
99.8635411263
99.8841911554
99.8965811729
99.8800611496
99.8841911554
99.8635411263
99.8800611496
99.9007111788
99.8841911554
99.9007111788
99.9007111788
99.8800611496
99.8676711321
99.9007111788
99.8841911554
99.8841911554
99.8635411263

Average distance is : 99.917 cm
Average deviation is : 0.121 cm
Block: 5
======================================
99.8800611496
99.8676711321
99.8965811729
99.8800611496
99.8305010796
99.9172312021
100.264151692
100.260021687
99.8841911554
99.8800611496
99.9172312021
99.8965811729
100.330231786
99.9007111788
99.8841911554
99.8676711321
99.8841911554
99.8800611496
99.8635411263
99.8635411263
99.8635411263
99.8635411263
99.8800611496
99.8800611496
99.9007111788

Average distance is : 99.929 cm
Average deviation is : 0.136 cm
Block: 6
======================================
99.8841911554
99.8841911554
99.8800611496
100.317841768
99.8965811729
99.8635411263
99.8800611496
99.9007111788
99.8800611496
100.330231786
100.346751809
99.8635411263
99.8470211029
99.8635411263
99.8800611496
99.8470211029
99.8800611496
99.8635411263
99.8800611496
99.8965811729
99.8800611496
99.8965811729
99.9007111788
100.313711762
99.8841911554

Average distance is : 99.950 cm
Average deviation is : 0.168 cm
Block: 7
======================================
99.8800611496
99.8800611496
99.8635411263
99.8965811729
100.297191739
99.8800611496
99.8635411263
99.8800611496
99.8841911554
99.8635411263
99.8470211029
99.8676711321
99.8635411263
99.8800611496
99.8800611496
99.8800611496
99.8635411263
99.8676711321
99.9172312021
99.8800611496
99.8841911554
99.8635411263
99.9172312021
100.297191739
99.9007111788

Average distance is : 99.912 cm
Average deviation is : 0.117 cm
Block: 8
======================================
99.8800611496
99.8635411263
100.297191739
99.8676711321
99.8470211029
100.297191739
99.9007111788
99.8800611496
99.8800611496
99.8635411263
99.8841911554
99.8965811729
99.8841911554
99.8635411263
99.8470211029
99.8470211029
99.8635411263
99.8800611496
99.8635411263
99.8841911554
99.8841911554
99.8635411263
99.8470211029
99.8841911554
99.8635411263

Average distance is : 99.905 cm
Average deviation is : 0.119 cm
Block: 9
======================================
100.317841768
99.8841911554
99.8965811729
99.8841911554
99.9172312021
99.8676711321
99.8800611496
99.9007111788
99.8470211029
99.8676711321
99.8800611496
99.8800611496
99.8800611496
99.8965811729
100.297191739
99.8800611496
99.9007111788
99.8841911554
99.8800611496
99.8635411263
99.8965811729
99.8800611496
99.8841911554
99.8635411263
99.8800611496

Average distance is : 99.916 cm
Average deviation is : 0.119 cm
Block: 10
======================================
99.8965811729
99.9007111788
99.8841911554
99.9007111788
99.8635411263
99.8635411263
99.8635411263
99.8800611496
99.8800611496
99.8800611496
99.8800611496
99.9007111788
99.9007111788
99.8965811729
99.8635411263
99.8800611496
99.9007111788
99.8965811729
99.8841911554
99.8470211029
99.9172312021
99.8841911554
99.8800611496
99.8800611496
99.8841911554

Average distance is : 99.884 cm
Average deviation is : 0.016 cm
Average distance for 10x25 is : 99.927 cm
Average deviation for 10x25 is : 0.126 cm
 Percentage of values that failed: 0.000