
Block: 1
======================================
198.247553897
198.247553897
198.214976192
197.787393808
198.247553897

Block: 2
======================================
198.247553897
198.198687339
198.178326273
198.231265044
198.178326273

Block: 3
======================================
198.26384275
198.267914963
198.26384275
198.25162611
198.26384275

Block: 4
======================================
198.267914963
197.787393808
198.247553897
198.194615126
197.787393808

Block: 5
======================================
197.787393808
198.214976192
197.819971514
198.214976192
198.198687339

Block: 6
======================================
198.231265044
197.807754874
198.280131602
198.198687339
198.214976192

Block: 7
======================================
198.25162611
198.178326273
198.214976192
197.803682661
198.247553897

Block: 8
======================================
198.214976192
197.73852725
198.214976192
198.247553897
198.178326273

Block: 9
======================================
198.214976192
198.214976192
198.267914963
197.771104956
198.214976192

Block: 10
======================================
198.214976192
198.247553897
198.231265044
198.194615126
198.214976192
