
Block: 1
======================================
197.767032743
197.771104956
197.771104956
198.214976192
198.210903978
198.231265044
198.214976192
198.214976192
198.231265044
198.231265044
197.771104956
198.231265044
198.214976192
197.771104956
197.803682661
198.198687339
197.771104956
197.771104956
198.214976192
198.214976192
198.214976192
198.194615126
198.231265044
198.231265044
198.214976192
197.824043727
197.771104956
198.231265044
198.235337257
198.198687339
197.803682661
198.178326273
198.16203742
198.231265044
197.75074389
197.787393808
198.214976192
197.754816103
198.214976192
197.771104956
198.198687339
198.182398486
198.231265044
197.771104956
198.231265044
198.198687339
198.198687339
198.210903978
198.25162611
198.214976192
198.214976192
198.267914963
198.231265044
198.194615126
198.198687339
198.247553897
198.26384275
198.214976192
197.75074389
197.767032743
198.25162611
198.26384275
198.231265044
198.231265044
198.267914963
197.787393808
197.771104956
197.84033258
197.787393808
198.194615126
198.194615126
198.214976192
197.803682661
198.26384275
198.182398486
197.754816103
198.247553897
197.787393808
197.771104956
198.198687339
197.803682661
198.26384275
197.819971514
198.247553897
198.247553897
198.231265044
198.235337257
198.26384275
197.787393808
197.754816103
198.198687339
198.247553897
197.771104956
197.819971514
198.16203742
198.231265044
198.198687339
197.771104956
197.803682661
198.231265044

Block: 2
======================================
198.16203742
198.231265044
198.194615126
198.214976192
198.25162611
198.214976192
197.734455037
197.803682661
198.194615126
198.214976192
198.198687339
198.247553897
198.25162611
197.803682661
198.214976192
198.247553897
198.214976192
198.011365533
197.771104956
198.25162611
198.198687339
198.25162611
198.247553897
198.194615126
198.198687339
198.247553897
198.182398486
197.75074389
198.182398486
198.26384275
197.771104956
197.771104956
197.75074389
197.787393808
198.214976192
197.771104956
198.214976192
198.235337257
198.247553897
197.754816103
198.214976192
198.25162611
198.194615126
198.284203815
198.25162611
198.231265044
198.267914963
197.807754874
197.754816103
198.231265044
197.771104956
198.247553897
197.771104956
198.194615126
198.231265044
198.214976192
198.214976192
198.198687339
198.194615126
198.231265044
198.214976192
198.247553897
198.210903978
198.231265044
197.787393808
198.25162611
198.214976192
197.771104956
198.231265044
197.754816103
198.247553897
198.26384275
198.25162611
198.231265044
198.26384275
198.26384275
198.25162611
198.214976192
197.787393808
198.231265044
198.198687339
198.231265044
198.214976192
198.231265044
198.231265044
197.771104956
198.214976192
198.231265044
198.247553897
198.25162611
198.231265044
198.214976192
197.819971514
198.26384275
198.247553897
198.247553897
198.231265044
198.247553897
198.247553897
198.25162611

Block: 3
======================================
198.25162611
198.25162611
198.210903978
198.247553897
198.214976192
198.247553897
198.214976192
198.231265044
198.214976192
198.280131602
198.26384275
198.210903978
198.231265044
198.247553897
198.210903978
198.247553897
198.231265044
198.26384275
198.231265044
198.247553897
197.787393808
197.819971514
197.819971514
198.231265044
198.267914963
197.803682661
197.819971514
198.231265044
197.824043727
197.803682661
197.84033258
198.231265044
198.231265044
197.84033258
197.803682661
198.231265044
197.84033258
197.872910285
198.231265044
198.214976192
198.214976192
198.214976192
198.247553897
197.791466022
197.787393808
198.247553897
198.198687339
198.231265044
198.231265044
197.824043727
198.231265044
197.787393808
198.231265044
197.824043727
198.231265044
197.803682661
198.280131602
198.267914963
198.198687339
197.787393808
197.787393808
198.26384275
198.231265044
197.807754874
198.214976192
197.787393808
198.247553897
198.247553897
197.836260366
198.247553897
198.214976192
198.231265044
198.231265044
198.231265044
198.26384275
197.787393808
198.214976192
198.25162611
198.247553897
198.26384275
198.231265044
198.231265044
197.819971514
198.25162611
197.824043727
198.214976192
197.787393808
198.214976192
198.231265044
198.247553897
198.214976192
197.856621432
198.247553897
197.807754874
197.787393808
198.231265044
198.25162611
198.214976192
198.231265044
197.787393808

Block: 4
======================================
197.803682661
198.231265044
198.214976192
198.26384275
198.231265044
197.807754874
198.267914963
198.214976192
197.824043727
198.247553897
198.247553897
198.235337257
198.231265044
197.819971514
198.231265044
198.247553897
198.235337257
198.214976192
198.247553897
197.787393808
198.247553897
198.214976192
198.247553897
198.25162611
198.231265044
198.267914963
198.231265044
198.247553897
198.214976192
197.819971514
198.214976192
198.247553897
197.787393808
198.284203815
197.803682661
198.247553897
198.267914963
198.231265044
198.214976192
198.194615126
197.787393808
198.247553897
198.210903978
198.231265044
197.803682661
198.214976192
198.247553897
198.231265044
198.231265044
198.25162611
198.214976192
197.819971514
197.803682661
198.231265044
198.26384275
198.231265044
198.214976192
198.214976192
198.267914963
198.26384275
198.231265044
198.231265044
198.231265044
197.84033258
198.26384275
198.214976192
197.824043727
198.247553897
197.807754874
198.231265044
198.247553897
198.210903978
198.231265044
198.231265044
198.247553897
197.819971514
198.247553897
198.26384275
197.771104956
198.26384275
198.247553897
198.235337257
198.267914963
198.247553897
198.231265044
198.214976192
198.231265044
198.26384275
197.75074389
197.803682661
197.824043727
197.787393808
198.247553897
198.247553897
198.26384275
198.194615126
198.247553897
197.803682661
198.247553897
198.247553897

Block: 5
======================================
198.247553897
198.247553897
198.26384275
198.214976192
198.267914963
198.231265044
197.787393808
197.824043727
198.231265044
198.267914963
198.231265044
198.231265044
197.787393808
198.231265044
197.824043727
198.231265044
198.231265044
197.824043727
198.231265044
198.247553897
198.231265044
198.214976192
198.231265044
198.214976192
198.231265044
198.231265044
197.787393808
197.824043727
198.198687339
198.231265044
198.198687339
197.787393808
197.787393808
198.26384275
198.267914963
198.214976192
197.807754874
197.787393808
198.214976192
198.280131602
198.214976192
198.247553897
197.807754874
198.26384275
198.235337257
197.807754874
197.771104956
197.754816103
198.231265044
198.231265044
198.235337257
198.247553897
198.247553897
197.803682661
198.198687339
198.214976192
197.803682661
198.214976192
198.214976192
198.198687339
198.231265044
197.791466022
198.210903978
198.247553897
198.247553897
198.231265044
198.247553897
198.231265044
198.231265044
198.247553897
198.198687339
198.214976192
198.214976192
197.787393808
197.819971514
198.284203815
197.771104956
197.771104956
198.267914963
198.284203815
198.25162611
198.214976192
198.247553897
197.824043727
198.231265044
197.787393808
198.235337257
198.198687339
198.231265044
198.231265044
198.214976192
198.214976192
198.210903978
198.214976192
197.807754874
198.214976192
198.247553897
198.267914963
198.231265044
198.247553897

Block: 6
======================================
198.267914963
198.267914963
198.25162611
198.280131602
197.754816103
198.198687339
197.787393808
198.26384275
198.26384275
198.284203815
198.267914963
197.819971514
198.198687339
198.26384275
198.26384275
197.803682661
198.231265044
197.807754874
198.247553897
198.247553897
198.231265044
198.26384275
198.214976192
198.198687339
198.214976192
198.235337257
198.210903978
198.231265044
198.267914963
198.284203815
198.214976192
198.214976192
198.25162611
198.198687339
198.214976192
198.247553897
197.84033258
198.25162611
198.284203815
198.247553897
198.26384275
197.771104956
198.638486362
198.26384275
197.824043727
198.280131602
198.267914963
198.231265044
198.26384275
198.214976192
198.247553897
198.231265044
198.231265044
198.26384275
198.300492668
198.26384275
198.247553897
198.284203815
198.25162611
198.247553897
198.26384275
198.231265044
197.787393808
198.231265044
198.26384275
197.787393808
197.819971514
198.280131602
198.25162611
198.267914963
198.247553897
198.247553897
197.787393808
198.231265044
198.247553897
198.235337257
198.247553897
198.267914963
198.25162611
198.284203815
198.247553897
198.231265044
198.26384275
198.247553897
198.247553897
197.803682661
198.284203815
198.267914963
198.284203815
198.284203815
198.247553897
198.284203815
198.231265044
198.267914963
198.247553897
198.231265044
197.824043727
198.267914963
198.267914963
198.25162611

Block: 7
======================================
197.819971514
197.856621432
198.247553897
198.231265044
197.787393808
198.214976192
198.284203815
198.247553897
198.267914963
198.247553897
198.267914963
197.787393808
198.284203815
198.25162611
198.247553897
198.284203815
198.210903978
198.284203815
197.803682661
198.284203815
198.247553897
198.247553897
198.231265044
198.26384275
198.198687339
198.284203815
198.214976192
198.231265044
197.803682661
197.803682661
198.284203815
197.819971514
198.214976192
198.267914963
198.231265044
198.247553897
198.280131602
198.267914963
197.771104956
198.231265044
198.198687339
197.819971514
198.26384275
198.231265044
198.284203815
198.231265044
198.214976192
197.807754874
198.231265044
198.247553897
197.754816103
198.231265044
198.26384275
198.231265044
197.787393808
198.214976192
198.25162611
198.231265044
198.231265044
198.231265044
198.247553897
198.284203815
197.807754874
198.231265044
197.819971514
198.231265044
198.214976192
198.25162611
198.231265044
198.25162611
197.787393808
198.231265044
197.819971514
197.787393808
198.267914963
197.803682661
198.26384275
197.803682661
197.824043727
197.787393808
198.267914963
198.247553897
198.231265044
198.214976192
198.300492668
197.803682661
198.300492668
198.25162611
198.231265044
198.25162611
198.25162611
198.247553897
198.25162611
197.787393808
197.803682661
198.247553897
197.807754874
198.247553897
197.803682661
198.231265044

Block: 8
======================================
198.247553897
198.198687339
198.267914963
198.198687339
198.198687339
198.25162611
198.231265044
198.231265044
198.231265044
197.771104956
197.787393808
198.210903978
198.25162611
198.231265044
198.214976192
198.267914963
198.284203815
198.231265044
197.787393808
197.787393808
198.214976192
198.231265044
198.247553897
197.803682661
198.231265044
198.194615126
198.25162611
198.247553897
198.247553897
198.247553897
198.247553897
198.214976192
197.787393808
198.25162611
198.231265044
197.767032743
198.214976192
198.284203815
197.836260366
197.787393808
197.787393808
197.803682661
198.231265044
198.231265044
198.25162611
197.787393808
197.803682661
198.247553897
198.300492668
198.284203815
198.247553897
198.267914963
197.787393808
198.231265044
197.856621432
197.803682661
198.231265044
197.787393808
197.84033258
198.247553897
198.210903978
197.803682661
198.284203815
198.267914963
198.247553897
197.803682661
198.26384275
197.771104956
198.231265044
198.231265044
198.214976192
198.247553897
198.231265044
198.247553897
198.214976192
197.819971514
198.214976192
197.819971514
198.267914963
198.247553897
198.210903978
198.194615126
198.231265044
198.214976192
198.231265044
198.231265044
197.819971514
197.824043727
198.284203815
198.26384275
198.280131602
198.267914963
197.787393808
197.787393808
197.803682661
197.75074389
198.214976192
198.214976192
198.26384275
198.267914963

Block: 9
======================================
198.247553897
197.819971514
198.198687339
198.247553897
198.247553897
198.231265044
198.25162611
198.231265044
198.198687339
197.807754874
198.231265044
198.214976192
198.214976192
197.75074389
198.231265044
198.231265044
198.231265044
198.247553897
197.819971514
198.214976192
198.231265044
198.214976192
198.231265044
197.771104956
198.210903978
198.194615126
198.26384275
197.787393808
197.787393808
198.231265044
197.819971514
198.235337257
198.231265044
198.25162611
198.247553897
197.787393808
198.231265044
197.787393808
198.214976192
197.824043727
198.214976192
198.247553897
198.214976192
198.214976192
198.267914963
198.247553897
198.247553897
197.787393808
198.182398486
198.247553897
198.26384275
197.787393808
198.214976192
198.231265044
198.198687339
198.231265044
198.267914963
198.231265044
198.214976192
197.787393808
198.198687339
198.214976192
198.214976192
198.235337257
198.231265044
198.214976192
198.214976192
198.214976192
198.247553897
197.787393808
198.214976192
198.214976192
198.214976192
198.231265044
198.247553897
198.231265044
198.247553897
197.754816103
198.198687339
198.247553897
198.214976192
198.26384275
198.198687339
198.247553897
198.198687339
198.247553897
198.214976192
197.787393808
198.214976192
198.267914963
198.198687339
198.26384275
198.231265044
198.231265044
198.214976192
198.235337257
198.247553897
198.231265044
198.210903978
198.214976192

Block: 10
======================================
198.214976192
198.231265044
198.267914963
198.194615126
198.214976192
198.198687339
198.214976192
198.231265044
197.889199138
198.214976192
198.235337257
198.231265044
198.247553897
198.235337257
198.198687339
198.231265044
198.26384275
197.771104956
198.214976192
198.198687339
198.231265044
198.214976192
197.803682661
198.214976192
198.247553897
198.231265044
198.231265044
198.25162611
198.231265044
197.771104956
197.836260366
197.734455037
198.210903978
198.231265044
198.231265044
197.787393808
198.198687339
198.247553897
198.231265044
198.198687339
198.231265044
198.247553897
198.214976192
198.231265044
197.787393808
198.25162611
198.247553897
198.231265044
198.198687339
197.787393808
198.247553897
198.194615126
198.198687339
198.247553897
198.247553897
198.198687339
198.25162611
198.198687339
197.771104956
198.214976192
198.214976192
198.231265044
198.247553897
198.214976192
198.267914963
198.231265044
197.803682661
198.284203815
198.214976192
198.214976192
198.247553897
197.787393808
198.198687339
198.235337257
198.214976192
198.26384275
198.198687339
198.210903978
198.231265044
198.247553897
198.231265044
198.247553897
197.803682661
198.214976192
197.771104956
197.803682661
197.771104956
198.247553897
197.771104956
197.807754874
198.26384275
198.231265044
198.214976192
198.267914963
198.247553897
197.771104956
198.231265044
198.210903978
197.771104956
197.771104956
