
Block: 1
======================================
200.283660483
76.6227630615
199.391845798
77.7344772577
198.67513628
78.5855698109
197.376100278
81.5582854271
197.054395437
82.3971613407
196.182941818
83.2319650412
157.7208884
121.286797142
156.845362568
122.141961908
155.990197802
123.436925697
155.19204402
123.827858162
155.139105248
123.880796933
154.283940482
125.212410641
153.363620305
125.200194001
153.412486863
125.591126466
153.428775716
125.330504823
153.24145391
125.334577036
153.294392681
125.330504823
153.208876204
125.82731483
153.155937433
125.041377687
153.994813347
124.601578665
153.994813347
124.597506452
153.978524494
125.025088835
153.58759203
125.505609989
153.567230964
125.436382365
153.176298499
124.976222277
154.07625761
124.516062188
154.540489912
124.463123417
154.626006389
124.442762351
154.609717536
124.430545712
154.593428683
124.463123417
154.096618676
124.084407592
154.487551141
124.104768658
154.915133524
123.28625381
155.77029829
123.265892744
155.77029829
123.233315039
155.819164848
123.180376267
154.984361148
124.019252181
155.000650001

Block: 2
======================================
200.27958827
78.0724709511
198.781013823
79.8316670418
197.530844378
80.6176041842
196.712329531
79.8479558945
199.546589899
80.3447659016
155.957620096
122.842382574
155.375293612
123.200737333
155.839525914
122.769082737
155.855814767
122.227478385
155.904681325
123.062282085
155.973908949
122.650988555
156.405563545
122.634699702
155.925042391
123.147798562
155.444521236
123.200737333
155.790659356
123.249603891
155.802875996
123.19666512
155.277560496
122.842382574
155.701070666
122.870888066
155.668492961
123.351409221
154.8459059
123.726052833
154.882555819
123.70976398
155.306065989
123.713836193
154.882555819
123.70976398
154.882555819
123.656825209
155.35900476
123.233315039
154.931422377
123.656825209
154.951783442
123.591669798
155.411943531
123.335120368
155.310138202
123.302542663
155.733648372
122.838310361
156.214169526
122.822021508
156.250819445
121.917990184
157.134489703
121.490407801
156.710979533
121.917990184
156.678401828
121.917990184
157.154850769
121.457830095
157.171139622
121.441541243
156.315974855

Block: 3
======================================
200.27958827
76.3621414185
198.915396857
77.9706656218
197.705949545
78.2964426756
196.215519524
78.7240250587
199.428495717
79.5751176119
198.145748568
80.874153614
197.290583801
81.2813749313
196.883362484
82.1569007635
196.007836652
83.0446432352
195.173032951
82.991704464
195.177105165
83.4029979944
194.761739421
83.8305803776
194.370806956
83.8142915249
194.354518104
84.2378016949
193.947296786
84.6490952253
193.552292109
85.0237388372
192.782643819
85.8096759796
192.391711354
85.7730260611
192.408000207
86.2006084442
191.536546588
87.4507778883
190.323027062
88.2855815887
189.451573443
87.9801656008
188.889608026
89.6538452148
188.494603348
90.081427598
188.08738203
90.5415876865
187.659799647
90.9365923643
186.409630203
92.1460396767
185.607404208
92.9808433771
185.216471744
93.3758480549
184.397956896
94.2473016739
183.933724594
94.674884057
183.937796807
94.6911729097
182.618399739
96.4015024424
181.816173744
96.7761460543
181.83653481
96.7761460543
180.965081191
97.6272386074
180.570076513
98.042604351
180.195432901

Block: 4
======================================
200.27958827
76.468018961
199.461073422
77.7629827499
198.67513628
78.141698575
198.451164556
80.0189888477
197.701877332
81.3017359972
196.850784779
81.7252461672
196.439491248
82.5641220808
195.140455246
83.863158083
193.857708097
84.734611702
192.542383242
86.0010699987
192.16773963
86.408291316
192.135161924
86.408291316
191.772734952
86.7666460752
191.39809134
87.161650753
191.023447728
87.9964544535
190.168282962
88.4240368366
189.708122873
88.8516192198
189.296829343
89.7393616915
187.969287848
90.6271041632
187.114123082
91.4659800768
186.682468486
91.4659800768
186.702829552
91.4619078636
187.16298964
91.8569125414
185.863953638
93.1885262489
185.029149938
93.5468810081
184.63414526
93.9215246201
184.019241071
95.0006611109
183.168148518
95.8354648113
182.296694899
96.1938195705
181.917979074
96.6254741669
181.49039669
97.47656672
180.671881843
98.348020339
180.264660525
98.2787927151
179.425784612
99.1339574814
178.692786241
99.4230846167
178.672425175
99.8873169184
178.212265086
100.327115941
178.28149271

Block: 5
======================================
199.819428182
77.3028226614
199.562878752
78.1213375092
198.797302675
79.6443452358
197.172489619
80.9800311565
196.386552477
81.8107626438
195.515098858
82.7555160999
195.804225993
82.7514438868
195.429582381
83.5903198004
194.558128762
84.4251235008
194.167196298
84.8201281786
193.328320384
85.6915817976
192.921099067
86.1354530334
192.029284382
86.9743289471
191.622063065
87.4019113302
190.750609446
88.1837762594
189.985033369
88.5909975767
189.500440001
89.4828122616
188.413159084
90.5904542446
187.126339722
91.4293301582
186.75169611
92.2682060719
185.863953638
93.1518763304
185.012861085
93.9948244572
184.601567554
93.9744633913
184.173985171
94.4183346272
184.157696319
94.4183346272
183.746402788
94.8459170103
182.874949169
95.7173706293
182.451438999
96.1408807993
182.023856616
96.5195966244
181.632924151
96.9268179417
181.201269555
97.3544003248
180.773687172
98.229926157
179.938883471
98.6208586216
179.495012236
99.0973075628
179.478723383
98.653436327
179.869655848
98.6575085402
179.938883471
99.0484410048
179.543878794

Block: 6
======================================
200.27958827
77.6285997152
199.171946287
78.5000533342
197.498266673
80.2225995064
196.663462973
82.6822162628
195.873453617
83.5699587345
195.006072211
83.9486745596
194.611067533
84.8364170313
193.707036209
85.7282317162
192.84779923
86.5793242693
191.980417824
87.4182001829
191.14154191
88.2692927361
190.750609446
88.6805862665
189.862866974
89.1244575024
189.451573443
89.5683287382
188.958835649
90.0447776794
188.527181053
90.0488498926
188.531253266
90.4764322758
187.211856198
91.7713960648
186.804634881
92.2152673006
186.377052498
92.6591385365
159.459723425
118.688725138
159.476012278
119.100018668
158.604558659
120.004049993
158.14439857
120.431632376
157.272944951
121.319374847
156.812784863
121.767318296
156.637679696
121.966856742
157.032684374
121.527057719
157.032684374
121.510768867
157.069334292
121.457830095
156.690618467
121.885412478
156.759846091
121.832473707
156.759846091
121.832473707
156.332263708
121.832473707
156.336335921
122.296706009
156.28339715
122.26005609
156.299686003
121.816184855
156.780207157

Block: 7
======================================
200.247010565
76.8263737202
199.953811216
77.7507661104
198.711786199
78.141698575
198.369720292
80.5483765602
197.119550848
81.4361190319
196.284747148
82.2587060928
195.857164764
83.1627374172
195.022361064
83.9486745596
194.18348515
84.3436792374
193.808841538
85.2110606432
192.937387919
85.6223541737
192.0659343
86.4408690214
191.691290689
87.348972559
190.750609446
88.2855815887
189.846578121
89.1570352077
188.991413355
89.5683287382
188.580119824
90.4723600626
187.248506117
90.8795813799
187.248506117
91.7713960648
186.377052498
92.1989784479
185.986120033
93.0500710011
185.542248797
93.0541432142
185.094305348
93.4613645315
184.719661736
93.5835309267
184.516051078
94.5038511038
184.125118613
94.4020457745
184.157696319
94.8296281576
183.335109258
95.6685040712
182.895310235
95.6644318581
182.056434321
96.9471790075
181.201269555
97.358472538
180.794048238
97.7860549212
180.346104789
98.4335368156
179.698622894
98.8407581329
179.735272813
98.8081804276
178.900469112
100.070566511
178.077882051
100.465571189
177.650299668

Block: 8
======================================
200.230721712
77.3068948746
201.56233542
76.1911084652
198.626269722
79.0294410467
197.819971514
80.1940940142
198.369720292
81.0777642727
197.050323224
82.3971613407
196.215519524
83.2319650412
195.344065905
83.6432585716
194.492973351
85.3820935965
192.782643819
86.2209695101
192.391711354
87.0557732105
191.48768003
87.9598045349
190.62844305
88.8027526617
189.296829343
90.081427598
188.889608026
90.504937768
188.071093178
90.9365923643
186.344474792
92.5939831257
185.949470115
93.6527585506
184.568989849
94.4672011852
184.141407466
95.3060770988
182.842371464
96.1286641598
182.398500228
96.6214019537
181.917979074
97.5254332781
181.050597668
98.3643091917
180.228010607
99.219473958
179.360629201
100.054277658
178.945263457
100.037988806
179.002274442
99.9850500345
178.570619845
100.449282336
178.130820823
100.872792506
178.130820823
100.876864719
177.259367204
101.727957273
176.848073673
102.139250803
176.864362526
102.102600884
176.506007767
102.070023179
176.986528921
102.053734326
177.002817774
102.000795555
176.575235391

Block: 9
======================================
200.263299417
77.6815384865
199.204523993
78.9805744886
198.402297997
78.7240250587
199.803139329
79.6280563831
198.947974563
80.8904424667
198.080593157
81.3506025553
197.241717243
82.2220561743
195.498810005
83.9160968542
194.611067533
84.8201281786
193.755902767
85.6915817976
192.440577912
86.5630354166
192.012995529
87.4019113302
190.713959527
88.7498138905
189.809928203
89.1611074209
189.414923525
90.0121999741
188.633058596
90.3542658806
188.221765065
91.2094306469
187.354383659
91.6492296696
147.487416697
131.49990778
145.337288141
133.702975106
144.836405921
133.723336172
145.247699451
133.312042642
145.247699451
133.279464936
145.316927075
133.226526165
145.316927075
133.650036335
144.925994611
134.077618718
144.942283463
134.045041013
144.482123375
134.077618718
144.482123375
134.505201101
144.038252139
134.981650043
143.578092051
135.018299961
143.130148602
135.445882344
143.557730985
135.392943573
142.722927284
136.125941944
142.33199482
136.280686045
142.311633754
136.264397192
142.295344901
136.248108339
142.75550499

Block: 10
======================================
200.230721712
77.9340157032
199.493651128
78.1946373463
198.231265044
79.0660909653
197.856621432
79.8683169603
197.017745519
81.9003513336
196.659390759
82.3442225695
196.268458295
82.7351550341
195.840875912
83.0935097933
194.590706468
84.3721847296
193.808841538
85.1947717905
193.381259155
85.1784829378
192.969965625
86.0499365568
192.118873072
86.4571578741
191.65464077
86.8684514046
191.723868394
87.3123226404
191.312574863
87.6584607601
190.494060016
88.4729033947
190.115344191
88.904557991
189.178735161
89.8045171022
188.751152778
89.8248781681
187.895988011
91.1239141703
187.435827923
91.1035531044
187.521344399
91.4985577822
186.637674141
92.3863002539
186.222308397
92.3170726299
186.279319382
92.7242939472
185.811014867
92.7975937843
185.798798227
92.7609438658
185.387504697
93.6486863375
184.552700996
94.0070410967
184.108829761
94.8784947157
183.730113935
94.8825669289
183.265881634
95.7703094006
181.559624314
97.4439890146
180.228010607
98.7552416563
179.816717076
98.7593138695
178.985985589
99.5411787987
179.067429852
