
Block: 1
======================================
299.260431814
299.68319068
177.696933079
298.423044062
299.256366825
299.687255669
299.240106869
299.223846912
299.207586956
299.666930723
299.272626781
181.513957834
298.780763102
299.240106869
299.63441081
299.223846912
299.630345821
178.099366999
299.256366825
299.699450636
299.670995712
179.363578606
299.207586956
299.276691771
299.223846912
180.644050169
298.780763102
180.660310125
298.780763102
178.953014708
298.829542971
299.223846912
180.233486271
299.240106869
299.260431814
179.347318649
298.829542971
299.63441081
299.223846912
299.650670767
179.774142504
298.374264193
299.650670767
299.666930723
299.666930723
299.666930723
299.687255669
299.687255669
180.607465267
298.829542971

Average distance is : 272.987 cm
Average deviation is : 50.041 cm
Block: 2
======================================
299.666930723
299.63441081
299.666930723
299.223846912
299.191327
178.034327173
299.203521967
180.217226315
297.910855436
180.217226315
298.83360796
180.168446445
297.516551495
181.001769209
298.866127872
299.666930723
299.63441081
299.207586956
181.513957834
297.910855436
299.63441081
178.936754751
298.776698112
299.240106869
179.774142504
297.553136396
179.757882547
298.390524149
182.298500729
297.963700294
179.331058693
298.813283014
179.331058693
298.813283014
178.920494795
298.813283014
178.867649937
297.947440338
299.650670767
180.200966358
298.370199203
180.213161325
298.353939247
299.618150854
180.249746227
298.780763102
178.904234838
298.374264193
180.644050169
297.910855436

Average distance is : 253.634 cm
Average deviation is : 58.297 cm
Block: 3
======================================
299.601890898
175.611593676
299.191327
178.119691944
297.569396353
179.550568104
297.297042084
182.107446241
295.589746666
183.863521528
294.691384077
183.062718678
294.691384077
183.916366386
293.410912514
183.932626343
293.358067656
183.948886299
293.821476412
183.083043623
296.37428956
181.359488249
296.378354549
182.635894823
295.951530695
182.225330925
295.488121939
181.835091972
297.195417356
181.839156961
295.471861982
184.822858953
293.768631554
184.782209063
292.984088659
186.013900757
292.114180994
184.753754139
293.256442928
184.887898779
293.699526739
184.017991114
295.423082113
182.326955652
296.309249735
181.038354111
295.845840979
183.148083448
293.736111641
184.461074924

Average distance is : 239.011 cm
Average deviation is : 56.928 cm
Block: 4
======================================
299.191327
176.61971097
300.467733574
299.650670767
299.63441081
177.164419508
299.288886738
178.904234838
298.797023058
180.213161325
298.38645916
180.63998518
297.126312542
181.493632889
297.040947771
182.721259594
294.585694361
183.981406212
299.240106869
180.180641413
298.866127872
180.1481215
299.276691771
180.607465267
297.975895262
299.650670767
178.526190853
298.780763102
180.692830038
298.557188702
299.650670767
178.119691944
298.797023058
299.650670767
178.103431988
298.370199203
181.050549078
297.345821953
299.650670767
299.63441081
299.601890898
179.843247318
297.927115393
299.646605778
299.207586956
181.530217791
295.780801153
184.908223724
292.829619074
184.087095928

Average distance is : 251.283 cm
Average deviation is : 58.431 cm
Block: 5
======================================
299.666930723
175.087210083
299.223846912
177.302629137
298.797023058
299.666930723
180.574945354
298.849867916
178.526190853
298.353939247
181.08713398
298.801088047
181.099328947
297.516551495
183.623687172
295.012518215
299.614085865
178.05058713
298.813283014
179.786337471
297.996220207
180.217226315
297.979960251
182.774104452
295.833646011
181.9367167
298.764503145
179.826987362
298.402719116
178.969274664
297.914920425
179.43268342
298.780763102
179.859507275
298.797023058
179.428618431
297.89459548
181.595257616
297.276717138
181.35542326
297.297042084
299.630345821
299.646605778
179.412358475
298.353939247
180.266006184
298.321419334
181.546477747
297.467771626
180.318851042

Average distance is : 243.935 cm
Average deviation is : 59.542 cm
Block: 6
======================================
299.650670767
299.63441081
177.180679464
299.240106869
177.298564148
300.110014534
177.640023232
298.813283014
178.526190853
297.927115393
179.43268342
298.83360796
180.452995682
300.114079523
181.050549078
295.862100935
182.347280598
297.53687644
179.79040246
298.817348003
181.952976656
296.699488688
182.383865499
294.979998302
185.347242546
294.569434404
183.578972292
298.845802927
178.546515799
299.260431814
180.270071173
297.943375349
179.839182329
297.931180382
180.28226614
298.370199203
179.826987362
297.943375349
299.223846912
179.855442286
298.797023058
179.859507275
298.829542971
178.546515799
298.353939247
180.28226614
296.614123917
180.713154984
298.813283014
179.400163507

Average distance is : 241.562 cm
Average deviation is : 59.593 cm
Block: 7
======================================
299.650670767
299.630345821
178.611555624
297.963700294
177.745712948
299.288886738
180.607465267
299.309211683
299.63441081
180.253811216
298.797023058
179.400163507
298.370199203
299.650670767
181.493632889
298.353939247
181.156238794
298.9677526
180.86355958
300.040909719
180.713154984
297.484031582
182.009886503
297.484031582
181.595257616
296.59786396
182.432645369
295.317392397
181.566802692
298.764503145
178.546515799
298.83360796
180.627790213
297.601916265
180.611530256
297.585656309
299.650670767
299.63441081
299.63441081
178.119691944
298.801088047
180.676570082
296.683228731
181.530217791
298.38645916
180.676570082
298.797023058
181.103393936
297.520616484
181.135913849

Average distance is : 246.598 cm
Average deviation is : 59.177 cm
Block: 8
======================================
299.687255669
178.339201355
297.297042084
180.046496773
295.951530695
182.074926329
296.101935291
182.518010139
299.138482141
180.761934853
297.910855436
183.692791986
294.077570724
185.416347361
294.910893488
183.286293077
295.79706111
183.233448219
294.504394579
184.017991114
294.975933313
184.513919783
293.272702885
185.810651302
291.959711409
186.680558968
291.536952543
185.82284627
294.073505735
299.207586956
179.43268342
298.301094389
179.042444468
298.780763102
178.1359519
299.223846912
179.400163507
298.370199203
180.644050169
297.996220207
180.266006184
297.963700294
178.530255842
298.813283014
179.43268342
298.817348003
178.562775755
298.813283014
179.379838562
297.53687644

Average distance is : 241.481 cm
Average deviation is : 58.146 cm
Block: 9
======================================
299.63441081
175.766063261
299.223846912
177.233524323
299.240106869
178.546515799
298.439304018
179.9245471
298.268574476
179.9245471
297.825490665
179.940807056
298.695398331
178.957079697
298.780763102
178.957079697
297.520616484
179.806662416
297.093792629
180.302591085
297.484031582
181.135913849
297.963700294
299.223846912
178.40830617
299.699450636
177.640023232
299.260431814
179.347318649
298.866127872
178.477410984
299.240106869
178.083107042
298.797023058
180.233486271
297.504356527
181.940781689
297.126312542
179.79040246
298.849867916
179.347318649
298.866127872
178.49367094
298.797023058
179.806662416
298.38645916
179.383903551
297.500291538
180.692830038
297.467771626

Average distance is : 241.238 cm
Average deviation is : 60.164 cm
Block: 10
======================================
299.731970549
176.97743001
299.565305996
177.761972904
298.284834433
179.705037689
297.601916265
179.741622591
299.272626781
179.757882547
298.882387829
177.587178373
299.288886738
181.867611885
295.862100935
183.591167259
294.638539219
185.672441673
293.374327612
184.412295055
296.325509691
182.282240772
299.240106869
181.08713398
296.634448862
181.546477747
297.04501276
182.875729179
294.894633532
185.416347361
293.614161968
184.172460699
294.467809677
184.152135754
296.138520193
181.631842518
295.65885148
182.534270096
294.63447423
182.60337491
293.955621052
184.204980612
294.414964819
184.599284554
294.85804863
184.188720655
294.435289764
185.026108408
294.004400921
183.286293077

Average distance is : 239.270 cm
Average deviation is : 57.627 cm