
Block: 1
======================================
50.6460526943
50.1974569082
50.2139191389
50.2180346966
50.662514925
50.2139191389
50.613128233
50.6090126753
50.1110301971
50.2180346966
50.2139191389
50.662514925
50.5925504446
50.2139191389
50.1809946775
50.1645324469
50.1974569082
50.1974569082
50.2180346966
50.613128233
50.6460526943
50.662514925
50.6460526943
50.1974569082
50.1974569082
50.6295904636
50.1974569082
50.1974569082
50.5966660023
50.6295904636
50.2303813696
50.5966660023
50.2180346966
50.2674213886
50.2509591579
50.6090126753
50.1604168892
50.2139191389
50.650168252
50.1809946775
50.1809946775
50.1645324469
50.6666304827
50.5925504446
50.6295904636
50.6295904636
50.1974569082
50.6666304827
50.1974569082
50.1974569082

Average distance is : 50.381 cm
Average deviation is : 0.216 cm
Block: 2
======================================
50.2303813696
50.6460526943
50.2303813696
50.2139191389
50.6789771557
50.1974569082
50.2139191389
50.613128233
50.1809946775
50.1974569082
50.1974569082
50.2139191389
50.2180346966
50.2139191389
50.625474906
50.1974569082
50.6789771557
50.2139191389
50.613128233
50.1974569082
50.1974569082
50.2344969273
50.2303813696
50.662514925
50.6295904636
50.2139191389
50.1768791199
50.1645324469
50.5966660023
50.2180346966
50.5966660023
50.2180346966
50.2303813696
50.1439546585
50.1645324469
50.6460526943
50.1480702162
50.2303813696
50.2139191389
50.5925504446
50.1645324469
50.2139191389
50.6295904636
50.1809946775
50.5966660023
50.1974569082
50.613128233
50.1645324469
50.1809946775
50.662514925

Average distance is : 50.338 cm
Average deviation is : 0.204 cm
Block: 3
======================================
50.1809946775
50.1809946775
50.1974569082
50.6789771557
50.662514925
50.6460526943
50.1974569082
50.2139191389
50.2509591579
50.6460526943
50.613128233
50.2139191389
50.1645324469
50.6460526943
50.6295904636
50.2344969273
50.2303813696
50.6460526943
50.1809946775
50.2468436003
50.1974569082
50.2139191389
50.1974569082
50.2468436003
50.2509591579
50.2509591579
50.613128233
50.1974569082
50.1809946775
50.2344969273
50.2139191389
50.2180346966
50.2303813696
50.1974569082
50.2303813696
50.2139191389
50.2139191389
50.1809946775
50.1974569082
50.2139191389
50.1768791199
50.1768791199
50.1974569082
50.1809946775
50.2303813696
50.2139191389
50.2509591579
50.2468436003
50.1974569082
50.2139191389

Average distance is : 50.289 cm
Average deviation is : 0.169 cm
Block: 4
======================================
50.6295904636
50.2509591579
50.6295904636
50.2344969273
50.6460526943
50.5966660023
50.1809946775
50.1974569082
50.2303813696
50.2303813696
50.2344969273
50.2303813696
50.2468436003
50.1974569082
50.1974569082
50.6295904636
50.1974569082
50.6460526943
50.1809946775
50.6666304827
50.6295904636
50.2180346966
50.6460526943
50.6789771557
50.2468436003
50.1768791199
50.2139191389
50.1974569082
50.1809946775
50.613128233
50.1974569082
50.1974569082
50.6460526943
50.2303813696
50.2139191389
50.6666304827
50.2139191389
50.2509591579
50.6295904636
50.613128233
50.2303813696
50.2139191389
50.1974569082
50.6295904636
50.2468436003
50.2303813696
50.2303813696
50.2139191389
50.6460526943
50.1974569082

Average distance is : 50.359 cm
Average deviation is : 0.203 cm
Block: 5
======================================
50.2139191389
50.6295904636
50.2180346966
50.2303813696
50.0945679665
50.2468436003
50.1974569082
50.1809946775
50.1974569082
50.2139191389
50.2139191389
50.2303813696
50.1809946775
50.1974569082
50.1974569082
50.2468436003
50.1974569082
50.2468436003
50.2139191389
50.1809946775
50.1974569082
50.2468436003
50.2139191389
50.1604168892
50.1974569082
50.2303813696
50.2180346966
50.1809946775
50.2139191389
50.1645324469
50.1809946775
50.2509591579
50.2180346966
50.2139191389
50.2139191389
50.1974569082
50.2139191389
50.1974569082
50.1809946775
50.2344969273
50.2303813696
50.1974569082
50.2303813696
50.2509591579
50.1974569082
50.2344969273
50.1974569082
50.1974569082
50.2303813696
50.2509591579

Average distance is : 50.217 cm
Average deviation is : 0.066 cm
Block: 6
======================================
50.613128233
50.662514925
50.2303813696
50.2139191389
50.2303813696
50.2674213886
50.2139191389
50.2303813696
50.2303813696
50.662514925
50.6295904636
50.1768791199
50.650168252
50.6295904636
50.662514925
50.6460526943
50.2509591579
50.2509591579
50.2139191389
50.2303813696
50.1809946775
50.2303813696
50.2303813696
50.2303813696
50.1974569082
50.6460526943
50.2303813696
50.2139191389
50.1809946775
50.2139191389
50.2139191389
50.662514925
50.2139191389
50.1974569082
50.2303813696
50.1809946775
50.1480702162
50.1809946775
50.2139191389
50.2303813696
50.2139191389
50.2303813696
50.650168252
50.2139191389
50.2344969273
50.2139191389
50.2303813696
50.2303813696
50.1974569082
50.2344969273

Average distance is : 50.311 cm
Average deviation is : 0.181 cm
Block: 7
======================================
50.6666304827
50.6830927134
50.1809946775
50.1974569082
50.1974569082
50.2344969273
50.6460526943
50.2139191389
50.1974569082
50.1974569082
50.2303813696
50.1974569082
50.1974569082
50.1974569082
50.2180346966
50.1974569082
50.1974569082
50.1974569082
50.650168252
50.2139191389
50.2180346966
50.1974569082
50.613128233
50.2139191389
50.2139191389
50.1974569082
50.1974569082
50.2180346966
50.1809946775
50.2139191389
50.1974569082
50.2509591579
50.2344969273
50.2509591579
50.1974569082
50.6295904636
50.2139191389
50.2139191389
50.6460526943
50.2139191389
50.1974569082
50.2344969273
50.2303813696
50.2303813696
50.2344969273
50.2303813696
50.2139191389
50.1809946775
50.6295904636
50.2139191389

Average distance is : 50.280 cm
Average deviation is : 0.162 cm
Block: 8
======================================
50.2180346966
50.1809946775
50.2674213886
50.2139191389
50.1768791199
50.2303813696
50.1974569082
50.1974569082
50.2139191389
50.2344969273
50.2139191389
50.1974569082
50.1974569082
50.6460526943
50.2303813696
50.2303813696
50.2468436003
50.2303813696
50.2509591579
50.2303813696
50.2344969273
50.1974569082
50.2509591579
50.2344969273
50.2180346966
50.2344969273
50.650168252
50.6830927134
50.2139191389
50.2468436003
50.2139191389
50.2509591579
50.1974569082
50.6666304827
50.2139191389
50.6090126753
50.613128233
50.2303813696
50.263305831
50.6460526943
50.2468436003
50.2180346966
50.1974569082
50.2303813696
50.2509591579
50.2139191389
50.1974569082
50.2180346966
50.2509591579
50.2344969273

Average distance is : 50.283 cm
Average deviation is : 0.149 cm
Block: 9
======================================
50.2303813696
50.6666304827
50.2344969273
50.2180346966
50.1974569082
50.2139191389
50.2303813696
50.6789771557
50.2180346966
50.2139191389
50.2139191389
50.6460526943
50.2344969273
50.6460526943
50.2139191389
50.6789771557
50.2139191389
50.2139191389
50.2303813696
50.1974569082
50.2344969273
50.2344969273
50.2509591579
50.2344969273
50.2303813696
50.2303813696
50.6460526943
50.2344969273
50.6460526943
50.2344969273
50.2509591579
50.6295904636
50.2139191389
50.6295904636
50.2303813696
50.2303813696
50.613128233
50.6666304827
50.1809946775
50.2344969273
50.1974569082
50.2344969273
50.6460526943
50.6295904636
50.2303813696
50.2344969273
50.2674213886
50.2674213886
50.1974569082
50.2344969273

Average distance is : 50.336 cm
Average deviation is : 0.188 cm
Block: 10
======================================
50.2303813696
50.2180346966
50.6295904636
50.2468436003
50.2303813696
50.2303813696
50.2303813696
50.2139191389
50.1974569082
50.2674213886
50.1974569082
50.2509591579
50.2139191389
50.2344969273
50.2139191389
50.2468436003
50.2509591579
50.2139191389
50.2303813696
50.1768791199
50.2303813696
50.2139191389
50.2509591579
50.2344969273
50.2509591579
50.2344969273
50.5966660023
50.2139191389
50.2303813696
50.2509591579
50.2468436003
50.699554944
50.613128233
50.662514925
50.6295904636
50.2344969273
50.662514925
50.2139191389
50.6460526943
50.1645324469
50.6460526943
50.1974569082
50.2139191389
50.2139191389
50.2303813696
50.2180346966
50.2180346966
50.2303813696
50.1974569082
50.2303813696

Average distance is : 50.300 cm
Average deviation is : 0.164 cm