
Block: 1
======================================
50.6460526943
50.1974569082
50.2139191389
50.2180346966
50.662514925
50.2139191389
50.613128233
50.6090126753
50.1110301971
50.2180346966
50.2139191389
50.662514925
50.5925504446
50.2139191389
50.1809946775
50.1645324469
50.1974569082
50.1974569082
50.2180346966
50.613128233
50.6460526943
50.662514925
50.6460526943
50.1974569082
50.1974569082
50.6295904636
50.1974569082
50.1974569082
50.5966660023
50.6295904636
50.2303813696
50.5966660023
50.2180346966
50.2674213886
50.2509591579
50.6090126753
50.1604168892
50.2139191389
50.650168252
50.1809946775
50.1809946775
50.1645324469
50.6666304827
50.5925504446
50.6295904636
50.6295904636
50.1974569082
50.6666304827
50.1974569082
50.1974569082

Block: 2
======================================
50.2303813696
50.6460526943
50.2303813696
50.2139191389
50.6789771557
50.1974569082
50.2139191389
50.613128233
50.1809946775
50.1974569082
50.1974569082
50.2139191389
50.2180346966
50.2139191389
50.625474906
50.1974569082
50.6789771557
50.2139191389
50.613128233
50.1974569082
50.1974569082
50.2344969273
50.2303813696
50.662514925
50.6295904636
50.2139191389
50.1768791199
50.1645324469
50.5966660023
50.2180346966
50.5966660023
50.2180346966
50.2303813696
50.1439546585
50.1645324469
50.6460526943
50.1480702162
50.2303813696
50.2139191389
50.5925504446
50.1645324469
50.2139191389
50.6295904636
50.1809946775
50.5966660023
50.1974569082
50.613128233
50.1645324469
50.1809946775
50.662514925

Block: 3
======================================
50.1809946775
50.1809946775
50.1974569082
50.6789771557
50.662514925
50.6460526943
50.1974569082
50.2139191389
50.2509591579
50.6460526943
50.613128233
50.2139191389
50.1645324469
50.6460526943
50.6295904636
50.2344969273
50.2303813696
50.6460526943
50.1809946775
50.2468436003
50.1974569082
50.2139191389
50.1974569082
50.2468436003
50.2509591579
50.2509591579
50.613128233
50.1974569082
50.1809946775
50.2344969273
50.2139191389
50.2180346966
50.2303813696
50.1974569082
50.2303813696
50.2139191389
50.2139191389
50.1809946775
50.1974569082
50.2139191389
50.1768791199
50.1768791199
50.1974569082
50.1809946775
50.2303813696
50.2139191389
50.2509591579
50.2468436003
50.1974569082
50.2139191389

Block: 4
======================================
50.6295904636
50.2509591579
50.6295904636
50.2344969273
50.6460526943
50.5966660023
50.1809946775
50.1974569082
50.2303813696
50.2303813696
50.2344969273
50.2303813696
50.2468436003
50.1974569082
50.1974569082
50.6295904636
50.1974569082
50.6460526943
50.1809946775
50.6666304827
50.6295904636
50.2180346966
50.6460526943
50.6789771557
50.2468436003
50.1768791199
50.2139191389
50.1974569082
50.1809946775
50.613128233
50.1974569082
50.1974569082
50.6460526943
50.2303813696
50.2139191389
50.6666304827
50.2139191389
50.2509591579
50.6295904636
50.613128233
50.2303813696
50.2139191389
50.1974569082
50.6295904636
50.2468436003
50.2303813696
50.2303813696
50.2139191389
50.6460526943
50.1974569082

Block: 5
======================================
50.2139191389
50.6295904636
50.2180346966
50.2303813696
50.0945679665
50.2468436003
50.1974569082
50.1809946775
50.1974569082
50.2139191389
50.2139191389
50.2303813696
50.1809946775
50.1974569082
50.1974569082
50.2468436003
50.1974569082
50.2468436003
50.2139191389
50.1809946775
50.1974569082
50.2468436003
50.2139191389
50.1604168892
50.1974569082
50.2303813696
50.2180346966
50.1809946775
50.2139191389
50.1645324469
50.1809946775
50.2509591579
50.2180346966
50.2139191389
50.2139191389
50.1974569082
50.2139191389
50.1974569082
50.1809946775
50.2344969273
50.2303813696
50.1974569082
50.2303813696
50.2509591579
50.1974569082
50.2344969273
50.1974569082
50.1974569082
50.2303813696
50.2509591579

Block: 6
======================================
50.613128233
50.662514925
50.2303813696
50.2139191389
50.2303813696
50.2674213886
50.2139191389
50.2303813696
50.2303813696
50.662514925
50.6295904636
50.1768791199
50.650168252
50.6295904636
50.662514925
50.6460526943
50.2509591579
50.2509591579
50.2139191389
50.2303813696
50.1809946775
50.2303813696
50.2303813696
50.2303813696
50.1974569082
50.6460526943
50.2303813696
50.2139191389
50.1809946775
50.2139191389
50.2139191389
50.662514925
50.2139191389
50.1974569082
50.2303813696
50.1809946775
50.1480702162
50.1809946775
50.2139191389
50.2303813696
50.2139191389
50.2303813696
50.650168252
50.2139191389
50.2344969273
50.2139191389
50.2303813696
50.2303813696
50.1974569082
50.2344969273

Block: 7
======================================
50.6666304827
50.6830927134
50.1809946775
50.1974569082
50.1974569082
50.2344969273
50.6460526943
50.2139191389
50.1974569082
50.1974569082
50.2303813696
50.1974569082
50.1974569082
50.1974569082
50.2180346966
50.1974569082
50.1974569082
50.1974569082
50.650168252
50.2139191389
50.2180346966
50.1974569082
50.613128233
50.2139191389
50.2139191389
50.1974569082
50.1974569082
50.2180346966
50.1809946775
50.2139191389
50.1974569082
50.2509591579
50.2344969273
50.2509591579
50.1974569082
50.6295904636
50.2139191389
50.2139191389
50.6460526943
50.2139191389
50.1974569082
50.2344969273
50.2303813696
50.2303813696
50.2344969273
50.2303813696
50.2139191389
50.1809946775
50.6295904636
50.2139191389

Block: 8
======================================
50.2180346966
50.1809946775
50.2674213886
50.2139191389
50.1768791199
50.2303813696
50.1974569082
50.1974569082
50.2139191389
50.2344969273
50.2139191389
50.1974569082
50.1974569082
50.6460526943
50.2303813696
50.2303813696
50.2468436003
50.2303813696
50.2509591579
50.2303813696
50.2344969273
50.1974569082
50.2509591579
50.2344969273
50.2180346966
50.2344969273
50.650168252
50.6830927134
50.2139191389
50.2468436003
50.2139191389
50.2509591579
50.1974569082
50.6666304827
50.2139191389
50.6090126753
50.613128233
50.2303813696
50.263305831
50.6460526943
50.2468436003
50.2180346966
50.1974569082
50.2303813696
50.2509591579
50.2139191389
50.1974569082
50.2180346966
50.2509591579
50.2344969273

Block: 9
======================================
50.2303813696
50.6666304827
50.2344969273
50.2180346966
50.1974569082
50.2139191389
50.2303813696
50.6789771557
50.2180346966
50.2139191389
50.2139191389
50.6460526943
50.2344969273
50.6460526943
50.2139191389
50.6789771557
50.2139191389
50.2139191389
50.2303813696
50.1974569082
50.2344969273
50.2344969273
50.2509591579
50.2344969273
50.2303813696
50.2303813696
50.6460526943
50.2344969273
50.6460526943
50.2344969273
50.2509591579
50.6295904636
50.2139191389
50.6295904636
50.2303813696
50.2303813696
50.613128233
50.6666304827
50.1809946775
50.2344969273
50.1974569082
50.2344969273
50.6460526943
50.6295904636
50.2303813696
50.2344969273
50.2674213886
50.2674213886
50.1974569082
50.2344969273

Block: 10
======================================
50.2303813696
50.2180346966
50.6295904636
50.2468436003
50.2303813696
50.2303813696
50.2303813696
50.2139191389
50.1974569082
50.2674213886
50.1974569082
50.2509591579
50.2139191389
50.2344969273
50.2139191389
50.2468436003
50.2509591579
50.2139191389
50.2303813696
50.1768791199
50.2303813696
50.2139191389
50.2509591579
50.2344969273
50.2509591579
50.2344969273
50.5966660023
50.2139191389
50.2303813696
50.2509591579
50.2468436003
50.699554944
50.613128233
50.662514925
50.6295904636
50.2344969273
50.662514925
50.2139191389
50.6460526943
50.1645324469
50.6460526943
50.1974569082
50.2139191389
50.2139191389
50.2303813696
50.2180346966
50.2180346966
50.2303813696
50.1974569082
50.2303813696
