
Block: 1
======================================
199.937522364
199.921233511
199.941594577
199.937522364
201.236558366

Block: 2
======================================
200.365104747
200.385465813
200.348815894
200.79268713
199.921233511

Block: 3
======================================
200.808975983
200.808975983
200.79268713
200.352888107
199.888655806

Block: 4
======================================
199.937522364
200.79268713
200.3813936
200.401754665
200.352888107

Block: 5
======================================
199.941594577
199.953811216
199.921233511
199.95788343
200.825264835

Block: 6
======================================
200.365104747
199.941594577
199.937522364
199.921233511
199.953811216

Block: 7
======================================
199.937522364
199.941594577
200.352888107
200.3813936
200.829337049

Block: 8
======================================
201.664140749
199.904944658
200.401754665
200.450621223
199.493651128

Block: 9
======================================
200.79268713
199.921233511
200.36917696
200.845625901
199.937522364

Block: 10
======================================
199.941594577
200.808975983
200.813048196
200.332527041
200.365104747
