
Block: 1
======================================
100.450001955
101.680743694
100.813442469
100.421091914
100.850612521
100.817572474
100.850612521
100.416961908
100.817572474
100.383921862
100.383921862
100.437611938
100.416961908
101.197533011
100.834092498
101.267743111
101.267743111
100.400441885
100.416961908
101.267743111
101.251223087
100.801052451
100.421091914
100.437611938
100.854742527

Block: 2
======================================
98.8392996788
101.631183624
101.73443377
100.817572474
100.780402422
100.404571891
100.383921862
101.701393723
100.850612521
101.668353677
101.267743111
100.416961908
101.284263134
100.817572474
101.701393723
100.416961908
101.251223087
101.267743111
100.817572474
100.817572474
100.801052451
100.437611938
100.796922445
100.416961908
100.801052451

Block: 3
======================================
101.73443377
101.717913747
100.780402422
100.87126255
101.214053035
100.400441885
100.817572474
100.400441885
100.383921862
100.817572474
100.400441885
100.817572474
100.796922445
101.251223087
100.416961908
101.717913747
100.383921862
101.251223087
101.214053035
100.400441885
100.433481932
101.647703648
100.801052451
100.780402422
101.267743111

Block: 4
======================================
101.284263134
100.433481932
101.701393723
100.854742527
100.817572474
100.421091914
101.680743694
101.267743111
101.284263134
100.404571891
100.834092498
100.437611938
100.400441885
100.796922445
100.817572474
101.697263718
100.367401838
100.404571891
100.796922445
100.796922445
100.801052451
100.454131961
100.367401838
100.433481932
100.437611938

Block: 5
======================================
100.784532428
100.801052451
100.400441885
100.400441885
100.383921862
100.817572474
100.801052451
100.796922445
100.421091914
100.416961908
101.701393723
100.850612521
100.400441885
101.267743111
101.6848737
100.813442469
100.817572474
100.404571891
100.850612521
100.454131961
101.680743694
101.6848737
101.234703064
100.400441885
101.267743111

Block: 6
======================================
101.6848737
102.097874284
100.400441885
101.251223087
100.784532428
100.416961908
100.780402422
101.247093081
101.6848737
101.230573058
100.801052451
101.214053035
100.834092498
100.834092498
100.817572474
100.817572474
101.701393723
100.400441885
100.383921862
101.6848737
100.796922445
100.416961908
100.383921862
100.383921862
100.817572474

Block: 7
======================================
101.717913747
100.367401838
100.768012404
100.421091914
100.400441885
100.796922445
100.421091914
100.400441885
100.801052451
101.680743694
100.383921862
101.668353677
100.400441885
100.416961908
100.796922445
100.383921862
100.383921862
101.230573058
100.416961908
100.796922445
100.437611938
101.680743694
100.416961908
100.416961908
101.701393723

Block: 8
======================================
100.437611938
100.416961908
101.214053035
100.437611938
100.437611938
100.801052451
101.251223087
101.697263718
101.251223087
100.400441885
101.234703064
100.817572474
100.801052451
100.801052451
100.400441885
100.400441885
100.400441885
101.267743111
100.834092498
100.421091914
100.416961908
100.383921862
100.433481932
100.416961908
100.454131961

Block: 9
======================================
100.801052451
101.647703648
100.400441885
101.647703648
101.218183041
101.6848737
100.801052451
100.817572474
100.421091914
100.404571891
101.197533011
101.6848737
100.784532428
100.421091914
101.263613105
101.214053035
100.817572474
100.834092498
100.400441885
100.834092498
100.421091914
100.834092498
100.400441885
100.416961908
100.817572474

Block: 10
======================================
100.421091914
101.214053035
100.867132545
101.647703648
101.647703648
100.421091914
100.383921862
100.400441885
100.813442469
100.421091914
101.234703064
100.796922445
100.400441885
100.834092498
100.817572474
100.400441885
100.400441885
101.284263134
100.813442469
100.404571891
100.817572474
100.817572474
100.780402422
100.867132545
101.234703064
