
Block: 1
======================================
301.328187585
300.426527929
300.867249465
300.410354662
301.291797733
300.899596
301.748692536
300.851076198
301.307971001
300.446744514
300.426527929
300.851076198
302.173240805
300.883422732
300.426527929
302.157067537
300.430571246
300.410354662
301.307971001
301.291797733
300.442701197
301.344360852
300.883422732
300.867249465
300.867249465
300.410354662
300.851076198
300.867249465
300.426527929
300.442701197
300.442701197
301.291797733
300.426527929
300.446744514
300.867249465
300.867249465
300.867249465
301.307971001
300.867249465
301.328187585
301.324144268
300.410354662
300.871292782
300.442701197
300.883422732
300.887466049
300.867249465
301.307971001
300.883422732
300.899596

Block: 2
======================================
300.426527929
301.312014318
300.446744514
300.430571246
301.307971001
300.867249465
301.307971001
300.887466049
300.867249465
300.871292782
301.328187585
300.903639317
300.867249465
302.597789073
300.442701197
300.479091048
300.871292782
300.871292782
300.851076198
300.446744514
300.442701197
301.307971001
300.442701197
300.442701197
300.867249465
300.867249465
302.577572489
300.887466049
300.899596
300.883422732
300.426527929
301.312014318
301.307971001
301.324144268
301.324144268
300.442701197
301.312014318
300.442701197
300.446744514
300.446744514
300.867249465
300.462917781
300.442701197
300.442701197
300.867249465
300.446744514
301.324144268
300.883422732
302.193457389
300.919812584

Block: 3
======================================
300.446744514
301.328187585
301.328187585
301.307971001
301.324144268
301.324144268
300.867249465
301.324144268
300.851076198
300.903639317
301.307971001
300.426527929
300.462917781
300.462917781
301.328187585
300.458874464
300.462917781
302.157067537
300.442701197
301.324144268
301.312014318
301.291797733
300.883422732
301.307971001
300.426527929
300.426527929
300.442701197
300.426527929
300.883422732
300.903639317
300.458874464
300.903639317
301.312014318
300.899596
301.748692536
300.887466049
300.446744514
300.426527929
300.903639317
300.442701197
300.426527929
301.748692536
300.462917781
300.426527929
300.883422732
300.871292782
300.410354662
300.426527929
300.903639317
300.446744514

Block: 4
======================================
300.867249465
301.328187585
301.324144268
300.458874464
300.867249465
300.462917781
300.919812584
300.883422732
300.919812584
300.919812584
300.458874464
300.899596
300.903639317
300.887466049
300.899596
300.919812584
300.915769267
301.748692536
300.899596
300.442701197
300.899596
300.919812584
300.458874464
301.748692536
300.903639317
300.883422732
300.475047731
301.328187585
300.883422732
300.919812584
301.340317535
300.462917781
300.442701197
300.919812584
300.475047731
300.935985851
300.883422732
300.899596
300.479091048
300.442701197
300.458874464
300.462917781
300.903639317
302.209630656
302.61396234
301.764865804
300.903639317
300.903639317
300.899596
300.887466049

Block: 5
======================================
300.479091048
300.52761085
300.475047731
301.376707387
301.36053412
300.919812584
300.919812584
300.935985851
300.462917781
302.189414072
300.915769267
300.479091048
300.899596
300.919812584
300.458874464
300.462917781
300.458874464
300.479091048
300.442701197
300.442701197
300.919812584
300.511437583
300.903639317
300.919812584
300.903639317
300.899596
300.458874464
301.376707387
300.903639317
300.458874464
300.919812584
300.919812584
300.475047731
301.376707387
300.935985851
300.919812584
300.915769267
300.899596
302.630135608
301.36053412
300.899596
301.356490803
301.36053412
300.458874464
301.356490803
300.935985851
300.903639317
300.511437583
301.768909121
300.899596

Block: 6
======================================
301.36053412
301.344360852
300.458874464
301.344360852
302.646308875
300.475047731
300.479091048
301.344360852
300.475047731
300.919812584
300.899596
300.479091048
300.475047731
300.462917781
300.931942534
300.462917781
300.462917781
301.376707387
300.903639317
300.458874464
300.495264316
300.915769267
300.462917781
300.462917781
300.475047731
300.479091048
301.781039071
300.919812584
300.899596
300.479091048
300.919812584
300.919812584
300.491220999
300.462917781
300.475047731
301.340317535
300.442701197
301.324144268
300.458874464
301.344360852
300.475047731
300.479091048
301.340317535
300.479091048
300.462917781
301.324144268
301.36053412
301.36053412
300.479091048
300.458874464

Block: 7
======================================
300.903639317
300.458874464
300.458874464
300.479091048
300.883422732
300.458874464
300.458874464
300.458874464
300.462917781
300.479091048
300.442701197
300.479091048
300.462917781
300.442701197
300.479091048
301.764865804
300.479091048
300.899596
300.442701197
301.340317535
301.328187585
301.340317535
301.344360852
301.344360852
300.883422732
302.209630656
301.764865804
301.748692536
300.446744514
300.479091048
301.340317535
300.462917781
301.312014318
300.475047731
300.462917781
301.340317535
301.748692536
301.324144268
300.462917781
300.458874464
300.462917781
301.344360852
300.887466049
301.340317535
300.903639317
300.883422732
300.887466049
300.899596
300.442701197
300.446744514

Block: 8
======================================
300.410354662
300.458874464
300.887466049
300.883422732
302.618005657
300.883422732
300.883422732
300.867249465
301.344360852
300.446744514
300.426527929
300.458874464
300.462917781
301.344360852
300.442701197
300.871292782
301.328187585
300.867249465
301.340317535
301.340317535
300.410354662
300.867249465
301.291797733
300.446744514
300.903639317
300.899596
301.324144268
300.442701197
301.324144268
300.919812584
301.328187585
300.462917781
300.426527929
300.867249465
301.344360852
301.307971001
301.307971001
300.867249465
300.426527929
301.736562586
301.328187585
301.312014318
300.883422732
300.883422732
301.307971001
300.851076198
300.495264316
300.458874464
300.475047731
301.324144268

Block: 9
======================================
300.887466049
300.903639317
300.462917781
300.410354662
300.426527929
300.851076198
300.867249465
300.442701197
300.410354662
300.883422732
300.543784118
300.867249465
300.867249465
300.867249465
302.581615806
300.426527929
300.446744514
300.430571246
301.340317535
300.442701197
301.307971001
300.426527929
301.340317535
302.597789073
301.324144268
300.462917781
301.328187585
300.446744514
302.597789073
301.307971001
301.324144268
301.328187585
301.324144268
301.307971001
302.173240805
300.462917781
301.307971001
300.442701197
301.307971001
301.328187585
301.307971001
300.867249465
300.899596
300.867249465
301.328187585
300.887466049
300.458874464
300.426527929
301.324144268
300.867249465

Block: 10
======================================
301.328187585
300.446744514
300.883422732
300.442701197
300.903639317
300.442701197
300.442701197
300.899596
300.899596
301.328187585
301.328187585
301.307971001
300.462917781
301.324144268
301.748692536
301.752735853
301.328187585
300.462917781
300.458874464
300.883422732
301.324144268
300.883422732
301.307971001
301.324144268
300.446744514
301.324144268
300.446744514
301.291797733
300.462917781
300.430571246
300.462917781
300.899596
300.446744514
300.446744514
300.458874464
300.442701197
300.446744514
300.462917781
301.344360852
300.442701197
300.458874464
301.324144268
300.462917781
300.446744514
300.919812584
300.462917781
300.430571246
300.018152928
300.442701197
300.442701197
