
Block: 1
======================================
300.495264316
302.682698727
302.241977191
301.817428923
300.511437583
300.511437583
300.495264316
300.952159119
300.495264316
300.52761085
300.511437583
300.5154809
301.392880654
300.495264316
300.511437583
300.952159119
301.413097239
302.666525459
300.495264316
301.392880654
301.376707387
301.413097239
300.511437583
300.511437583
300.495264316
300.495264316
300.511437583
301.396923971
300.935985851
300.935985851
301.376707387
300.935985851
301.392880654
301.376707387
301.376707387
300.511437583
301.392880654
300.511437583
300.495264316
302.209630656
300.495264316
300.511437583
300.952159119
300.511437583
300.495264316
300.968332386
300.972375703
300.495264316
301.376707387
300.511437583
300.511437583
301.797212338
300.52761085
301.392880654
300.956202435
300.968332386
301.376707387
300.511437583
300.511437583
300.935985851
300.511437583
301.376707387
300.52761085
301.36053412
301.817428923
300.511437583
301.376707387
300.511437583
301.392880654
301.376707387
301.376707387
301.36053412
301.36053412
301.36053412
301.801255655
300.495264316
300.52761085
302.225803924
300.495264316
300.511437583
301.36053412
300.931942534
300.919812584
300.952159119
301.376707387
300.931942534
300.952159119
300.952159119
300.495264316
300.935985851
302.666525459
300.495264316
300.52761085
300.952159119
301.392880654
300.479091048
300.931942534
300.952159119
300.52761085
300.935985851

Average distance is : 301.000 cm
Average deviation is : 0.547 cm
Block: 2
======================================
300.511437583
300.919812584
300.511437583
300.475047731
300.495264316
300.495264316
300.935985851
301.801255655
300.931942534
300.935985851
300.935985851
300.919812584
301.376707387
300.935985851
300.952159119
300.479091048
300.952159119
301.376707387
301.376707387
301.376707387
300.919812584
302.221760607
300.442701197
301.36053412
301.392880654
301.376707387
301.376707387
300.495264316
300.511437583
300.935985851
300.935985851
300.919812584
301.376707387
301.36053412
300.935985851
301.36053412
300.511437583
300.935985851
300.52761085
301.376707387
300.935985851
300.475047731
301.376707387
301.376707387
300.479091048
300.495264316
300.935985851
300.952159119
300.952159119
300.462917781
301.376707387
301.376707387
301.376707387
300.915769267
301.785082388
300.935985851
300.952159119
300.479091048
300.899596
301.376707387
300.495264316
300.952159119
300.919812584
300.935985851
301.392880654
300.5154809
300.931942534
300.475047731
301.36053412
300.495264316
301.376707387
300.919812584
302.241977191
300.495264316
300.495264316
301.376707387
300.935985851
300.479091048
300.475047731
300.952159119
300.935985851
300.931942534
300.511437583
300.935985851
301.376707387
301.356490803
300.495264316
300.479091048
302.225803924
300.935985851
300.931942534
300.919812584
300.935985851
300.475047731
300.935985851
301.376707387
300.479091048
300.462917781
301.376707387
300.919812584

Average distance is : 300.971 cm
Average deviation is : 0.419 cm
Block: 3
======================================
300.491220999
300.491220999
301.785082388
300.935985851
300.952159119
300.495264316
300.511437583
300.915769267
301.396923971
300.935985851
300.935985851
301.376707387
301.376707387
301.801255655
300.935985851
300.931942534
301.801255655
301.392880654
300.935985851
300.935985851
300.903639317
301.817428923
301.344360852
300.511437583
301.356490803
300.935985851
300.511437583
300.935985851
300.935985851
300.479091048
301.36053412
302.646308875
300.935985851
300.479091048
300.935985851
300.919812584
300.919812584
300.479091048
300.919812584
300.952159119
300.919812584
300.458874464
301.376707387
300.919812584
300.952159119
300.899596
300.899596
300.899596
300.935985851
300.935985851
300.479091048
300.915769267
300.919812584
301.781039071
300.915769267
300.479091048
300.915769267
300.479091048
300.479091048
300.479091048
301.356490803
301.785082388
301.392880654
300.935985851
300.935985851
301.376707387
300.479091048
300.475047731
301.817428923
300.479091048
300.935985851
302.225803924
300.495264316
300.935985851
300.935985851
302.209630656
300.935985851
300.479091048
301.36053412
300.935985851
300.495264316
300.495264316
300.919812584
302.225803924
300.495264316
301.36053412
301.36053412
300.495264316
300.495264316
300.935985851
301.376707387
300.511437583
300.511437583
300.915769267
300.935985851
300.935985851
301.376707387
302.225803924
300.458874464
300.475047731

Average distance is : 301.001 cm
Average deviation is : 0.484 cm
Block: 4
======================================
301.376707387
301.376707387
301.340317535
300.903639317
300.935985851
300.919812584
301.36053412
300.458874464
300.915769267
300.462917781
300.935985851
300.475047731
300.935985851
300.458874464
301.340317535
302.189414072
300.899596
302.189414072
300.475047731
300.479091048
301.36053412
300.479091048
301.781039071
300.883422732
300.935985851
301.356490803
300.899596
301.36053412
300.935985851
300.887466049
301.344360852
301.324144268
300.903639317
301.356490803
301.376707387
302.205587339
300.479091048
301.340317535
300.495264316
300.935985851
302.209630656
300.479091048
301.340317535
301.36053412
300.495264316
300.495264316
300.495264316
300.919812584
301.36053412
301.340317535
302.193457389
302.193457389
302.205587339
301.340317535
300.479091048
300.462917781
300.919812584
302.205587339
300.935985851
300.915769267
300.458874464
301.801255655
300.935985851
300.919812584
301.356490803
300.495264316
301.324144268
302.205587339
301.36053412
300.475047731
300.935985851
300.462917781
300.475047731
300.935985851
300.458874464
300.475047731
301.344360852
300.919812584
300.935985851
300.479091048
300.479091048
301.340317535
300.919812584
300.479091048
300.462917781
300.479091048
300.919812584
302.205587339
300.903639317
301.344360852
300.458874464
301.781039071
300.903639317
300.915769267
301.376707387
300.903639317
300.919812584
300.511437583
301.785082388
300.475047731

Average distance is : 301.057 cm
Average deviation is : 0.533 cm
Block: 5
======================================
300.919812584
300.935985851
302.189414072
300.462917781
301.344360852
301.344360852
301.324144268
300.956202435
300.903639317
300.479091048
301.340317535
300.479091048
300.442701197
301.36053412
301.340317535
302.205587339
300.919812584
300.479091048
302.193457389
300.935985851
300.458874464
302.189414072
301.36053412
300.479091048
301.324144268
300.919812584
300.919812584
301.328187585
300.899596
302.205587339
301.781039071
302.209630656
301.340317535
300.899596
300.442701197
300.915769267
300.458874464
300.458874464
300.442701197
300.458874464
300.475047731
300.458874464
300.462917781
300.903639317
300.479091048
300.462917781
300.479091048
300.479091048
300.479091048
301.324144268
300.458874464
301.36053412
300.915769267
300.903639317
300.887466049
300.903639317
300.935985851
300.458874464
300.915769267
301.344360852
300.479091048
300.479091048
300.919812584
300.495264316
300.495264316
300.495264316
301.785082388
300.903639317
300.479091048
300.479091048
300.479091048
300.903639317
300.919812584
300.919812584
300.462917781
300.479091048
300.458874464
301.344360852
301.344360852
300.458874464
301.324144268
300.462917781
300.462917781
302.193457389
300.479091048
300.446744514
300.887466049
300.935985851
300.458874464
300.426527929
300.446744514
300.479091048
300.479091048
300.458874464
300.919812584
300.462917781
300.903639317
301.324144268
300.442701197
300.915769267

Average distance is : 300.888 cm
Average deviation is : 0.505 cm
Block: 6
======================================
300.919812584
301.36053412
300.495264316
300.479091048
300.919812584
300.442701197
300.475047731
300.903639317
300.903639317
300.442701197
300.899596
300.919812584
300.458874464
300.475047731
300.883422732
300.462917781
301.324144268
300.442701197
300.458874464
300.458874464
300.442701197
300.903639317
300.458874464
301.344360852
300.458874464
300.458874464
300.475047731
301.324144268
301.328187585
301.328187585
300.458874464
300.903639317
300.887466049
301.752735853
300.903639317
300.883422732
301.344360852
300.446744514
301.328187585
302.173240805
300.458874464
300.919812584
300.426527929
300.887466049
300.462917781
300.903639317
300.899596
300.462917781
301.307971001
300.883422732
300.919812584
300.883422732
300.903639317
300.935985851
300.903639317
300.442701197
300.462917781
300.495264316
300.442701197
301.748692536
302.597789073
300.915769267
300.458874464
300.479091048
300.446744514
300.462917781
300.903639317
300.442701197
300.919812584
301.36053412
300.442701197
300.903639317
300.883422732
301.752735853
300.915769267
300.903639317
301.768909121
300.899596
300.458874464
300.903639317
300.442701197
300.887466049
300.883422732
301.752735853
300.442701197
300.903639317
301.764865804
300.915769267
300.903639317
300.903639317
300.903639317
300.903639317
301.36053412
300.458874464
300.935985851
300.442701197
301.340317535
300.442701197
300.915769267
300.903639317

Average distance is : 300.867 cm
Average deviation is : 0.433 cm
Block: 7
======================================
300.919812584
301.732519269
302.61396234
300.479091048
300.915769267
300.446744514
300.899596
300.462917781
300.903639317
301.344360852
300.903639317
301.764865804
301.36053412
300.919812584
300.495264316
300.919812584
301.340317535
300.903639317
300.903639317
300.479091048
300.479091048
301.344360852
301.344360852
300.899596
301.36053412
300.903639317
300.915769267
300.915769267
300.919812584
300.919812584
300.919812584
300.903639317
300.903639317
301.36053412
300.479091048
302.193457389
300.442701197
300.479091048
302.193457389
300.915769267
300.442701197
300.458874464
302.177284122
300.462917781
301.340317535
300.458874464
302.193457389
300.935985851
300.426527929
300.903639317
301.340317535
300.899596
302.209630656
300.442701197
300.458874464
301.324144268
300.462917781
301.312014318
301.324144268
301.324144268
301.324144268
301.801255655
300.479091048
300.915769267
300.903639317
300.903639317
302.189414072
300.899596
300.903639317
301.785082388
300.899596
300.883422732
301.768909121
301.36053412
300.462917781
300.919812584
300.903639317
300.903639317
300.915769267
300.899596
300.883422732
300.458874464
300.935985851
300.899596
302.189414072
300.475047731
300.899596
300.883422732
300.915769267
301.324144268
300.462917781
302.193457389
301.344360852
300.919812584
300.919812584
300.479091048
300.462917781
302.209630656
301.36053412
300.935985851

Average distance is : 301.056 cm
Average deviation is : 0.527 cm
Block: 8
======================================
300.511437583
300.458874464
300.495264316
300.495264316
300.935985851
300.475047731
300.952159119
300.919812584
301.817428923
300.495264316
300.935985851
300.915769267
300.479091048
301.36053412
300.952159119
300.935985851
300.952159119
301.801255655
300.479091048
300.495264316
300.495264316
301.36053412
300.915769267
300.919812584
300.495264316
300.935985851
300.952159119
301.356490803
300.919812584
300.479091048
300.935985851
300.495264316
300.479091048
301.37266407
300.935985851
300.952159119
301.36053412
301.392880654
301.36053412
300.919812584
300.511437583
300.935985851
300.475047731
300.952159119
300.903639317
300.511437583
301.376707387
301.340317535
301.356490803
301.837645507
300.956202435
300.935985851
300.935985851
301.392880654
302.221760607
301.392880654
301.376707387
301.36053412
301.36053412
300.495264316
302.225803924
301.36053412
301.356490803
300.495264316
300.511437583
300.495264316
301.376707387
302.209630656
301.376707387
301.36053412
301.785082388
301.392880654
301.36053412
300.495264316
301.36053412
300.935985851
300.479091048
302.209630656
301.376707387
301.36053412
300.952159119
300.495264316
301.36053412
300.491220999
300.495264316
300.952159119
301.36053412
301.376707387
301.817428923
300.495264316
300.495264316
301.36053412
300.903639317
300.495264316
301.356490803
300.935985851
300.919812584
300.915769267
301.376707387
300.903639317

Average distance is : 301.035 cm
Average deviation is : 0.460 cm
Block: 9
======================================
300.915769267
300.511437583
300.442701197
300.899596
300.475047731
300.458874464
302.630135608
302.634178925
300.919812584
300.919812584
300.903639317
300.903639317
300.919812584
301.376707387
301.376707387
300.887466049
300.919812584
300.479091048
300.935985851
300.479091048
300.462917781
300.511437583
300.479091048
300.479091048
301.356490803
301.356490803
300.935985851
300.919812584
300.952159119
300.935985851
301.36053412
301.376707387
300.511437583
300.935985851
301.376707387
300.935985851
301.376707387
301.344360852
301.36053412
300.919812584
300.458874464
300.475047731
301.392880654
302.650352192
300.899596
301.356490803
300.915769267
300.511437583
301.36053412
301.36053412
302.209630656
302.221760607
300.491220999
301.376707387
301.36053412
300.511437583
300.903639317
302.634178925
300.495264316
301.356490803
301.344360852
301.36053412
301.376707387
300.479091048
301.36053412
301.356490803
301.376707387
300.511437583
300.952159119
300.511437583
300.915769267
301.376707387
300.511437583
302.225803924
301.376707387
301.340317535
300.491220999
300.491220999
300.475047731
300.479091048
301.36053412
300.935985851
300.462917781
302.209630656
300.495264316
300.479091048
300.479091048
301.344360852
300.511437583
300.462917781
300.479091048
300.491220999
300.479091048
300.479091048
300.475047731
302.646308875
300.919812584
300.915769267
302.205587339
301.36053412

Average distance is : 301.043 cm
Average deviation is : 0.588 cm
Block: 10
======================================
300.442701197
300.644867039
300.968332386
300.495264316
302.646308875
300.52761085
301.376707387
300.935985851
301.36053412
300.495264316
300.511437583
300.952159119
300.479091048
300.495264316
300.511437583
301.376707387
300.952159119
301.392880654
301.392880654
301.376707387
301.409053922
300.511437583
300.479091048
301.801255655
300.495264316
300.495264316
300.952159119
300.495264316
300.495264316
300.495264316
300.479091048
300.495264316
301.392880654
300.495264316
300.495264316
300.935985851
300.952159119
301.392880654
300.511437583
300.495264316
300.952159119
300.511437583
300.491220999
300.511437583
302.221760607
301.392880654
300.956202435
301.801255655
300.495264316
300.479091048
301.801255655
300.564000702
301.376707387
300.935985851
300.935985851
300.935985851
300.495264316
300.935985851
300.495264316
300.479091048
300.511437583
300.495264316
301.376707387
300.495264316
300.935985851
300.491220999
302.209630656
301.801255655
301.785082388
300.479091048
300.919812584
300.479091048
301.376707387
300.915769267
300.458874464
300.511437583
301.817428923
300.935985851
301.376707387
301.36053412
300.903639317
301.36053412
300.511437583
300.919812584
300.495264316
300.479091048
300.479091048
300.495264316
300.479091048
300.919812584
301.376707387
300.915769267
301.356490803
302.221760607
300.475047731
301.340317535
301.356490803
300.952159119
300.919812584
301.376707387

Average distance is : 300.934 cm
Average deviation is : 0.505 cm