
Block: 1
======================================
400.280280638
401.177896976
402.487931633
400.704828906
400.757392025

Average distance is : 401.082 cm
Average deviation is : 0.848 cm
Block: 2
======================================
401.161723709
402.010820246
400.72504549
401.181940293
400.737175441

Average distance is : 401.163 cm
Average deviation is : 0.523 cm
Block: 3
======================================
402.398978662
401.129377174
401.553925443
401.145550442
401.129377174

Average distance is : 401.471 cm
Average deviation is : 0.549 cm
Block: 4
======================================
401.586271977
401.606488562
402.435368514
401.994646978
401.962300444

Average distance is : 401.917 cm
Average deviation is : 0.347 cm
Block: 5
======================================
403.284465051
401.064684105
402.839700198
401.092987323
402.398978662

Average distance is : 402.136 cm
Average deviation is : 1.015 cm
Block: 6
======================================
401.485189056
401.909737325
401.485189056
401.946127176
401.505405641

Average distance is : 401.666 cm
Average deviation is : 0.239 cm
Block: 7
======================================
403.248075199
401.501362324
401.537752175
401.505405641
403.620060349

Average distance is : 402.283 cm
Average deviation is : 1.059 cm
Block: 8
======================================
401.962300444
401.703528166
401.501362324
401.533708858
401.533708858

Average distance is : 401.647 cm
Average deviation is : 0.193 cm
Block: 9
======================================
401.521578908
403.231901932
401.145550442
402.010820246
403.280421734

Average distance is : 402.238 cm
Average deviation is : 0.979 cm
Block: 10
======================================
400.260064054
400.721002173
400.688655639
401.57009871
400.247934103

Average distance is : 400.698 cm
Average deviation is : 0.537 cm