
Block: 1
======================================
50.7160171747
50.30034585
50.30034585
50.30034585
50.3168080807

Block: 2
======================================
50.30034585
50.337385869
50.3044614077
50.3168080807
50.2838836193

Block: 3
======================================
50.30034585
50.30034585
50.30034585
50.30034585
50.30034585

Block: 4
======================================
49.4360787392
50.3168080807
50.2838836193
50.2838836193
50.7489416361

Block: 5
======================================
50.30034585
50.7695194244
50.3168080807
50.30034585
50.2838836193

Block: 6
======================================
50.3209236383
50.3044614077
50.7324794054
50.2838836193
50.3332703114

Block: 7
======================================
50.3209236383
50.3209236383
50.3332703114
50.3168080807
50.2838836193

Block: 8
======================================
50.3044614077
50.337385869
50.3168080807
50.7530571938
50.2838836193

Block: 9
======================================
50.7654038668
50.337385869
50.3209236383
50.699554944
50.7324794054

Block: 10
======================================
50.3209236383
50.7324794054
50.7654038668
50.3168080807
50.3332703114
