
Block: 1
======================================
50.7324794054
50.7489416361
50.699554944
50.699554944
50.30034585
50.7695194244
50.7695194244
50.662514925
50.7654038668
50.7489416361
50.2674213886
50.3209236383
50.7489416361
50.7160171747
50.9917595387
50.7489416361
50.7324794054
50.337385869
50.699554944
50.7489416361
50.3209236383
50.7324794054
50.5760882139
50.7859816551
50.2838836193
50.3168080807
50.30034585
50.30034585
50.3209236383
50.7695194244
50.2838836193
50.7654038668
50.7324794054
50.7324794054
50.337385869
50.7530571938
50.337385869
50.30034585
50.3044614077
50.3209236383
50.699554944
50.7324794054
50.2674213886
50.7324794054
50.3168080807
50.7160171747
50.7160171747
50.3332703114
50.2838836193
50.3209236383
50.699554944
50.337385869
50.7324794054
50.3209236383
50.30034585
50.3538480997
50.7160171747
50.7324794054
50.2838836193
50.3332703114
50.7489416361
50.3332703114
50.30034585
50.7324794054
50.7324794054
50.2674213886
50.7695194244
50.7324794054
50.2674213886
50.30034585
50.2674213886
50.3044614077
50.7160171747
50.2838836193
50.7160171747

Block: 2
======================================
50.6954393864
50.3168080807
50.30034585
50.3209236383
50.2838836193
50.3209236383
50.2838836193
50.7324794054
50.3209236383
50.7695194244
50.6954393864
50.7489416361
50.7489416361
50.337385869
50.7695194244
50.6830927134
50.7489416361
50.7324794054
50.699554944
50.2838836193
50.3168080807
50.7695194244
50.3209236383
50.337385869
50.7119016171
50.7489416361
50.2838836193
50.7324794054
50.7160171747
50.7324794054
50.7324794054
50.2838836193
50.3332703114
50.30034585
50.2674213886
50.7489416361
50.7324794054
50.30034585
50.3209236383
50.2838836193
50.7695194244
50.2838836193
50.7695194244
50.2838836193
50.7489416361
50.3044614077
50.3332703114
50.662514925
50.3168080807
50.7324794054
50.7654038668
50.2838836193
50.2838836193
50.337385869
50.6954393864
50.2838836193
50.3168080807
50.7695194244
50.5596259832
50.2674213886
50.2838836193
50.3209236383
50.7654038668
50.7489416361
50.3538480997
50.7859816551
49.7653233528
50.7654038668
50.2838836193
50.7324794054
50.2838836193
50.6954393864
50.7324794054
50.7324794054
50.2674213886

Block: 3
======================================
50.2838836193
50.7654038668
51.7325599194
50.30034585
50.7695194244
50.7489416361
50.7324794054
50.7324794054
50.2838836193
50.699554944
50.2838836193
50.2674213886
50.3168080807
50.3209236383
50.2838836193
50.30034585
50.30034585
50.3044614077
50.6789771557
50.699554944
50.3209236383
50.699554944
50.7324794054
50.6954393864
50.7160171747
50.30034585
50.337385869
50.3168080807
50.6830927134
50.3332703114
50.2509591579
50.2838836193
50.2674213886
50.3332703114
50.699554944
50.30034585
50.30034585
50.2674213886
50.2838836193
50.3168080807
50.7695194244
50.2838836193
50.3209236383
50.3044614077
50.2838836193
50.3168080807
50.2838836193
50.3332703114
50.3209236383
50.7489416361
50.6954393864
50.699554944
50.7119016171
50.7530571938
50.337385869
50.3168080807
50.30034585
50.30034585
50.7324794054
50.30034585
50.2838836193
50.263305831
50.3168080807
50.3044614077
50.3209236383
50.6830927134
50.6789771557
50.7160171747
50.3209236383
50.3209236383
50.2838836193
50.30034585
50.3168080807
50.2468436003
50.2674213886

Block: 4
======================================
50.30034585
50.2838836193
50.2509591579
50.2838836193
50.2674213886
50.3209236383
50.3168080807
50.2468436003
50.3168080807
50.2838836193
50.7489416361
50.30034585
50.2674213886
50.30034585
50.30034585
50.3044614077
50.3209236383
50.7324794054
50.7119016171
50.2674213886
50.30034585
50.3168080807
50.2674213886
50.7489416361
50.2674213886
50.7859816551
50.30034585
50.2674213886
50.3209236383
50.30034585
50.30034585
50.7160171747
50.30034585
50.30034585
50.3168080807
50.2838836193
50.2838836193
50.337385869
50.2838836193
50.30034585
50.7160171747
50.30034585
50.30034585
50.3209236383
50.2838836193
50.2674213886
50.3168080807
50.30034585
50.2838836193
50.3168080807
50.2838836193
50.30034585
50.6954393864
50.2838836193
50.30034585
50.2838836193
50.699554944
50.2838836193
50.30034585
50.7489416361
50.2674213886
50.2838836193
50.2674213886
50.30034585
50.7530571938
50.30034585
50.3168080807
50.2838836193
50.7324794054
50.2838836193
50.3332703114
50.2838836193
50.30034585
50.3044614077
50.30034585

Block: 5
======================================
50.2674213886
50.3209236383
50.3044614077
50.2468436003
50.30034585
50.3332703114
50.30034585
50.3332703114
50.30034585
50.349732542
50.3538480997
50.3332703114
50.3209236383
50.263305831
50.2838836193
50.30034585
50.3332703114
50.30034585
50.3168080807
50.3168080807
50.2838836193
50.2838836193
50.30034585
50.30034585
50.337385869
50.3168080807
50.2838836193
50.3209236383
50.7489416361
50.30034585
50.3168080807
50.2674213886
50.3044614077
50.3168080807
50.2674213886
50.2674213886
50.2674213886
50.3209236383
50.3168080807
50.30034585
50.2674213886
50.2674213886
50.3044614077
50.30034585
50.30034585
50.30034585
50.3168080807
50.3044614077
50.263305831
50.3332703114
50.2838836193
50.3044614077
50.2838836193
50.263305831
50.30034585
50.2838836193
50.3209236383
50.263305831
50.3168080807
50.30034585
50.3044614077
50.2838836193
50.3044614077
50.3168080807
50.6830927134
50.3044614077
50.3044614077
50.2838836193
50.3209236383
50.30034585
50.3168080807
50.2674213886
50.7160171747
50.3209236383
50.2509591579

Block: 6
======================================
50.7530571938
50.2838836193
50.3209236383
50.2838836193
50.699554944
50.30034585
50.3168080807
50.7489416361
50.3209236383
50.30034585
50.30034585
50.337385869
50.3044614077
50.3209236383
50.2838836193
50.699554944
50.2674213886
50.2674213886
50.2838836193
50.30034585
50.30034585
50.263305831
50.6789771557
50.2838836193
50.3332703114
50.7489416361
50.30034585
50.30034585
50.30034585
50.3209236383
50.2674213886
50.30034585
50.7859816551
50.3044614077
50.7489416361
50.2838836193
50.30034585
50.7695194244
50.2838836193
50.699554944
50.3044614077
50.7489416361
50.2674213886
50.30034585
50.7160171747
50.2838836193
50.7654038668
50.2674213886
50.2838836193
50.2468436003
51.024684
50.699554944
50.30034585
50.3538480997
50.7119016171
50.349732542
50.30034585
50.3332703114
50.7489416361
50.7324794054
50.699554944
50.7654038668
50.337385869
50.3168080807
50.7324794054
50.7654038668
50.7489416361
50.7859816551
50.30034585
50.3168080807
50.2838836193
50.7160171747
50.349732542
50.7695194244
50.6954393864

Block: 7
======================================
50.2674213886
50.3168080807
50.3332703114
50.2838836193
50.3044614077
50.30034585
50.30034585
50.3168080807
50.7324794054
50.337385869
50.2674213886
50.3168080807
50.2838836193
50.337385869
50.3044614077
50.2838836193
50.3209236383
50.3209236383
50.3168080807
50.7160171747
50.7654038668
50.3209236383
50.7324794054
50.30034585
50.3168080807
50.3209236383
50.3332703114
50.3044614077
50.3044614077
50.2838836193
50.3209236383
50.3168080807
50.7324794054
50.2838836193
50.3168080807
50.337385869
50.2674213886
50.3332703114
50.30034585
50.30034585
50.3332703114
50.3044614077
50.2838836193
50.2674213886
50.6666304827
50.2838836193
50.2838836193
50.30034585
50.3209236383
50.2674213886
50.30034585
50.2838836193
50.30034585
50.30034585
50.30034585
50.3168080807
50.263305831
50.2838836193
50.7695194244
50.3168080807
50.3209236383
50.30034585
50.30034585
50.30034585
50.3209236383
50.3209236383
50.3332703114
50.2838836193
50.30034585
50.2838836193
50.2674213886
50.2838836193
50.3168080807
50.3332703114
50.3332703114

Block: 8
======================================
51.0781862497
50.30034585
50.337385869
50.2838836193
50.30034585
50.3044614077
50.7489416361
50.30034585
50.337385869
50.2838836193
50.3332703114
50.30034585
50.2838836193
50.7160171747
50.2838836193
50.30034585
50.30034585
50.2468436003
50.3209236383
50.3332703114
50.30034585
50.6954393864
50.30034585
50.7695194244
50.7324794054
50.30034585
50.2838836193
50.6954393864
50.30034585
50.6789771557
50.7160171747
50.7489416361
50.7489416361
50.3332703114
50.7160171747
50.6954393864
50.3209236383
50.2838836193
50.6789771557
50.7489416361
50.3332703114
50.699554944
50.7160171747
50.3538480997
50.7324794054
50.3168080807
50.7654038668
50.3168080807
50.337385869
50.30034585
50.3168080807
50.2838836193
50.30034585
50.3168080807
50.30034585
50.7530571938
50.7119016171
50.7489416361
50.7324794054
50.3209236383
50.7695194244
50.2838836193
50.7324794054
50.3209236383
50.6830927134
50.3168080807
50.349732542
50.7324794054
50.30034585
50.30034585
50.7489416361
50.30034585
50.3332703114
50.7160171747
50.7160171747

Block: 9
======================================
50.7324794054
50.6954393864
50.7160171747
50.7654038668
50.3538480997
50.7324794054
50.30034585
50.7489416361
50.7859816551
50.7119016171
50.2838836193
50.3168080807
50.6666304827
50.7654038668
50.2509591579
50.2674213886
50.2838836193
50.7695194244
50.699554944
50.3168080807
50.3209236383
50.3332703114
50.7324794054
50.3044614077
50.6789771557
50.3209236383
50.7160171747
50.7160171747
50.30034585
50.2838836193
50.7489416361
50.662514925
50.7119016171
50.2838836193
50.7654038668
50.7160171747
50.7695194244
50.7695194244
50.7489416361
50.7489416361
50.7160171747
50.3044614077
50.3538480997
50.662514925
50.7324794054
50.3332703114
50.3538480997
50.3209236383
50.3168080807
50.3332703114
50.3168080807
50.2838836193
50.3538480997
50.3209236383
50.2838836193
50.7160171747
50.3209236383
50.30034585
50.3168080807
50.3044614077
50.2838836193
50.3332703114
50.7695194244
50.30034585
50.3209236383
50.2838836193
50.3209236383
50.7695194244
50.3209236383
50.699554944
50.2674213886
50.699554944
50.7119016171
50.6954393864
50.3168080807

Block: 10
======================================
50.3538480997
50.3168080807
50.7324794054
50.2838836193
50.30034585
50.3168080807
50.3332703114
50.3209236383
50.699554944
50.2838836193
50.7324794054
50.3168080807
50.7530571938
50.7859816551
50.30034585
50.2838836193
50.337385869
50.7489416361
50.2838836193
50.699554944
50.3209236383
50.7324794054
50.7818660975
50.2509591579
50.337385869
50.7489416361
50.7324794054
50.337385869
50.3209236383
50.2838836193
50.3209236383
50.6789771557
50.337385869
50.6954393864
50.7489416361
50.3209236383
50.3168080807
50.30034585
50.3168080807
50.699554944
50.7530571938
50.3538480997
50.3209236383
50.30034585
50.7489416361
50.2838836193
50.3044614077
50.349732542
50.699554944
50.2838836193
50.3209236383
50.3332703114
50.7489416361
50.7818660975
50.7324794054
50.30034585
50.30034585
50.7654038668
50.7489416361
50.2838836193
50.7489416361
50.7324794054
50.30034585
50.30034585
50.3168080807
50.3168080807
50.3332703114
50.7489416361
50.2509591579
50.3209236383
50.7489416361
50.337385869
50.7324794054
50.349732542
50.337385869
