
Block: 1
======================================
201.069597626
201.069597626
200.198144007
200.198144007
200.177782941
200.198144007
200.194071794
200.194071794
201.102175331
200.181855154
200.177782941
200.177782941
200.194071794
200.177782941
200.194071794
200.642015243
200.181855154
200.161494088
200.177782941
200.605365324
200.161494088
200.161494088
200.62572639
200.658304095
200.674592948
200.177782941
200.181855154
200.642015243
201.102175331
200.637943029
200.674592948
200.637943029
201.081814265
200.637943029
200.194071794
200.658304095
200.654231882
200.214432859
200.674592948
200.214432859
200.230721712
200.230721712
199.754272771
201.102175331
200.210360646
200.247010565
200.230721712
200.707170653
200.247010565
200.247010565

Block: 2
======================================
200.690881801
200.247010565
200.247010565
200.690881801
199.770561624
200.690881801
200.707170653
200.230721712
200.690881801
200.674592948
200.214432859
200.230721712
200.674592948
200.230721712
200.210360646
200.226649499
200.247010565
200.247010565
200.230721712
200.674592948
200.247010565
199.782778263
200.230721712
200.230721712
200.247010565
200.230721712
200.267371631
200.210360646
200.723459506
200.674592948
200.674592948
200.247010565
200.210360646
200.230721712
200.247010565
200.214432859
200.230721712
200.263299417
200.251082778
200.707170653
200.247010565
199.803139329
200.654231882
201.134753036
199.786850476
200.230721712
200.707170653
200.247010565
200.263299417
200.658304095

Block: 3
======================================
199.770561624
200.674592948
199.782778263
200.674592948
200.654231882
200.214432859
200.214432859
200.214432859
200.210360646
201.546046567
200.177782941
200.210360646
200.654231882
200.658304095
200.177782941
200.658304095
200.198144007
200.177782941
200.658304095
200.230721712
200.210360646
200.210360646
200.194071794
200.642015243
200.214432859
200.198144007
200.210360646
200.214432859
200.658304095
200.230721712
200.181855154
200.658304095
200.674592948
200.194071794
200.658304095
200.642015243
200.181855154
200.198144007
200.674592948
200.674592948
200.214432859
200.230721712
200.658304095
200.210360646
200.210360646
200.198144007
200.214432859
200.181855154
200.194071794
200.177782941

Block: 4
======================================
200.214432859
200.621654177
201.102175331
200.194071794
200.230721712
200.214432859
200.177782941
200.198144007
200.654231882
200.658304095
200.658304095
200.194071794
200.177782941
200.177782941
200.194071794
201.509396648
200.161494088
200.210360646
200.194071794
200.194071794
200.674592948
200.210360646
200.210360646
200.161494088
200.674592948
200.198144007
200.658304095
200.658304095
200.177782941
200.177782941
200.177782941
200.198144007
200.177782941
200.194071794
200.214432859
200.177782941
200.198144007
200.198144007
200.194071794
200.177782941
200.637943029
200.194071794
200.214432859
200.674592948
200.161494088
200.177782941
200.177782941
200.198144007
200.658304095
200.637943029

Block: 5
======================================
200.230721712
201.085886478
200.642015243
200.658304095
200.230721712
200.194071794
200.194071794
200.637943029
200.658304095
200.181855154
200.637943029
200.642015243
200.642015243
199.76648941
200.654231882
200.177782941
200.194071794
200.198144007
200.161494088
200.210360646
200.177782941
200.194071794
200.210360646
200.214432859
200.198144007
200.177782941
200.161494088
200.161494088
200.194071794
200.210360646
200.177782941
200.194071794
201.065525413
201.085886478
200.637943029
200.674592948
201.04923656
201.04923656
200.161494088
200.177782941
200.674592948
200.194071794
200.161494088
200.194071794
200.177782941
200.177782941
201.04923656
200.214432859
200.181855154
199.750200558

Block: 6
======================================
199.717622852
201.118464184
200.181855154
200.605365324
199.733911705
199.750200558
199.754272771
200.194071794
200.194071794
200.210360646
200.161494088
199.770561624
199.750200558
201.069597626
200.214432859
201.081814265
200.214432859
201.069597626
201.081814265
201.069597626
201.102175331
200.194071794
200.177782941
200.214432859
200.177782941
201.04923656
201.081814265
200.637943029
200.161494088
201.920690179
199.701334
200.214432859
200.658304095
200.210360646
200.177782941
201.118464184
200.177782941
199.733911705
201.085886478
200.621654177
200.637943029
200.161494088
200.621654177
200.609437537
201.069597626
200.198144007
201.069597626
200.642015243
200.177782941
200.194071794

Block: 7
======================================
201.098103118
201.069597626
200.198144007
200.62572639
200.161494088
200.194071794
200.181855154
201.546046567
200.194071794
201.069597626
200.194071794
201.04923656
201.04923656
200.214432859
200.194071794
200.210360646
200.210360646
200.621654177
200.198144007
201.102175331
199.717622852
200.401754665
201.085886478
200.654231882
200.230721712
200.161494088
199.750200558
201.085886478
201.065525413
200.690881801
201.098103118
201.04923656
201.065525413
201.069597626
200.194071794
201.098103118
201.065525413
201.102175331
201.04923656
201.081814265
200.194071794
201.069597626
200.161494088
200.62572639
200.621654177
201.065525413
200.194071794
201.04923656
201.053308773
201.085886478

Block: 8
======================================
201.04923656
200.194071794
200.12484417
200.605365324
201.069597626
201.04923656
200.621654177
200.621654177
200.605365324
200.161494088
200.621654177
200.161494088
201.069597626
200.605365324
200.128916383
200.145205235
200.161494088
200.589076471
200.161494088
200.177782941
200.605365324
201.085886478
200.609437537
200.609437537
200.62572639
200.605365324
200.194071794
201.081814265
201.065525413
200.62572639
201.085886478
201.04923656
200.177782941
200.210360646
201.085886478
200.198144007
201.065525413
200.161494088
200.177782941
201.525685501
200.194071794
201.04923656
200.642015243
200.198144007
201.081814265
200.776398277
201.081814265
200.621654177
200.637943029
200.621654177

Block: 9
======================================
200.674592948
200.145205235
200.194071794
200.165566301
200.198144007
200.674592948
200.177782941
200.198144007
200.177782941
200.658304095
200.177782941
200.214432859
200.674592948
200.177782941
200.161494088
200.161494088
200.194071794
200.161494088
200.214432859
200.161494088
200.198144007
200.214432859
200.214432859
200.161494088
200.194071794
200.194071794
200.214432859
200.181855154
200.177782941
200.214432859
200.177782941
200.181855154
200.214432859
200.177782941
200.214432859
200.214432859
200.658304095
201.069597626
201.065525413
200.674592948
201.102175331
201.04923656
200.198144007
200.637943029
201.069597626
200.642015243
201.069597626
200.177782941
200.177782941
200.605365324

Block: 10
======================================
200.642015243
200.177782941
201.069597626
201.04923656
201.065525413
201.065525413
200.177782941
201.081814265
201.04923656
201.085886478
200.145205235
200.605365324
201.04923656
200.605365324
201.065525413
201.065525413
200.145205235
200.181855154
200.605365324
200.605365324
201.081814265
200.181855154
201.04923656
201.065525413
201.069597626
201.085886478
201.053308773
201.069597626
200.605365324
200.181855154
200.621654177
200.62572639
200.161494088
200.621654177
200.621654177
201.085886478
200.161494088
200.609437537
200.605365324
200.589076471
201.085886478
200.214432859
201.065525413
200.161494088
200.605365324
201.085886478
200.198144007
200.621654177
201.081814265
201.081814265
