
Block: 1
======================================
201.04923656
201.085886478
199.754272771
201.085886478
201.085886478
200.658304095
200.658304095
200.642015243
200.198144007
200.194071794

Block: 2
======================================
200.674592948
200.177782941
200.145205235
200.62572639
200.161494088
200.198144007
200.194071794
200.161494088
200.658304095
200.181855154

Block: 3
======================================
200.161494088
200.658304095
200.177782941
200.181855154
201.098103118
200.161494088
200.198144007
200.194071794
201.04923656
200.181855154

Block: 4
======================================
200.621654177
200.62572639
199.733911705
201.085886478
199.701334
199.717622852
201.085886478
199.717622852
201.081814265
200.605365324

Block: 5
======================================
200.642015243
200.658304095
200.621654177
200.609437537
200.589076471
200.145205235
200.62572639
200.585004258
200.605365324
200.589076471

Block: 6
======================================
201.065525413
201.065525413
201.04923656
200.605365324
200.589076471
200.605365324
200.605365324
200.128916383
200.605365324
200.568715405

Block: 7
======================================
201.065525413
200.572787619
200.145205235
200.658304095
200.177782941
200.609437537
200.589076471
201.065525413
200.12484417
200.621654177

Block: 8
======================================
200.210360646
201.065525413
200.589076471
200.605365324
201.053308773
200.605365324
200.605365324
201.069597626
200.621654177
200.605365324

Block: 9
======================================
200.674592948
200.210360646
201.04923656
200.605365324
200.62572639
200.12484417
199.750200558
201.065525413
200.181855154
199.701334

Block: 10
======================================
200.62572639
200.194071794
200.181855154
200.589076471
200.181855154
201.102175331
199.717622852
201.069597626
201.065525413
200.605365324
