
Block: 1
======================================
200.145205235
201.04923656
200.145205235
200.161494088
200.161494088
201.085886478
200.605365324
200.177782941
201.04923656
200.145205235
200.62572639
200.621654177
200.621654177
200.589076471
200.589076471
200.589076471
200.609437537
200.589076471
200.161494088
200.161494088
200.621654177
200.177782941
200.62572639
200.161494088
200.605365324
200.589076471
200.605365324
200.589076471
201.102175331
200.141133022
200.145205235
200.605365324
200.141133022
200.62572639
200.128916383
200.165566301
200.198144007
200.177782941
200.145205235
200.605365324
200.161494088
201.04923656
201.085886478
200.878203607
200.605365324
201.069597626
200.605365324
200.141133022
200.621654177
200.161494088
200.605365324
200.605365324
201.065525413
200.605365324
201.069597626
201.081814265
200.605365324
200.605365324
201.085886478
200.605365324
200.605365324
200.145205235
201.081814265
200.161494088
200.589076471
200.145205235
200.605365324
200.589076471
200.589076471
200.589076471
200.568715405
200.621654177
200.62572639
200.128916383
200.194071794

Average distance is : 200.528 cm
Average deviation is : 0.318 cm
Block: 2
======================================
200.177782941
201.065525413
200.572787619
200.605365324
201.085886478
201.065525413
200.214432859
201.04923656
201.065525413
201.065525413
201.053308773
200.161494088
201.032947707
200.214432859
200.214432859
200.194071794
200.194071794
199.717622852
200.177782941
201.085886478
200.642015243
200.62572639
200.605365324
200.621654177
200.589076471
201.085886478
200.605365324
200.621654177
200.605365324
201.04923656
201.04923656
200.177782941
200.621654177
200.161494088
200.194071794
201.069597626
200.62572639
200.621654177
200.128916383
200.605365324
200.621654177
201.085886478
200.621654177
200.621654177
200.165566301
200.609437537
200.621654177
200.621654177
201.085886478
200.621654177
201.085886478
201.069597626
201.04923656
201.069597626
200.177782941
201.085886478
201.081814265
200.194071794
200.198144007
200.161494088
200.198144007
200.194071794
200.194071794
200.198144007
200.177782941
200.177782941
200.161494088
201.065525413
201.04923656
201.065525413
200.194071794
201.081814265
201.04923656
200.177782941
200.658304095

Average distance is : 200.611 cm
Average deviation is : 0.385 cm
Block: 3
======================================
201.04923656
200.674592948
201.032947707
200.198144007
201.069597626
200.621654177
200.62572639
200.637943029
200.198144007
200.658304095
200.177782941
200.194071794
200.161494088
201.081814265
200.605365324
200.194071794
200.198144007
201.065525413
201.085886478
200.214432859
200.161494088
200.161494088
200.605365324
200.145205235
200.637943029
200.161494088
200.181855154
200.177782941
200.194071794
200.589076471
200.621654177
200.621654177
200.161494088
200.605365324
200.177782941
201.065525413
201.085886478
201.065525413
201.069597626
201.065525413
200.194071794
200.177782941
200.177782941
200.177782941
201.102175331
200.637943029
200.214432859
200.177782941
201.069597626
200.177782941
200.214432859
200.194071794
200.177782941
200.214432859
200.194071794
200.177782941
200.214432859
200.177782941
200.198144007
201.529757714
200.62572639
200.194071794
200.161494088
200.161494088
201.102175331
200.194071794
200.674592948
200.181855154
200.214432859
201.085886478
200.198144007
201.085886478
200.621654177
201.065525413
200.62572639

Average distance is : 200.505 cm
Average deviation is : 0.384 cm
Block: 4
======================================
201.081814265
200.177782941
201.102175331
200.658304095
200.642015243
200.621654177
201.098103118
200.637943029
200.181855154
201.102175331
201.102175331
200.210360646
200.585004258
200.605365324
201.081814265
200.161494088
201.065525413
200.605365324
200.62572639
201.102175331
200.605365324
200.177782941
200.181855154
200.145205235
200.605365324
200.145205235
200.161494088
200.177782941
200.637943029
200.161494088
200.609437537
200.177782941
200.161494088
200.177782941
200.145205235
200.161494088
200.145205235
200.62572639
200.177782941
200.145205235
200.62572639
201.513468862
200.621654177
200.145205235
200.145205235
200.12484417
200.145205235
200.161494088
200.128916383
200.161494088
200.145205235
200.605365324
200.605365324
200.145205235
201.04923656
200.605365324
200.605365324
200.161494088
200.589076471
200.145205235
200.145205235
200.589076471
200.609437537
200.145205235
200.181855154
200.128916383
200.161494088
200.161494088
201.04923656
200.605365324
200.161494088
200.589076471
200.181855154
200.161494088
200.161494088

Average distance is : 200.446 cm
Average deviation is : 0.352 cm
Block: 5
======================================
200.161494088
200.128916383
200.194071794
200.181855154
200.145205235
200.12484417
200.145205235
200.12484417
201.032947707
200.128916383
200.161494088
200.108555317
200.161494088
200.605365324
200.12484417
200.161494088
201.04923656
200.128916383
200.11262753
201.065525413
200.092266464
200.161494088
200.161494088
201.053308773
200.128916383
201.032947707
200.177782941
201.032947707
201.065525413
200.177782941
201.032947707
200.568715405
200.161494088
200.605365324
201.032947707
201.04923656
200.145205235
201.032947707
201.04923656
201.012586641
200.145205235
200.145205235
200.161494088
200.161494088
200.62572639
200.128916383
200.621654177
200.128916383
200.145205235
200.161494088
200.128916383
200.161494088
201.032947707
201.04923656
200.161494088
200.161494088
200.128916383
200.161494088
201.016658854
200.145205235
200.145205235
200.161494088
200.637943029
200.161494088
200.145205235
200.145205235
200.145205235
200.589076471
200.621654177
200.658304095
200.161494088
200.181855154
201.065525413
200.621654177
200.605365324

Average distance is : 200.419 cm
Average deviation is : 0.376 cm
Block: 6
======================================
201.102175331
200.621654177
201.069597626
200.605365324
200.128916383
200.62572639
200.161494088
201.085886478
200.605365324
201.065525413
200.62572639
200.621654177
200.161494088
200.177782941
200.637943029
201.04923656
200.210360646
200.128916383
201.081814265
200.605365324
200.637943029
200.145205235
201.069597626
201.085886478
200.605365324
200.605365324
199.733911705
201.085886478
200.210360646
200.198144007
200.214432859
200.177782941
201.085886478
200.621654177
200.605365324
201.081814265
201.065525413
200.621654177
200.214432859
200.194071794
200.210360646
200.198144007
200.177782941
200.194071794
200.198144007
200.177782941
200.181855154
201.085886478
200.230721712
201.085886478
200.177782941
201.081814265
200.214432859
200.177782941
200.194071794
200.198144007
201.081814265
200.177782941
200.198144007
201.118464184
201.081814265
200.658304095
201.081814265
201.065525413
201.085886478
200.177782941
200.621654177
201.085886478
201.098103118
201.069597626
201.065525413
200.605365324
199.750200558
200.62572639
200.605365324

Average distance is : 200.582 cm
Average deviation is : 0.406 cm
Block: 7
======================================
200.214432859
201.04923656
201.102175331
201.098103118
201.085886478
201.085886478
200.177782941
200.194071794
200.654231882
200.621654177
200.181855154
200.621654177
201.065525413
200.621654177
200.609437537
200.637943029
200.637943029
200.145205235
201.069597626
200.658304095
201.085886478
200.214432859
200.605365324
199.750200558
199.733911705
200.637943029
200.654231882
201.069597626
201.085886478
199.750200558
201.065525413
200.214432859
200.605365324
201.065525413
200.674592948
200.210360646
200.177782941
200.637943029
201.065525413
200.605365324
201.081814265
201.069597626
200.62572639
201.065525413
200.177782941
200.181855154
200.161494088
200.621654177
200.161494088
199.717622852
200.181855154
200.642015243
200.637943029
200.621654177
201.065525413
200.605365324
200.145205235
200.621654177
200.145205235
200.637943029
200.605365324
200.621654177
200.605365324
200.62572639
200.145205235
200.642015243
201.081814265
200.62572639
200.621654177
200.605365324
200.161494088
201.118464184
200.145205235
200.145205235
200.177782941

Average distance is : 200.567 cm
Average deviation is : 0.387 cm
Block: 8
======================================
200.194071794
200.609437537
200.210360646
199.733911705
200.177782941
200.177782941
200.214432859
201.081814265
200.674592948
201.081814265
201.102175331
201.085886478
200.214432859
200.177782941
201.085886478
200.181855154
200.198144007
200.198144007
200.230721712
200.210360646
200.214432859
200.194071794
200.637943029
200.194071794
201.085886478
200.214432859
200.214432859
201.081814265
200.194071794
200.214432859
200.62572639
200.621654177
200.194071794
201.081814265
200.214432859
199.733911705
201.065525413
201.065525413
200.621654177
201.04923656
200.609437537
201.065525413
200.605365324
200.177782941
200.161494088
200.181855154
200.621654177
200.194071794
200.605365324
201.081814265
200.145205235
200.177782941
200.128916383
201.065525413
200.605365324
200.637943029
200.210360646
200.605365324
201.065525413
201.069597626
200.194071794
200.181855154
201.085886478
201.065525413
200.177782941
201.081814265
200.177782941
200.194071794
200.194071794
200.198144007
200.214432859
201.085886478
200.177782941
200.177782941
201.04923656

Average distance is : 200.502 cm
Average deviation is : 0.403 cm
Block: 9
======================================
200.194071794
201.065525413
200.637943029
200.194071794
200.674592948
201.081814265
200.161494088
200.214432859
201.065525413
201.04923656
201.065525413
200.198144007
200.181855154
200.198144007
200.177782941
200.177782941
200.674592948
201.085886478
200.621654177
201.081814265
200.62572639
200.605365324
200.658304095
200.605365324
201.085886478
200.621654177
200.637943029
200.621654177
200.621654177
201.065525413
201.407591319
200.145205235
200.161494088
200.161494088
200.181855154
200.145205235
201.085886478
200.605365324
200.637943029
200.198144007
200.605365324
200.605365324
200.621654177
201.053308773
200.605365324
201.069597626
200.177782941
200.214432859
200.210360646
200.637943029
200.210360646
201.081814265
200.12484417
201.102175331
200.194071794
201.065525413
200.637943029
200.642015243
201.04923656
200.642015243
200.161494088
200.194071794
200.210360646
200.605365324
200.177782941
201.065525413
200.214432859
201.069597626
201.065525413
201.069597626
201.069597626
200.198144007
201.081814265
200.194071794
200.161494088

Average distance is : 200.597 cm
Average deviation is : 0.379 cm
Block: 10
======================================
200.177782941
200.214432859
200.247010565
201.085886478
200.642015243
200.214432859
199.754272771
200.177782941
200.194071794
201.098103118
200.198144007
200.210360646
201.065525413
200.194071794
200.214432859
200.210360646
199.717622852
200.198144007
200.194071794
200.177782941
200.177782941
200.181855154
200.214432859
199.76648941
201.081814265
199.717622852
200.621654177
201.081814265
201.098103118
201.085886478
200.194071794
201.085886478
200.621654177
201.069597626
199.754272771
199.754272771
199.733911705
201.102175331
200.605365324
199.737983918
201.081814265
201.081814265
199.737983918
200.198144007
199.754272771
200.621654177
200.621654177
200.62572639
201.085886478
201.081814265
200.177782941
200.194071794
200.589076471
201.085886478
200.247010565
201.065525413
200.161494088
200.145205235
200.637943029
200.161494088
200.145205235
200.161494088
200.621654177
200.637943029
200.605365324
200.605365324
200.605365324
200.12484417
200.605365324
200.141133022
200.161494088
200.642015243
201.085886478
200.141133022
200.145205235

Average distance is : 200.422 cm
Average deviation is : 0.443 cm