
Block: 1
======================================
300.495264316
300.495264316
300.935985851
300.935985851
300.479091048
300.495264316
300.495264316
300.968332386
300.935985851
300.495264316

Block: 2
======================================
301.392880654
300.462917781
300.935985851
300.968332386
300.495264316
302.258150458
300.491220999
300.511437583
300.479091048
301.83360219

Block: 3
======================================
300.956202435
300.935985851
300.495264316
301.376707387
300.511437583
300.491220999
300.935985851
300.495264316
300.935985851
301.376707387

Block: 4
======================================
300.935985851
300.956202435
300.475047731
300.935985851
300.952159119
301.392880654
301.396923971
301.396923971
301.37266407
303.087030411

Block: 5
======================================
302.221760607
301.356490803
300.475047731
300.952159119
300.479091048
300.52761085
300.935985851
300.919812584
302.225803924
300.511437583

Block: 6
======================================
300.952159119
300.52761085
301.376707387
301.376707387
300.935985851
301.785082388
301.392880654
300.479091048
300.968332386
301.392880654

Block: 7
======================================
301.392880654
301.36053412
301.376707387
300.511437583
301.392880654
300.479091048
300.915769267
302.630135608
300.511437583
300.475047731

Block: 8
======================================
301.36053412
300.903639317
300.919812584
300.479091048
300.915769267
300.935985851
301.785082388
301.764865804
301.376707387
300.952159119

Block: 9
======================================
300.935985851
300.458874464
302.209630656
300.479091048
300.919812584
300.458874464
301.356490803
300.935985851
301.797212338
301.344360852

Block: 10
======================================
300.935985851
300.935985851
300.458874464
300.495264316
301.801255655
300.495264316
302.209630656
302.225803924
303.070857143
301.785082388
