
Block: 1
======================================
401.501362324
402.41515193
401.080857372
400.652265787
401.080857372
401.533708858
401.533708858
401.080857372
400.652265787
401.533708858
400.656309104
400.672482371
400.215587568
402.403021979
400.231760836
402.823526931
400.672482371
400.672482371
401.092987323
400.652265787
400.672482371
400.215587568
401.092987323
401.537752175
401.113203907
400.688655639
400.656309104
401.129377174
401.10916059
401.092987323
401.10916059
400.656309104
401.113203907
400.656309104
400.231760836
400.63609252
401.10916059
401.09703064
400.231760836
400.640135837
400.211544251
401.533708858
400.672482371
400.231760836
400.231760836
401.978473711
400.211544251
400.684612322
400.227717519
400.227717519

Average distance is : 400.923 cm
Average deviation is : 0.610 cm
Block: 2
======================================
400.26410737
401.181940293
401.181940293
400.284323955
400.72504549
400.26410737
401.602445245
399.839559102
401.198113561
399.875948954
401.198113561
399.859775686
399.855732369
400.757392025
401.214286828
399.855732369
400.296453905
400.296453905
399.871905637
399.839559102
399.875948954
400.753348708
400.296453905
400.316670489
400.316670489
399.855732369
399.875948954
399.875948954
399.871905637
399.892122221
399.871905637
400.332843757
399.871905637
400.332843757
401.194070244
401.214286828
400.296453905
399.855732369
400.753348708
400.349017024
400.32880044
400.773565292
400.332843757
401.198113561
400.316670489
401.214286828
401.230460095
400.332843757
399.871905637
400.316670489

Average distance is : 400.408 cm
Average deviation is : 0.525 cm
Block: 3
======================================
400.332843757
400.78973856
400.78973856
400.773565292
400.809955144
400.349017024
400.349017024
400.773565292
400.332843757
400.78973856
400.32880044
400.32880044
399.855732369
400.32880044
400.296453905
401.210243511
400.312627172
400.312627172
400.316670489
400.332843757
400.757392025
401.181940293
400.737175441
400.316670489
400.300497222
400.280280638
400.769521976
400.296453905
400.737175441
400.280280638
400.280280638
400.312627172
400.300497222
400.300497222
400.704828906
401.161723709
400.741218758
400.757392025
400.296453905
400.296453905
400.704828906
400.737175441
400.721002173
400.737175441
400.72504549
401.181940293
401.161723709
400.284323955
400.704828906
400.296453905

Average distance is : 400.556 cm
Average deviation is : 0.309 cm
Block: 4
======================================
400.741218758
401.129377174
400.684612322
401.129377174
401.145550442
400.688655639
400.721002173
400.688655639
400.227717519
401.586271977
400.704828906
401.113203907
400.704828906
401.57009871
400.721002173
401.129377174
401.145550442
402.87609005
401.145550442
400.991904402
402.41515193
401.129377174
400.656309104
400.688655639
401.113203907
401.145550442
402.451541781
400.688655639
401.129377174
401.145550442
401.602445245
400.684612322
401.145550442
400.688655639
402.451541781
400.672482371
401.602445245
400.243890786
401.161723709
400.704828906
401.57009871
401.602445245
402.03103683
402.451541781
400.688655639
401.129377174
400.684612322
400.721002173
401.586271977
400.26410737

Average distance is : 401.142 cm
Average deviation is : 0.606 cm
Block: 5
======================================
401.606488562
400.704828906
402.059340048
401.602445245
402.451541781
400.704828906
400.688655639
401.177896976
401.622661829
401.165767026
400.721002173
400.72504549
401.161723709
401.63479178
400.737175441
400.704828906
400.757392025
400.753348708
401.230460095
401.214286828
400.78973856
400.737175441
400.741218758
400.78973856
400.32880044
400.316670489
402.520278168
401.198113561
400.757392025
400.312627172
400.753348708
400.300497222
400.769521976
401.198113561
400.741218758
401.198113561
401.246633363
401.198113561
400.312627172
78.0966647863
227.060543847
401.181940293
400.316670489
400.753348708
401.198113561
400.741218758
400.757392025
400.753348708
401.198113561
401.181940293

Average distance is : 391.057 cm
Average deviation is : 51.427 cm
Block: 6
======================================
401.622661829
400.316670489
400.753348708
401.181940293
401.198113561
402.467715049
401.165767026
400.741218758
400.753348708
401.181940293
400.757392025
401.194070244
400.741218758
401.198113561
400.721002173
401.602445245
401.622661829
401.145550442
400.741218758
401.161723709
401.145550442
401.602445245
400.704828906
400.688655639
401.57009871
400.721002173
400.284323955
400.247934103
401.129377174
400.704828906
401.129377174
401.161723709
400.231760836
400.243890786
400.684612322
400.688655639
400.688655639
401.145550442
401.113203907
401.113203907
400.688655639
400.231760836
400.231760836
400.247934103
400.247934103
400.26410737
400.26410737
400.247934103
400.247934103
400.211544251

Average distance is : 400.843 cm
Average deviation is : 0.499 cm
Block: 7
======================================
400.737175441
399.839559102
400.26410737
399.839559102
399.839559102
399.839559102
400.284323955
400.753348708
399.855732369
400.296453905
399.839559102
399.859775686
399.859775686
400.753348708
399.871905637
399.888078904
400.32880044
399.892122221
399.875948954
399.859775686
399.435227418
399.892122221
399.892122221
400.332843757
400.773565292
399.875948954
399.415010834
400.769521976
400.78973856
399.908295488
399.875948954
400.316670489
399.855732369
399.875948954
399.892122221
399.875948954
399.431184101
399.871905637
399.888078904
399.888078904
399.871905637
399.892122221
400.805911827
399.435227418
399.871905637
399.871905637
400.32880044
400.316670489
399.924468756
400.332843757

Average distance is : 400.042 cm
Average deviation is : 0.371 cm
Block: 8
======================================
399.871905637
399.875948954
399.875948954
400.332843757
400.737175441
399.855732369
399.859775686
400.296453905
400.737175441
400.737175441
400.312627172
400.741218758
400.737175441
400.280280638
399.839559102
400.284323955
400.280280638
400.280280638
400.296453905
400.280280638
399.875948954
400.741218758
400.280280638
399.839559102
400.296453905
400.26410737
399.839559102
400.757392025
400.721002173
400.721002173
400.741218758
400.296453905
400.737175441
399.839559102
399.839559102
399.819342518
400.280280638
399.823385835
399.819342518
400.280280638
400.26410737
399.839559102
399.855732369
400.26410737
399.839559102
400.296453905
399.839559102
399.823385835
399.839559102
400.737175441

Average distance is : 400.218 cm
Average deviation is : 0.353 cm
Block: 9
======================================
400.704828906
401.198113561
400.704828906
400.741218758
400.26410737
400.316670489
401.177896976
401.165767026
401.181940293
401.181940293
401.638835096
400.737175441
400.280280638
401.622661829
400.741218758
400.300497222
401.161723709
400.753348708
400.296453905
402.079556632
400.773565292
400.78973856
401.198113561
400.312627172
400.332843757
400.332843757
400.741218758
401.198113561
401.198113561
401.198113561
401.214286828
401.214286828
401.230460095
400.773565292
400.332843757
400.773565292
400.773565292
401.214286828
400.769521976
400.773565292
401.230460095
400.773565292
400.349017024
400.349017024
401.671181631
400.385406876
401.230460095
401.671181631
401.25067668
400.78973856

Average distance is : 400.902 cm
Average deviation is : 0.442 cm
Block: 10
======================================
400.349017024
400.381363559
401.246633363
399.924468756
399.924468756
399.908295488
401.230460095
400.349017024
399.928512073
400.365190291
400.349017024
400.826128411
400.365190291
400.78973856
399.924468756
400.78973856
399.924468756
399.928512073
399.924468756
401.671181631
400.32880044
400.78973856
399.908295488
400.349017024
400.32880044
400.349017024
400.349017024
400.805911827
400.316670489
399.924468756
400.769521976
400.32880044
400.312627172
401.650965047
400.78973856
401.194070244
400.32880044
400.332843757
400.32880044
400.32880044
401.194070244
400.312627172
400.753348708
402.059340048
400.316670489
401.618618512
400.757392025
401.638835096
402.063383365
401.214286828

Average distance is : 400.597 cm
Average deviation is : 0.586 cm