
Block: 1
======================================
400.688655639
400.26410737
401.586271977
400.26410737
401.57009871
400.247934103
400.672482371
401.145550442
401.129377174
401.129377174
400.688655639
400.704828906
401.129377174
400.231760836
400.688655639
400.231760836
401.145550442
401.129377174
401.145550442
401.129377174
401.129377174
401.10916059
400.231760836
400.247934103
400.688655639

Block: 2
======================================
401.517535591
401.974430394
401.549882126
401.076814055
401.994646978
400.668439054
400.652265787
400.656309104
400.211544251
400.656309104
400.63609252
401.553925443
401.129377174
400.672482371
400.211544251
401.113203907
400.231760836
400.652265787
400.652265787
401.549882126
400.652265787
401.129377174
400.215587568
401.978473711
401.076814055

Block: 3
======================================
400.688655639
400.652265787
400.215587568
400.668439054
401.092987323
401.080857372
400.247934103
400.640135837
400.656309104
401.092987323
400.195370984
400.199414301
400.247934103
401.09703064
401.129377174
401.553925443
400.247934103
400.652265787
401.09703064
400.211544251
400.688655639
401.994646978
400.684612322
400.672482371
400.656309104

Block: 4
======================================
400.280280638
400.247934103
400.721002173
400.26410737
400.26410737
400.280280638
400.26410737
400.704828906
400.284323955
400.721002173
401.161723709
400.260064054
400.704828906
401.161723709
400.721002173
399.823385835
400.26410737
400.247934103
399.855732369
400.721002173
399.80316925
400.280280638
401.181940293
401.177896976
399.819342518

Block: 5
======================================
400.741218758
401.165767026
401.181940293
400.704828906
401.622661829
401.622661829
401.214286828
400.737175441
400.737175441
401.214286828
401.145550442
400.737175441
402.500061584
400.741218758
401.161723709
400.721002173
401.602445245
401.210243511
401.161723709
400.300497222
401.161723709
400.300497222
400.737175441
400.316670489
400.296453905

Block: 6
======================================
400.26410737
401.590315294
400.231760836
400.280280638
401.145550442
401.145550442
402.010820246
401.586271977
401.129377174
401.145550442
400.26410737
400.721002173
400.247934103
401.145550442
400.688655639
399.823385835
399.7910393
400.26410737
400.284323955
400.280280638
399.855732369
400.721002173
399.875948954
399.382664299
400.316670489

Block: 7
======================================
399.892122221
399.447357368
399.415010834
400.809955144
400.349017024
399.908295488
399.892122221
399.431184101
399.447357368
400.773565292
399.892122221
400.369233608
399.431184101
399.487790537
399.447357368
399.447357368
399.888078904
399.892122221
400.773565292
399.924468756
401.214286828
399.908295488
399.467573953
399.888078904
399.431184101

Block: 8
======================================
400.349017024
399.908295488
399.435227418
399.875948954
399.435227418
400.332843757
399.908295488
400.773565292
399.892122221
399.888078904
399.908295488
399.855732369
399.871905637
399.855732369
399.875948954
400.332843757
399.415010834
400.316670489
400.316670489
399.855732369
400.741218758
399.855732369
400.296453905
399.892122221
399.419054151

Block: 9
======================================
399.823385835
399.823385835
400.704828906
400.280280638
401.161723709
399.823385835
399.807212567
400.247934103
400.247934103
400.247934103
400.247934103
399.819342518
400.688655639
400.280280638
399.823385835
401.145550442
400.296453905
400.684612322
399.807212567
400.672482371
400.231760836
400.231760836
401.129377174
401.113203907
401.129377174

Block: 10
======================================
400.211544251
401.113203907
400.243890786
400.227717519
400.215587568
400.195370984
401.129377174
400.211544251
400.195370984
400.231760836
401.553925443
401.09703064
401.145550442
400.672482371
401.076814055
400.652265787
402.419195247
400.63609252
401.076814055
402.386848712
401.092987323
400.63609252
401.537752175
402.823526931
400.652265787
