
Block: 1
======================================
50.2674213886
50.30034585
50.2509591579
50.3332703114
50.2674213886
50.2838836193
50.699554944
50.7160171747
50.7324794054
50.7489416361
50.7160171747
50.2838836193
50.2509591579
50.30034585
50.6666304827
50.2838836193
50.30034585
50.699554944
50.3209236383
50.2838836193
50.6954393864
50.2838836193
50.30034585
50.2674213886
50.7160171747

Average distance is : 50.439 cm
Average deviation is : 0.209 cm
Block: 2
======================================
50.7160171747
50.3332703114
50.263305831
50.30034585
50.2838836193
50.3209236383
50.7489416361
50.662514925
50.3168080807
50.30034585
50.7324794054
50.7695194244
50.7324794054
50.263305831
50.7365949631
50.2674213886
50.6830927134
50.7160171747
50.2674213886
50.7160171747
50.30034585
50.30034585
50.2674213886
50.6830927134
50.2838836193

Average distance is : 50.479 cm
Average deviation is : 0.218 cm
Block: 3
======================================
50.2674213886
50.30034585
50.6666304827
50.2674213886
50.30034585
50.2674213886
50.7654038668
50.3209236383
50.2674213886
50.7160171747
50.3538480997
50.30034585
50.7695194244
50.2838836193
50.3209236383
50.30034585
50.2838836193
50.30034585
50.3168080807
50.263305831
50.263305831
50.263305831
50.7160171747
50.7324794054
50.6460526943

Average distance is : 50.410 cm
Average deviation is : 0.197 cm
Block: 4
======================================
50.7160171747
50.7324794054
50.2838836193
50.7324794054
50.2838836193
50.2838836193
50.30034585
50.337385869
50.699554944
50.7489416361
50.699554944
50.30034585
50.3209236383
50.3168080807
50.7324794054
50.30034585
50.2838836193
50.2838836193
50.6789771557
50.3168080807
50.3209236383
50.2674213886
50.3168080807
50.7489416361
50.7160171747

Average distance is : 50.469 cm
Average deviation is : 0.211 cm
Block: 5
======================================
50.6830927134
50.7324794054
50.7489416361
50.337385869
50.7489416361
50.7160171747
50.6954393864
50.6954393864
50.7324794054
50.7489416361
50.2838836193
50.3168080807
50.6830927134
50.699554944
50.30034585
50.7160171747
50.30034585
50.3332703114
50.6830927134
50.3209236383
50.7324794054
50.7324794054
50.2674213886
50.3332703114
50.7160171747

Average distance is : 50.570 cm
Average deviation is : 0.200 cm
Block: 6
======================================
50.30034585
50.2838836193
50.3209236383
50.2674213886
50.7160171747
50.699554944
50.2838836193
50.7324794054
50.30034585
50.6789771557
50.2838836193
50.7160171747
50.2509591579
50.7324794054
50.699554944
50.2838836193
50.699554944
50.3168080807
50.7324794054
50.7324794054
50.2838836193
50.30034585
50.7654038668
50.6789771557
50.7324794054

Average distance is : 50.512 cm
Average deviation is : 0.219 cm
Block: 7
======================================
50.2674213886
50.30034585
50.30034585
50.2838836193
50.2838836193
50.337385869
50.2838836193
50.7489416361
50.2674213886
50.7324794054
50.7695194244
50.30034585
50.30034585
50.7489416361
50.30034585
50.30034585
50.30034585
50.30034585
50.337385869
50.6830927134
50.3332703114
50.7489416361
50.2838836193
50.6954393864
50.2674213886

Average distance is : 50.419 cm
Average deviation is : 0.201 cm
Block: 8
======================================
50.2838836193
50.2838836193
50.3209236383
50.30034585
50.7160171747
50.30034585
50.2838836193
50.3867725611
50.30034585
50.699554944
50.30034585
50.3209236383
50.2838836193
50.3168080807
50.3209236383
50.2838836193
50.7489416361
50.7324794054
50.2674213886
50.7365949631
50.3044614077
50.30034585
50.7160171747
50.7324794054
50.7324794054

Average distance is : 50.439 cm
Average deviation is : 0.203 cm
Block: 9
======================================
50.3209236383
50.6954393864
50.2838836193
50.7119016171
50.30034585
50.30034585
50.3044614077
50.7654038668
50.337385869
50.30034585
50.7489416361
50.5431637526
50.7324794054
50.662514925
50.7324794054
50.3209236383
50.7160171747
50.7324794054
50.30034585
50.5225859642
50.2838836193
50.30034585
50.337385869
50.2674213886
50.2674213886

Average distance is : 50.472 cm
Average deviation is : 0.203 cm
Block: 10
======================================
50.2674213886
50.30034585
50.699554944
50.30034585
50.2838836193
50.2838836193
50.30034585
50.2838836193
50.2838836193
50.2838836193
50.30034585
50.2838836193
50.2674213886
50.30034585
50.30034585
50.2838836193
50.30034585
50.3168080807
50.30034585
50.2838836193
50.30034585
50.263305831
50.2838836193
50.2838836193
50.30034585

Average distance is : 50.306 cm
Average deviation is : 0.083 cm