
Block: 1
======================================
50.4051447868
50.4010364532
50.3846031189
29.7772018433
50.4010364532

Block: 2
======================================
50.4174697876
50.4010364532
50.3887114525
50.4215781212
1.45024175644

Block: 3
======================================
50.3846031189
50.4010364532
50.4215781212
49.9573364258
50.4051447868

Block: 4
======================================
49.9737697601
50.3681697845
50.4010364532
49.9532280922
49.9409030914

Block: 5
======================================
50.3517364502
50.4051447868
50.4380114555
49.9532280922
49.9696614265

Block: 6
======================================
7.54700880051
49.9532280922
50.4174697876
49.9860947609
49.9573364258

Block: 7
======================================
50.4010364532
4.49862527847
50.7790031433
49.9902030945
49.9696614265

Block: 8
======================================
50.4544447899
49.9737697601
49.9737697601
50.4215781212
49.9367947578

Block: 9
======================================
49.9532280922
1.3968334198
50.3846031189
49.9860947609
50.4010364532

Block: 10
======================================
49.9532280922
50.3887114525
2.41159181595
50.4215781212
50.4051447868
