
Block: 1
======================================
49.9860947609
50.4010364532
50.4544447899
50.3681697845
50.3517364502
49.9737697601
50.3846031189
50.4010364532
21.8850930214
50.0066364288

Average distance is : 47.421 cm
Average deviation is : 8.975 cm
Block: 2
======================================
50.4051447868
49.9532280922
50.3846031189
50.3517364502
3.10179185867
49.9902030945
50.3887114525
50.4010364532
50.3681697845
50.3846031189

Average distance is : 45.573 cm
Average deviation is : 14.924 cm
Block: 3
======================================
4.18639192581
50.4051447868
50.4380114555
50.8365198135
49.9737697601
50.3846031189
20.1102929115
49.9203614235
50.4010364532
50.3846031189

Average distance is : 42.704 cm
Average deviation is : 16.538 cm
Block: 4
======================================
50.3846031189
50.3517364502
6.59798374176
50.3846031189
50.8159781456
49.9532280922
50.4174697876
50.3846031189
21.6221596718
50.7790031433

Average distance is : 43.169 cm
Average deviation is : 15.721 cm
Block: 5
======================================
50.3846031189
50.8159781456
50.7954364777
50.3681697845
2.32531681061
50.3681697845
50.8159781456
50.3887114525
50.3846031189
50.3681697845

Average distance is : 45.702 cm
Average deviation is : 15.242 cm
Block: 6
======================================
50.3476281166
50.3681697845
50.3887114525
50.7995448112
35.598710537
50.3846031189
50.3846031189
50.4010364532
50.3846031189
50.4010364532

Average distance is : 48.946 cm
Average deviation is : 4.692 cm
Block: 7
======================================
8.16736717224
50.4010364532
50.4010364532
50.4051447868
50.3681697845
49.9902030945
25.1060265541
50.3353031158
49.9902030945
50.3846031189

Average distance is : 43.555 cm
Average deviation is : 14.739 cm
Block: 8
======================================
50.3887114525
50.3681697845
6.34326705933
49.9696614265
50.7831114769
49.9532280922
50.4010364532
49.9737697601
22.2959263802
50.3846031189

Average distance is : 43.086 cm
Average deviation is : 15.623 cm
Block: 9
======================================
49.9696614265
50.4174697876
49.9696614265
49.9573364258
4.7903169632
49.9860947609
50.4010364532
50.4010364532
49.9696614265
50.3887114525

Average distance is : 45.625 cm
Average deviation is : 14.349 cm
Block: 10
======================================
6.20358371735
49.9737697601
50.3681697845
50.3681697845
49.9696614265
49.9696614265
20.6074012756
49.9696614265
50.3887114525
50.3846031189

Average distance is : 42.820 cm
Average deviation is : 15.872 cm