
Block: 1
======================================
99.970921278
99.5703107119
99.516620636
99.0994900465
99.4835805893
99.5331406593
99.4835805893
99.136660099
99.1531801224
99.5537906885
99.5331406593
99.1201400757
99.136660099
99.0994900465
99.1201400757
99.136660099
99.1201400757
99.1036200523
99.136660099
99.1201400757
99.1160100698
99.1531801224
99.1201400757
99.136660099
99.136660099
99.1531801224
99.0499299765
99.5001006126
99.136660099
99.0664499998
99.136660099
99.4835805893
99.1201400757
99.5537906885
99.136660099
99.136660099
99.136660099
99.136660099
99.136660099
99.1201400757
99.1531801224
99.1201400757
99.1531801224
99.1531801224
99.1201400757
99.5372706652
99.136660099
99.5496606827
99.0994900465
99.1201400757
99.136660099
99.136660099
99.1531801224
99.136660099
99.136660099
99.136660099
99.1573101282
99.1531801224
99.1201400757
99.136660099
99.1036200523
99.1201400757
99.5331406593
99.1201400757
99.1201400757
99.0994900465
99.1201400757
99.136660099
99.1201400757
99.0829700232
99.1160100698
99.1160100698
99.2770802975
99.5372706652
99.136660099
99.1160100698
99.1036200523
99.0994900465
99.1201400757
99.1036200523
99.5372706652
99.087100029
99.1201400757
99.0334099531
99.087100029
99.136660099
99.0994900465
99.0994900465
99.1201400757
99.5537906885
99.1036200523
99.1201400757
99.0829700232
99.1036200523
99.0994900465
99.1201400757
99.1201400757
99.136660099
99.136660099
99.0994900465

Block: 2
======================================
99.5331406593
99.0994900465
99.1531801224
99.1036200523
99.1201400757
99.0829700232
99.136660099
99.1036200523
99.1036200523
99.136660099
99.0994900465
99.1201400757
99.5331406593
99.1201400757
99.1201400757
99.0994900465
99.0994900465
99.1201400757
99.087100029
99.1201400757
99.1201400757
99.1036200523
99.0994900465
99.1036200523
99.1201400757
99.1201400757
99.136660099
99.1201400757
99.0829700232
99.1036200523
99.1201400757
99.0994900465
99.1201400757
99.0994900465
99.0829700232
99.5537906885
99.1036200523
99.1160100698
99.1036200523
99.1201400757
99.1036200523
99.1201400757
99.136660099
99.1036200523
99.1036200523
99.1201400757
99.1036200523
99.1036200523
99.1201400757
99.1036200523
99.1036200523
99.0829700232
99.1160100698
99.1201400757
99.1036200523
99.1201400757
99.0829700232
99.0994900465
99.0829700232
99.136660099
99.0994900465
99.0829700232
99.1036200523
99.1160100698
99.136660099
99.0829700232
99.1036200523
99.1160100698
99.0994900465
99.0994900465
99.1201400757
99.136660099
99.1201400757
99.0994900465
99.1531801224
99.1201400757
99.136660099
99.1201400757
99.087100029
99.1201400757
99.1036200523
99.1036200523
99.136660099
99.087100029
99.5331406593
99.0664499998
99.1160100698
99.1160100698
99.1201400757
99.1036200523
99.0994900465
99.1201400757
99.1036200523
99.1036200523
99.0994900465
99.0829700232
99.1201400757
99.1036200523
99.087100029
99.1201400757

Block: 3
======================================
99.136660099
99.1036200523
99.1201400757
99.0994900465
99.0994900465
99.5042306185
99.1036200523
99.136660099
99.1036200523
99.1160100698
99.1036200523
99.0994900465
99.1160100698
99.136660099
99.0994900465
99.1036200523
99.1036200523
99.1201400757
99.1036200523
99.1201400757
99.0829700232
99.087100029
99.136660099
99.136660099
99.136660099
99.1201400757
99.1201400757
99.1160100698
99.1201400757
99.1201400757
99.1201400757
99.136660099
98.6162793636
99.1160100698
99.1201400757
99.1201400757
99.087100029
99.0994900465
99.136660099
99.1201400757
99.136660099
99.1201400757
99.136660099
99.1201400757
99.1036200523
99.1201400757
99.1036200523
99.0829700232
99.1201400757
99.1160100698
99.1201400757
99.136660099
99.1036200523
99.0994900465
99.0829700232
99.0994900465
99.136660099
99.0829700232
99.1036200523
99.136660099
99.1201400757
99.0829700232
99.0994900465
99.1201400757
99.1201400757
99.136660099
99.1201400757
99.1531801224
98.7525695562
99.5331406593
99.136660099
99.1201400757
99.1036200523
99.1201400757
99.1201400757
99.136660099
99.0994900465
99.136660099
99.136660099
99.136660099
99.1201400757
99.0829700232
99.0994900465
99.1160100698
99.0994900465
99.0829700232
99.136660099
99.0705800056
99.1201400757
99.087100029
99.1201400757
99.1201400757
99.0994900465
99.1036200523
99.0994900465
99.1160100698
99.1036200523
99.0829700232
99.1036200523
99.087100029

Block: 4
======================================
99.136660099
99.5331406593
99.1738301516
99.5331406593
99.5496606827
99.1201400757
99.5537906885
99.1036200523
99.5496606827
99.1160100698
99.1160100698
99.1160100698
99.136660099
99.1160100698
99.1036200523
99.136660099
99.1201400757
99.0829700232
99.1036200523
98.6864894629
99.1201400757
99.1697001457
99.0994900465
99.1036200523
99.1201400757
99.136660099
99.136660099
99.136660099
99.0994900465
99.087100029
99.1531801224
99.5496606827
99.136660099
99.5001006126
99.1036200523
99.136660099
99.1201400757
99.1036200523
99.1036200523
99.136660099
99.087100029
99.136660099
99.516620636
99.1036200523
99.1160100698
99.1036200523
99.1201400757
99.1201400757
99.1160100698
99.136660099
99.136660099
99.136660099
99.1201400757
99.1036200523
99.1201400757
99.136660099
99.1201400757
99.1036200523
99.0829700232
99.0994900465
99.1201400757
99.0994900465
99.0664499998
99.1160100698
99.5372706652
99.087100029
99.1036200523
99.1036200523
99.1036200523
99.0994900465
99.1160100698
99.136660099
99.1036200523
99.1201400757
99.1201400757
99.1036200523
99.087100029
99.1201400757
99.0994900465
99.1201400757
99.1160100698
99.1201400757
99.1201400757
99.0829700232
99.1201400757
99.1201400757
99.1201400757
99.1201400757
99.087100029
99.0994900465
99.1036200523
99.1036200523
99.1036200523
99.1036200523
99.1036200523
99.1036200523
99.0994900465
99.136660099
99.136660099
99.1201400757

Block: 5
======================================
99.087100029
99.1201400757
99.087100029
99.0664499998
99.087100029
99.5001006126
99.5496606827
99.1201400757
99.1036200523
99.1160100698
99.0829700232
99.1160100698
99.0994900465
99.0829700232
99.087100029
99.136660099
99.1160100698
99.087100029
99.0829700232
99.1160100698
99.1036200523
99.087100029
99.1036200523
99.1036200523
99.1201400757
99.0994900465
99.1201400757
99.0994900465
99.1036200523
99.0829700232
99.0829700232
99.0994900465
99.0994900465
99.1201400757
99.1160100698
99.1160100698
99.136660099
99.1201400757
99.1036200523
99.0994900465
99.1036200523
99.1036200523
99.1531801224
99.0994900465
99.0994900465
98.9962399006
99.0994900465
99.1036200523
99.1201400757
99.1201400757
99.136660099
99.1036200523
99.1160100698
99.1160100698
99.1201400757
99.0994900465
99.087100029
99.1036200523
99.0829700232
99.136660099
99.1036200523
99.1036200523
99.1201400757
99.136660099
99.0829700232
99.087100029
99.1160100698
99.1201400757
99.1036200523
99.1201400757
99.0829700232
99.1201400757
99.1160100698
99.1201400757
99.1201400757
99.136660099
99.1201400757
99.1201400757
99.1160100698
99.1036200523
99.1036200523
99.087100029
99.136660099
99.1160100698
99.1201400757
99.1036200523
99.1201400757
99.136660099
99.136660099
99.1036200523
99.0994900465
99.1160100698
99.136660099
99.0994900465
99.1160100698
99.0994900465
99.1201400757
99.087100029
99.1036200523
99.1201400757

Block: 6
======================================
99.1160100698
99.1036200523
99.5001006126
99.1036200523
99.0994900465
99.0994900465
99.0994900465
99.1036200523
99.1036200523
99.136660099
99.0994900465
99.5537906885
99.0994900465
99.087100029
99.087100029
99.1201400757
99.136660099
99.1201400757
99.1160100698
99.1036200523
99.0994900465
99.1036200523
99.1201400757
99.5868307352
99.1531801224
99.1201400757
99.136660099
99.087100029
99.1201400757
99.1201400757
99.0829700232
99.136660099
99.1036200523
99.087100029
99.1036200523
99.1201400757
99.0994900465
99.1036200523
99.1201400757
99.1201400757
99.087100029
99.1036200523
99.0994900465
99.0994900465
99.1160100698
99.1036200523
99.1036200523
99.1036200523
99.136660099
99.1036200523
99.5537906885
99.0829700232
99.136660099
99.1160100698
99.087100029
99.1036200523
99.1201400757
99.1201400757
99.1201400757
99.1201400757
99.1201400757
99.1201400757
99.136660099
99.1036200523
99.1201400757
99.136660099
99.1036200523
99.0994900465
99.087100029
99.1036200523
99.1201400757
99.136660099
99.1036200523
99.0994900465
99.5331406593
99.1201400757
99.1160100698
99.1201400757
99.1201400757
99.1201400757
99.136660099
99.5207506418
99.087100029
99.1036200523
99.0829700232
99.0994900465
99.0994900465
99.1036200523
99.1201400757
99.136660099
99.1201400757
99.5372706652
99.136660099
99.136660099
99.5537906885
99.1201400757
99.0994900465
99.1201400757
99.1201400757
99.1201400757

Block: 7
======================================
99.5331406593
99.136660099
99.0829700232
99.516620636
99.1036200523
99.5537906885
99.516620636
99.1201400757
99.1201400757
99.1036200523
99.1036200523
99.5331406593
99.0829700232
99.136660099
99.1201400757
99.1160100698
99.1201400757
99.1201400757
99.1036200523
99.1201400757
99.1201400757
99.5331406593
99.1160100698
99.0994900465
99.1160100698
99.0829700232
99.0829700232
99.1201400757
99.1201400757
99.087100029
99.1160100698
99.136660099
99.1201400757
99.1201400757
99.0994900465
99.1036200523
99.0994900465
99.1036200523
99.1201400757
99.1201400757
99.1036200523
99.1531801224
99.136660099
99.1201400757
99.1036200523
99.136660099
99.0829700232
99.0994900465
99.1036200523
99.136660099
99.1036200523
99.1201400757
99.1160100698
99.1201400757
99.136660099
99.0994900465
99.0994900465
99.1036200523
99.1201400757
99.136660099
99.1160100698
99.1201400757
99.1201400757
99.1201400757
99.0829700232
99.0994900465
99.087100029
99.1036200523
99.1036200523
99.1201400757
99.1036200523
99.0829700232
99.1036200523
99.0994900465
99.0829700232
99.1160100698
99.1201400757
99.0994900465
99.1201400757
99.1160100698
99.1201400757
99.0994900465
99.136660099
99.0994900465
99.5537906885
99.1201400757
99.1036200523
99.1201400757
99.136660099
99.1201400757
99.1201400757
99.1036200523
99.5207506418
99.1201400757
99.0829700232
99.0994900465
99.0994900465
99.1201400757
99.1036200523
99.1036200523

Block: 8
======================================
99.1036200523
99.5372706652
99.136660099
99.5537906885
99.5868307352
99.1201400757
99.5001006126
99.1160100698
99.1201400757
99.0829700232
99.1201400757
99.1201400757
99.0829700232
99.0829700232
99.136660099
99.087100029
99.1036200523
99.087100029
99.0994900465
99.1201400757
99.1201400757
99.1201400757
99.1201400757
99.087100029
99.1160100698
99.516620636
99.1036200523
99.1201400757
99.136660099
99.087100029
99.1201400757
99.1201400757
99.1036200523
99.0829700232
99.1201400757
99.1201400757
99.0829700232
99.0994900465
99.0994900465
99.1036200523
99.1036200523
99.1201400757
99.0994900465
99.136660099
99.1201400757
99.1201400757
99.1036200523
99.1036200523
99.136660099
99.136660099
99.1036200523
99.1036200523
99.0994900465
99.0829700232
99.0829700232
99.1036200523
99.087100029
99.087100029
99.0829700232
99.136660099
99.1201400757
99.1201400757
99.1036200523
99.1201400757
99.0994900465
99.1036200523
99.1036200523
99.1201400757
99.1201400757
99.1036200523
99.5537906885
99.1160100698
99.0994900465
99.0829700232
99.136660099
99.1201400757
99.1160100698
99.136660099
99.0994900465
99.1036200523
99.0994900465
99.1201400757
99.1036200523
99.0994900465
99.0829700232
99.1036200523
99.1036200523
99.1201400757
99.1201400757
99.1036200523
99.136660099
99.1201400757
99.136660099
99.087100029
99.0829700232
99.1201400757
99.1036200523
99.0994900465
99.1160100698
99.1036200523

Block: 9
======================================
99.087100029
99.1036200523
99.136660099
99.136660099
99.1201400757
99.5331406593
99.136660099
99.0994900465
99.5207506418
99.0829700232
99.0994900465
99.087100029
99.136660099
99.136660099
99.136660099
99.0994900465
99.136660099
99.0994900465
99.1201400757
99.136660099
99.1036200523
99.1036200523
99.0994900465
99.1201400757
99.0829700232
99.0829700232
99.0994900465
99.0994900465
99.1201400757
99.1201400757
99.136660099
99.087100029
99.1160100698
99.1036200523
99.0994900465
99.1160100698
99.1160100698
99.0994900465
99.087100029
99.1160100698
99.136660099
99.0994900465
99.1036200523
99.087100029
99.0994900465
99.1036200523
99.1201400757
99.1201400757
99.0994900465
99.1201400757
99.1201400757
99.5496606827
99.1201400757
99.1160100698
99.1201400757
99.1160100698
99.1036200523
99.1036200523
99.0664499998
99.1036200523
99.1036200523
99.087100029
99.0994900465
99.0829700232
99.0829700232
99.1201400757
99.1036200523
99.1201400757
99.1201400757
99.1160100698
99.1201400757
99.1036200523
99.0829700232
99.1201400757
99.1201400757
99.1036200523
99.5001006126
99.0994900465
99.0829700232
99.0994900465
99.136660099
99.136660099
99.1201400757
99.1160100698
99.1160100698
99.1036200523
99.0994900465
99.136660099
99.136660099
99.5703107119
99.1201400757
99.1201400757
99.136660099
99.1036200523
99.136660099
99.136660099
99.1036200523
99.136660099
99.136660099
99.136660099

Block: 10
======================================
99.5042306185
99.0664499998
99.0829700232
99.0664499998
99.1201400757
99.1036200523
99.1201400757
99.1036200523
99.1036200523
99.1201400757
99.0994900465
99.1036200523
99.1201400757
99.136660099
99.0994900465
99.136660099
99.1036200523
99.0664499998
99.0994900465
99.0829700232
99.1201400757
99.087100029
99.0994900465
99.0994900465
99.0994900465
99.1201400757
99.1036200523
99.136660099
99.1201400757
99.0829700232
99.1201400757
99.0829700232
99.1201400757
99.1036200523
99.1036200523
99.1036200523
99.1201400757
99.087100029
99.1036200523
99.136660099
99.0994900465
99.136660099
99.1036200523
99.0829700232
99.0829700232
99.1201400757
99.087100029
99.1160100698
99.1201400757
99.1160100698
99.136660099
99.1201400757
99.1036200523
99.1201400757
99.1201400757
99.1201400757
99.0994900465
99.1036200523
99.136660099
99.0829700232
99.0829700232
99.1201400757
99.1036200523
99.0994900465
99.0994900465
99.1201400757
99.0994900465
99.1160100698
99.1201400757
99.1036200523
99.1160100698
99.1201400757
99.0829700232
99.1036200523
99.1201400757
99.1201400757
99.1201400757
99.087100029
99.1036200523
99.1036200523
99.1201400757
99.1201400757
99.1160100698
99.0994900465
99.1201400757
99.0994900465
99.0829700232
99.0994900465
99.5537906885
99.1201400757
99.1201400757
99.516620636
99.136660099
99.1201400757
99.1201400757
99.0994900465
99.1201400757
99.0994900465
99.1036200523
99.1201400757
