
Block: 1
======================================
99.0994900465
99.0334099531
99.1531801224
99.0994900465
99.1201400757
99.6033507586
99.5496606827
99.136660099
99.1201400757
99.136660099
99.1160100698
99.0994900465
99.1201400757
99.1036200523
99.0994900465
99.1201400757
99.1201400757
99.1201400757
99.1201400757
99.136660099
99.1036200523
99.136660099
99.1036200523
99.136660099
99.0994900465

Block: 2
======================================
99.1036200523
99.2399102449
99.1036200523
99.136660099
99.1160100698
99.1201400757
99.1531801224
99.1201400757
99.136660099
99.1201400757
99.136660099
99.5703107119
99.1201400757
99.1160100698
99.1201400757
99.1201400757
99.1036200523
99.1531801224
99.1160100698
99.1160100698
99.1201400757
99.1201400757
99.793331027
99.5496606827
99.1160100698

Block: 3
======================================
99.136660099
99.1036200523
99.136660099
99.0994900465
99.1036200523
99.136660099
99.0994900465
99.1531801224
99.1573101282
99.5868307352
99.1531801224
99.1201400757
99.1201400757
99.136660099
99.1531801224
99.136660099
99.5703107119
99.1201400757
99.1903501749
99.136660099
99.136660099
99.1531801224
99.1036200523
99.136660099
99.1531801224

Block: 4
======================================
99.1036200523
99.1201400757
99.136660099
99.1201400757
99.1201400757
99.136660099
99.1201400757
99.1201400757
99.5537906885
99.136660099
99.136660099
99.1201400757
99.087100029
99.1201400757
99.136660099
99.136660099
99.136660099
99.0829700232
99.1036200523
99.1201400757
99.5496606827
99.1201400757
99.1201400757
99.1201400757
99.1036200523

Block: 5
======================================
99.1201400757
99.136660099
99.5703107119
99.5703107119
99.1160100698
99.1036200523
99.5537906885
99.1201400757
99.1036200523
99.1201400757
99.136660099
99.1201400757
99.136660099
99.5331406593
99.1201400757
99.5331406593
99.1036200523
99.0829700232
99.1201400757
99.1738301516
99.0994900465
99.136660099
99.1531801224
99.1201400757
99.1738301516

Block: 6
======================================
99.1573101282
99.2399102449
99.136660099
99.136660099
99.136660099
99.1201400757
99.1201400757
99.136660099
99.136660099
99.136660099
99.1201400757
99.136660099
99.5331406593
99.1160100698
99.5331406593
99.136660099
99.136660099
99.136660099
99.1160100698
99.136660099
99.1160100698
99.0994900465
99.1201400757
99.1201400757
99.136660099

Block: 7
======================================
99.0829700232
99.1201400757
99.0994900465
99.5537906885
99.1036200523
99.1036200523
99.136660099
99.1201400757
99.136660099
99.136660099
99.1201400757
99.136660099
99.1531801224
99.5868307352
99.1531801224
99.136660099
99.1697001457
99.136660099
99.1201400757
99.136660099
99.1201400757
99.1201400757
99.0994900465
99.1036200523
99.136660099

Block: 8
======================================
99.0829700232
99.1201400757
99.0994900465
99.5537906885
99.1531801224
99.5331406593
99.566180706
99.1201400757
99.0994900465
99.136660099
99.136660099
99.136660099
99.087100029
99.1201400757
99.1160100698
99.1201400757
99.136660099
99.1160100698
99.1036200523
99.1036200523
99.136660099
99.0829700232
99.136660099
99.1036200523
99.136660099

Block: 9
======================================
99.5703107119
99.1201400757
99.5537906885
99.5537906885
99.5537906885
99.1160100698
99.5372706652
99.1201400757
99.136660099
99.1201400757
99.136660099
99.136660099
99.1201400757
99.136660099
99.136660099
99.136660099
99.1531801224
99.1201400757
99.1201400757
99.1201400757
99.1160100698
99.136660099
99.1531801224
99.136660099
99.136660099

Block: 10
======================================
99.1531801224
99.0994900465
99.0994900465
99.5331406593
99.5537906885
99.136660099
99.5868307352
99.1201400757
99.136660099
99.136660099
99.1036200523
99.5537906885
99.1036200523
99.1201400757
99.1201400757
99.1201400757
99.1201400757
99.1201400757
99.0994900465
99.0994900465
99.1201400757
99.1201400757
99.136660099
99.136660099
99.1160100698
