
Block: 1
======================================
99.087100029
99.136660099
99.1697001457
99.516620636
99.590960741
99.1531801224
99.5331406593
99.136660099
99.136660099
99.5868307352

Average distance is : 99.305 cm
Average deviation is : 0.219 cm
Block: 2
======================================
100.487172008
99.1160100698
99.5331406593
99.1903501749
99.516620636
99.087100029
99.136660099
99.136660099
99.1160100698
99.136660099

Average distance is : 99.346 cm
Average deviation is : 0.434 cm
Block: 3
======================================
99.1160100698
99.1160100698
99.516620636
99.1201400757
99.516620636
99.5537906885
99.1531801224
99.1201400757
99.1201400757
99.0994900465

Average distance is : 99.243 cm
Average deviation is : 0.198 cm
Block: 4
======================================
99.5001006126
99.087100029
99.087100029
99.136660099
99.0994900465
99.0994900465
99.1201400757
99.136660099
99.1531801224
99.1201400757

Average distance is : 99.154 cm
Average deviation is : 0.124 cm
Block: 5
======================================
99.1201400757
99.1531801224
99.1036200523
99.1201400757
99.1160100698
99.5703107119
99.1573101282
98.8434296846
99.136660099
99.136660099

Average distance is : 99.146 cm
Average deviation is : 0.175 cm
Block: 6
======================================
99.5496606827
99.5537906885
99.5868307352
99.1531801224
99.1036200523
99.5703107119
99.1201400757
99.1036200523
99.136660099
99.136660099

Average distance is : 99.301 cm
Average deviation is : 0.228 cm
Block: 7
======================================
99.136660099
99.5703107119
99.0994900465
99.5372706652
99.5868307352
99.136660099
99.1160100698
99.1201400757
99.1201400757
99.1160100698

Average distance is : 99.254 cm
Average deviation is : 0.215 cm
Block: 8
======================================
99.5868307352
99.087100029
99.1036200523
99.5496606827
99.5496606827
99.1201400757
99.0829700232
99.1201400757
99.1201400757
98.7030094862

Average distance is : 99.202 cm
Average deviation is : 0.278 cm
Block: 9
======================================
99.136660099
99.1531801224
99.1531801224
99.136660099
99.136660099
99.136660099
99.5537906885
99.136660099
99.1201400757
99.1531801224

Average distance is : 99.182 cm
Average deviation is : 0.131 cm
Block: 10
======================================
99.1531801224
99.1201400757
99.136660099
99.136660099
99.136660099
99.1573101282
99.5868307352
99.1160100698
99.0994900465
99.1160100698

Average distance is : 99.176 cm
Average deviation is : 0.145 cm
Average distance for 10x10 is : 99.231 cm
Average deviation for 10x10 is : 0.215 cm
 Percentage of values that failed: 0.000