
Block: 1
======================================
401.181940293
400.26410737
401.181940293
400.773565292
401.145550442
400.284323955
401.129377174
400.300497222
401.145550442
400.757392025

Average distance is : 400.816 cm
Average deviation is : 0.400 cm
Block: 2
======================================
400.741218758
400.704828906
400.737175441
400.721002173
400.280280638
400.26410737
400.704828906
400.26410737
400.721002173
400.704828906

Average distance is : 400.584 cm
Average deviation is : 0.218 cm
Block: 3
======================================
400.316670489
400.721002173
401.214286828
401.586271977
400.704828906
400.704828906
400.721002173
400.737175441
400.296453905
400.741218758

Average distance is : 400.774 cm
Average deviation is : 0.381 cm
Block: 4
======================================
400.365190291
400.284323955
401.606488562
400.72504549
400.365190291
400.296453905
400.280280638
400.369233608
400.349017024
401.165767026

Average distance is : 400.581 cm
Average deviation is : 0.455 cm
Block: 5
======================================
400.26410737
400.332843757
401.125333858
400.26410737
400.704828906
400.721002173
400.349017024
400.365190291
400.26410737

Block: 1
======================================
400.094288063
400.126634598
400.11046133
400.959557867
401.400279403
400.11046133
400.130677915
400.130677915
400.57139945
400.078114796

Average distance is : 400.371 cm
Average deviation is : 0.462 cm
Block: 2
======================================
401.044467521
400.551182866
400.587572718
400.551182866
400.57139945
400.551182866
400.555226183
400.619919252
400.535009599
400.551182866

Average distance is : 400.612 cm
Average deviation is : 0.154 cm
Block: 3
======================================
400.587572718
400.126634598
400.130677915
400.163024449
400.57139945
400.587572718
400.158981133
400.555226183
401.008077669
400.142807865

Average distance is : 400.403 cm
Average deviation is : 0.302 cm
Block: 4
======================================
400.991904402
401.012120986
401.024250937
400.57139945
400.63609252
400.619919252
400.57139945
400.57139945
400.567356133
400.567356133

Average distance is : 400.713 cm
Average deviation is : 0.206 cm
Block: 5
======================================
400.975731134
400.567356133
401.41645267
400.975731134
400.979774451
401.485189056
401.41645267
400.959557867
400.979774451
400.991904402

Average distance is : 401.075 cm
Average deviation is : 0.282 cm
Block: 6
======================================
401.841000938
401.024250937
401.028294253
401.012120986
401.012120986
402.297895741
401.044467521
401.028294253
401.873347473
400.587572718

Average distance is : 401.275 cm
Average deviation is : 0.535 cm
Block: 7
======================================
401.432625937
400.991904402
401.008077669
401.008077669
400.583529401
400.587572718
401.517535591
401.452842522
400.995947719
401.028294253

Average distance is : 401.061 cm
Average deviation is : 0.328 cm
Block: 8
======================================
400.652265787
400.991904402
400.603745985
401.008077669
400.656309104
400.126634598
400.551182866
401.012120986
400.656309104
400.142807865

Average distance is : 400.640 cm
Average deviation is : 0.319 cm
Block: 9
======================================
401.060640788
400.619919252
400.146851182
400.231760836
400.158981133
400.567356133
401.012120986
400.567356133
400.603745985
400.567356133

Average distance is : 400.554 cm
Average deviation is : 0.316 cm
Block: 10
======================================
400.603745985
400.57139945
400.567356133
400.11046133
400.587572718
400.551182866
400.567356133
400.567356133
400.995947719
400.991904402

Average distance is : 400.611 cm
Average deviation is : 0.248 cm