
Block: 1
======================================
300.479091048
300.495264316
300.52761085
300.952159119
300.956202435
300.931942534
300.972375703
301.396923971
300.52761085
300.952159119

Average distance is : 300.819 cm
Average deviation is : 0.301 cm
Block: 2
======================================
301.409053922
300.547827435
300.511437583
301.413097239
301.392880654
300.543784118
301.392880654
300.531654167
300.511437583
300.511437583

Average distance is : 300.877 cm
Average deviation is : 0.452 cm
Block: 3
======================================
300.52761085
301.392880654
300.511437583
301.409053922
300.543784118
300.547827435
301.376707387
300.52761085
301.376707387
300.543784118

Average distance is : 300.876 cm
Average deviation is : 0.442 cm
Block: 4
======================================
300.968332386
300.935985851
301.413097239
300.511437583
300.511437583
300.952159119
300.935985851
301.392880654
300.935985851
301.392880654

Average distance is : 300.995 cm
Average deviation is : 0.329 cm
Block: 5
======================================
302.225803924
300.952159119
301.376707387
300.952159119
300.968332386
300.935985851
301.376707387
300.935985851
300.915769267
302.225803924

Average distance is : 301.287 cm
Average deviation is : 0.526 cm
Block: 6
======================================
302.241977191
300.952159119
300.935985851
301.376707387
300.903639317
300.919812584
300.495264316
300.495264316
300.952159119
301.376707387

Average distance is : 301.065 cm
Average deviation is : 0.508 cm
Block: 7
======================================
300.935985851
300.479091048
300.479091048
301.376707387
301.392880654
300.915769267
300.952159119
301.396923971
300.956202435
300.952159119

Average distance is : 300.984 cm
Average deviation is : 0.335 cm
Block: 8
======================================
301.396923971
301.797212338
300.952159119
300.935985851
301.376707387
300.952159119
300.915769267
302.650352192
300.495264316
302.237933874

Average distance is : 301.371 cm
Average deviation is : 0.674 cm
Block: 9
======================================
300.984505653
301.376707387
302.650352192
301.409053922
300.511437583
300.935985851
300.952159119
300.495264316
300.968332386
300.495264316

Average distance is : 301.078 cm
Average deviation is : 0.644 cm
Block: 10
======================================
300.952159119
300.495264316
300.511437583
300.5154809
301.837645507
300.5154809
300.972375703
301.376707387
300.495264316
300.952159119

Average distance is : 300.862 cm
Average deviation is : 0.457 cm