
Block: 1
======================================
300.162859392
299.715710592
299.68319068
300.146599436
299.687255669
300.179119349
300.589683247
299.703515625
301.049027014
300.179119349
300.175054359
300.585618258
299.68319068
300.162859392
300.179119349
299.736035538
300.622203159
300.605943203
300.605943203
300.605943203
208.891659355
299.784815407
300.622203159
300.605943203
300.622203159

Average distance is : 296.583 cm
Average deviation is : 18.274 cm
Block: 2
======================================
301.475850868
300.605943203
300.605943203
300.093754578
300.146599436
300.110014534
300.605943203
300.605943203
300.605943203
300.589683247
300.146599436
300.605943203
300.569358301
300.585618258
301.049027014
300.146599436
300.146599436
301.032767057
300.589683247
300.589683247
300.146599436
300.146599436
300.12627449
300.601878214
300.622203159

Average distance is : 300.502 cm
Average deviation is : 0.346 cm
Block: 3
======================================
301.016507101
301.049027014
299.719775581
300.589683247
300.110014534
300.130339479
300.142534447
300.12627449
300.130339479
300.12627449
300.12627449
300.130339479
300.589683247
300.142534447
300.162859392
300.146599436
301.012442112
300.142534447
300.585618258
301.012442112
300.146599436
300.146599436
300.110014534
300.585618258
300.589683247

Average distance is : 300.351 cm
Average deviation is : 0.365 cm
Block: 4
======================================
301.012442112
207.956711864
299.752295494
300.142534447
300.146599436
300.12627449
300.142534447
299.68319068
210.651799631
298.829542971
301.028702068
300.585618258
301.044962025
209.285963297
298.918972731
301.012442112
300.142534447
300.162859392
300.179119349
210.172130919
299.76855545
300.162859392
301.032767057
301.032767057
300.146599436

Average distance is : 285.725 cm
Average deviation is : 33.954 cm
Block: 5
======================================
300.12627449
300.146599436
300.179119349
208.261586046
300.179119349
300.146599436
300.569358301
300.601878214
300.130339479
300.142534447
300.589683247
300.589683247
300.146599436
300.162859392
300.162859392
300.130339479
300.12627449
300.585618258
301.028702068
301.032767057
301.049027014
301.459590912
300.589683247
300.589683247
300.589683247

Average distance is : 296.773 cm
Average deviation is : 18.444 cm
Block: 6
======================================
300.12627449
300.622203159
300.553098345
300.12627449
300.142534447
300.162859392
300.589683247
300.622203159
300.162859392
299.703515625
299.719775581
300.569358301
299.68319068
300.142534447
301.032767057
299.699450636
300.130339479
300.12627449
300.589683247
299.699450636
299.719775581
300.12627449
300.142534447
300.142534447
300.142534447

Average distance is : 300.179 cm
Average deviation is : 0.361 cm
Block: 7
======================================
300.114079523
299.703515625
301.044962025
301.049027014
299.715710592
301.032767057
300.585618258
299.719775581
299.687255669
299.703515625
300.162859392
299.68319068
301.049027014
299.68319068
299.703515625
301.032767057
300.146599436
299.68319068
299.699450636
300.130339479
301.032767057
300.605943203
299.703515625
300.142534447
300.605943203

Average distance is : 300.217 cm
Average deviation is : 0.559 cm
Block: 8
======================================
300.142534447
299.68319068
300.158794403
300.146599436
300.569358301
300.162859392
300.146599436
300.12627449
300.12627449
300.589683247
300.12627449
300.569358301
300.605943203
300.12627449
300.601878214
300.12627449
300.162859392
301.475850868
300.162859392
301.049027014
300.585618258
300.569358301
299.719775581
300.12627449
299.687255669

Average distance is : 300.302 cm
Average deviation is : 0.405 cm
Block: 9
======================================
300.622203159
300.605943203
299.666930723
300.179119349
299.699450636
299.703515625
210.651799631
299.309211683
301.028702068
300.142534447
300.569358301
300.589683247
300.146599436
300.605943203
301.06528697
301.049027014
301.049027014
300.57342329
300.605943203
299.703515625
300.589683247
301.049027014
299.715710592
300.605943203
300.12627449

Average distance is : 296.786 cm
Average deviation is : 17.952 cm
Block: 10
======================================
301.028702068
300.146599436
299.703515625
300.605943203
299.703515625
301.06528697
299.715710592
299.715710592
300.162859392
300.642528105
299.736035538
300.569358301
300.585618258
300.179119349
300.605943203
300.162859392
301.049027014
301.032767057
301.06528697
299.719775581
301.032767057
299.68319068
300.158794403
299.699450636
300.622203159

Average distance is : 300.336 cm
Average deviation is : 0.530 cm