
Block: 1
======================================
299.68319068
300.162859392
300.12627449
301.032767057
301.049027014
299.687255669
300.589683247
301.06528697
301.028702068
300.12627449
299.699450636
299.699450636
300.162859392
300.589683247
301.028702068
300.589683247
299.68319068
299.703515625
300.146599436
300.146599436
299.68319068
300.12627449
300.12627449
300.142534447
300.605943203
299.703515625
299.68319068
300.12627449
300.142534447
300.585618258
300.142534447
299.68319068
300.130339479
300.146599436
300.146599436
300.605943203
300.589683247
299.703515625
300.585618258
300.146599436
300.146599436
300.601878214
300.605943203
301.049027014
300.589683247
300.589683247
301.049027014
300.605943203
300.605943203
300.605943203
299.731970549
300.605943203
301.06528697
209.290028286
301.06528697
300.158794403
209.814411879
299.256366825
300.585618258
300.589683247
300.162859392
300.146599436
300.142534447
300.142534447
300.142534447
299.703515625
300.146599436
300.146599436
300.130339479
299.719775581
300.601878214
300.142534447
209.371328068
300.179119349
209.830671835

Average distance is : 295.442 cm
Average deviation is : 20.522 cm
Block: 2
======================================
300.589683247
301.049027014
300.162859392
300.605943203
300.569358301
300.146599436
300.12627449
300.585618258
301.032767057
300.569358301
300.585618258
300.12627449
300.162859392
300.142534447
209.777826977
299.752295494
300.12627449
300.162859392
300.589683247
300.12627449
300.142534447
300.146599436
300.142534447
300.162859392
301.012442112
301.032767057
300.130339479
300.162859392
301.032767057
301.032767057
301.028702068
301.032767057
300.569358301
301.06528697
300.605943203
300.146599436
300.142534447
209.781891966
299.736035538
301.032767057
300.162859392
301.049027014
300.146599436
301.032767057
301.012442112
300.142534447
301.032767057
302.325433588
299.699450636
300.142534447
300.12627449
300.605943203
300.162859392
300.146599436
300.605943203
300.57342329
301.049027014
300.585618258
301.032767057
300.57342329
300.585618258
300.585618258
301.044962025
300.585618258
300.569358301
300.589683247
301.049027014
301.028702068
300.622203159
299.715710592
300.601878214
300.162859392
301.06528697
300.605943203
299.719775581

Average distance is : 298.105 cm
Average deviation is : 14.725 cm
Block: 3
======================================
300.605943203
300.146599436
300.130339479
300.130339479
301.475850868
300.605943203
300.162859392
300.12627449
300.605943203
300.146599436
300.585618258
300.589683247
300.605943203
300.585618258
300.142534447
300.110014534
300.142534447
300.605943203
300.130339479
300.146599436
300.130339479
300.57342329
302.345758533
301.032767057
300.130339479
300.589683247
301.06528697
301.049027014
300.158794403
300.158794403
300.142534447
300.179119349
300.589683247
300.589683247
300.601878214
300.585618258
300.601878214
301.049027014
300.146599436
300.130339479
300.622203159
300.605943203
300.569358301
300.162859392
300.195379305
300.622203159
300.601878214
300.12627449
300.589683247
300.146599436
300.589683247
300.622203159
300.622203159
300.146599436
300.605943203
301.044962025
300.589683247
300.605943203
300.622203159
300.589683247
300.130339479
300.162859392
301.492110825
300.162859392
300.146599436
301.06528697
300.179119349
301.049027014
300.142534447
301.06528697
300.589683247
301.06528697
301.06528697
300.585618258
301.044962025

Average distance is : 300.531 cm
Average deviation is : 0.415 cm
Block: 4
======================================
301.049027014
301.471785879
301.028702068
300.57342329
301.049027014
300.162859392
301.118131828
300.589683247
300.162859392
300.605943203
300.179119349
300.605943203
300.142534447
300.146599436
300.146599436
300.585618258
300.142534447
300.142534447
300.142534447
300.605943203
300.142534447
300.589683247
300.162859392
300.585618258
300.622203159
300.642528105
300.146599436
300.162859392
300.162859392
300.622203159
300.162859392
300.179119349
300.162859392
300.146599436
300.146599436
300.146599436
301.049027014
300.142534447
300.175054359
300.605943203
300.622203159
300.601878214
300.146599436
301.06528697
301.044962025
301.049027014
300.146599436
300.146599436
300.162859392
300.605943203
300.589683247
300.605943203
300.146599436
300.146599436
300.142534447
299.699450636
300.601878214
300.605943203
300.589683247
300.622203159
300.605943203
300.622203159
300.605943203
300.605943203
299.719775581
301.06528697
300.601878214
300.605943203
299.699450636
301.049027014
300.130339479
299.687255669
300.605943203
300.585618258
301.06528697

Average distance is : 300.453 cm
Average deviation is : 0.380 cm
Block: 5
======================================
300.569358301
300.12627449
300.12627449
300.130339479
300.585618258
300.585618258
300.158794403
300.158794403
300.12627449
300.130339479
300.605943203
300.162859392
299.703515625
300.162859392
299.68319068
300.146599436
301.049027014
300.142534447
300.622203159
300.146599436
300.605943203
300.12627449
300.130339479
300.601878214
299.715710592
300.142534447
299.666930723
301.032767057
300.146599436
300.146599436
300.195379305
301.049027014
300.146599436
300.130339479
299.68319068
300.601878214
300.585618258
300.589683247
300.146599436
300.12627449
299.719775581
300.146599436
300.146599436
300.130339479
301.492110825
300.12627449
300.146599436
300.158794403
301.471785879
300.146599436
300.130339479
300.589683247
300.146599436
300.589683247
300.589683247
300.585618258
300.142534447
300.162859392
300.605943203
299.687255669
300.146599436
300.130339479
299.699450636
299.703515625
299.736035538
300.585618258
300.12627449
300.601878214
300.601878214
300.146599436
299.703515625
300.146599436
300.589683247
299.719775581
300.622203159

Average distance is : 300.265 cm
Average deviation is : 0.392 cm
Block: 6
======================================
300.146599436
300.553098345
300.589683247
300.146599436
300.179119349
300.601878214
300.585618258
300.569358301
300.142534447
301.06528697
300.146599436
300.622203159
300.142534447
300.146599436
300.146599436
300.130339479
300.12627449
300.12627449
300.605943203
299.703515625
300.130339479
300.142534447
300.585618258
300.605943203
300.589683247
300.585618258
300.585618258
300.601878214
300.142534447
300.162859392
300.146599436
300.589683247
300.146599436
300.605943203
300.162859392
299.736035538
301.06528697
300.142534447
300.142534447
300.589683247
300.589683247
300.605943203
299.703515625
300.585618258
300.585618258
300.605943203
300.142534447
300.12627449
299.666930723
299.68319068
300.142534447
300.146599436
299.719775581
301.032767057
301.06528697
299.715710592
300.142534447
300.585618258
300.179119349
300.179119349
301.044962025
300.12627449
300.142534447
300.142534447
300.142534447
300.142534447
299.68319068
300.142534447
300.589683247
300.12627449
300.162859392
300.12627449
300.142534447
300.12627449
300.585618258

Average distance is : 300.301 cm
Average deviation is : 0.343 cm
Block: 7
======================================
300.146599436
300.146599436
300.130339479
301.049027014
301.032767057
300.12627449
300.142534447
300.162859392
300.146599436
300.146599436
300.146599436
300.146599436
300.589683247
301.028702068
301.049027014
299.68319068
300.589683247
301.032767057
299.703515625
301.032767057
300.162859392
299.666930723
301.016507101
300.589683247
300.142534447
301.012442112
299.719775581
301.049027014
301.032767057
300.12627449
301.032767057
301.012442112
300.142534447
300.12627449
300.110014534
301.012442112
300.12627449
300.146599436
301.000247145
300.585618258
301.032767057
300.110014534
300.146599436
300.12627449
300.12627449
301.016507101
300.12627449
300.569358301
300.57342329
300.110014534
300.569358301
300.12627449
300.110014534
300.569358301
300.569358301
300.12627449
300.12627449
301.012442112
300.569358301
300.130339479
301.032767057
300.142534447
300.585618258
300.130339479
300.12627449
300.114079523
300.110014534
300.110014534
300.585618258
300.110014534
300.589683247
301.016507101
301.016507101
300.12627449
300.996182156

Average distance is : 300.436 cm
Average deviation is : 0.422 cm
Block: 8
======================================
300.536838388
300.114079523
300.553098345
300.536838388
300.557163334
300.553098345
301.459590912
300.110014534
300.553098345
300.553098345
300.110014534
300.553098345
300.520578432
300.553098345
300.553098345
301.012442112
300.569358301
300.093754578
300.536838388
300.57342329
300.536838388
300.110014534
300.569358301
300.57342329
300.569358301
300.536838388
300.557163334
300.557163334
300.12627449
301.000247145
300.110014534
300.553098345
301.012442112
300.110014534
300.553098345
300.110014534
300.146599436
300.12627449
300.130339479
301.898609734
300.589683247
300.569358301
301.032767057
300.996182156
300.675048018
300.110014534
300.130339479
300.12627449
301.459590912
301.443330956
300.12627449
300.12627449
300.130339479
300.589683247
300.553098345
300.57342329
301.028702068
301.028702068
301.012442112
300.557163334
301.028702068
300.553098345
300.553098345
300.110014534
300.146599436
300.589683247
300.110014534
300.142534447
301.012442112
300.557163334
300.557163334
300.57342329
299.68319068
301.012442112
300.162859392

Average distance is : 300.535 cm
Average deviation is : 0.396 cm
Block: 9
======================================
300.130339479
300.158794403
300.12627449
300.162859392
300.569358301
300.130339479
300.110014534
300.110014534
300.146599436
300.110014534
300.110014534
300.12627449
301.459590912
300.589683247
300.12627449
300.622203159
300.12627449
300.110014534
301.032767057
301.028702068
300.110014534
300.146599436
300.130339479
301.016507101
300.12627449
300.601878214
300.585618258
299.687255669
301.028702068
301.032767057
300.110014534
301.012442112
300.12627449
300.130339479
300.142534447
300.12627449
301.475850868
301.012442112
300.130339479
300.57342329
301.032767057
300.585618258
300.142534447
301.032767057
300.142534447
301.455525923
301.032767057
300.12627449
300.130339479
300.996182156
300.146599436
301.459590912
300.57342329
300.569358301
301.012442112
301.032767057
300.142534447
301.032767057
301.049027014
300.162859392
300.589683247
300.589683247
300.585618258
299.68319068
300.142534447
300.142534447
300.57342329
301.028702068
300.569358301
301.032767057
299.68319068
301.032767057
301.032767057
300.162859392
300.130339479

Average distance is : 300.496 cm
Average deviation is : 0.462 cm
Block: 10
======================================
301.016507101
301.049027014
301.049027014
301.028702068
300.130339479
301.012442112
300.142534447
300.142534447
300.996182156
300.12627449
300.146599436
300.142534447
300.12627449
301.032767057
301.028702068
300.12627449
300.605943203
301.012442112
299.68319068
301.459590912
300.110014534
300.569358301
300.585618258
300.12627449
300.110014534
301.032767057
299.666930723
301.016507101
300.142534447
300.553098345
300.12627449
300.130339479
300.12627449
301.012442112
300.110014534
301.012442112
300.569358301
300.996182156
301.012442112
300.146599436
301.016507101
300.996182156
300.12627449
301.012442112
301.012442112
300.996182156
301.012442112
300.553098345
300.130339479
301.012442112
301.012442112
300.110014534
301.028702068
300.536838388
301.016507101
300.589683247
300.110014534
300.12627449
300.557163334
300.553098345
300.996182156
300.130339479
301.000247145
300.557163334
300.110014534
300.569358301
300.57342329
300.089689589
300.110014534
300.110014534
300.130339479
300.553098345
300.996182156
301.032767057
301.000247145

Average distance is : 300.569 cm
Average deviation is : 0.433 cm