
Block: 1
======================================
402.552624702
401.671181631
402.520278168
402.095729899
401.687354898
401.655008364
402.552624702
401.655008364
403.385547972
402.111903167
402.556668019
403.381504655
401.622661829
403.369374704
402.960999703
402.075513315
402.944826436
403.34915812
402.075513315
402.079556632
402.500061584
402.079556632
402.487931633
402.520278168
402.079556632

Block: 2
======================================
402.552624702
402.111903167
401.655008364
402.132119751
401.691398215
401.703528166
402.56879797
401.703528166
401.703528166
401.707571483
401.707571483
402.148293018
402.584971237
402.164466286
402.144249701
402.56879797
402.164466286
401.703528166
402.144249701
402.993346238
401.707571483
402.589014554
402.160422969
401.719701433
403.450241041

Block: 3
======================================
401.772264552
401.707571483
401.335586333
401.351759601
401.772264552
401.760134602
401.760134602
403.470457625
401.315369749
403.025692773
401.739918017
401.295153165
401.315369749
401.331543016
401.315369749
401.72374475
401.756091285
402.621361089
402.180639553
401.299196482
403.045909357
401.756091285
402.164466286
401.315369749
401.739918017

Block: 4
======================================
401.26280663
401.278979897
401.283023214
401.719701433
401.735874701
401.691398215
401.266849947
401.703528166
401.299196482
402.148293018
401.299196482
401.299196482
401.707571483
401.72374475
401.295153165
401.707571483
402.144249701
401.26280663
402.552624702
401.246633363
401.691398215
401.26280663
401.266849947
401.246633363
401.687354898

Block: 5
======================================
403.401721239
401.25067668
401.687354898
401.230460095
401.266849947
401.230460095
401.246633363
401.691398215
402.095729899
402.552624702
402.132119751
401.671181631
401.687354898
402.111903167
402.940783119
401.703528166
401.214286828
401.638835096
401.687354898
401.283023214
401.246633363
401.214286828
401.230460095
401.230460095
401.26280663

Block: 6
======================================
401.72374475
401.299196482
401.72374475
401.283023214
401.72374475
401.299196482
402.164466286
401.295153165
402.605187821
401.26280663
401.283023214
401.299196482
401.703528166
401.283023214
401.703528166
402.164466286
401.72374475
401.278979897
401.278979897
401.707571483
401.278979897
401.719701433
401.299196482
401.703528166
401.278979897

Block: 7
======================================
402.144249701
401.299196482
402.148293018
401.278979897
402.164466286
401.703528166
401.72374475
402.584971237
401.283023214
401.703528166
401.72374475
402.132119751
401.707571483
403.434067774
401.72374475
401.739918017
401.671181631
401.283023214
401.26280663
402.132119751
403.417894506
401.703528166
401.719701433
401.703528166
401.703528166

Block: 8
======================================
403.434067774
401.703528166
402.148293018
401.707571483
402.132119751
402.605187821
401.719701433
402.148293018
402.56879797
402.605187821
404.707712579
402.132119751
402.128076434
403.013562822
403.858616042
402.128076434
402.552624702
402.552624702
403.438111091
402.160422969
401.687354898
402.132119751
403.417894506
402.144249701
403.450241041

Block: 9
======================================
402.977172971
402.944826436
403.858616042
402.520278168
402.572841287
403.858616042
404.266991043
403.009519506
402.536451435
402.552624702
402.132119751
402.56879797
402.128076434
402.132119751
402.572841287
403.878832626
403.013562822
402.552624702
404.707712579
402.977172971
402.536451435
402.997389555
402.552624702
402.993346238
403.417894506

Block: 10
======================================
402.128076434
401.72374475
402.605187821
402.605187821
402.605187821
402.160422969
401.72374475
401.739918017
403.045909357
403.890962577
403.02973609
401.756091285
402.176596236
403.045909357
401.942083859
402.19681282
401.299196482
401.315369749
401.756091285
401.772264552
401.756091285
403.078255892
402.19681282
402.176596236
401.72374475

Block: 1
======================================
399.924468756
399.48374722
399.48374722
399.48374722
399.467573953
399.924468756
401.214286828
399.924468756
400.757392025
401.214286828
399.908295488
399.904252172
399.467573953
399.924468756
399.48374722
399.940642023
399.892122221
400.773565292
399.904252172
400.369233608
399.499920487
399.924468756
399.928512073
400.365190291
399.48374722

Block: 2
======================================
399.516093755
399.48374722
399.908295488
399.499920487
399.924468756
402.079556632
399.924468756
400.385406876
400.826128411
399.940642023
400.838258362
400.365190291
399.48374722
400.365190291
401.230460095
399.928512073
400.381363559
401.655008364
400.78973856
400.822085094
401.230460095
399.94468534
399.94468534
399.95681529
399.516093755

Block: 3
======================================
400.809955144
399.520137072
400.805911827
401.230460095
400.381363559
401.230460095
400.401580143
399.94468534
399.924468756
399.95681529
400.385406876
399.940642023
400.842301679
399.940642023
399.940642023
400.381363559
400.365190291
399.95681529
399.993205142
400.385406876
400.41775341
399.960858607
399.977031875
400.397536826
401.299196482

Block: 4
======================================
400.074071479
400.535009599
401.41645267
400.078114796
400.094288063
399.63739326
400.518836331
399.621219993
400.518836331
400.518836331
400.927211332
399.617176676
400.078114796
399.63739326
400.078114796
399.621219993
399.63739326
399.633349943
400.061941528
400.502663064
400.518836331
399.653566527
400.535009599
400.078114796
399.653566527

Block: 5
======================================
400.114504647
399.706129646
400.11046133
400.57139945
400.130677915
400.11046133
400.146851182
400.163024449
400.587572718
399.718259597
400.587572718
400.619919252
399.718259597
400.126634598
399.706129646
400.146851182
400.126634598
400.163024449
401.024250937
400.599702668
400.587572718
400.583529401
400.163024449
400.567356133
400.587572718

Block: 6
======================================
400.211544251
400.688655639
400.688655639
400.284323955
401.145550442
400.280280638
401.145550442
400.688655639
400.280280638
400.721002173
400.704828906
400.72504549
402.026993513
401.161723709
401.590315294
400.704828906
401.145550442
401.161723709
400.704828906
400.688655639
400.704828906
401.145550442
401.161723709
400.721002173
402.451541781

Block: 7
======================================
401.060640788
401.469015789
401.436669254
400.991904402
401.889520741
401.452842522
401.008077669
400.567356133
400.551182866
400.535009599
400.57139945
401.028294253
401.012120986
400.094288063
400.094288063
400.094288063
400.094288063
400.518836331
400.078114796
399.621219993
400.518836331
400.078114796
400.078114796
400.061941528
400.057898211

Block: 8
======================================
400.369233608
400.842301679
399.94468534
400.381363559
400.332843757
399.908295488
400.381363559
400.32880044
400.78973856
400.805911827
400.78973856
400.349017024
401.266849947
400.369233608
401.638835096
399.892122221
400.773565292
400.365190291
401.655008364
399.888078904
400.349017024
400.332843757
400.349017024
400.769521976
400.32880044

Block: 9
======================================
400.316670489
400.757392025
400.32880044
400.300497222
399.892122221
399.892122221
400.312627172
400.737175441
400.757392025
400.349017024
401.194070244
400.349017024
401.210243511
400.349017024
400.349017024
400.78973856
402.500061584
400.78973856
400.349017024
399.904252172
399.924468756
400.385406876
400.822085094
400.826128411
400.838258362

Block: 10
======================================
401.707571483
400.858474946
401.299196482
402.128076434
400.842301679
400.874648213
402.164466286
401.278979897
400.854431629
400.854431629
401.739918017
403.858616042
402.993346238
401.739918017
401.735874701
402.164466286
401.299196482
403.013562822
401.299196482
400.874648213
402.180639553
401.315369749
400.890821481
403.045909357
401.756091285
