
Block: 1
======================================
402.451541781
402.026993513
401.57009871
401.517535591
401.602445245
401.638835096
402.908436584
401.113203907
402.859916782
400.656309104
400.672482371
401.113203907
401.09703064
403.72114327
401.549882126
403.806052923
401.655008364
2175.64005582
401.707571483
403.385547972
401.671181631
403.062082624
401.756091285
404.857315302
401.841000938
2175.57131944
401.214286828
401.214286828
155.004594421
150.087921143
203.981291318
103.314831924
120.729397559
148.050089455
90.9503690243
101.378083158
153.156798625
61.2198602915
96.0045150757
55.251924634
96.938521266
58.967732811
215.480484414
90.8492861032
218.023730707
87.1496511936
220.482067347
86.3207712412
118.339797306
96.3603269577

Block: 2
======================================
402.144249701
401.707571483
402.160422969
402.180639553
401.331543016
401.772264552
401.776307869
401.347716284
401.347716284
401.792481136
401.347716284
401.41645267
401.41645267
401.400279403
401.808654404
401.347716284
401.351759601
402.233202672
401.756091285
243.613882995
2175.4176734
401.283023214
402.637534356
401.278979897
403.450241041
401.618618512
404.740059114
401.691398215
405.112044263
401.655008364
404.230601192
401.533708858
404.182081389
401.181940293
401.283023214
401.776307869
401.87739079
121.833223057
183.56254127
121.424848056
183.259292507
121.768529987
183.307812309
122.969395089
182.830700922
122.13647182
183.24311924
122.156688404
183.291639042
121.715966868

Block: 3
======================================
401.367932868
401.331543016
401.331543016
401.283023214
401.739918017
401.687354898
400.805911827
401.246633363
402.128076434
401.278979897
401.691398215
401.26280663
401.671181631
402.128076434
166.111585784
138.588728046
167.437793708
138.552338195
166.588697171
138.960713196
165.298879099
139.352914929
165.739600635
138.875803542
165.723427367
139.348871613
165.197796178
139.842156267
165.618301129
139.013276315
165.622344446
139.825983
164.793464494
141.588869143
164.757074642
140.335440922
164.296136522
142.559265184
162.537293696
142.777604294
162.331084538
142.332839441
162.739459538
144.047205782
161.057439733
143.574137712
161.85397315
144.439407516
160.564155078
144.487927318

Block: 4
======================================
402.075513315
401.26280663
401.707571483
401.703528166
401.703528166
401.703528166
402.536451435
402.091686583
401.671181631
402.079556632
401.655008364
401.691398215
401.707571483
402.128076434
403.401721239
401.671181631
401.687354898
401.687354898
401.655008364
401.655008364
401.25067668
401.230460095
401.214286828
401.655008364
401.622661829
401.177896976
401.618618512
401.618618512
401.181940293
401.857174206
401.198113561
402.500061584
401.655008364
403.757533121
401.214286828
401.181940293
401.177896976
402.059340048
402.026993513
401.145550442
401.602445245
402.026993513
401.602445245
401.129377174
401.57009871
402.471758366
401.618618512
401.63479178
401.161723709
402.892263317

Block: 5
======================================
401.214286828
402.487931633
401.655008364
401.655008364
401.655008364
402.111903167
401.230460095
401.246633363
402.128076434
402.981216288
401.671181631
401.230460095
402.536451435
402.111903167
401.687354898
401.655008364
401.671181631
401.230460095
401.230460095
401.246633363
403.385547972
401.671181631
401.230460095
401.671181631
401.671181631
401.214286828
401.655008364
402.520278168
401.638835096
402.520278168
401.214286828
401.671181631
402.928653169
401.198113561
401.638835096
402.079556632
401.181940293
401.194070244
401.198113561
401.198113561
401.638835096
401.63479178
402.079556632
402.079556632
402.063383365
401.198113561
401.638835096
402.5041049
401.230460095
401.161723709

Block: 6
======================================
401.194070244
402.095729899
401.198113561
401.655008364
401.638835096
401.622661829
401.214286828
402.928653169
401.198113561
401.198113561
401.638835096
401.63479178
401.63479178
401.214286828
401.622661829
401.230460095
401.214286828
401.198113561
401.177896976
401.161723709
401.165767026
401.198113561
401.198113561
401.602445245
401.622661829
401.602445245
401.198113561
403.316811585
401.606488562
401.177896976
401.622661829
402.059340048
401.602445245
401.181940293
401.622661829
401.602445245
402.047210097
402.04316678
402.026993513
402.451541781
401.586271977
401.602445245
401.618618512
402.04316678
401.606488562
401.586271977
402.435368514
401.994646978
401.57009871
401.57009871

Block: 7
======================================
401.044467521
400.991904402
401.400279403
401.808654404
401.384106135
403.094429159
401.363889551
401.363889551
400.906994748
401.367932868
400.890821481
400.466273212
400.454143262
401.299196482
400.78973856
400.78973856
402.451541781
400.721002173
400.721002173
400.704828906
400.688655639
400.619919252
400.619919252
400.995947719
400.923168015
399.989161825
401.735874701
400.094288063
400.114504647
400.502663064
400.025551677
400.025551677
400.514793015
400.061941528
400.094288063
400.959557867
400.11046133
400.518836331
400.057898211
400.466273212
400.890821481
400.009378409
400.858474946
400.385406876
400.365190291
401.618618512
400.332843757
400.312627172
402.03103683
400.300497222

Block: 8
======================================
400.211544251
400.587572718
401.990603662
400.551182866
400.179197717
400.195370984
401.962300444
400.704828906
400.721002173
401.145550442
400.688655639
400.247934103
401.925910592
400.163024449
400.587572718
400.587572718
401.012120986
400.567356133
400.163024449
400.179197717
399.734432864
400.640135837
399.774866033
400.199414301
401.942083859
399.823385835
400.704828906
399.839559102
400.296453905
400.280280638
400.280280638
401.586271977
400.688655639
400.688655639
402.026993513
400.332843757
400.842301679
402.144249701
400.41775341
400.397536826
400.858474946
400.838258362
400.41775341
399.977031875
400.41775341
400.397536826
401.315369749
402.56879797
400.874648213
400.858474946

Block: 9
======================================
400.874648213
401.315369749
400.858474946
400.401580143
400.397536826
400.433926678
400.41775341
401.283023214
400.433926678
400.842301679
401.26280663
400.41775341
400.41775341
400.858474946
400.401580143
401.719701433
400.397536826
400.413710093
400.858474946
400.433926678
399.989161825
400.842301679
399.972988558
400.433926678
400.433926678
399.993205142
400.413710093
401.295153165
400.874648213
399.993205142
400.858474946
401.703528166
400.413710093
400.858474946
399.977031875
400.429883361
400.450099945
401.299196482
400.433926678
400.454143262
400.025551677
399.977031875
400.413710093
400.433926678
402.132119751
400.433926678
400.466273212
400.466273212
400.48244648
400.450099945

Block: 10
======================================
399.977031875
399.940642023
399.972988558
400.41775341
400.401580143
399.972988558
400.433926678
400.433926678
400.450099945
400.009378409
400.450099945
400.009378409
400.009378409
400.470316529
400.429883361
400.009378409
399.993205142
400.874648213
400.009378409
400.874648213
400.433926678
400.450099945
400.433926678
400.450099945
400.450099945
400.009378409
400.025551677
399.972988558
399.993205142
400.397536826
400.41775341
400.397536826
401.26280663
399.960858607
400.401580143
399.960858607
402.128076434
400.858474946
399.960858607
400.854431629
400.433926678
400.450099945
400.009378409
400.486489797
400.890821481
401.299196482
400.433926678
399.993205142
400.874648213
399.940642023

Block: 1
======================================
400.486489797
401.363889551
400.502663064
400.498619747
400.939341283
400.9433846
401.384106135
400.502663064
400.518836331
402.265549207
400.535009599
400.502663064
400.498619747
400.959557867
402.669880891
400.502663064
401.363889551
400.518836331
400.535009599
400.9433846
401.400279403
400.535009599
401.841000938
401.841000938
400.535009599
401.824827671
400.535009599
402.726487327
401.420495987
400.535009599
400.57139945
401.400279403
401.008077669
401.400279403
400.975731134
401.380062819
400.551182866
400.995947719
400.991904402
400.567356133
401.452842522
401.028294253
400.142807865
400.126634598
400.146851182
400.583529401
401.893564057
401.432625937
400.163024449
400.567356133

Block: 2
======================================
401.044467521
400.555226183
400.126634598
400.587572718
400.11046133
400.567356133
400.991904402
400.975731134
400.567356133
400.587572718
400.991904402
400.991904402
400.991904402
400.551182866
400.583529401
401.012120986
400.551182866
401.012120986
400.991904402
400.995947719
401.452842522
400.57139945
400.555226183
400.57139945
401.873347473
401.008077669
400.587572718
400.587572718
400.567356133
401.008077669
401.861217523
401.432625937
400.146851182
400.146851182
401.436669254
400.567356133
400.567356133
401.008077669
401.012120986
400.146851182
400.991904402
401.857174206
400.587572718
401.012120986
400.991904402
400.991904402
400.57139945
400.567356133
400.599702668
400.551182866

Block: 3
======================================
401.044467521
402.330242276
400.603745985
401.873347473
400.603745985
401.028294253
400.583529401
402.314069009
400.603745985
401.893564057
401.448799205
400.603745985
400.603745985
401.432625937
401.485189056
401.028294253
400.603745985
402.72244401
401.024250937
400.567356133
401.028294253
401.464972472
401.028294253
401.452842522
402.758833861
401.448799205
401.893564057
402.726487327
401.873347473
403.163165545
401.432625937
401.436669254
401.893564057
401.719701433
403.163165545
401.452842522
403.587713814
401.469015789
403.167208862
401.857174206
401.448799205
401.857174206
401.448799205
403.587713814
401.857174206
401.436669254
401.857174206
401.841000938
401.841000938
401.432625937

Block: 4
======================================
401.485189056
402.72244401
401.452842522
401.028294253
401.469015789
401.469015789
401.485189056
402.738617277
401.857174206
401.028294253
401.485189056
401.012120986
401.044467521
401.028294253
401.464972472
401.028294253
401.485189056
400.603745985
401.469015789
401.893564057
400.603745985
403.607930398
401.028294253
400.603745985
400.587572718
401.48114574
401.485189056
401.024250937
401.044467521
401.469015789
401.452842522
402.742660594
401.044467521
401.008077669
401.044467521
401.909737325
402.738617277
401.448799205
401.448799205
401.008077669
401.448799205
401.044467521
401.028294253
401.012120986
401.008077669
402.314069009
402.72244401
401.028294253
403.163165545
401.028294253

Block: 5
======================================
401.024250937
401.024250937
401.060640788
401.469015789
401.024250937
400.603745985
401.028294253
401.909737325
400.63609252
401.064684105
400.619919252
401.469015789
400.603745985
402.726487327
401.909737325
401.028294253
401.024250937
402.334285593
400.195370984
400.179197717
401.044467521
400.603745985
400.142807865
400.195370984
400.599702668
401.060640788
401.469015789
400.158981133
401.044467521
401.028294253
401.044467521
400.195370984
401.044467521
400.179197717
400.179197717
402.330242276
402.754790545
402.330242276
400.195370984
400.179197717
400.163024449
400.163024449
400.619919252
401.893564057
400.163024449
401.889520741
400.163024449
400.179197717
402.301939058
400.599702668

Block: 6
======================================
400.142807865
400.11046133
400.555226183
401.024250937
400.142807865
400.587572718
400.583529401
401.452842522
399.706129646
400.163024449
400.603745985
401.008077669
399.722302914
400.603745985
401.008077669
400.163024449
400.587572718
400.163024449
399.738476181
400.163024449
400.587572718
400.142807865
400.583529401
400.158981133
400.587572718
401.452842522
400.163024449
400.599702668
401.905694008
400.163024449
400.158981133
400.126634598
402.334285593
400.158981133
400.163024449
401.060640788
401.436669254
400.163024449
400.587572718
400.179197717
400.163024449
400.603745985
400.599702668
400.146851182
400.158981133
401.469015789
400.163024449
401.893564057
401.024250937
400.603745985

Block: 7
======================================
400.587572718
401.008077669
400.603745985
400.603745985
401.889520741
400.587572718
401.028294253
400.619919252
400.179197717
400.211544251
400.619919252
400.195370984
401.044467521
400.179197717
400.215587568
401.485189056
400.721002173
402.334285593
400.231760836
400.603745985
400.619919252
400.211544251
400.227717519
401.485189056
400.195370984
400.656309104
400.619919252
401.464972472
400.619919252
400.619919252
400.599702668
401.060640788
400.619919252
401.044467521
401.485189056
400.63609252
400.179197717
401.889520741
401.060640788
400.63609252
400.583529401
400.619919252
401.044467521
401.044467521
400.179197717
400.619919252
401.889520741
401.044467521
400.619919252
401.044467521

Block: 8
======================================
400.587572718
400.603745985
400.587572718
400.587572718
401.028294253
402.738617277
400.619919252
401.469015789
400.603745985
401.044467521
401.873347473
400.619919252
401.028294253
401.012120986
401.028294253
401.012120986
401.857174206
401.044467521
401.012120986
400.567356133
401.432625937
401.012120986
401.448799205
401.893564057
402.281722474
402.281722474
402.706270742
401.432625937
400.975731134
400.991904402
400.975731134
400.567356133
402.706270742
401.024250937
402.281722474
401.452842522
400.603745985
401.87739079
400.603745985
401.452842522
400.567356133
401.008077669
401.873347473
401.024250937
401.024250937
400.603745985
401.012120986
401.893564057
400.603745985
401.028294253

Block: 9
======================================
401.436669254
402.754790545
401.857174206
401.452842522
401.464972472
402.35045886
401.485189056
401.893564057
404.048651934
401.432625937
401.909737325
401.469015789
401.909737325
401.485189056
401.464972472
401.485189056
401.889520741
403.624103665
401.469015789
401.028294253
401.028294253
401.028294253
401.044467521
401.469015789
401.028294253
401.008077669
403.620060349
401.469015789
401.012120986
401.044467521
401.873347473
401.012120986
401.452842522
401.008077669
401.464972472
401.448799205
401.87739079
401.432625937
401.909737325
401.909737325
401.452842522
401.87739079
401.448799205
401.452842522
402.334285593
401.873347473
402.314069009
401.87739079
402.318112326
401.452842522

Block: 10
======================================
402.791180396
401.044467521
403.19551208
401.485189056
401.909737325
401.909737325
401.505405641
401.469015789
402.346415544
404.044608617
402.366632128
401.501362324
401.501362324
402.827570248
402.366632128
401.974430394
401.113203907
401.974430394
401.978473711
401.10916059
401.113203907
400.652265787
401.129377174
401.092987323
401.113203907
401.092987323
401.092987323
401.129377174
401.129377174
400.684612322
400.684612322
401.129377174
400.704828906
400.688655639
400.280280638
400.688655639
402.451541781
401.10916059
401.129377174
402.419195247
401.092987323
401.978473711
400.672482371
402.823526931
401.129377174
401.533708858
401.517535591
401.537752175
402.807353663
401.080857372
