
Block: 1
======================================
400.486489797
400.450099945
400.466273212
401.331543016
400.470316529

Average distance is : 400.641 cm
Average deviation is : 0.386 cm
Block: 2
======================================
401.315369749
399.993205142
400.450099945
400.433926678
400.413710093

Average distance is : 400.521 cm
Average deviation is : 0.483 cm
Block: 3
======================================
400.025551677
399.993205142
399.960858607
400.029594994
400.450099945

Average distance is : 400.092 cm
Average deviation is : 0.202 cm
Block: 4
======================================
400.450099945
400.41775341
400.874648213
400.009378409
400.025551677

Average distance is : 400.355 cm
Average deviation is : 0.357 cm
Block: 5
======================================
400.433926678
399.977031875
399.972988558
399.977031875
399.993205142

Average distance is : 400.071 cm
Average deviation is : 0.203 cm
Block: 6
======================================
399.993205142
399.993205142
399.993205142
400.858474946
401.707571483

Average distance is : 400.509 cm
Average deviation is : 0.768 cm
Block: 7
======================================
399.536310339
399.552483606
400.450099945
400.433926678
400.401580143

Average distance is : 400.075 cm
Average deviation is : 0.485 cm
Block: 8
======================================
399.977031875
399.977031875
399.993205142
399.536310339
400.41775341

Average distance is : 399.980 cm
Average deviation is : 0.312 cm
Block: 9
======================================
399.972988558
400.41775341
399.977031875
399.972988558
399.536310339

Average distance is : 399.975 cm
Average deviation is : 0.312 cm
Block: 10
======================================
399.993205142
399.516093755
399.960858607
399.972988558
399.977031875

Average distance is : 399.884 cm
Average deviation is : 0.206 cm