
Block: 1
======================================
300.589683247
300.162859392
300.622203159
299.736035538
299.736035538
300.162859392
301.049027014
300.179119349
300.162859392
300.142534447
299.715710592
300.158794403
299.699450636
210.204650831
298.866127872
300.638463116
300.179119349
300.622203159
300.605943203
299.736035538
300.146599436
300.158794403
300.622203159
300.179119349
300.622203159

Average distance is : 296.588 cm
Average deviation is : 18.002 cm
Block: 2
======================================
300.146599436
301.06528697
299.703515625
300.179119349
300.605943203
300.142534447
300.601878214
300.605943203
300.142534447
299.719775581
301.06528697
300.162859392
300.179119349
300.622203159
300.146599436
300.162859392
300.179119349
300.179119349
300.146599436
300.162859392
300.605943203
300.162859392
300.142534447
300.158794403
300.158794403

Average distance is : 300.286 cm
Average deviation is : 0.332 cm
Block: 3
======================================
300.162859392
300.158794403
300.179119349
300.175054359
300.601878214
299.719775581
300.142534447
300.179119349
300.158794403
300.601878214
300.622203159
300.179119349
300.162859392
300.162859392
300.605943203
300.162859392
300.638463116
301.032767057
300.162859392
300.146599436
300.142534447
300.158794403
300.61813817
300.605943203
300.162859392

Average distance is : 300.306 cm
Average deviation is : 0.279 cm
Block: 4
======================================
300.589683247
300.142534447
300.158794403
300.146599436
299.719775581
300.589683247
300.162859392
301.475850868
299.736035538
300.605943203
300.589683247
301.028702068
301.475850868
300.162859392
299.719775581
300.162859392
210.172130919
298.882387829
301.032767057
301.049027014
301.028702068
301.06528697
299.68319068
301.069351959
299.715710592

Average distance is : 296.807 cm
Average deviation is : 18.060 cm
Block: 5
======================================
300.110014534
300.638463116
300.130339479
300.130339479
300.110014534
300.162859392
299.687255669
299.68319068
300.788867712
300.142534447
299.715710592
300.569358301
301.032767057
300.146599436
300.162859392
300.146599436
300.158794403
300.589683247
301.049027014
299.699450636
300.130339479
300.146599436
299.699450636
300.158794403
299.719775581

Average distance is : 300.188 cm
Average deviation is : 0.397 cm
Block: 6
======================================
300.142534447
300.142534447
299.699450636
301.028702068
301.455525923
207.412003326
300.553098345
300.12627449
300.146599436
301.032767057
299.699450636
301.032767057
300.146599436
300.622203159
300.585618258
300.158794403
299.687255669
300.146599436
301.032767057
299.703515625
300.057169676
300.130339479
301.049027014
300.162859392
300.162859392

Average distance is : 296.645 cm
Average deviation is : 18.597 cm
Block: 7
======================================
300.162859392
300.110014534
299.699450636
209.814411879
298.829542971
300.130339479
300.12627449
300.57342329
300.12627449
300.146599436
300.130339479
299.699450636
300.146599436
300.179119349
300.589683247
300.077494621
300.569358301
300.130339479
300.605943203
301.028702068
299.68319068
301.016507101
300.12627449
300.142534447
301.049027014

Average distance is : 296.596 cm
Average deviation is : 18.086 cm
Block: 8
======================================
300.605943203
300.536838388
300.536838388
300.146599436
301.012442112
300.589683247
299.68319068
300.114079523
300.110014534
300.589683247
299.68319068
301.028702068
299.68319068
301.032767057
300.569358301
300.569358301
300.12627449
300.114079523
300.12627449
300.146599436
300.12627449
300.585618258
300.589683247
300.146599436
300.110014534

Average distance is : 300.343 cm
Average deviation is : 0.390 cm
Block: 9
======================================
301.044962025
300.12627449
300.622203159
300.162859392
300.585618258
301.049027014
300.585618258
300.142534447
300.57342329
301.032767057
300.622203159
300.585618258
301.032767057
300.146599436
301.032767057
301.028702068
300.585618258
301.032767057
301.028702068
301.032767057
300.146599436
300.142534447
300.585618258
300.146599436
301.016507101

Average distance is : 300.644 cm
Average deviation is : 0.370 cm
Block: 10
======================================
300.605943203
300.585618258
300.110014534
300.162859392
301.016507101
300.12627449
300.605943203
300.179119349
300.179119349
300.158794403
300.605943203
300.146599436
300.130339479
300.142534447
300.142534447
300.146599436
300.146599436
300.142534447
300.158794403
210.204650831
298.845802927
301.049027014
301.049027014
301.032767057
300.162859392

Average distance is : 296.713 cm
Average deviation is : 18.028 cm