
Block: 1
======================================
300.553098345
300.585618258
300.146599436
300.110014534
301.032767057
300.162859392
301.049027014
301.012442112
300.142534447
300.158794403
300.162859392
300.146599436
301.488045835
300.142534447
300.162859392
300.622203159
301.049027014
300.162859392
300.622203159
301.508370781
300.142534447
300.162859392
300.162859392
300.146599436
300.142534447
300.142534447
300.162859392
300.162859392
300.146599436
301.06528697
300.162859392
300.162859392
300.162859392
301.06528697
300.585618258
301.06528697
300.589683247
300.585618258
301.06528697
301.06528697
299.719775581
301.06528697
300.605943203
300.622203159
301.492110825
301.06528697
299.703515625
301.049027014
299.699450636
301.06528697

Block: 2
======================================
301.028702068
301.06528697
299.719775581
300.589683247
301.06528697
300.158794403
300.175054359
300.158794403
300.12627449
299.68319068
299.719775581
300.162859392
300.146599436
299.68319068
300.179119349
301.049027014
300.142534447
300.146599436
300.605943203
300.622203159
300.162859392
300.162859392
300.162859392
300.601878214
300.142534447
300.146599436
300.146599436
300.158794403
299.699450636
300.162859392
300.130339479
301.049027014
300.622203159
299.699450636
300.142534447
300.158794403
300.146599436
299.853920221
300.142534447
300.130339479
299.687255669
300.162859392
300.601878214
301.028702068
299.68319068
300.638463116
300.589683247
299.719775581
300.130339479
300.589683247

Block: 3
======================================
300.162859392
300.589683247
300.146599436
300.179119349
300.146599436
301.032767057
300.146599436
301.049027014
300.146599436
300.142534447
301.049027014
300.162859392
300.12627449
300.146599436
300.162859392
300.12627449
300.142534447
300.142534447
300.12627449
300.162859392
300.146599436
300.142534447
300.142534447
300.622203159
301.049027014
300.589683247
301.06528697
300.179119349
210.224975777
299.752295494
300.57342329
208.928244257
299.309211683
300.12627449
300.146599436
300.622203159
300.142534447
300.605943203
300.179119349
300.162859392
300.162859392
300.146599436
300.569358301
301.032767057
300.589683247
300.142534447
301.044962025
301.049027014
299.699450636
300.146599436

Block: 4
======================================
300.589683247
300.110014534
300.195379305
301.012442112
301.032767057
301.032767057
301.028702068
301.028702068
300.130339479
300.162859392
300.162859392
301.032767057
300.158794403
300.569358301
301.049027014
300.130339479
301.032767057
300.622203159
301.032767057
301.06528697
300.589683247
301.459590912
300.146599436
300.162859392
300.585618258
300.142534447
301.032767057
300.142534447
300.585618258
301.049027014
301.049027014
300.146599436
300.162859392
300.146599436
300.142534447
300.601878214
300.158794403
300.162859392
300.162859392
301.475850868
300.162859392
300.622203159
300.605943203
300.146599436
300.146599436
300.142534447
300.158794403
300.638463116
300.142534447
300.162859392

Block: 5
======================================
300.638463116
300.622203159
300.162859392
301.032767057
300.605943203
301.049027014
300.605943203
300.142534447
300.638463116
300.162859392
300.179119349
300.162859392
300.622203159
300.158794403
300.601878214
301.049027014
300.158794403
300.162859392
300.162859392
300.162859392
300.585618258
300.179119349
300.622203159
301.06528697
300.605943203
300.605943203
300.605943203
300.162859392
300.589683247
300.622203159
300.589683247
299.719775581
300.605943203
300.162859392
300.622203159
300.162859392
300.622203159
300.605943203
299.719775581
301.471785879
300.605943203
300.622203159
300.589683247
300.589683247
300.605943203
300.605943203
300.622203159
300.158794403
300.142534447
300.12627449

Block: 6
======================================
299.68319068
300.199444294
300.12627449
300.179119349
300.175054359
300.605943203
300.179119349
300.622203159
300.601878214
300.622203159
300.130339479
300.146599436
300.162859392
300.158794403
300.162859392
300.622203159
300.179119349
300.605943203
300.605943203
300.146599436
300.638463116
300.146599436
209.798151922
299.309211683
300.195379305
300.12627449
299.752295494
300.158794403
300.142534447
300.158794403
300.622203159
301.081546926
301.475850868
299.736035538
300.622203159
300.158794403
300.622203159
300.179119349
300.146599436
300.605943203
300.61813817
300.605943203
300.622203159
300.622203159
300.622203159
300.622203159
300.601878214
300.605943203
300.622203159
300.158794403

Block: 7
======================================
299.736035538
301.06528697
299.736035538
300.179119349
299.699450636
300.146599436
300.601878214
299.736035538
299.715710592
300.638463116
300.605943203
299.719775581
300.605943203
299.719775581
300.622203159
299.666930723
300.179119349
300.622203159
300.622203159
300.601878214
300.158794403
299.736035538
299.719775581
300.605943203
299.699450636
300.622203159
300.622203159
300.585618258
299.736035538
300.199444294
299.699450636
299.699450636
300.605943203
300.569358301
300.605943203
299.736035538
300.622203159
300.142534447
299.752295494
300.601878214
299.715710592
300.605943203
299.736035538
300.162859392
299.68319068
300.142534447
300.158794403
299.715710592
300.158794403
299.719775581

Block: 8
======================================
299.715710592
300.589683247
300.569358301
300.179119349
299.736035538
299.715710592
300.158794403
300.158794403
300.142534447
300.142534447
300.162859392
300.146599436
300.162859392
300.162859392
300.585618258
300.605943203
300.162859392
300.162859392
300.162859392
299.715710592
301.049027014
300.142534447
300.605943203
300.162859392
300.146599436
300.146599436
300.162859392
300.142534447
300.158794403
299.699450636
299.703515625
300.162859392
300.179119349
299.68319068
300.158794403
299.699450636
299.666930723
300.162859392
300.638463116
299.68319068
300.146599436
300.146599436
301.475850868
300.162859392
300.585618258
300.162859392
300.589683247
300.146599436
300.162859392
299.699450636

Block: 9
======================================
300.130339479
300.179119349
300.146599436
300.12627449
300.179119349
300.158794403
300.142534447
300.142534447
299.719775581
301.032767057
300.146599436
301.508370781
300.162859392
301.081546926
300.12627449
300.12627449
300.158794403
300.589683247
299.699450636
300.130339479
299.699450636
301.049027014
300.162859392
299.703515625
300.142534447
300.622203159
300.146599436
300.146599436
300.146599436
300.162859392
300.162859392
300.622203159
299.736035538
300.162859392
300.162859392
300.142534447
300.175054359
300.158794403
299.699450636
301.06528697
299.68319068
300.162859392
300.162859392
299.719775581
299.719775581
300.162859392
299.719775581
300.142534447
301.049027014
300.179119349

Block: 10
======================================
300.605943203
301.471785879
299.715710592
300.146599436
301.049027014
299.666930723
300.162859392
300.12627449
300.146599436
300.162859392
300.142534447
300.158794403
300.158794403
300.142534447
300.146599436
300.146599436
300.162859392
300.622203159
299.703515625
300.142534447
300.179119349
301.032767057
300.12627449
300.142534447
299.752295494
300.601878214
300.605943203
300.146599436
300.162859392
300.146599436
300.179119349
300.158794403
299.699450636
300.162859392
300.622203159
300.146599436
301.032767057
299.699450636
300.162859392
300.146599436
299.687255669
299.703515625
300.158794403
300.162859392
301.06528697
300.585618258
300.142534447
299.68319068
299.719775581
299.68319068
