
Block: 1
======================================
102.5492
102.5492
103.4153
102.5492
102.9476
102.5665
103.4153
102.5492
102.9476
102.9476
102.9476
102.6531
102.5492
103.5193
102.5492
102.6705
102.5665
102.9996
103.4326
103.3807
103.4153
102.5319
102.5492
103.4153
102.5492
102.9476
103.935
102.5492
102.6531
102.5665
103.4153
103.4326
102.5665
102.5492
102.5665
102.5838
102.5665
102.5492
102.5492
102.9649
102.5665
102.5838
102.5665
102.5838
103.4326
102.5838
102.5665
103.0689
103.3807
102.6705

Block: 2
======================================
103.0689
102.9996
103.4326
103.4326
102.5665
102.5492
102.9996
102.5665
102.5492
102.5838
102.9649
102.9649
102.5492
102.9649
103.4326
102.6878
102.5492
103.0689
102.5665
102.6878
102.5838
103.4326
102.9996
103.4326
103.4326
103.4326
102.5665
102.5838
103.0689
102.5492
102.6531
102.5665
102.6705
102.5492
102.6705
102.5492
103.5366
102.5492
102.5665
103.4326
102.5492
102.5665
102.5665
102.5665
102.5665
102.5492
102.5665
102.5665
102.9649
102.9996

Block: 3
======================================
102.9649
102.9649
103.5366
102.5492
102.6531
102.5665
102.6878
102.5665
103.0689
102.5838
103.4326
102.5665
102.5838
102.5665
103.4326
102.5665
102.5665
102.9649
102.5665
102.1681
102.5492
102.5665
102.5665
102.5665
102.9996
102.6531
102.5319
102.6358
103.3807
102.6185
102.913
102.5838
102.4972
102.6358
102.9303
102.5319
102.5146
103.398
102.4972
102.8956
103.3634
102.5146
102.5146
103.3807
103.398
102.913
102.6358
102.913
102.6531
102.4972

Block: 4
======================================
102.5319
102.6012
102.5319
103.398
103.3807
102.5492
102.5319
102.5492
102.5319
102.5146
102.5319
102.5319
102.5146
102.5146
102.5492
102.5492
103.398
102.5319
102.5492
102.5146
102.9823
102.5319
103.0516
102.5492
102.6705
102.5319
102.6531
102.5319
102.6531
102.5665
102.6705
103.4153
102.5665
103.8311
103.8311
103.8311
102.5319
102.6531
102.5319
102.6531
102.5492
102.6531
102.5492
103.0516
102.5492
103.0689
102.5492
102.5492
102.5665
102.9996

Block: 5
======================================
102.9649
102.5492
102.1508
103.4153
102.9996
103.4153
102.5665
102.5665
102.9649
103.0689
102.5665
102.6705
102.5665
103.0689
102.5665
102.6705
102.5492
102.9996
102.5492
102.5665
103.4153
102.5665
102.5665
102.5665
102.5492
102.5665
102.5492
102.9476
102.9303
102.5146
102.5492
102.5319
102.5319
102.5492
102.5492
102.5319
103.0862
102.5319
102.6358
102.9303
103.0169
102.913
102.6185
102.5319
102.5319
102.5319
102.5319
102.5319
102.5492
102.5838

Block: 6
======================================
102.5838
102.5665
102.5665
103.4326
102.5838
102.5665
102.5492
102.5665
102.5665
102.5665
102.5492
102.5319
102.9649
102.5492
103.0516
103.3634
102.6705
102.5665
103.5193
102.5319
103.4153
103.4153
102.9476
102.5492
102.5492
102.5665
102.5319
102.5492
102.9649
102.5665
102.5492
102.5492
102.1681
102.5492
102.5492
103.0516
102.9649
102.6531
102.5492
103.5366
102.9996
102.5665
102.5492
102.5665
102.5838
102.5492
102.5665
102.5492
102.5838
102.9649

Block: 7
======================================
103.4326
103.4326
103.4326
103.5193
102.5492
102.6878
102.5665
102.6705
102.5838
102.9649
102.5838
102.5665
102.5665
102.5492
102.5665
102.9649
102.5492
102.5665
102.5665
102.9823
103.8657
102.5665
102.5838
102.5838
102.6878
102.1508
102.6878
102.9649
103.1208
102.5665
102.6705
103.4326
103.4326
102.5665
103.4326
102.9823
103.4326
103.4326
102.5665
102.5838
103.4326
103.5366
102.5665
102.6531
103.3807
102.5838
102.9649
103.4326
102.5665
102.5665

Block: 8
======================================
103.4326
102.5492
102.5665
103.4326
103.4153
102.6705
102.5665
103.5193
102.5665
102.5492
102.9649
102.5492
102.1681
102.5665
102.5665
102.5492
102.5665
102.9476
102.5665
102.5492
102.5665
103.4153
102.5492
102.5665
103.4326
102.5665
102.6705
102.9823
103.5193
103.3807
103.3807
102.9649
102.5665
102.9649
102.5665
102.5665
102.9996
102.5492
103.4153
102.5665
102.5665
102.5665
102.9649
102.5665
103.4326
102.5838
102.9649
103.0169
102.5838
103.0862

Block: 9
======================================
102.6878
102.5665
102.6878
102.5492
102.9823
102.5838
102.5665
103.4326
102.5492
103.4326
102.5838
102.5665
102.9823
102.9996
102.5492
103.4153
102.5838
103.5366
102.5838
103.0689
102.5665
103.4326
102.5492
102.5665
102.5492
102.9649
102.5665
102.9823
102.9649
102.5665
102.5665
102.5838
102.5838
102.5665
102.5492
103.4326
102.5665
102.5492
102.6705
103.4326
102.6705
102.5492
102.6531
102.5665
102.6878
102.5665
103.4326
102.9823
103.4326
102.5665

Block: 10
======================================
102.5838
102.5838
102.5665
103.4326
102.1681
102.5665
102.9649
103.4326
102.6878
102.5838
103.5366
102.9996
103.4326
102.5665
102.5665
102.5492
102.5838
102.9649
102.5665
102.5838
102.5838
102.9649
103.4153
102.5838
102.5665
102.272
102.5665
102.6878
102.5665
102.6705
102.5838
102.6878
102.5665
102.6878
102.5665
102.6878
103.4326
102.5838
102.5665
102.5492
102.5492
102.5838
102.9649
102.9996
102.5665
103.4326
102.9649
102.5665
102.9649
102.5838
