
Block: 1
======================================
103.3807
102.5146
102.5319
102.5492
102.5492
102.5492
102.9476
102.5146
102.5492
103.8311

Average distance is : 102.792 cm
Average deviation is : 0.460 cm
Block: 2
======================================
102.5492
102.5492
102.5665
102.5492
102.5492
102.6358
102.5492
102.6358
102.9476
102.6358

Average distance is : 102.617 cm
Average deviation is : 0.123 cm
Block: 3
======================================
103.0342
102.5146
103.398
102.5319
103.8137
103.8311
103.398
102.5319
102.5492
103.398

Average distance is : 103.100 cm
Average deviation is : 0.538 cm
Block: 4
======================================
103.0689
102.5319
103.0862
102.5319
103.0862
102.5319
102.5492
102.9476
102.5319
102.5492

Average distance is : 102.741 cm
Average deviation is : 0.266 cm
Block: 5
======================================
102.5492
102.9476
102.5492
103.8311
103.398
102.5319
102.6358
103.3807
103.0516
102.5492

Average distance is : 102.942 cm
Average deviation is : 0.463 cm
Block: 6
======================================
102.5492
102.6705
102.5492
102.5492
103.8137
103.398
103.398
102.9823
102.5319
102.5319

Average distance is : 102.897 cm
Average deviation is : 0.475 cm
Block: 7
======================================
102.5665
102.5492
102.9649
103.5193
102.5492
102.6705
103.4153
102.9476
102.5319
102.5319

Average distance is : 102.825 cm
Average deviation is : 0.377 cm
Block: 8
======================================
102.9303
102.5146
102.5146
102.913
102.5146
102.5146
102.4972
102.8783
102.5146
102.913

Average distance is : 102.670 cm
Average deviation is : 0.205 cm
Block: 9
======================================
102.9303
102.5492
102.6531
103.4326
103.5366
102.9823
102.9649
102.5665
102.5492
102.5665

Average distance is : 102.873 cm
Average deviation is : 0.369 cm
Block: 10
======================================
102.5492
102.5492
102.5492
102.9303
102.5319
102.5492
102.5492
102.5665
102.5665
102.9996

Average distance is : 102.634 cm
Average deviation is : 0.175 cm
Average distance for 10x10 is : 102.776 cm
Average deviation for 10x10 is : 0.353 cm
 Percentage of values that failed: 0.000