
Block: 1
======================================
50.3311947823
50.3681697845
50.3681697845
50.3681697845
49.9532280922
49.9532280922
30.7221185684
50.0066364288
49.3862780571
49.9902030945
50.3517364502
50.3681697845
50.4010364532
50.3517364502
50.3846031189
50.3681697845
50.3517364502
50.3681697845
50.3681697845
50.3476281166
50.3681697845
50.3846031189
50.4051447868
50.3681697845
50.3681697845
50.3846031189
50.3681697845
50.3517364502
50.3517364502
50.3681697845
50.3517364502
50.3681697845
50.3846031189
50.3887114525
50.3476281166
50.3681697845
50.3517364502
50.3846031189
50.3517364502
50.3681697845
50.3681697845
50.3517364502
50.3681697845
50.3846031189
50.3887114525
50.3681697845
50.3476281166
50.3681697845
50.3846031189
50.3846031189

Average distance is : 49.924 cm
Average deviation is : 2.776 cm
Block: 2
======================================
50.3517364502
50.3846031189
50.3846031189
50.3887114525
50.3846031189
50.3681697845
50.4215781212
49.9367947578
50.3681697845
40.3561608315
50.3887114525
50.3517364502
50.3311947823
50.3681697845
50.3846031189
50.3517364502
50.3681697845
50.3681697845
50.3517364502
50.3681697845
50.3476281166
50.4051447868
50.3476281166
38.0308440208
50.3681697845
50.3476281166
50.364061451
50.4051447868
50.3681697845
50.3681697845
50.3517364502
50.3846031189
50.3681697845
50.3517364502
50.3681697845
50.3846031189
50.3846031189
50.3846031189
50.3681697845
50.3517364502
50.3681697845
50.3887114525
50.3846031189
50.3846031189
50.3681697845
50.3681697845
50.3681697845
50.3846031189
50.3517364502
50.3846031189

Average distance is : 49.916 cm
Average deviation is : 2.224 cm
Block: 3
======================================
50.4010364532
50.3681697845
50.3353031158
50.3846031189
50.3681697845
50.3846031189
50.4010364532
50.3681697845
50.3846031189
50.3517364502
49.9737697601
50.3517364502
50.4010364532
50.3353031158
50.3681697845
50.3846031189
50.4051447868
40.4424358368
50.3517364502
50.3681697845
50.3681697845
50.3681697845
50.3681697845
50.3681697845
50.3681697845
50.3353031158
50.3681697845
50.3681697845
50.3476281166
50.3681697845
50.3517364502
50.3681697845
50.3846031189
50.3681697845
50.3517364502
50.3846031189
50.3846031189
50.3311947823
46.3871945381
50.3517364502
50.3517364502
50.3517364502
50.3846031189
50.3517364502
50.3517364502
50.3517364502
50.3681697845
50.3681697845
50.3476281166
50.3517364502

Average distance is : 50.080 cm
Average deviation is : 1.501 cm
Block: 4
======================================
32.5503270149
50.0230697632
50.3681697845
50.3517364502
50.0066364288
50.4010364532
50.3476281166
50.3846031189
50.3681697845
50.3846031189
50.3681697845
50.3681697845
50.3846031189
50.3681697845
50.3887114525
50.3681697845
50.3681697845
50.3517364502
50.3681697845
50.3681697845
50.3681697845
50.3681697845
50.3681697845
50.3887114525
50.3887114525
50.3188697815
50.3517364502
50.3681697845
50.3681697845
50.3681697845
50.3681697845
50.3681697845
50.3681697845
50.3681697845
50.3517364502
50.3517364502
50.3846031189
50.3846031189
50.3846031189
50.3681697845
50.3681697845
50.3846031189
50.3476281166
50.3517364502
50.3681697845
50.3681697845
50.3681697845
50.3476281166
50.3681697845
50.364061451

Average distance is : 49.998 cm
Average deviation is : 2.519 cm
Block: 5
======================================
50.3846031189
50.4174697876
50.3681697845
50.3681697845
49.9203614235
50.3846031189
50.3846031189
50.3846031189
50.3517364502
50.3681697845
50.3517364502
50.3846031189
50.3681697845
50.3846031189
50.3517364502
50.3681697845
50.3846031189
50.3681697845
50.3681697845
50.3517364502
50.4010364532
50.364061451
50.3681697845
50.3681697845
50.3846031189
50.3846031189
50.3846031189
50.3846031189
50.3311947823
50.3681697845
50.3681697845
50.3681697845
50.3681697845
50.364061451
50.3846031189
50.3681697845
50.3681697845
50.3681697845
50.3681697845
50.3846031189
50.3517364502
50.3517364502
50.3311947823
50.3517364502
50.3517364502
50.3681697845
50.3681697845
50.3846031189
50.3517364502
50.3846031189

Average distance is : 50.361 cm
Average deviation is : 0.066 cm
Block: 6
======================================
50.4010364532
49.9902030945
50.3681697845
50.3681697845
50.3681697845
50.4051447868
50.4010364532
49.9696614265
49.9367947578
50.3846031189
50.4010364532
50.3846031189
50.3846031189
50.3517364502
50.3681697845
49.9696614265
50.3846031189
50.3846031189
50.3681697845
50.3846031189
50.3517364502
50.3681697845
50.3846031189
50.3681697845
50.3846031189
50.3846031189
50.3681697845
50.3681697845
50.3846031189
50.3681697845
50.3681697845
50.3681697845
50.3681697845
50.3846031189
50.3681697845
50.3846031189
50.3517364502
50.364061451
50.364061451
50.3681697845
50.3517364502
50.3887114525
50.4010364532
30.6358435631
50.3517364502
50.3517364502
50.3517364502
50.3476281166
50.3517364502
50.3476281166

Average distance is : 49.946 cm
Average deviation is : 2.789 cm
Block: 7
======================================
50.0066364288
50.4174697876
50.3681697845
50.3681697845
50.3517364502
50.3681697845
50.3846031189
50.3353031158
49.9532280922
50.0066364288
49.9203614235
50.3517364502
50.4215781212
50.3681697845
50.3681697845
49.9367947578
50.3517364502
50.3681697845
50.3846031189
50.3846031189
50.3681697845
50.3681697845
50.3681697845
49.9902030945
50.3846031189
50.3517364502
50.3846031189
50.3681697845
50.3846031189
50.3681697845
50.3681697845
50.3517364502
50.3517364502
50.3681697845
50.3681697845
50.3846031189
50.3846031189
50.3681697845
50.3681697845
50.3681697845
50.3681697845
50.3517364502
50.3681697845
50.3681697845
50.3681697845
50.3517364502
50.3517364502
50.3846031189
50.3681697845
50.3681697845

Average distance is : 50.322 cm
Average deviation is : 0.133 cm
Block: 8
======================================
50.3517364502
50.3681697845
50.3681697845
50.3846031189
50.4010364532
50.4051447868
50.4010364532
50.3887114525
50.3846031189
50.3517364502
50.3311947823
50.3681697845
50.3846031189
50.3681697845
50.3887114525
50.364061451
50.3681697845
50.3517364502
50.3681697845
33.4993520737
50.3846031189
50.3311947823
50.3681697845
50.3517364502
50.3476281166
50.3517364502
50.3353031158
50.3517364502
50.3846031189
50.3517364502
50.3846031189
50.3681697845
50.3681697845
50.3846031189
50.3846031189
50.3681697845
50.3681697845
50.3681697845
50.3846031189
50.3846031189
50.3681697845
50.3476281166
50.3476281166
50.3846031189
50.3887114525
50.3681697845
50.3681697845
50.3681697845
50.3517364502
50.3681697845

Average distance is : 50.032 cm
Average deviation is : 2.386 cm
Block: 9
======================================
50.3846031189
50.3846031189
50.3681697845
50.4010364532
50.3681697845
50.3887114525
50.3681697845
50.3846031189
50.4010364532
50.4051447868
50.3846031189
50.3681697845
50.3846031189
50.3681697845
50.3681697845
50.3681697845
50.3517364502
50.3517364502
50.3681697845
50.4010364532
50.3681697845
50.3681697845
50.3846031189
50.3517364502
50.3846031189
50.4010364532
50.3681697845
49.9532280922
50.3681697845
50.3681697845
50.3353031158
50.3517364502
50.3681697845
50.3887114525
50.3846031189
50.3476281166
50.3517364502
50.3846031189
50.3681697845
50.3681697845
50.4010364532
50.3353031158
50.364061451
50.3517364502
50.3887114525
50.3517364502
50.3517364502
50.3517364502
50.3353031158
50.3517364502

Average distance is : 50.362 cm
Average deviation is : 0.062 cm
Block: 10
======================================
49.9696614265
50.3517364502
50.3846031189
49.9696614265
49.9696614265
50.3517364502
50.4010364532
49.9902030945
49.9532280922
50.3846031189
50.3517364502
49.9203614235
50.364061451
49.9696614265
49.9532280922
49.9696614265
49.9532280922
50.3846031189
49.9902030945
49.9696614265
49.9737697601
50.3846031189
50.3681697845
50.3846031189
50.3681697845
50.3846031189
49.9409030914
49.9367947578
50.3846031189
50.3681697845
50.3681697845
50.3517364502
50.3681697845
50.3846031189
50.3476281166
50.3681697845
50.3887114525
50.3681697845
50.3846031189
50.3681697845
50.3846031189
50.3681697845
50.3846031189
50.3517364502
50.3846031189
50.3846031189
50.3517364502
50.3517364502
50.3517364502
50.3517364502

Average distance is : 50.248 cm
Average deviation is : 0.190 cm