
Block: 1
======================================
200.161494088
200.161494088
199.701334
199.717622852
199.750200558
200.62572639
200.145205235
200.605365324
199.754272771
200.145205235
199.737983918
200.161494088
199.701334
199.717622852
200.128916383
199.717622852
199.273751616
199.253390551
199.257462764
200.589076471
199.253390551
200.161494088
199.717622852
199.717622852
199.733911705

Average distance is : 199.876 cm
Average deviation is : 0.404 cm
Block: 2
======================================
199.680972934
201.04923656
199.754272771
200.161494088
199.717622852
199.701334
199.733911705
199.717622852
200.589076471
199.257462764
199.290040469
200.177782941
199.701334
199.273751616
200.145205235
199.697261786
199.697261786
200.177782941
199.701334
200.161494088
199.717622852
200.145205235
199.306329322
200.605365324
200.145205235

Average distance is : 199.892 cm
Average deviation is : 0.442 cm
Block: 3
======================================
200.177782941
199.717622852
199.685045147
199.717622852
200.621654177
199.273751616
199.737983918
199.717622852
199.733911705
199.680972934
200.145205235
200.621654177
199.717622852
200.161494088
200.145205235
200.145205235
199.701334
199.737983918
199.717622852
199.273751616
199.701334
200.145205235
199.717622852
199.733911705
199.733911705

Average distance is : 199.859 cm
Average deviation is : 0.334 cm
Block: 4
======================================
199.750200558
200.145205235
200.161494088
199.733911705
199.717622852
199.717622852
200.145205235
199.717622852
200.62572639
199.273751616
199.717622852
199.701334
199.717622852
199.717622852
200.145205235
200.605365324
199.701334
200.145205235
199.253390551
199.717622852
199.733911705
199.701334
199.717622852
199.697261786
200.177782941

Average distance is : 199.858 cm
Average deviation is : 0.334 cm
Block: 5
======================================
200.145205235
199.290040469
200.177782941
199.717622852
200.161494088
200.161494088
199.717622852
199.697261786
199.701334
199.717622852
200.161494088
200.161494088
199.701334
199.717622852
200.605365324
199.701334
200.161494088
199.717622852
199.273751616
200.145205235
200.589076471
199.562878752
200.161494088
200.145205235
199.273751616

Average distance is : 199.903 cm
Average deviation is : 0.367 cm
Block: 6
======================================
200.161494088
199.733911705
200.605365324
200.161494088
200.605365324
200.605365324
199.733911705
199.685045147
199.733911705
155.87210362
199.701334
200.161494088
199.701334
199.685045147
200.161494088
199.697261786
200.145205235
199.701334
199.257462764
200.161494088
200.145205235
200.145205235
199.701334
199.717622852
199.701334

Average distance is : 198.187 cm
Average deviation is : 8.822 cm
Block: 7
======================================
200.605365324
199.701334
200.145205235
199.717622852
199.717622852
200.145205235
200.145205235
200.161494088
199.717622852
199.257462764
200.12484417
199.701334
199.290040469
199.697261786
200.589076471
199.717622852
199.685045147
199.717622852
200.589076471
199.290040469
199.290040469
199.701334
199.290040469
200.605365324
199.717622852

Average distance is : 199.853 cm
Average deviation is : 0.433 cm
Block: 8
======================================
199.750200558
200.11262753
201.155114102
199.237101698
200.980008936
199.269679403
199.701334
201.440169024
199.701334
200.161494088
199.737983918
199.290040469
200.161494088
199.273751616
200.145205235
199.733911705
200.177782941
199.717622852
199.701334
199.273751616
199.733911705
199.273751616
200.128916383
200.145205235
199.273751616

Average distance is : 199.891 cm
Average deviation is : 0.598 cm
Block: 9
======================================
199.733911705
200.177782941
199.717622852
199.717622852
200.605365324
200.605365324
199.697261786
199.717622852
199.717622852
199.697261786
199.717622852
199.685045147
199.701334
199.701334
200.161494088
200.589076471
199.273751616
199.273751616
200.589076471
199.701334
200.145205235
200.165566301
199.717622852
199.733911705
200.128916383

Average distance is : 199.907 cm
Average deviation is : 0.385 cm
Block: 10
======================================
199.717622852
200.161494088
200.161494088
199.697261786
200.177782941
199.680972934
200.605365324
199.717622852
199.717622852
199.717622852
200.145205235
200.141133022
200.589076471
200.145205235
200.145205235
199.717622852
199.733911705
199.290040469
199.750200558
200.145205235
199.680972934
199.697261786
200.572787619
199.273751616
199.701334

Average distance is : 199.923 cm
Average deviation is : 0.361 cm