
Block: 1
======================================
101.251223087
100.784532428
100.367401838
100.780402422
100.367401838
100.383921862
100.747362375
99.9337512255
100.350881815
99.9337512255

Average distance is : 100.490 cm
Average deviation is : 0.408 cm
Block: 2
======================================
101.197533011
100.363271832
100.383921862
100.367401838
101.214053035
100.330231786
100.350881815
100.784532428
100.780402422
100.367401838

Average distance is : 100.614 cm
Average deviation is : 0.357 cm
Block: 3
======================================
100.330231786
100.383921862
100.383921862
99.9337512255
99.9007111788
100.383921862
99.9337512255
100.350881815
99.9172312021
100.747362375

Average distance is : 100.227 cm
Average deviation is : 0.288 cm
Block: 4
======================================
100.367401838
105.496869087
100.383921862
100.367401838
99.9502712488
101.197533011
100.383921862
100.383921862
100.780402422
99.970921278

Average distance is : 100.928 cm
Average deviation is : 1.645 cm
Block: 5
======================================
101.420553327
100.334361792
99.9667912722
100.780402422
100.367401838
100.383921862
100.383921862
100.367401838
100.367401838
101.197533011

Average distance is : 100.557 cm
Average deviation is : 0.444 cm
Block: 6
======================================
100.383921862
100.367401838
100.383921862
101.197533011
99.9502712488
99.9007111788
100.404571891
100.383921862
100.383921862
100.363271832

Average distance is : 100.372 cm
Average deviation is : 0.347 cm
Block: 7
======================================
100.313711762
99.9131011963
99.970921278
100.383921862
99.9337512255
101.214053035
100.350881815
100.363271832
100.677152276
100.350881815

Average distance is : 100.347 cm
Average deviation is : 0.389 cm
Block: 8
======================================
101.197533011
99.087100029
100.383921862
100.784532428
100.383921862
99.9667912722
100.330231786
100.383921862
101.234703064
100.383921862

Average distance is : 100.414 cm
Average deviation is : 0.614 cm
Block: 9
======================================
100.404571891
99.9667912722
100.801052451
100.780402422
99.9172312021
100.817572474
100.784532428
100.763882399
100.330231786
100.763882399

Average distance is : 100.533 cm
Average deviation is : 0.356 cm
Block: 10
======================================
100.367401838
100.784532428
100.383921862
99.9544012547
99.9172312021
99.9502712488
100.817572474
100.334361792
100.330231786
100.313711762

Average distance is : 100.315 cm
Average deviation is : 0.317 cm
Average distance for 10x10 is : 100.480 cm
Average deviation for 10x10 is : 0.517 cm
 Percentage of values that failed: 0.000