
Block: 1
======================================
301.631436348
300.325445008
301.647609615
302.072157884
300.345661592
301.20688808
301.6678262
301.631436348
301.223061347
300.357791543

Average distance is : 301.211 cm
Average deviation is : 0.646 cm
Block: 2
======================================
302.492662835
301.615263081
301.615263081
300.749993277
301.631436348
301.6678262
302.055984616
301.227104664
300.766166544
301.223061347

Average distance is : 301.504 cm
Average deviation is : 0.539 cm
Block: 3
======================================
301.223061347
301.223061347
300.782339811
301.239234614
301.663782883
301.20688808
301.20688808
301.190714812
301.663782883
301.647609615

Average distance is : 301.305 cm
Average deviation is : 0.279 cm
Block: 4
======================================
300.766166544
301.259451199
300.798513079
301.700172734
301.663782883
300.782339811
301.243277931
301.223061347
300.798513079
302.917211103

Average distance is : 301.315 cm
Average deviation is : 0.664 cm
Block: 5
======================================
301.259451199
300.818729663
300.830859613
302.072157884
301.716346002
301.239234614
301.271581149
300.390138078
301.239234614
301.275624466

Average distance is : 301.211 cm
Average deviation is : 0.469 cm
Block: 6
======================================
300.814686346
300.814686346
300.802556396
300.818729663
301.700172734
300.830859613
301.683999467
302.088331151
300.830859613
301.67995615

Average distance is : 301.206 cm
Average deviation is : 0.514 cm
Block: 7
======================================
300.37396481
302.120677686
300.390138078
300.394181395
300.818729663
300.394181395
300.802556396
301.275624466
300.83490293
300.378008127

Average distance is : 300.778 cm
Average deviation is : 0.560 cm
Block: 8
======================================
300.830859613
300.390138078
301.291797733
300.36183486
300.394181395
300.394181395
300.390138078
300.814686346
300.390138078
300.325445008

Average distance is : 300.558 cm
Average deviation is : 0.318 cm
Block: 9
======================================
300.798513079
301.239234614
300.814686346
300.798513079
301.223061347
302.104504418
300.341618276
300.357791543
300.818729663
300.766166544

Average distance is : 300.926 cm
Average deviation is : 0.508 cm
Block: 10
======================================
300.798513079
300.798513079
300.802556396
300.814686346
300.798513079
300.357791543
300.378008127
302.092374468
300.36183486
300.341618276

Average distance is : 300.754 cm
Average deviation is : 0.519 cm