
Block: 1
======================================
50.4544447899
17.834276104
50.8693864822
50.4873114586
42.0118192673
50.4010364532
50.9022531509
39.7686691284
50.8488448143
50.8858198166
39.25512743
50.4380114555
50.8858198166
39.7193691254
50.4873114586
50.4708781242
40.2370191574
50.4914197922
50.4051447868
40.3232941628
50.9022531509
50.4010364532
39.6988274574
50.9022531509
50.4215781212
39.9946274757
50.4708781242
50.4380114555
40.3561608315
50.4380114555
50.3846031189
39.8220774651
50.4051447868
50.4708781242
40.3725941658
50.4708781242
50.9022531509
39.6659607887
50.4010364532
50.8858198166
39.9946274757
50.4914197922
50.4503364563
40.4424358368
50.4544447899
50.4708781242
39.9781941414
50.4380114555
50.4708781242
40.9929525375

Block: 2
======================================
50.4174697876
50.4544447899
23.622918129
50.4380114555
50.4339031219
36.913377285
50.4544447899
50.4708781242
36.6381189346
50.4544447899
50.4380114555
38.9798690796
50.4873114586
50.4873114586
39.8754858017
50.4544447899
50.8858198166
39.0291690826
50.8858198166
50.8981448174
39.4071357727
50.4174697876
50.4215781212
39.8549441338
50.9022531509
50.8652781487
40.3397274971
50.4708781242
50.8652781487
39.4605441093
50.4544447899
50.4708781242
39.961760807
50.4708781242
50.9022531509
39.7522357941
50.4914197922
50.4544447899
40.4958441734
50.8858198166
50.4544447899
39.7892107964
50.9022531509
50.9186864853
39.8056441307
50.4873114586
50.4380114555
39.3907024384
50.4708781242
50.4544447899

Block: 3
======================================
27.3450683594
50.9022531509
50.8652781487
39.702935791
50.8693864822
50.4708781242
38.926460743
50.4708781242
50.4708781242
40.9929525375
50.4914197922
50.4914197922
50.4873114586
50.9022531509
50.4708781242
50.8693864822
50.4544447899
50.4380114555
50.4914197922
50.4708781242
50.4380114555
50.4708781242
50.4708781242
50.4708781242
50.4708781242
40.2329108238
50.8858198166
50.4380114555
39.493410778
50.4708781242
50.4708781242
40.3356191635
50.5037447929
50.8858198166
39.7892107964
50.4749864578
50.4544447899
40.7711025238
50.4708781242
50.4380114555
39.7892107964
50.4544447899
50.5037447929
40.5287108421
50.4708781242
50.4544447899
39.8549441338
50.4914197922
50.4708781242
40.2000441551

Block: 4
======================================
50.4544447899
50.4544447899
27.0862433434
50.8652781487
50.9351198196
37.2543689728
50.4873114586
50.8488448143
37.0982522964
50.4380114555
50.8652781487
35.7055272102
50.4708781242
50.4749864578
40.5122775078
50.4339031219
50.4503364563
39.3414024353
50.4914197922
50.4914197922
41.3709192276
50.4914197922
50.5078531265
40.1836108208
50.4708781242
50.4708781242
40.3890275002
50.4544447899
50.4708781242
40.7012608528
50.4380114555
50.4749864578
40.2000441551
50.4749864578
50.4708781242
39.9288941383
50.4708781242
50.4708781242
39.6166607857
50.4708781242
50.4708781242
40.290427494
50.4749864578
50.4873114586
40.3232941628
50.4708781242
50.4708781242
40.3890275002
50.4708781242
50.4380114555

Block: 5
======================================
27.1766266823
50.4380114555
50.4544447899
36.6668772697
50.9022531509
50.4380114555
35.2536105156
50.4873114586
50.3887114525
39.7193691254
50.4544447899
50.4380114555
40.2329108238
50.4051447868
50.4544447899
39.9247858047
50.4544447899
50.4010364532
40.1137691498
50.4544447899
50.4174697876
39.493410778
50.9186864853
50.4010364532
39.9412191391
50.4215781212
50.4215781212
40.5985525131
50.4380114555
50.8652781487
39.702935791
50.4708781242
50.8858198166
40.4095691681
50.4215781212
50.9022531509
40.1137691498
50.4544447899
50.4708781242
40.0274941444
50.8858198166
50.4503364563
40.4958441734
50.4380114555
50.4914197922
40.2329108238
50.9022531509
50.8652781487
39.4605441093
50.4914197922

Block: 6
======================================
50.4215781212
24.6048098564
50.4380114555
50.4544447899
37.9445690155
50.4380114555
50.3846031189
37.3077773094
50.4215781212
50.4174697876
38.2198273659
50.4010364532
50.4215781212
40.6149858475
50.8858198166
50.9022531509
39.2386940956
50.4339031219
50.4215781212
40.5451441765
50.4708781242
50.8858198166
39.1359857559
50.4380114555
50.3846031189
40.4794108391
50.4174697876
50.4010364532
40.4753025055
50.8858198166
50.4010364532
39.493410778
50.4380114555
50.4174697876
40.6149858475
50.4380114555
50.4544447899
39.9781941414
50.4339031219
50.3846031189
40.7875358582
50.8858198166
50.4051447868
40.0644691467
50.4010364532
50.4010364532
40.2534524918
50.4174697876
50.4051447868
40.3767024994

Block: 7
======================================
50.2449197769
50.4544447899
23.4175014496
50.4174697876
50.4544447899
37.9117023468
50.3846031189
50.4380114555
38.1335523605
50.4010364532
50.4380114555
40.2329108238
50.4215781212
50.3846031189
40.3191858292
50.8693864822
50.4010364532
39.6988274574
50.4174697876
50.9022531509
40.0973358154
50.4215781212
50.8858198166
39.3578357697
50.5037447929
50.4380114555
40.2863191605
50.4708781242
50.4708781242
40.1137691498
50.3846031189
50.3681697845
40.5944441795
50.4010364532
50.4339031219
40.7711025238
50.8693864822
50.4051447868
50.3846031189
50.4544447899
50.8858198166
50.4708781242
50.4544447899
50.4873114586
50.4708781242
50.4544447899
50.9227948189
50.4380114555
50.4339031219
50.4708781242

Block: 8
======================================
50.4708781242
32.8625603676
50.9022531509
50.4544447899
37.1516606331
50.9022531509
50.8693864822
33.9635937691
50.4544447899
50.4544447899
38.926460743
50.4544447899
50.4380114555
39.6659607887
50.4544447899
50.4339031219
40.031602478
50.4380114555
50.4380114555
39.8713774681
50.5078531265
50.4544447899
39.2879940987
50.4914197922
50.4749864578
39.3948107719
50.4708781242
50.4914197922
39.5468191147
50.4544447899
50.4544447899
39.7358024597
50.4708781242
50.4339031219
40.7505608559
50.4708781242
50.4749864578
39.9453274727
50.4708781242
50.4339031219
40.3890275002
50.4914197922
50.4914197922
40.3397274971
50.4708781242
50.4544447899
39.7892107964
50.4708781242
50.4708781242
40.6848275185

Block: 9
======================================
50.4914197922
50.4339031219
26.8274183273
50.4708781242
50.4708781242
39.8590524673
50.4544447899
50.4708781242
40.3561608315
50.4708781242
50.5078531265
39.9247858047
50.4708781242
50.4708781242
40.3397274971
50.4544447899
50.4708781242
39.961760807
50.5037447929
50.4708781242
40.2493441582
50.4873114586
50.5078531265
40.8368358612
50.4380114555
50.4708781242
39.9083524704
50.4708781242
50.4380114555
40.2698858261
50.4503364563
50.4380114555
40.1671774864
50.8693864822
50.4873114586
40.0274941444
50.4914197922
50.4914197922
40.1466358185
50.4873114586
50.4873114586
40.2863191605
50.4544447899
50.4873114586
40.4260025024
50.4708781242
50.4873114586
40.3068608284
50.4708781242
50.4708781242

Block: 10
======================================
26.3138766289
50.4215781212
50.4380114555
37.5296273232
50.3846031189
50.5037447929
37.8541856766
50.4708781242
50.4174697876
40.8532691956
50.4914197922
50.4708781242
39.513952446
50.4544447899
50.4708781242
40.3191858292
50.4749864578
50.4544447899
39.8220774651
50.4708781242
50.5037447929
40.8039691925
50.4708781242
50.4873114586
40.3767024994
50.4708781242
50.4708781242
39.7522357941
50.4914197922
50.4503364563
39.9740858078
50.4708781242
50.4544447899
40.7875358582
50.4708781242
50.4708781242
39.4975191116
50.4873114586
50.4708781242
40.290427494
50.4544447899
50.4544447899
39.1318774223
50.4544447899
50.4708781242
39.3578357697
50.4708781242
50.4380114555
39.0661440849
50.4914197922
