
Block: 1
======================================
10.9404923439
50.4380114555
50.4339031219
50.4544447899
50.4051447868
50.4544447899
50.3846031189
50.3846031189
50.4174697876
50.3846031189
50.4380114555
50.4380114555
50.4010364532
50.4215781212
50.8858198166
51.1446448326
50.4215781212
50.8693864822
50.4339031219
50.4544447899
50.4544447899
50.4380114555
50.8693864822
50.4215781212
50.4380114555
50.4749864578
50.4051447868
50.4708781242
50.4544447899
50.4708781242
50.4544447899
50.4544447899
50.4914197922
50.4544447899
50.4708781242
50.4544447899
50.4503364563
50.4380114555
50.3846031189
31.2397686005
50.4215781212
50.3846031189
50.4010364532
50.3846031189
50.3846031189
50.4051447868
50.881711483
50.4051447868
50.4010364532
50.4380114555
50.8693864822
50.4174697876
50.4010364532
50.8858198166
50.4544447899
50.8488448143
50.4051447868
50.4174697876
50.4174697876
50.3846031189
50.8529531479
50.8488448143
50.4339031219
50.4339031219
50.4215781212
50.4010364532
50.4174697876
38.0801440239
50.3846031189
50.4174697876
50.4010364532
50.4215781212
50.4215781212
50.8858198166
50.881711483

Block: 2
======================================
50.4708781242
50.4380114555
50.4544447899
50.4708781242
50.4174697876
50.4544447899
50.4174697876
50.4010364532
50.4380114555
50.4051447868
50.4215781212
50.4010364532
50.4010364532
50.4010364532
50.4010364532
50.881711483
50.881711483
50.4174697876
50.4010364532
50.4051447868
50.4010364532
50.4010364532
50.4215781212
50.4174697876
50.4215781212
50.4174697876
50.4010364532
50.4215781212
50.4010364532
50.9022531509
50.4215781212
50.8858198166
50.8693864822
50.4544447899
50.4010364532
50.8858198166
50.4380114555
50.8652781487
50.3887114525
50.4380114555
50.8858198166
50.4339031219
50.4174697876
50.4051447868
50.4215781212
50.8858198166
50.4215781212
50.4215781212
50.4010364532
50.3846031189
50.4051447868
50.8488448143
50.4708781242
50.3846031189
50.4010364532
50.4380114555
50.4215781212
50.4174697876
50.4010364532
50.8858198166
50.4215781212
50.4380114555
50.4010364532
50.8858198166
50.4051447868
50.4215781212
50.3846031189
50.4215781212
50.4051447868
50.4215781212
50.4174697876
50.4174697876
50.4380114555
50.4010364532
50.4174697876

Block: 3
======================================
50.4010364532
50.4380114555
50.4174697876
50.4174697876
50.4380114555
50.3846031189
50.4174697876
50.4174697876
50.4010364532
50.3846031189
50.4010364532
50.4544447899
50.4010364532
50.4544447899
50.4544447899
50.8858198166
50.4873114586
50.4051447868
50.4010364532
50.4380114555
50.4339031219
50.4544447899
50.4380114555
50.4873114586
50.4544447899
50.4708781242
50.4339031219
50.8858198166
50.8693864822
50.8693864822
50.4708781242
50.4708781242
50.4749864578
50.8858198166
50.8858198166
50.8488448143
50.4174697876
50.9022531509
50.4215781212
50.4010364532
50.4051447868
50.4174697876
36.514868927
50.8858198166
50.4708781242
50.4708781242
50.4339031219
50.4708781242
50.4544447899
50.4339031219
50.8858198166
50.4380114555
50.4544447899
50.4708781242
50.8858198166
50.4873114586
50.881711483
50.4380114555
50.4339031219
50.4544447899
50.3846031189
50.8529531479
50.4380114555
41.4078942299
50.3846031189
50.4215781212
50.4708781242
50.881711483
50.881711483
50.3846031189
50.8858198166
50.4174697876
50.8858198166
50.4708781242
50.4749864578

Block: 4
======================================
42.562335968
50.4215781212
50.4215781212
50.4010364532
50.4544447899
50.4010364532
50.4215781212
50.3846031189
50.4544447899
50.4380114555
50.4215781212
50.4215781212
50.4174697876
50.4544447899
50.4544447899
50.4215781212
50.3846031189
50.4380114555
50.4708781242
50.4380114555
50.4708781242
50.4708781242
50.4544447899
50.4708781242
50.4544447899
50.4708781242
50.4749864578
50.4339031219
50.4708781242
50.4708781242
50.4544447899
50.4544447899
50.4544447899
50.4873114586
50.4708781242
50.8693864822
50.4544447899
50.4544447899
50.4215781212
46.8185695648
50.881711483
50.4503364563
50.4544447899
50.4873114586
50.4708781242
50.4544447899
50.4544447899
50.4544447899
50.8858198166
50.4708781242
50.4708781242
50.4544447899
50.4873114586
50.9022531509
50.4380114555
50.9022531509
50.8693864822
50.8652781487
50.4544447899
50.8652781487
50.4051447868
50.4339031219
50.8693864822
50.4339031219
50.4708781242
50.3887114525
50.4749864578
50.4339031219
50.8858198166
50.8858198166
50.4708781242
50.881711483
50.4051447868
50.4051447868
50.8652781487

Block: 5
======================================
50.4215781212
50.4174697876
50.4503364563
50.4215781212
50.4544447899
50.4010364532
50.4010364532
50.4215781212
50.4215781212
50.4215781212
50.4339031219
50.4174697876
50.4708781242
50.4873114586
50.4749864578
50.4708781242
50.4544447899
50.4339031219
50.4914197922
50.4544447899
50.4380114555
50.4544447899
50.4708781242
50.4544447899
50.4749864578
50.4380114555
50.4544447899
50.4708781242
50.4544447899
50.4380114555
50.4873114586
50.4544447899
50.4749864578
50.4749864578
50.4873114586
49.8340864182
50.4708781242
50.4708781242
50.4544447899
50.4873114586
50.4749864578
50.4873114586
50.4544447899
50.4544447899
50.4544447899
32.8954270363
50.9186864853
50.4544447899
50.4708781242
50.4873114586
50.4708781242
50.4708781242
50.4544447899
50.4708781242
50.4544447899
50.4749864578
50.4544447899
50.4708781242
50.4708781242
50.4544447899
50.4544447899
50.4873114586
50.4544447899
50.4503364563
50.4708781242
50.4873114586
50.4708781242
50.4873114586
50.4544447899
50.4544447899
50.4544447899
50.4708781242
50.4380114555
50.4708781242
50.4544447899

Block: 6
======================================
50.4051447868
50.3846031189
50.4215781212
50.4873114586
50.4544447899
50.4708781242
50.4544447899
50.4544447899
50.4708781242
50.4873114586
50.4174697876
50.4749864578
50.4708781242
50.4544447899
50.4215781212
50.4873114586
50.4708781242
50.4544447899
50.4708781242
50.4544447899
50.4708781242
44.7685111046
50.4708781242
50.4708781242
50.4380114555
50.4708781242
50.4708781242
50.4708781242
50.4708781242
50.4544447899
50.4749864578
50.4708781242
50.4174697876
50.4708781242
50.4708781242
46.218752861
50.4708781242
50.4339031219
50.0395030975
50.4708781242
50.4914197922
50.4708781242
50.4708781242
50.4380114555
50.4380114555
50.4708781242
50.4544447899
50.4544447899
50.4544447899
50.7995448112
50.4708781242
50.4544447899
50.4708781242
50.4708781242
50.4708781242
50.4708781242
50.4749864578
50.4708781242
50.4544447899
50.4708781242
50.4708781242
50.4544447899
50.4708781242
50.4873114586
50.4708781242
38.9100274086
50.4503364563
50.4749864578
50.4544447899
50.4544447899
50.4873114586
50.4544447899
50.8858198166
50.4544447899
50.4873114586

Block: 7
======================================
50.4873114586
50.4215781212
50.3846031189
50.4010364532
50.9022531509
50.9022531509
50.4339031219
50.4215781212
50.4544447899
50.4174697876
50.4503364563
50.4051447868
50.4708781242
50.4544447899
50.4380114555
50.4544447899
50.4873114586
50.4708781242
50.4749864578
50.4544447899
50.4873114586
50.4544447899
50.4544447899
50.4708781242
50.4708781242
50.4544447899
50.4544447899
44.0783110619
50.0230697632
50.4544447899
50.4544447899
50.4708781242
50.4708781242
50.4708781242
50.4544447899
50.4544447899
50.4873114586
50.4544447899
50.4708781242
50.4708781242
50.4873114586
50.0230697632
50.4914197922
50.4503364563
50.4544447899
50.4544447899
50.4708781242
50.4503364563
50.4380114555
50.4708781242
50.4708781242
50.4544447899
50.4544447899
50.4544447899
50.4544447899
50.4873114586
50.4544447899
50.4708781242
50.4380114555
50.4873114586
50.8324114799
50.4873114586
50.4708781242
50.4708781242
50.4544447899
50.4503364563
50.4873114586
50.4749864578
50.4544447899
50.4544447899
50.4708781242
50.0764780998
50.4873114586
50.4708781242
50.4544447899

Block: 8
======================================
50.0436114311
50.4544447899
50.4339031219
50.4544447899
50.0436114311
50.0559364319
50.4708781242
50.4708781242
50.4708781242
50.4873114586
50.4749864578
50.0559364319
50.0230697632
50.4544447899
50.4544447899
50.4380114555
50.4380114555
50.4339031219
50.4708781242
50.4215781212
50.4544447899
50.4708781242
50.4873114586
50.4339031219
50.3476281166
50.4708781242
50.4544447899
50.4544447899
50.4708781242
50.4708781242
50.4544447899
46.2639445305
50.4708781242
50.4708781242
50.0230697632
50.4914197922
50.4339031219
50.4708781242
50.4380114555
50.4544447899
50.4544447899
50.4708781242
50.4544447899
50.4544447899
50.4544447899
32.4969186783
50.4544447899
50.4544447899
50.4708781242
50.4873114586
50.4544447899
50.4914197922
50.4380114555
50.4544447899
50.4914197922
50.4380114555
50.4544447899
50.4544447899
50.4544447899
50.4749864578
50.4544447899
50.4544447899
50.4914197922
50.4215781212
50.4708781242
50.4708781242
50.4503364563
50.4708781242
50.4873114586
50.4544447899
50.4708781242
50.4708781242
50.4708781242
43.7496443748
50.4708781242

Block: 9
======================================
50.4544447899
50.4708781242
50.4215781212
50.8488448143
50.4544447899
50.4380114555
50.4749864578
50.9186864853
50.4380114555
50.4873114586
50.4380114555
50.4010364532
50.4749864578
50.5037447929
50.4544447899
50.4544447899
50.4749864578
50.4380114555
50.4873114586
50.4708781242
50.4873114586
50.4708781242
50.4544447899
50.4339031219
50.0764780998
50.4544447899
50.4544447899
50.4544447899
50.4544447899
50.4708781242
50.4708781242
50.4544447899
50.4914197922
50.4708781242
50.4914197922
50.8324114799
50.4544447899
50.4914197922
50.4708781242
50.0230697632
50.4544447899
50.4544447899
50.0559364319
50.4708781242
50.4544447899
50.4544447899
50.4544447899
50.4544447899
50.4544447899
50.4544447899
50.4544447899
50.4380114555
50.4544447899
50.0559364319
50.4544447899
50.4544447899
50.4708781242
50.4708781242
50.4174697876
50.4708781242
50.4544447899
50.4544447899
50.4708781242
50.4708781242
50.4749864578
50.4339031219
50.4339031219
50.4708781242
50.4708781242
50.4749864578
50.4544447899
50.4708781242
50.4380114555
50.4544447899
50.4544447899

Block: 10
======================================
1.51597509384
50.4544447899
50.4873114586
50.4914197922
50.4544447899
50.4544447899
50.4708781242
50.4339031219
50.4503364563
50.4544447899
50.4380114555
50.4914197922
50.4708781242
50.4914197922
50.4544447899
50.4339031219
50.4708781242
50.4708781242
50.4708781242
50.4708781242
50.4708781242
50.0395030975
50.4708781242
50.4708781242
50.4544447899
50.4380114555
50.4544447899
50.4544447899
50.4544447899
50.4873114586
50.4544447899
50.4544447899
50.4544447899
50.4749864578
50.0395030975
50.4708781242
50.4708781242
50.4708781242
50.4873114586
50.4708781242
50.4708781242
50.4544447899
50.4708781242
50.4380114555
50.4873114586
50.4708781242
50.4544447899
50.4708781242
50.4708781242
50.4708781242
50.4708781242
50.4544447899
50.4708781242
50.4749864578
50.4708781242
50.4708781242
50.4380114555
50.4503364563
50.0559364319
50.4544447899
50.4914197922
50.4544447899
50.4914197922
50.4749864578
50.4873114586
50.4749864578
50.4708781242
50.4873114586
50.4544447899
50.4708781242
50.4708781242
50.4708781242
50.4749864578
50.4544447899
50.4708781242
