
Block: 1
======================================
50.4544447899
50.4215781212
50.4010364532
50.4215781212
50.4174697876
50.4544447899
50.4010364532
50.4010364532
20.0075845718
50.4215781212

Block: 2
======================================
50.4339031219
50.4544447899
50.4010364532
50.3846031189
50.4544447899
50.4051447868
50.4010364532
50.4010364532
50.4215781212
50.4010364532

Block: 3
======================================
50.4708781242
50.4873114586
12.2181840897
50.9022531509
50.4708781242
50.4215781212
50.4544447899
50.4174697876
50.4873114586
50.4174697876

Block: 4
======================================
50.4544447899
50.4215781212
50.4544447899
50.4051447868
50.4339031219
50.4215781212
50.4380114555
6.24055871964
50.4708781242
50.9022531509

Block: 5
======================================
50.4174697876
50.4215781212
50.4380114555
50.4339031219
50.4010364532
50.4544447899
50.4544447899
50.4873114586
50.4215781212
50.4174697876

Block: 6
======================================
50.4544447899
5.718800354
50.4380114555
50.3846031189
50.4215781212
50.4544447899
50.8858198166
50.4380114555
50.4010364532
50.4010364532

Block: 7
======================================
50.4215781212
50.4215781212
50.9022531509
50.4380114555
50.0395030975
19.5063678741
50.3846031189
50.4010364532
50.4174697876
50.4010364532

Block: 8
======================================
50.4380114555
50.4215781212
50.4544447899
50.4215781212
50.4010364532
50.4380114555
50.4215781212
50.9186864853
49.9532280922
21.022342968

Block: 9
======================================
50.3846031189
50.4215781212
50.4380114555
50.4174697876
50.4010364532
50.4380114555
50.4339031219
50.4339031219
50.4380114555
50.4010364532

Block: 10
======================================
50.4339031219
50.4010364532
50.4215781212
10.1516922951
50.8858198166
50.8858198166
50.8858198166
50.8858198166
50.8693864822
50.4010364532
