
Block: 1
======================================
46.8021362305
50.5078531265
50.4503364563
50.8529531479
50.4544447899
50.4544447899
14.8721675873
50.881711483
50.4708781242
50.4873114586
50.4873114586
50.4544447899
20.2828429222
50.4708781242
50.5037447929
50.4749864578
50.4544447899
50.4708781242
20.5745346069
50.4708781242
50.4544447899
50.4380114555
50.9022531509
50.4873114586
19.8679012299
50.4010364532
50.4544447899
50.4708781242
50.4873114586
50.4708781242
21.1948929787
50.4544447899
50.4749864578
50.4544447899
50.4873114586
50.4708781242
21.022342968
50.0600447655
50.4503364563
50.4708781242
50.4873114586
50.5078531265
21.1579179764
50.0559364319
50.4544447899
50.4544447899
50.4544447899
50.4380114555
21.1948929787
50.4873114586
50.4708781242
50.4708781242
50.4708781242
50.4708781242
20.833359623
50.881711483
50.4873114586
50.4544447899
50.4914197922
50.4708781242
20.4389595985
50.5037447929
50.4544447899
50.4544447899
50.0764780998
50.4914197922
21.420851326
50.4708781242
50.4914197922
50.4873114586
50.4873114586
50.4708781242
20.7470846176
50.4380114555
50.4544447899
50.4873114586
50.4339031219
50.4708781242
21.1455929756
50.4010364532
50.4380114555
50.4708781242
50.4873114586
50.4873114586
20.8004929543
50.9022531509
50.4544447899
50.4708781242
50.4544447899
50.4749864578
20.0733179092
50.4873114586
50.4708781242
50.8858198166
50.4708781242
50.4749864578
20.7963846207
50.0230697632
50.4215781212
50.5037447929

Average distance is : 45.629 cm
Average deviation is : 11.089 cm
Block: 2
======================================
50.4873114586
50.4708781242
50.4174697876
50.5078531265
50.4873114586
50.4873114586
50.4873114586
15.5089592934
50.4708781242
50.4544447899
50.4544447899
50.4174697876
50.4339031219
20.2828429222
50.4708781242
50.4544447899
50.4749864578
50.4544447899
50.4873114586
20.9196346283
50.4708781242
50.0395030975
50.4914197922
50.4544447899
50.4544447899
21.5892930031
50.4544447899
50.4544447899
50.0395030975
50.4708781242
50.4708781242
20.7142179489
50.4339031219
50.4339031219
50.0436114311
50.4873114586
50.0230697632
22.0576430321
50.4749864578
50.0395030975
50.4339031219
50.4380114555
34.4483771324
50.0395030975
50.0436114311
50.4339031219
50.0395030975
50.4708781242
22.0371013641
50.0559364319
50.4544447899
50.4708781242
50.4380114555
50.4708781242
21.3140346527
50.0764780998
50.4873114586
50.4380114555
50.4380114555
50.4380114555
21.0757513046
50.4544447899
50.0066364288
50.4380114555
50.4544447899
50.4708781242
21.3838763237
50.4380114555
50.4708781242
50.4708781242
50.4708781242
50.4380114555
20.2499762535
50.4873114586
50.4708781242
50.4708781242
50.4708781242
50.4708781242
20.6608096123
50.4914197922
50.4544447899
50.4708781242
50.4708781242
50.4914197922
20.9401762962
50.4749864578
50.4708781242
50.4544447899
50.4708781242
50.4873114586
20.7799512863
50.4708781242
50.4708781242
50.4708781242
50.4544447899
50.4544447899
21.1250513077
50.0600447655
50.0559364319
50.4873114586

Average distance is : 45.786 cm
Average deviation is : 10.723 cm
Block: 3
======================================
50.4708781242
50.4544447899
50.4010364532
50.4174697876
50.9022531509
50.4544447899
50.0395030975
17.3864677429
50.4708781242
50.4873114586
50.4708781242
50.4215781212
50.4708781242
19.9747179031
50.4544447899
50.4544447899
50.4544447899
50.4544447899
50.4708781242
20.7265429497
50.4339031219
50.0764780998
50.0230697632
50.5037447929
50.4544447899
21.938501358
50.5078531265
50.4544447899
50.4708781242
50.4873114586
50.4339031219
20.1965679169
50.881711483
50.4708781242
50.0230697632
50.4503364563
50.4708781242
20.8497929573
50.4873114586
50.4708781242
50.4873114586
50.4380114555
50.4873114586
20.763517952
50.4708781242
50.4873114586
50.4380114555
50.4544447899
50.4914197922
20.7676262856
50.4544447899
50.5078531265
50.4708781242
50.4544447899
50.4708781242
19.9706095695
50.4380114555
50.4380114555
50.4544447899
50.0559364319
50.0436114311
22.3000347137
50.4544447899
50.4873114586
50.4708781242
50.4544447899
50.4708781242
20.6772429466
50.4708781242
50.4708781242
50.4339031219
50.4544447899
50.4708781242
20.763517952
50.4708781242
50.0395030975
50.4503364563
50.4873114586
50.4380114555
20.3485762596
50.4544447899
50.4708781242
50.0230697632
50.0764780998
50.4708781242
19.0955345154
50.8159781456
50.4544447899
50.4708781242
50.4544447899
50.4708781242
20.3691179276
50.4708781242
50.0436114311
50.4873114586
50.4708781242
50.4380114555
20.0404512405
50.4708781242
50.0559364319

Average distance is : 45.617 cm
Average deviation is : 11.077 cm
Block: 4
======================================
50.4708781242
50.4544447899
50.4339031219
50.4708781242
50.4544447899
50.4544447899
50.4544447899
50.4873114586
20.1061845779
50.4708781242
50.3846031189
50.4873114586
50.4380114555
48.560503006
50.4544447899
50.4708781242
50.4544447899
50.4708781242
50.4708781242
20.5581012726
50.4544447899
50.4708781242
50.4914197922
50.4544447899
50.0764780998
21.1250513077
50.4873114586
50.4708781242
50.4914197922
50.4380114555
50.4914197922
19.3338178635
50.4544447899
50.4873114586
50.4544447899
50.4873114586
50.4873114586
21.7659513474
50.4544447899
50.4914197922
50.4380114555
50.4544447899
50.4873114586
20.9360679626
50.4708781242
50.4708781242
50.4873114586
50.4873114586
50.4544447899
20.4718262672
50.4708781242
50.4708781242
50.4749864578
50.4544447899
50.4708781242
21.092184639
50.4380114555
50.0600447655
50.0395030975
50.4708781242
50.4544447899
21.5235596657
50.4708781242
50.5078531265
50.4873114586
50.4873114586
50.4544447899
21.4537179947
50.4914197922
50.0600447655
50.4544447899
50.5078531265
50.4708781242
20.7142179489
50.4544447899
50.4544447899
50.4544447899
50.4873114586
50.4544447899
21.6468096733
50.4873114586
50.4544447899
50.4708781242
50.4544447899
50.4708781242
21.231867981
50.4544447899
50.4708781242
50.4708781242
50.4544447899
50.4708781242
20.5909679413
50.4380114555
50.4708781242
50.4544447899
50.4503364563
50.4914197922
21.749518013
50.4051447868
50.4708781242

Average distance is : 46.004 cm
Average deviation is : 10.581 cm
Block: 5
======================================
50.3846031189
50.4873114586
50.4544447899
50.4380114555
50.4708781242
50.4708781242
50.4708781242
50.4914197922
17.9205511093
50.0600447655
50.4708781242
50.5078531265
50.4380114555
50.4544447899
21.022342968
50.4873114586
50.4544447899
50.4708781242
50.4544447899
50.4749864578
20.763517952
50.0436114311
50.4544447899
50.4380114555
50.5078531265
50.4873114586
21.2277596474
50.0395030975
50.4708781242
50.4873114586
50.4544447899
50.4544447899
21.5235596657
50.4708781242
50.4708781242
50.4544447899
50.4708781242
50.4708781242
20.7799512863
50.0600447655
50.4708781242
50.4544447899
50.4544447899
50.4544447899
20.8004929543
50.4708781242
50.4708781242
50.4873114586
50.4544447899
50.4380114555
21.3345763206
50.4708781242
50.0271780968
50.4708781242
50.4544447899
50.4380114555
17.9369844437
50.0764780998
50.4380114555
50.4544447899
50.4873114586
50.4544447899
20.8497929573
50.4873114586
50.4708781242
50.4708781242
50.4708781242
50.4708781242
20.6279429436
50.4708781242
50.4544447899
50.4708781242
50.4503364563
50.4708781242
21.2976013184
50.4544447899
50.4873114586
50.4708781242
50.4749864578
50.4873114586
20.3321429253
50.4544447899
50.4503364563
50.4873114586
50.4544447899
50.4708781242
19.9048762321
50.881711483
50.4544447899
50.4749864578
50.4380114555
50.4544447899
19.9377429008
50.0230697632
50.0230697632
50.4544447899
50.4708781242
50.4708781242
20.7306512833
50.4914197922

Average distance is : 45.631 cm
Average deviation is : 11.060 cm
Block: 6
======================================
50.4544447899
50.9022531509
50.4914197922
5.37780866623
50.4544447899
50.0395030975
50.4873114586
50.4544447899
50.4708781242
18.9188761711
50.4544447899
50.4708781242
50.4339031219
50.4708781242
50.4544447899
21.3674429893
50.4544447899
50.4544447899
50.0764780998
50.4544447899
50.4380114555
19.6789178848
50.4708781242
50.4380114555
50.4544447899
50.4708781242
50.4339031219
20.6608096123
50.4503364563
50.4380114555
50.4708781242
50.4708781242
50.4708781242
20.693676281
50.4873114586
50.4544447899
50.4544447899
50.4708781242
50.5078531265
21.1948929787
50.0395030975
50.4380114555
50.0436114311
50.4544447899
50.4544447899
20.6279429436
50.4708781242
50.4708781242
50.4708781242
50.0395030975
50.0230697632
22.1439180374
50.4380114555
50.4708781242
50.4708781242
50.4708781242
50.4708781242
20.7840596199
50.4914197922
50.4380114555
50.4544447899
50.4708781242
50.4708781242
21.2483013153
50.0764780998
50.0395030975
50.4708781242
50.4544447899
50.4544447899
21.2606263161
50.4873114586
50.4708781242
50.4749864578
50.4708781242
50.4544447899
20.5745346069
50.881711483
50.4544447899
50.4544447899
50.4914197922
50.4544447899
20.5909679413
50.4503364563
50.4544447899
50.4544447899
50.4708781242
50.4749864578
21.3140346527
50.0395030975
50.4873114586
50.0230697632
50.4380114555
50.4339031219
21.4331763268
50.0600447655
50.4544447899
50.0395030975
50.4708781242
50.4380114555
22.1439180374

Average distance is : 45.242 cm
Average deviation is : 11.586 cm
Block: 7
======================================
50.4708781242
50.4708781242
50.4544447899
50.4339031219
50.4873114586
50.4873114586
50.4708781242
50.4873114586
50.4873114586
50.4873114586
19.8720095634
50.8858198166
50.4380114555
50.4544447899
50.4544447899
50.4914197922
21.0552096367
50.0888031006
50.4873114586
50.4544447899
50.4380114555
50.4708781242
20.62383461
50.4544447899
50.4544447899
50.4380114555
50.4708781242
50.4708781242
19.4036595345
50.4873114586
50.4215781212
50.4380114555
50.0600447655
50.4749864578
20.833359623
50.4708781242
50.0395030975
50.4708781242
50.5037447929
50.4544447899
20.8867679596
50.4544447899
50.4544447899
50.4873114586
50.4708781242
50.4873114586
20.6772429466
50.4380114555
50.0436114311
50.4339031219
50.4873114586
50.4544447899
21.8152513504
50.4380114555
50.0600447655
50.0559364319
50.4544447899
50.0230697632
21.9343930244
50.4914197922
50.4873114586
50.4503364563
50.4339031219
50.4503364563
21.281167984
50.4544447899
50.4914197922
50.4708781242
50.4914197922
50.4544447899
20.3485762596
50.0395030975
50.4873114586
50.5037447929
50.4708781242
50.4544447899
21.1784596443
50.4544447899
50.4873114586
50.4708781242
50.4503364563
50.4544447899
20.9196346283
50.4380114555
50.4873114586
50.4708781242
50.4544447899
50.4544447899
19.4570678711
50.4503364563
50.4873114586
50.4708781242
50.4708781242
50.4544447899
50.4708781242
50.4708781242
50.4873114586
50.4914197922
50.5078531265
50.4380114555

Average distance is : 46.275 cm
Average deviation is : 10.361 cm
Block: 8
======================================
50.4380114555
50.4708781242
50.4544447899
50.4544447899
50.4544447899
50.0436114311
50.4708781242
50.4708781242
50.4914197922
19.0585595131
50.4339031219
50.0230697632
50.4708781242
50.0764780998
50.0395030975
21.5728596687
50.4708781242
50.0764780998
50.4544447899
50.4914197922
50.0395030975
22.5876180649
50.4873114586
50.4544447899
50.4544447899
50.4708781242
50.4749864578
20.8004929543
50.4914197922
50.4544447899
50.4708781242
50.4708781242
50.4708781242
20.7799512863
50.0395030975
50.4708781242
50.4544447899
50.0395030975
50.0436114311
22.2301930428
50.4380114555
50.0600447655
50.4708781242
50.4544447899
50.4544447899
20.6977846146
50.0395030975
50.4708781242
50.4544447899
50.4708781242
50.4708781242
21.6057263374
50.0600447655
50.4544447899
50.4914197922
50.0559364319
50.4339031219
21.8152513504
50.0395030975
50.0764780998
50.4544447899
50.0559364319
50.4873114586
22.8505514145
50.4873114586
50.0230697632
50.0066364288
50.0600447655
50.0764780998
22.7437347412
50.4708781242
50.0764780998
50.0271780968
50.0764780998
50.0436114311
22.5383180618
50.4873114586
50.0929114342
50.4914197922
50.0764780998
50.0764780998
21.8850930214
50.4873114586
50.4544447899
50.4544447899
50.0395030975
50.0723697662
21.539993
50.0395030975
50.4544447899
50.4544447899
50.0436114311
50.4749864578
22.3822013855
50.4544447899
50.4749864578
50.4544447899
50.0559364319
50.0395030975
21.6427013397

Average distance is : 45.722 cm
Average deviation is : 10.558 cm
Block: 9
======================================
50.4708781242
50.4708781242
50.4708781242
50.4380114555
49.7149447441
50.4544447899
50.0395030975
50.4708781242
50.0230697632
50.4339031219
21.2277596474
50.0230697632
50.0395030975
50.4708781242
50.4544447899
50.4339031219
21.5071263313
50.4708781242
50.0395030975
50.4339031219
50.4544447899
50.0395030975
21.6427013397
50.0559364319
50.0600447655
50.4544447899
50.4708781242
50.4380114555
21.5934013367
50.4708781242
50.4914197922
50.4544447899
50.0230697632
50.4708781242
21.7454096794
50.4544447899
50.0230697632
50.4749864578
50.4708781242
50.0395030975
22.1110513687
50.4339031219
50.0436114311
50.4380114555
50.4544447899
50.4873114586
21.351009655
50.7954364777
50.0764780998
50.0764780998
50.4544447899
50.4914197922
19.8843345642
50.4380114555
50.4749864578
50.0436114311
50.0395030975
50.4544447899
21.7454096794
50.0436114311
50.4708781242
50.4708781242
50.4749864578
50.0395030975
21.7659513474
50.4544447899
50.4544447899
50.0559364319
50.4914197922
50.4544447899
50.0723697662
50.4544447899
50.0395030975
50.0559364319
50.4708781242
22.4890180588
50.0559364319
50.4380114555
50.4174697876
50.0436114311
50.4708781242
22.1562430382
50.4708781242
50.0230697632
50.4708781242
50.4708781242
50.4544447899
21.7988180161
50.4708781242
50.4544447899
50.4749864578
50.0559364319
50.0395030975
21.9549346924
50.0271780968
50.0600447655
50.0559364319
50.4708781242
50.0600447655
22.8341180801

Average distance is : 46.017 cm
Average deviation is : 10.263 cm
Block: 10
======================================
50.4339031219
50.4708781242
50.4708781242
50.4503364563
49.6779697418
50.4708781242
50.4873114586
50.4873114586
50.5037447929
50.4708781242
19.8309262276
50.0559364319
50.0395030975
50.0395030975
50.0395030975
50.4339031219
22.5547513962
50.4708781242
50.4708781242
50.0559364319
50.0436114311
50.4339031219
21.6755680084
50.0436114311
50.4380114555
50.4544447899
50.0436114311
50.0559364319
20.9730429649
50.4544447899
50.0559364319
50.0230697632
50.0395030975
50.0600447655
23.5202097893
50.4708781242
50.4708781242
50.0559364319
50.0395030975
50.0271780968
23.0025597572
50.4873114586
50.4708781242
50.4708781242
50.4914197922
50.4380114555
21.4865846634
50.0600447655
50.4544447899
50.0395030975
50.4339031219
50.4749864578
22.1069430351
50.4708781242
50.4708781242
50.4380114555
50.4380114555
50.4914197922
21.5030179977
50.4708781242
50.4708781242
50.4873114586
50.4873114586
50.0395030975
21.6262680054
50.4708781242
50.4544447899
50.0395030975
50.4544447899
50.9885281563
22.0371013641
50.0395030975
50.4873114586
50.4544447899
50.4544447899
50.4544447899
22.0206680298
50.0395030975
50.4339031219
50.4544447899
50.4544447899
50.4544447899
21.5892930031
50.4708781242
50.0559364319
50.4544447899
50.4708781242
50.4749864578
22.6081597328
50.5037447929
50.0559364319
50.4708781242
50.4873114586
50.4708781242
20.0774262428
50.4544447899
50.4380114555
50.5037447929
50.4544447899
50.4503364563

Average distance is : 46.058 cm
Average deviation is : 10.261 cm