
Block: 1
======================================
50.4544447899
50.4873114586
50.4708781242
50.4380114555
50.0395030975
50.4380114555
50.4544447899
50.4708781242
50.0395030975
50.8529531479
18.1793761253
50.4544447899
50.4749864578
50.4544447899
50.4544447899
50.4708781242
50.4503364563
50.4544447899
50.4708781242
50.4873114586
50.4174697876
50.5078531265
50.0395030975
6.79107542038
50.4174697876
50.4380114555
50.4873114586
50.4380114555
50.4544447899
50.4708781242
50.5078531265
50.4708781242
50.4380114555
50.4380114555
50.4708781242
50.4215781212
6.32272539139
50.4708781242
50.4708781242
50.4708781242
50.4708781242
50.5037447929
50.4873114586
50.4914197922
50.4544447899
50.4544447899
50.5078531265
50.4544447899
50.4708781242
5.11487531662
50.4873114586
50.4708781242
50.4708781242
50.4339031219
50.4544447899
50.4873114586
50.4708781242
50.4380114555
50.4380114555
50.4708781242
50.4708781242
50.4544447899
6.2200170517
50.4708781242
50.4380114555
50.4708781242
50.4708781242
50.4544447899
50.4544447899
50.4544447899
50.4708781242
50.4708781242
50.4708781242
50.4544447899
50.4380114555
6.63085041046
50.4380114555
50.4708781242
50.1463197708
50.4380114555
50.4339031219
50.4708781242
50.5078531265
50.4339031219
50.4544447899
50.4873114586
50.4749864578
50.4544447899
5.77220869064
50.4873114586
50.4708781242
50.4544447899
50.4708781242
50.4914197922
50.4380114555
50.4873114586
50.4544447899
50.5037447929
50.4708781242
50.4708781242

Block: 2
======================================
50.4215781212
50.4380114555
50.4339031219
15.094017601
50.5037447929
50.4749864578
50.4708781242
50.4380114555
50.4873114586
50.4873114586
50.4708781242
50.4873114586
50.4544447899
50.8858198166
50.5078531265
50.4873114586
3.13465852737
50.4380114555
50.4380114555
50.4339031219
50.4544447899
50.4708781242
50.4708781242
50.4339031219
50.4708781242
50.0436114311
51.3664948463
50.0559364319
50.4544447899
6.08033370972
50.4544447899
50.4873114586
50.4544447899
50.4380114555
50.4544447899
50.4873114586
50.4708781242
50.4708781242
50.4749864578
50.4708781242
50.4380114555
50.4544447899
5.34083366394
50.4544447899
50.4873114586
50.4749864578
50.4380114555
50.4544447899
50.4708781242
50.4708781242
50.4708781242
50.4873114586
50.4544447899
50.4749864578
50.4544447899
6.30629205704
50.4914197922
50.4914197922
50.4873114586
50.4544447899
50.4708781242
50.4708781242
50.4708781242
50.5078531265
50.4708781242
50.4708781242
50.4914197922
50.4708781242
5.30796699524
50.4544447899
50.4708781242
50.4708781242
50.4339031219
50.4708781242
50.4544447899
50.4708781242
50.4544447899
50.4380114555
50.4544447899
50.4544447899
50.4749864578
6.67193374634
50.5037447929
50.4544447899
50.4544447899
50.4380114555
50.4708781242
50.4503364563
50.4380114555
50.4914197922
50.4708781242
50.4380114555
50.4708781242
50.5078531265
6.51170873642
50.4914197922
50.4873114586
50.4544447899
50.4708781242
50.4708781242

Block: 3
======================================
50.4914197922
50.4708781242
50.9022531509
50.4873114586
50.4708781242
50.4708781242
50.4544447899
50.4708781242
50.0395030975
16.7661093712
50.4873114586
50.4873114586
50.4380114555
50.4708781242
50.4708781242
50.4708781242
50.4339031219
50.4544447899
50.4544447899
50.4503364563
50.4708781242
50.4873114586
50.4380114555
50.5037447929
4.48219194412
50.4215781212
50.5078531265
50.4708781242
50.4708781242
50.4749864578
50.4708781242
50.4544447899
50.4708781242
50.0888031006
50.4873114586
50.4544447899
50.4708781242
7.34159212112
50.4708781242
50.4914197922
50.4708781242
50.4544447899
50.4380114555
50.4708781242
50.4708781242
50.4544447899
50.4544447899
50.4544447899
50.4708781242
50.0230697632
6.44597539902
50.0559364319
50.4544447899
50.4544447899
50.4708781242
50.4339031219
50.4749864578
50.4914197922
50.4873114586
50.4708781242
50.4914197922
50.4544447899
50.0230697632
6.98005876541
50.4708781242
50.4708781242
50.4708781242
50.4380114555
50.4380114555
50.4873114586
50.4544447899
50.4749864578
50.4708781242
50.4873114586
50.4380114555
50.4544447899
6.75820875168
50.5037447929
50.4544447899
50.4544447899
50.4708781242
50.4749864578
50.0230697632
50.4708781242
50.4749864578
50.4873114586
50.0395030975
50.4544447899
50.4339031219
8.42619218826
50.4873114586
50.4503364563
50.4708781242
50.4380114555
50.4544447899
50.4873114586
50.4873114586
50.4873114586
50.4708781242
50.4380114555

Block: 4
======================================
50.4914197922
50.4380114555
50.4708781242
50.4544447899
19.5926428795
50.4708781242
50.4544447899
50.4873114586
50.4708781242
50.0395030975
50.5037447929
50.4708781242
50.4380114555
50.4873114586
50.4873114586
50.4873114586
50.4749864578
5.91189203262
50.4380114555
50.4544447899
50.4544447899
50.4544447899
50.4873114586
50.4708781242
50.4544447899
50.4380114555
50.4914197922
50.4708781242
50.4708781242
50.4708781242
8.85756721497
50.4708781242
50.4544447899
50.4914197922
50.4380114555
50.4544447899
50.4544447899
50.4708781242
50.4708781242
50.4749864578
50.0559364319
50.4708781242
50.4873114586
9.28483390808
50.4544447899
50.4873114586
50.4708781242
50.4544447899
50.4544447899
50.4708781242
50.4339031219
50.4503364563
50.4544447899
50.4380114555
50.4873114586
50.4544447899
8.11806716919
50.4544447899
50.4708781242
50.4914197922
50.4914197922
50.4708781242
50.4544447899
50.4708781242
50.4914197922
50.4544447899
50.4544447899
50.4749864578
50.4708781242
7.78940048218
50.4708781242
50.0559364319
50.4708781242
50.0395030975
50.0230697632
50.4749864578
50.4708781242
50.4544447899
50.4873114586
50.4380114555
50.4544447899
50.4708781242
8.71788387299
50.4708781242
50.4380114555
50.4873114586
50.4873114586
50.4708781242
50.4380114555
50.4380114555
50.4873114586
50.4708781242
50.0559364319
50.4708781242
50.5078531265
9.13282556534
50.4914197922
50.4873114586
50.4544447899
50.4708781242

Block: 5
======================================
50.4873114586
50.4749864578
50.0230697632
50.4749864578
50.4873114586
50.4708781242
50.0559364319
50.4544447899
50.4708781242
5.6530670166
50.4544447899
50.0764780998
50.0395030975
50.4544447899
50.4544447899
50.0764780998
50.4708781242
50.4708781242
50.0395030975
50.4544447899
50.4708781242
50.4749864578
2.30888347626
50.4544447899
50.4380114555
50.4380114555
50.4544447899
50.4914197922
50.0395030975
50.4544447899
50.4544447899
50.4544447899
50.4873114586
50.4873114586
50.4708781242
50.4380114555
50.8858198166
19.7323262215
50.4914197922
50.4708781242
50.4544447899
50.4873114586
50.4873114586
50.4544447899
50.4339031219
50.4708781242
50.4544447899
50.0559364319
50.4708781242
50.4544447899
8.27418384552
50.4749864578
50.4873114586
50.4873114586
50.4708781242
50.4708781242
50.4873114586
50.4708781242
50.0764780998
50.0600447655
50.0559364319
50.4914197922
50.4708781242
10.1845589638
50.4708781242
50.4708781242
50.4708781242
50.4873114586
50.4544447899
50.4914197922
50.5078531265
50.4544447899
50.4544447899
50.0559364319
50.4339031219
50.4749864578
9.23553390503
50.0395030975
50.0230697632
50.0436114311
50.4873114586
50.4708781242
50.4380114555
50.4544447899
50.4544447899
50.4873114586
50.4708781242
50.0764780998
50.4708781242
10.0982839584
50.4708781242
50.0230697632
50.0929114342
50.0764780998
50.0230697632
50.0066364288
50.0600447655
50.0600447655
50.4708781242
50.0600447655

Block: 6
======================================
50.8858198166
50.4544447899
50.5037447929
50.0600447655
19.7117845535
50.4544447899
50.4544447899
50.4380114555
50.4380114555
50.4544447899
50.4708781242
50.4544447899
50.4544447899
50.4380114555
50.4380114555
50.4708781242
50.4873114586
7.56344213486
50.0395030975
50.4544447899
50.4544447899
50.4708781242
50.4380114555
50.4749864578
50.4708781242
50.4544447899
50.4544447899
50.4708781242
50.4544447899
50.4544447899
9.25196723938
50.4544447899
50.4544447899
50.4914197922
50.4544447899
50.4544447899
50.4503364563
50.4873114586
50.4708781242
50.0436114311
50.4708781242
50.4544447899
50.4708781242
9.30537557602
50.4544447899
50.5037447929
50.4503364563
50.4380114555
50.4339031219
50.4708781242
50.4873114586
50.0559364319
50.0600447655
50.0395030975
50.4380114555
50.4708781242
9.33824224472
50.0559364319
50.0559364319
50.0600447655
50.0723697662
50.0600447655
50.0436114311
50.0230697632
50.0395030975
50.0230697632
50.4544447899
50.4544447899
50.4708781242
12.164775753
50.0723697662
50.0600447655
50.4544447899
50.4544447899
50.4544447899
50.4544447899
50.4749864578
50.0230697632
50.4544447899
50.4380114555
50.4380114555
50.4873114586
10.2174256325
50.4544447899
50.4380114555
50.4873114586
50.4708781242
50.4873114586
50.4708781242
50.4914197922
50.4544447899
50.4708781242
50.4339031219
50.4544447899
50.4873114586
8.90686721802
50.4544447899
50.4544447899
50.4544447899
50.4708781242

Block: 7
======================================
50.4749864578
50.4544447899
50.5078531265
50.4544447899
50.4914197922
50.4873114586
50.4544447899
50.4708781242
50.4339031219
50.4544447899
20.0897512436
50.4873114586
50.4380114555
50.4544447899
50.4873114586
50.4708781242
50.4544447899
50.4708781242
50.4544447899
50.4380114555
50.4873114586
50.4503364563
50.4708781242
8.06465883255
50.4339031219
50.4708781242
50.4708781242
50.4708781242
50.4749864578
50.4380114555
50.4708781242
50.5037447929
50.4380114555
50.4708781242
50.4503364563
50.4380114555
6.28985872269
50.4544447899
50.0559364319
50.4708781242
50.4873114586
50.0764780998
50.0271780968
50.4708781242
50.4914197922
50.4380114555
50.0600447655
50.4544447899
50.0600447655
11.1664506912
50.4708781242
50.4544447899
50.4544447899
50.0395030975
50.0395030975
50.4380114555
50.0230697632
50.0395030975
50.4544447899
50.0559364319
50.5078531265
50.0230697632
50.4544447899
50.4914197922
18.0438011169
50.0600447655
50.4914197922
50.0395030975
50.0600447655
50.0436114311
50.4708781242
50.4544447899
50.4873114586
50.0600447655
50.0066364288
50.4544447899
50.4708781242
11.5444173813
50.0600447655
50.0600447655
50.4708781242
50.4380114555
50.0559364319
50.4708781242
50.4380114555
50.4873114586
50.4544447899
50.0764780998
50.0764780998
50.4544447899
11.0267673492
50.4544447899
50.4873114586
50.0436114311
50.0436114311
50.4708781242
50.4708781242
50.4503364563
50.4544447899
50.4544447899

Block: 8
======================================
50.4708781242
50.4380114555
50.5078531265
50.4544447899
50.5078531265
20.1760262489
50.5078531265
50.4380114555
50.4708781242
50.4544447899
50.4544447899
50.0600447655
50.0436114311
50.4544447899
50.4708781242
50.4708781242
50.4873114586
50.4708781242
8.84113388062
50.4544447899
50.4380114555
50.4380114555
50.4708781242
50.4873114586
50.4749864578
50.4544447899
50.4708781242
50.4544447899
50.4503364563
50.4749864578
50.4873114586
8.85756721497
50.4544447899
50.4873114586
50.4873114586
50.4749864578
50.4544447899
50.4708781242
50.4339031219
50.4708781242
50.4544447899
50.4873114586
50.4708781242
50.4708781242
9.06298389435
50.4380114555
50.4708781242
50.5571531296
50.4914197922
50.4544447899
50.4380114555
50.4708781242
50.4380114555
50.4544447899
50.4708781242
50.4708781242
50.4544447899
9.13282556534
50.4544447899
50.4708781242
50.4873114586
50.4174697876
50.4380114555
50.4914197922
50.4708781242
50.4544447899
50.4544447899
50.4380114555
50.4380114555
50.4544447899
8.99725055695
50.4544447899
50.4708781242
50.4873114586
50.4749864578
49.9532280922
50.4544447899
50.4914197922
50.4708781242
50.4708781242
50.4544447899
50.4708781242
50.4708781242
8.49603385925
50.4339031219
50.4708781242
50.4544447899
50.4708781242
50.5078531265
50.5037447929
50.4873114586
50.4544447899
50.4544447899
50.4380114555
50.4544447899
50.4708781242
8.10163383484
50.4873114586
50.4708781242
50.4380114555

Block: 9
======================================
50.4380114555
50.4380114555
50.4215781212
50.9022531509
50.4339031219
50.8858198166
50.4914197922
50.0600447655
50.4708781242
50.4749864578
50.7995448112
17.0906677246
50.4708781242
50.4544447899
50.4544447899
50.4544447899
50.4873114586
50.4708781242
50.4708781242
50.4873114586
50.4873114586
50.4914197922
50.4339031219
50.8693864822
8.78772554398
50.4873114586
50.4708781242
50.4544447899
50.8858198166
50.881711483
50.4749864578
50.4708781242
50.4749864578
50.4708781242
50.4174697876
50.4544447899
50.4873114586
7.96195049286
50.4544447899
50.4873114586
50.9022531509
50.4708781242
50.4544447899
50.4503364563
50.4708781242
50.4380114555
50.4380114555
50.8858198166
50.4708781242
50.4708781242
50.4544447899
14.0422842026
50.4873114586
50.8652781487
50.8652781487
50.8693864822
50.4708781242
50.4873114586
50.4174697876
50.4339031219
50.9022531509
50.4544447899
50.8488448143
50.4380114555
6.80340042114
50.4215781212
50.4380114555
50.4174697876
50.4215781212
50.4010364532
50.9022531509
50.4544447899
50.8858198166
50.4873114586
50.4708781242
50.4544447899
50.4215781212
50.4873114586
50.4544447899
11.0103340149
50.4708781242
50.4380114555
50.8529531479
50.8652781487
50.4544447899
50.4914197922
50.4873114586
50.4873114586
50.4380114555
50.4380114555
50.4873114586
50.6598614693
8.15093383789
50.881711483
50.4708781242
50.4708781242
50.4873114586
50.4708781242
50.4914197922
50.4380114555

Block: 10
======================================
50.4174697876
50.4215781212
50.4215781212
50.4749864578
50.4873114586
50.4174697876
50.0230697632
20.2130012512
50.4380114555
50.4708781242
50.4749864578
50.4380114555
50.4708781242
50.5078531265
50.4380114555
50.4708781242
50.5078531265
50.4544447899
50.4708781242
50.4914197922
8.09752550125
50.4914197922
50.4708781242
50.4708781242
50.4708781242
50.4544447899
50.4544447899
50.4749864578
50.4380114555
50.4708781242
50.4914197922
50.4873114586
50.4708781242
8.0482254982
50.4544447899
50.4339031219
50.4708781242
50.4708781242
50.4708781242
50.4544447899
50.4708781242
50.4708781242
50.4544447899
50.4708781242
50.4708781242
50.4544447899
8.37278385162
50.4544447899
50.4708781242
50.4708781242
50.5078531265
50.4503364563
50.4544447899
50.4708781242
50.4708781242
50.4708781242
50.4544447899
50.4339031219
50.0230697632
9.18623390198
50.0395030975
50.5078531265
50.4544447899
50.4708781242
50.4544447899
50.4873114586
50.4708781242
50.4708781242
50.4749864578
50.4380114555
50.4380114555
50.4708781242
9.68334226608
50.4544447899
50.4749864578
50.4708781242
50.4380114555
50.4873114586
50.4873114586
50.4544447899
50.4544447899
50.5078531265
50.4544447899
50.4708781242
50.4708781242
9.79015893936
50.4544447899
50.4708781242
50.4544447899
50.4914197922
50.4708781242
50.5037447929
50.4544447899
50.4380114555
50.4339031219
50.4544447899
50.5037447929
50.4708781242
8.99725055695
50.4873114586
