
Block: 1
======================================
50.4402748108
50.4361592531
50.4238125801
50.4073503494
50.4567370415
50.4238125801
50.8353683472
50.8024438858
50.8682928085
50.8394839048

Block: 2
======================================
50.8189061165
50.3908881187
50.4196970224
50.3867725611
50.3867725611
50.8189061165
50.8559461355
50.8189061165
50.4402748108
50.4361592531

Block: 3
======================================
50.4238125801
50.4238125801
50.3867725611
50.4196970224
50.4238125801
50.4402748108
50.4402748108
50.3867725611
50.3867725611
50.3908881187

Block: 4
======================================
50.3867725611
50.3867725611
50.8189061165
50.8189061165
50.8724083662
50.8847550392
50.8888705969
50.8559461355
50.8353683472
50.8724083662

Block: 5
======================================
50.4361592531
50.3908881187
50.4238125801
50.4402748108
50.3703103304
50.3867725611
50.4402748108
50.4196970224
50.4196970224
50.4361592531

Block: 6
======================================
50.4402748108
50.4196970224
50.4402748108
50.4238125801
50.3908881187
50.4073503494
50.8189061165
50.3867725611
50.8189061165
50.8024438858

Block: 7
======================================
50.4196970224
50.4402748108
50.4032347918
50.4032347918
50.4073503494
50.4073503494
50.3867725611
50.3867725611
50.7859816551
50.3867725611

Block: 8
======================================
50.2674213886
50.3703103304
50.4238125801
50.4032347918
50.4238125801
50.4073503494
50.8189061165
50.8024438858
50.4032347918
50.8189061165

Block: 9
======================================
50.7654038668
50.3867725611
50.4196970224
50.3703103304
50.4032347918
50.4402748108
50.8024438858
50.4402748108
50.7859816551
50.3908881187

Block: 10
======================================
50.4361592531
50.3867725611
50.4032347918
50.4361592531
50.3867725611
50.8024438858
50.8559461355
50.8353683472
50.8353683472
50.3703103304
