
Block: 1
======================================
50.8847550392
50.8559461355
50.9053328276
50.8518305779
50.8847550392

Block: 2
======================================
50.9053328276
50.9053328276
50.8353683472
50.8353683472
50.7818660975

Block: 3
======================================
50.8518305779
50.8024438858
50.8189061165
50.8559461355
50.975297308

Block: 4
======================================
50.9217950583
50.8518305779
50.8518305779
50.8024438858
50.8024438858

Block: 5
======================================
50.8518305779
50.8888705969
50.8518305779
50.9053328276
50.8888705969

Block: 6
======================================
50.8847550392
50.8724083662
50.8888705969
50.8724083662
50.8888705969

Block: 7
======================================
50.8724083662
50.9053328276
50.8189061165
50.8724083662
50.8189061165

Block: 8
======================================
50.8189061165
50.7818660975
50.8024438858
50.8518305779
50.8518305779

Block: 9
======================================
50.8559461355
50.8024438858
50.8353683472
50.8024438858
50.8189061165

Block: 10
======================================
50.8518305779
50.8353683472
50.4402748108
50.3703103304
50.4402748108
