
Block: 1
======================================
50.8189061165
50.8724083662
50.8353683472
50.8189061165
50.8353683472
50.8353683472
50.3867725611
50.8724083662
50.8189061165
50.8394839048
50.7983283281
50.8024438858
50.8024438858
50.8189061165
50.8847550392
50.8189061165
50.8353683472
50.8353683472
50.8682928085
50.8189061165
50.8353683472
50.8559461355
50.4032347918
50.4032347918
50.8024438858
50.8559461355
50.8189061165
50.8189061165
50.8353683472
50.8682928085
50.8024438858
50.8189061165
50.8353683472
50.8189061165
50.9053328276
50.8189061165
50.7818660975
50.8024438858
50.8559461355
50.8682928085
50.8024438858
50.8189061165
50.4238125801
50.8559461355
50.8189061165
50.8189061165
50.8189061165
50.8189061165
50.3867725611
50.8189061165
50.5431637526
50.8559461355
50.8724083662
50.8559461355
50.8724083662
50.8353683472
50.7859816551
50.8847550392
50.8682928085
50.8189061165
50.8724083662
50.8394839048
50.8394839048
50.8024438858
50.8559461355
50.8353683472
50.8682928085
50.8724083662
50.8024438858
50.8189061165
50.8024438858
50.8559461355
50.8724083662
50.8724083662
50.8888705969
50.8724083662
50.8559461355
50.8394839048
50.8682928085
50.8189061165
50.8189061165
50.8724083662
50.8353683472
50.8682928085
50.8189061165
50.9053328276
50.8682928085
50.8189061165
50.8394839048
50.8724083662
50.8888705969
50.8518305779
50.8189061165
50.8518305779
50.8353683472
50.8559461355
50.8682928085
50.8724083662
50.8724083662
50.8724083662

Average distance is : 50.817 cm
Average deviation is : 0.104 cm
Block: 2
======================================
50.8847550392
50.8888705969
50.4196970224
50.8189061165
50.8559461355
50.8518305779
50.8518305779
50.8888705969
50.8189061165
50.8682928085
50.8559461355
50.4238125801
50.8024438858
50.8682928085
50.8353683472
50.4032347918
50.8353683472
50.8189061165
50.4238125801
50.8024438858
50.8682928085
50.8024438858
50.8353683472
50.8353683472
50.8888705969
50.8024438858
50.8518305779
50.9053328276
50.8888705969
50.8518305779
50.7859816551
51.2016529799
50.8353683472
50.8189061165
50.8518305779
50.8888705969
50.8353683472
50.8559461355
50.8353683472
50.8518305779
50.8559461355
50.8724083662
50.8518305779
50.8518305779
50.8518305779
50.8888705969
50.8189061165
50.8353683472
50.8353683472
50.8353683472
50.8353683472
50.8518305779
50.9053328276
50.8888705969
50.8189061165
50.8189061165
50.8353683472
50.8189061165
50.8189061165
50.8888705969
50.8353683472
50.8189061165
50.8518305779
50.8724083662
50.8024438858
50.8189061165
50.8353683472
50.8682928085
50.8724083662
50.9053328276
50.8024438858
50.8024438858
50.8189061165
50.8682928085
50.8024438858
50.8518305779
50.8888705969
50.8724083662
50.8189061165
50.8353683472
50.8888705969
50.8888705969
50.8724083662
50.8724083662
50.9053328276
50.8353683472
50.8724083662
50.8518305779
50.8888705969
50.8189061165
50.8888705969
50.8189061165
50.8847550392
50.8559461355
50.9053328276
50.8724083662
50.8847550392
51.1316884995
50.8682928085
50.8353683472

Average distance is : 50.840 cm
Average deviation is : 0.102 cm
Block: 3
======================================
50.8559461355
50.8518305779
50.8724083662
50.8518305779
50.8847550392
50.8189061165
50.8559461355
50.8559461355
50.8888705969
50.8189061165
50.8189061165
50.8847550392
50.8682928085
50.8024438858
50.8353683472
50.8518305779
50.8024438858
50.4032347918
50.8394839048
50.8724083662
50.8682928085
50.8559461355
50.4238125801
50.4567370415
50.4402748108
50.4073503494
50.3867725611
50.8189061165
50.3867725611
50.4032347918
50.8353683472
50.8353683472
50.4032347918
50.8518305779
50.8353683472
50.4196970224
50.4402748108
50.4196970224
50.8189061165
50.8518305779
50.8518305779
50.8888705969
50.8682928085
50.9053328276
50.8353683472
50.8024438858
50.8189061165
50.8559461355
50.8518305779
50.8682928085
50.8189061165
50.8353683472
50.9053328276
50.4238125801
50.8682928085
50.8682928085
50.8724083662
50.8189061165
50.8724083662
50.8559461355
50.8189061165
50.4032347918
50.8353683472
50.8189061165
50.4073503494
50.4032347918
50.8682928085
50.8353683472
50.8353683472
50.9053328276
50.8888705969
50.8682928085
50.8189061165
50.8682928085
50.8189061165
50.8888705969
50.8559461355
50.8353683472
50.8189061165
50.8189061165
50.8559461355
50.8888705969
50.8559461355
50.8724083662
50.8353683472
50.8559461355
50.8888705969
50.8888705969
50.8888705969
50.8559461355
50.8189061165
50.8024438858
50.8724083662
50.1645324469
50.8559461355
50.8682928085
50.8353683472
50.9053328276
50.8888705969
50.8024438858

Average distance is : 50.775 cm
Average deviation is : 0.174 cm
Block: 4
======================================
50.4073503494
50.4032347918
50.4361592531
50.4073503494
50.4196970224
50.3867725611
50.4032347918
50.4402748108
50.8189061165
50.4238125801
50.8189061165
50.4402748108
50.4032347918
50.4032347918
50.4032347918
50.4238125801
50.4032347918
50.8024438858
50.4567370415
50.3867725611
50.4196970224
50.3867725611
50.4238125801
50.3867725611
50.8189061165
50.3703103304
50.4196970224
50.4073503494
50.8353683472
50.7983283281
50.8353683472
50.8888705969
50.4238125801
50.8559461355
50.8024438858
50.4361592531
50.4238125801
50.7859816551
50.8682928085
50.8518305779
50.8724083662
50.8724083662
50.4567370415
50.4361592531
50.8559461355
50.8189061165
50.8682928085
50.9053328276
50.8024438858
50.8189061165
50.8024438858
50.8353683472
50.9053328276
50.8189061165
50.8682928085
50.8189061165
50.3867725611
50.4032347918
50.8024438858
50.8682928085
50.8353683472
50.8353683472
50.8353683472
50.8024438858
50.8230216742
50.8189061165
50.8024438858
50.8353683472
51.3539286137
50.8353683472
50.8189061165
50.8189061165
50.8682928085
50.8189061165
50.8559461355
50.8353683472
50.8189061165
50.8559461355
50.9053328276
50.8724083662
50.8724083662
50.8189061165
50.8682928085
50.8353683472
50.8353683472
50.8559461355
50.8724083662
50.8847550392
50.8888705969
50.8724083662
50.8682928085
50.8518305779
50.8682928085
50.8847550392
50.8724083662
50.8888705969
50.8559461355
50.8724083662
50.8888705969
50.8724083662

Average distance is : 50.717 cm
Average deviation is : 0.212 cm
Block: 5
======================================
50.4032347918
50.4196970224
50.4032347918
50.4073503494
50.8353683472
50.3867725611
50.7983283281
50.8353683472
50.8518305779
50.8189061165
50.8024438858
50.8353683472
50.8394839048
50.8353683472
50.8189061165
50.8024438858
50.8189061165
50.8189061165
50.8518305779
50.8353683472
50.8394839048
50.8189061165
50.8518305779
50.7983283281
50.8189061165
50.8353683472
50.8189061165
50.8189061165
50.7859816551
50.8682928085
50.8518305779
50.8024438858
50.8189061165
50.8189061165
50.3867725611
50.4238125801
50.8189061165
50.7983283281
50.8189061165
50.4402748108
50.8189061165
50.8189061165
50.8189061165
50.4032347918
50.8888705969
50.8189061165
50.8353683472
50.8353683472
50.8189061165
50.8353683472
50.4196970224
50.8189061165
50.8189061165
50.3867725611
50.4196970224
50.8189061165
50.4196970224
50.4032347918
50.8353683472
50.8024438858
50.8353683472
50.8724083662
50.8559461355
50.8559461355
50.8394839048
50.8024438858
50.8189061165
50.7983283281
50.4238125801
50.8682928085
50.8189061165
50.8394839048
50.4567370415
50.8888705969
50.8888705969
50.8189061165
50.8189061165
50.7983283281
50.4402748108
50.8189061165
50.4032347918
50.8189061165
50.8230216742
50.8518305779
50.8518305779
50.8024438858
50.8024438858
50.8888705969
50.8559461355
50.8559461355
50.8682928085
50.8189061165
50.8394839048
50.8189061165
50.8189061165
50.8189061165
50.8394839048
50.8189061165
50.8189061165
50.8189061165

Average distance is : 50.755 cm
Average deviation is : 0.162 cm
Block: 6
======================================
50.8024438858
50.7983283281
50.8353683472
50.8559461355
50.8024438858
50.8024438858
50.8682928085
50.8518305779
50.8353683472
50.8724083662
50.8559461355
50.8682928085
50.8024438858
50.8682928085
50.8024438858
50.8024438858
50.8353683472
50.8518305779
50.8353683472
50.8724083662
50.8024438858
50.8189061165
50.8394839048
50.8724083662
50.8888705969
50.8888705969
50.8353683472
50.8189061165
50.8559461355
50.8024438858
50.8353683472
50.7818660975
50.8353683472
50.8024438858
50.8559461355
50.8353683472
50.8024438858
50.8024438858
50.8189061165
50.7983283281
50.8189061165
50.8024438858
50.8682928085
50.8353683472
50.8724083662
50.8724083662
50.8559461355
50.8724083662
50.8024438858
50.8230216742
50.8559461355
50.3867725611
50.8189061165
50.8518305779
50.8024438858
50.8189061165
50.4073503494
50.8353683472
50.3867725611
50.4361592531
50.8353683472
50.8189061165
50.4032347918
50.7859816551
50.8518305779
50.4238125801
50.4196970224
50.4361592531
50.8189061165
50.8024438858
50.4361592531
50.8024438858
50.3867725611
50.4032347918
50.4402748108
50.4238125801
50.9053328276
50.8024438858
50.8189061165
50.4032347918
50.7983283281
50.8888705969
50.8682928085
50.8724083662
50.8724083662
50.4937770605
50.8024438858
50.8189061165
50.8189061165
50.8353683472
50.8189061165
50.8024438858
50.8189061165
50.4073503494
50.8189061165
50.8189061165
50.8024438858
50.8189061165
50.3867725611
50.3867725611

Average distance is : 50.757 cm
Average deviation is : 0.164 cm
Block: 7
======================================
50.4731992722
50.8518305779
49.662434411
50.4402748108
50.4238125801
50.4361592531
50.4073503494
50.8024438858
50.8189061165
50.4032347918
50.8189061165
50.8353683472
50.4238125801
50.8189061165
50.8189061165
50.8353683472
50.4196970224
50.4238125801
50.4032347918
50.8353683472
50.4402748108
50.4073503494
50.8518305779
50.4032347918
50.4238125801
50.3867725611
50.8888705969
50.8189061165
50.4238125801
50.8189061165
50.4238125801
50.8394839048
50.8189061165
50.8353683472
50.4196970224
50.8559461355
50.7818660975
50.8189061165
50.4032347918
50.4238125801
50.4402748108
50.8189061165
50.8230216742
50.4073503494
50.8518305779
50.8189061165
50.4032347918
50.4073503494
50.3867725611
50.4032347918
50.4238125801
50.3867725611
50.3908881187
50.4196970224
50.4402748108
50.8189061165
50.4402748108
50.4196970224
50.4567370415
50.3867725611
50.4032347918
50.3867725611
50.4402748108
50.4238125801
50.4238125801
50.4196970224
50.4073503494
50.3703103304
50.4238125801
50.4196970224
50.4238125801
50.4402748108
50.4361592531
50.3867725611
50.3703103304
50.3867725611
50.3867725611
50.3703103304
50.4238125801
50.3908881187
50.4402748108
50.4032347918
50.4196970224
50.4032347918
50.4402748108
50.4238125801
50.4032347918
50.3703103304
50.4032347918
50.3867725611
50.3908881187
50.4073503494
50.4196970224
50.3867725611
50.4073503494
50.4196970224
50.3703103304
50.4073503494
50.4032347918
50.4032347918

Average distance is : 50.504 cm
Average deviation is : 0.199 cm
Block: 8
======================================
50.4073503494
50.4238125801
50.4073503494
50.3867725611
50.4196970224
50.4238125801
50.3867725611
50.4073503494
50.4196970224
50.4196970224
50.4238125801
50.4196970224
50.3867725611
50.4238125801
50.4361592531
50.4032347918
50.3908881187
50.4402748108
50.4032347918
50.4073503494
50.4238125801
50.3867725611
50.4073503494
50.4402748108
50.4196970224
50.4196970224
50.4238125801
50.4196970224
50.4196970224
50.4073503494
50.4032347918
50.4032347918
50.4196970224
50.4032347918
50.4032347918
50.4073503494
50.3867725611
50.4032347918
50.4402748108
50.4196970224
50.3867725611
50.3867725611
50.4196970224
50.4402748108
50.4032347918
50.8394839048
50.3867725611
50.8024438858
50.8189061165
50.4073503494
50.3867725611
50.4032347918
50.8189061165
50.3908881187
50.4032347918
50.3867725611
50.4238125801
50.3867725611
50.3908881187
50.4196970224
50.4238125801
50.4402748108
50.4032347918
50.4196970224
50.4073503494
50.4402748108
50.4238125801
50.4402748108
50.4196970224
50.8559461355
50.1809946775
50.4032347918
50.4196970224
50.4196970224
50.4196970224
50.4361592531
50.4032347918
50.3867725611
50.3867725611
50.4032347918
50.4238125801
50.4238125801
50.4032347918
50.4238125801
50.4032347918
50.4402748108
50.3867725611
50.4402748108
50.4032347918
50.4032347918
50.4238125801
50.7859816551
50.8189061165
50.3867725611
50.4073503494
50.4196970224
50.4196970224
50.4032347918
50.4238125801
50.4238125801

Average distance is : 50.438 cm
Average deviation is : 0.109 cm
Block: 9
======================================
50.4402748108
50.4402748108
50.4238125801
50.4073503494
50.8518305779
50.8189061165
50.8518305779
50.8724083662
50.8682928085
50.8724083662
50.8559461355
50.8189061165
50.8353683472
50.8189061165
50.8394839048
50.8888705969
50.8888705969
50.8394839048
50.4032347918
50.8353683472
50.7983283281
50.9588350773
50.8189061165
50.8559461355
50.8559461355
50.4361592531
50.4238125801
50.4238125801
50.4361592531
50.3867725611
50.4402748108
50.4402748108
50.4073503494
50.4032347918
50.3867725611
50.4073503494
50.4073503494
50.4196970224
50.4402748108
50.4238125801
50.4238125801
50.7983283281
50.4073503494
50.4196970224
50.4196970224
50.4238125801
50.4196970224
50.4032347918
50.8024438858
50.4361592531
50.4238125801
50.4238125801
50.7983283281
50.8189061165
50.4238125801
50.4567370415
50.4032347918
50.4196970224
50.4032347918
50.4073503494
50.4402748108
50.4238125801
50.4032347918
50.4196970224
50.3908881187
50.4238125801
50.3867725611
50.8189061165
50.4402748108
50.8559461355
50.8189061165
50.8353683472
50.8724083662
50.8024438858
50.3867725611
50.4402748108
50.4402748108
50.4032347918
50.4361592531
50.8024438858
50.3703103304
50.4032347918
50.4196970224
50.4567370415
50.4073503494
50.4238125801
50.4238125801
50.3867725611
50.4238125801
50.7983283281
50.4073503494
50.4032347918
50.4196970224
50.4032347918
50.4238125801
50.8394839048
50.4073503494
50.4238125801
50.4238125801
50.4238125801

Average distance is : 50.557 cm
Average deviation is : 0.201 cm
Block: 10
======================================
50.8189061165
50.7859816551
50.4032347918
50.4361592531
50.8394839048
50.8189061165
50.3867725611
50.4032347918
50.4402748108
50.4567370415
50.4238125801
50.4402748108
50.4402748108
50.4073503494
50.4073503494
50.4402748108
50.4073503494
50.9053328276
50.9053328276
50.8724083662
50.8518305779
50.4073503494
50.8189061165
50.8189061165
50.3867725611
50.3867725611
50.8353683472
50.8189061165
50.4238125801
50.4402748108
50.3908881187
50.7983283281
50.8724083662
50.3867725611
50.0945679665
50.4402748108
50.4073503494
50.8559461355
50.8394839048
50.8024438858
50.4032347918
50.4196970224
50.4073503494
50.8559461355
50.8024438858
50.4238125801
50.4032347918
50.8353683472
50.8024438858
50.4032347918
50.3867725611
50.4402748108
50.4196970224
50.8353683472
50.4238125801
50.7818660975
50.4073503494
50.8353683472
50.4238125801
50.4073503494
50.3867725611
50.8189061165
50.4032347918
50.8024438858
50.8353683472
50.3867725611
50.3703103304
50.8353683472
50.3867725611
50.8230216742
50.4032347918
50.4196970224
50.8024438858
50.8189061165
50.4567370415
50.4032347918
50.3867725611
50.4361592531
50.4032347918
50.3867725611
50.4032347918
50.4032347918
50.4032347918
50.3867725611
50.8888705969
50.8189061165
50.8024438858
50.3867725611
50.8189061165
50.8353683472
50.8353683472
50.8353683472
50.4196970224
50.4402748108
50.8353683472
50.8518305779
50.8353683472
50.4073503494
50.8394839048
50.8189061165

Average distance is : 50.589 cm
Average deviation is : 0.216 cm