
Block: 1
======================================
299.272626781
299.260431814
299.276691771
299.276691771
299.703515625
299.309211683
299.276691771
299.292951727
299.240106869
299.719775581
299.260431814
299.240106869
299.699450636
299.272626781
299.752295494
299.719775581
299.292951727
299.715710592
299.699450636
299.719775581
299.276691771
299.276691771
299.736035538
299.276691771
299.288886738
299.260431814
299.699450636
299.256366825
299.731970549
299.699450636
299.687255669
299.276691771
299.699450636
299.68319068
299.276691771
299.703515625
299.699450636
299.699450636
299.719775581
299.244171858
299.756360483
299.715710592
299.703515625
299.256366825
299.719775581
299.292951727
299.256366825
299.666930723
299.719775581
299.699450636
299.68319068
299.719775581
299.719775581
299.276691771
299.68319068
299.699450636
299.276691771
299.68319068
299.260431814
299.699450636
299.687255669
299.68319068
299.719775581
299.715710592
299.666930723
299.699450636
299.256366825
299.68319068
299.272626781
299.223846912
299.699450636
299.256366825
299.260431814
299.703515625
299.256366825

Block: 2
======================================
299.68319068
299.736035538
299.272626781
299.68319068
299.687255669
299.256366825
299.736035538
299.309211683
299.719775581
299.32547164
299.719775581
299.699450636
299.256366825
299.68319068
299.272626781
299.699450636
299.715710592
299.699450636
299.699450636
299.272626781
299.731970549
299.699450636
299.666930723
299.292951727
299.276691771
299.256366825
299.256366825
299.272626781
299.68319068
299.272626781
299.699450636
299.699450636
299.260431814
299.309211683
299.687255669
298.83360796
299.260431814
299.699450636
299.256366825
299.272626781
299.309211683
299.68319068
299.309211683
299.687255669
299.276691771
299.68319068
299.703515625
299.223846912
299.736035538
299.715710592
299.256366825
299.687255669
299.276691771
299.719775581
299.687255669
299.736035538
299.292951727
299.292951727
299.715710592
299.736035538
299.292951727
299.276691771
299.276691771
299.256366825
299.256366825
299.699450636
299.666930723
299.309211683
299.272626781
299.719775581
299.68319068
299.292951727
299.719775581
299.292951727
299.687255669

Block: 3
======================================
299.288886738
299.68319068
299.292951727
299.272626781
299.719775581
299.736035538
299.736035538
299.703515625
299.719775581
299.703515625
299.736035538
299.703515625
299.276691771
299.719775581
299.68319068
299.719775581
299.719775581
299.68319068
299.703515625
299.703515625
299.687255669
299.276691771
299.715710592
299.68319068
299.736035538
299.719775581
299.699450636
299.138482141
299.630345821
299.801075363
299.292951727
299.719775581
299.719775581
299.272626781
299.736035538
299.276691771
299.715710592
299.719775581
299.731970549
299.272626781
299.715710592
299.309211683
299.68319068
299.687255669
299.256366825
299.276691771
299.240106869
299.272626781
299.272626781
299.260431814
299.309211683
299.699450636
299.276691771
299.276691771
299.715710592
299.256366825
299.68319068
299.272626781
299.699450636
299.719775581
299.699450636
299.699450636
299.687255669
299.276691771
299.736035538
299.240106869
299.703515625
299.699450636
299.288886738
299.309211683
299.68319068
299.256366825
299.272626781
299.276691771
299.719775581

Block: 4
======================================
299.703515625
299.736035538
299.752295494
299.68319068
299.666930723
299.256366825
299.703515625
299.687255669
299.256366825
299.272626781
299.309211683
299.731970549
299.256366825
299.292951727
299.719775581
299.276691771
299.687255669
299.687255669
299.68319068
299.68319068
299.309211683
299.703515625
299.276691771
299.650670767
298.849867916
299.719775581
299.272626781
299.736035538
299.292951727
299.272626781
299.272626781
299.699450636
299.666930723
299.719775581
299.288886738
299.699450636
299.68319068
299.256366825
299.68319068
299.256366825
299.719775581
299.687255669
299.276691771
299.272626781
299.276691771
299.699450636
299.719775581
299.276691771
299.292951727
299.666930723
299.68319068
299.719775581
299.244171858
299.244171858
299.715710592
299.292951727
299.256366825
299.223846912
299.292951727
299.666930723
299.703515625
299.719775581
299.240106869
299.276691771
299.703515625
299.260431814
299.666930723
299.699450636
299.699450636
299.703515625
299.223846912
299.703515625
299.272626781
299.670995712
299.68319068

Block: 5
======================================
299.68319068
299.650670767
299.703515625
299.309211683
299.703515625
299.240106869
299.276691771
299.223846912
299.223846912
299.68319068
299.276691771
299.272626781
299.687255669
299.240106869
299.276691771
299.240106869
299.240106869
299.256366825
299.276691771
299.223846912
299.272626781
299.240106869
299.240106869
299.68319068
299.260431814
299.650670767
299.288886738
299.260431814
299.699450636
299.68319068
299.223846912
299.256366825
299.240106869
299.666930723
299.666930723
299.272626781
299.666930723
299.670995712
299.292951727
299.240106869
299.68319068
299.256366825
299.240106869
299.650670767
299.256366825
299.703515625
299.276691771
299.272626781
299.292951727
299.666930723
299.272626781
299.68319068
299.276691771
299.699450636
299.699450636
299.68319068
299.703515625
299.68319068
299.68319068
299.687255669
299.256366825
299.666930723
299.650670767
299.240106869
299.272626781
299.276691771
299.276691771
299.260431814
299.223846912
299.68319068
299.244171858
299.223846912
299.260431814
299.719775581
299.68319068

Block: 6
======================================
299.276691771
299.240106869
299.68319068
299.666930723
299.292951727
299.240106869
299.666930723
299.223846912
299.240106869
299.666930723
299.68319068
299.687255669
299.256366825
299.260431814
299.223846912
299.256366825
299.68319068
299.227911901
299.240106869
299.223846912
299.276691771
299.650670767
299.666930723
299.719775581
299.719775581
299.666930723
299.687255669
299.687255669
299.244171858
299.240106869
299.687255669
299.244171858
299.666930723
299.240106869
299.666930723
299.68319068
299.260431814
299.223846912
299.68319068
299.223846912
299.240106869
299.276691771
299.276691771
299.272626781
299.68319068
299.670995712
299.276691771
299.68319068
299.223846912
299.223846912
299.240106869
299.260431814
299.687255669
299.292951727
299.256366825
299.666930723
299.276691771
299.650670767
299.256366825
299.292951727
299.260431814
299.223846912
299.670995712
299.68319068
299.719775581
299.244171858
299.276691771
299.699450636
299.288886738
299.207586956
299.666930723
299.244171858
299.260431814
299.292951727
299.260431814

Block: 7
======================================
299.703515625
299.650670767
299.68319068
299.68319068
299.703515625
299.68319068
299.703515625
299.666930723
299.260431814
299.240106869
299.292951727
299.240106869
299.703515625
299.244171858
299.240106869
299.703515625
299.666930723
299.699450636
299.68319068
299.240106869
299.650670767
299.687255669
299.719775581
299.223846912
299.223846912
299.272626781
299.666930723
299.288886738
299.650670767
299.223846912
299.240106869
299.666930723
299.68319068
299.666930723
299.68319068
299.256366825
299.292951727
299.687255669
299.260431814
299.699450636
299.244171858
299.240106869
299.68319068
299.68319068
299.256366825
299.276691771
299.292951727
299.666930723
299.719775581
299.240106869
299.276691771
299.68319068
299.68319068
299.260431814
299.670995712
299.240106869
299.650670767
299.666930723
299.223846912
299.309211683
299.63441081
299.240106869
299.223846912
299.276691771
299.223846912
299.244171858
299.240106869
299.666930723
299.666930723
299.272626781
299.256366825
299.240106869
299.68319068
299.63441081
299.276691771

Block: 8
======================================
299.276691771
299.650670767
299.223846912
299.719775581
299.244171858
299.256366825
299.309211683
299.207586956
299.223846912
299.666930723
299.666930723
299.650670767
299.240106869
299.68319068
299.240106869
299.260431814
299.276691771
299.223846912
299.260431814
299.699450636
299.666930723
299.687255669
299.646605778
299.68319068
299.666930723
299.687255669
299.240106869
299.256366825
299.272626781
299.666930723
299.223846912
299.260431814
299.260431814
299.244171858
299.699450636
299.699450636
299.223846912
299.699450636
299.699450636
299.240106869
299.670995712
299.68319068
299.223846912
299.703515625
299.68319068
299.272626781
299.703515625
299.666930723
299.240106869
299.223846912
299.223846912
299.666930723
299.68319068
299.719775581
299.223846912
299.276691771
299.256366825
299.666930723
299.666930723
299.68319068
299.191327
299.687255669
299.666930723
299.256366825
299.260431814
299.666930723
299.68319068
299.276691771
299.272626781
299.276691771
299.687255669
299.687255669
299.666930723
299.703515625
299.276691771

Block: 9
======================================
299.223846912
299.752295494
299.650670767
299.670995712
299.68319068
299.687255669
299.68319068
299.256366825
299.256366825
299.699450636
299.68319068
299.703515625
299.276691771
299.687255669
299.687255669
299.699450636
299.68319068
299.207586956
299.207586956
299.223846912
299.68319068
299.699450636
299.276691771
299.650670767
299.68319068
299.666930723
299.687255669
299.699450636
299.650670767
299.687255669
299.699450636
299.223846912
299.223846912
299.650670767
299.699450636
299.207586956
299.223846912
299.68319068
299.68319068
299.68319068
299.240106869
299.223846912
299.699450636
299.650670767
299.260431814
299.260431814
299.260431814
299.699450636
299.68319068
299.666930723
299.68319068
299.687255669
299.687255669
299.244171858
299.687255669
299.666930723
299.687255669
299.703515625
299.703515625
299.223846912
299.670995712
299.256366825
299.68319068
299.666930723
299.68319068
299.650670767
299.276691771
299.240106869
299.68319068
299.687255669
299.666930723
299.223846912
299.699450636
299.699450636
299.223846912

Block: 10
======================================
299.223846912
299.68319068
299.736035538
299.699450636
299.719775581
299.68319068
299.650670767
299.260431814
299.699450636
299.666930723
299.256366825
299.687255669
299.68319068
299.68319068
299.68319068
299.699450636
299.699450636
299.256366825
299.68319068
299.292951727
299.715710592
299.703515625
299.666930723
299.240106869
299.207586956
299.309211683
299.666930723
299.687255669
299.223846912
299.687255669
299.687255669
299.68319068
299.68319068
299.719775581
299.666930723
299.68319068
299.256366825
299.244171858
299.68319068
299.68319068
299.68319068
299.276691771
299.670995712
299.719775581
299.256366825
299.68319068
299.699450636
299.276691771
299.223846912
299.244171858
299.68319068
299.687255669
299.256366825
299.687255669
299.244171858
299.666930723
299.68319068
299.666930723
299.687255669
299.666930723
299.650670767
299.68319068
299.666930723
299.715710592
299.240106869
299.223846912
299.256366825
299.666930723
299.68319068
299.244171858
299.256366825
299.256366825
299.703515625
299.256366825
299.666930723
