
Block: 1
======================================
49.3661142588
49.3208431244
49.3373053551
49.3702298164
49.3331897974
49.3331897974
49.300265336
49.4196165085
49.3167275667
49.3702298164
49.3167275667
49.3167275667
49.3331897974
48.9216340303
49.3331897974
49.3373053551
49.3167275667
49.3537675858
49.3331897974
48.9216340303
48.9175184727
49.3373053551
49.3702298164
49.3702298164
49.3167275667
49.3167275667
49.3167275667
49.3661142588
49.3208431244
49.3373053551
49.3661142588
49.300265336
49.3331897974
49.4031542778
49.3331897974
49.3331897974
49.300265336
49.3866920471
49.3331897974
48.9216340303
48.8845940113
49.3167275667
49.3331897974
49.3208431244
49.3537675858
49.3331897974
49.3167275667
49.3373053551
49.3866920471
49.300265336
48.9216340303
48.9051717997
49.3331897974
48.901056242
48.9051717997
49.3167275667
49.3167275667
49.3167275667
49.3702298164
49.3331897974
48.9051717997
48.9051717997
49.3167275667
49.3866920471
49.3208431244
49.300265336
49.3661142588
49.3537675858
49.3167275667
49.300265336
49.3208431244
49.3537675858
49.3331897974
49.3373053551
49.3373053551

Block: 2
======================================
49.3373053551
49.3331897974
49.3167275667
49.3866920471
49.3702298164
49.3331897974
49.300265336
49.3373053551
49.3331897974
49.3167275667
49.3167275667
49.3373053551
49.3167275667
49.3167275667
49.300265336
49.300265336
49.3167275667
49.3167275667
49.3167275667
49.3373053551
49.3331897974
49.3496520281
49.3537675858
49.3208431244
49.2838031054
49.3167275667
49.3331897974
49.3373053551
49.3167275667
49.3331897974
49.300265336
49.300265336
49.3167275667
49.3167275667
49.3331897974
48.9051717997
48.901056242
48.8845940113
48.901056242
48.888709569
49.3496520281
48.888709569
48.8845940113
49.3167275667
48.888709569
48.9175184727
48.9051717997
48.901056242
49.3167275667
49.300265336
49.3167275667
49.3331897974
49.3167275667
49.3702298164
49.3537675858
49.3167275667
49.3167275667
49.3702298164
49.300265336
49.3167275667
49.300265336
49.3702298164
49.3167275667
49.3167275667
49.3167275667
49.3331897974
49.3167275667
49.3702298164
49.3167275667
49.3331897974
49.3866920471
49.3661142588
49.3331897974
48.888709569
49.300265336

Block: 3
======================================
49.3702298164
49.3702298164
49.3661142588
49.3702298164
49.0739096642
49.3331897974
49.3661142588
49.3661142588
49.3167275667
49.3702298164
49.3373053551
49.4031542778
49.3537675858
49.3702298164
49.3661142588
49.3866920471
49.3496520281
49.3167275667
49.3866920471
49.3702298164
49.3373053551
49.3825764894
49.3167275667
49.3167275667
49.3167275667
49.3702298164
49.300265336
49.3866920471
49.3167275667
49.3373053551
49.3496520281
49.2838031054
49.3373053551
49.3702298164
49.300265336
49.3702298164
49.300265336
49.3661142588
49.3208431244
49.3167275667
49.3702298164
49.300265336
49.3866920471
49.3331897974
49.3167275667
49.3866920471
49.3167275667
49.3208431244
49.3331897974
49.3167275667
49.3702298164
49.3825764894
49.3702298164
49.3661142588
49.3702298164
49.3702298164
49.3167275667
49.3167275667
49.3537675858
49.3702298164
49.3331897974
49.3331897974
49.3167275667
49.3702298164
49.3331897974
49.3167275667
49.3702298164
49.3167275667
49.3825764894
49.3661142588
49.3537675858
49.3167275667
49.3167275667
49.3167275667
49.3661142588

Block: 4
======================================
49.3331897974
49.3167275667
49.3537675858
49.4031542778
49.3702298164
49.4031542778
49.300265336
49.3331897974
49.3537675858
49.3537675858
49.3866920471
49.3331897974
49.3537675858
49.3167275667
48.8845940113
49.300265336
49.3167275667
49.3167275667
48.8845940113
48.9051717997
48.901056242
49.3167275667
49.3702298164
49.300265336
49.3208431244
49.3167275667
49.3167275667
49.3373053551
49.3167275667
49.3702298164
49.3167275667
49.3702298164
49.300265336
49.3167275667
49.3496520281
49.3866920471
49.3167275667
49.3702298164
49.3866920471
49.3331897974
49.3866920471
49.3866920471
49.3331897974
49.3208431244
48.8845940113
48.888709569
48.901056242
49.3373053551
48.901056242
49.300265336
49.3702298164
49.3331897974
49.3702298164
49.3331897974
49.300265336
49.3167275667
49.3331897974
49.3702298164
49.3167275667
49.3537675858
49.3167275667
49.3331897974
49.3331897974
49.3208431244
49.3331897974
49.3496520281
49.3167275667
49.3167275667
49.3167275667
49.3702298164
49.3702298164
49.3702298164
49.3208431244
49.3167275667
49.3866920471

Block: 5
======================================
49.3331897974
49.3866920471
49.3866920471
49.4196165085
49.3702298164
49.3702298164
49.3537675858
49.4031542778
49.4031542778
49.4031542778
49.3208431244
49.3702298164
49.3702298164
49.3702298164
49.3702298164
49.3866920471
49.3167275667
49.3702298164
49.3167275667
49.3331897974
49.3331897974
49.3702298164
49.3167275667
49.3825764894
49.3496520281
49.3208431244
49.3167275667
49.3866920471
49.3331897974
49.3208431244
49.3661142588
49.3866920471
49.3702298164
49.4031542778
49.3167275667
49.3866920471
49.3866920471
49.3331897974
49.3496520281
49.3866920471
49.3866920471
49.3208431244
49.3167275667
49.3661142588
49.3702298164
49.3866920471
49.3866920471
49.3537675858
49.3331897974
49.3866920471
49.3331897974
49.4031542778
49.3702298164
49.3167275667
49.3825764894
49.3866920471
49.3702298164
49.3331897974
49.3702298164
49.3167275667
49.3331897974
49.3866920471
49.3866920471
49.3825764894
49.3167275667
49.3866920471
49.3702298164
49.3702298164
49.3496520281
49.3702298164
49.3702298164
49.3661142588
49.3702298164
49.2961497784
49.3661142588

Block: 6
======================================
49.3702298164
49.3537675858
49.3496520281
49.3866920471
49.3537675858
49.4031542778
49.4031542778
49.3702298164
49.3866920471
49.4031542778
49.3702298164
49.3661142588
49.3167275667
49.3661142588
49.3661142588
49.3866920471
49.3167275667
49.3208431244
49.3661142588
49.3702298164
49.3702298164
49.3537675858
49.3331897974
49.3866920471
49.3825764894
49.300265336
49.3331897974
49.3866920471
49.3373053551
49.3661142588
49.3702298164
49.3866920471
49.3702298164
49.3702298164
49.3331897974
49.3331897974
49.3537675858
49.3702298164
49.3661142588
49.3373053551
49.3825764894
49.3702298164
49.3167275667
49.3702298164
49.3661142588
49.3167275667
49.3702298164
49.3866920471
49.3167275667
49.3866920471
49.3331897974
49.3373053551
49.3167275667
49.3702298164
49.3331897974
49.3167275667
49.3661142588
49.3702298164
49.3373053551
49.300265336
49.3866920471
49.300265336
49.3702298164
49.3702298164
49.300265336
49.3866920471
49.3167275667
49.3661142588
49.3866920471
49.3866920471
49.3661142588
49.3167275667
49.3167275667
49.3702298164
49.3702298164

Block: 7
======================================
49.3537675858
48.8681317806
49.3866920471
49.3537675858
49.3167275667
49.3331897974
49.3167275667
49.3537675858
49.8682122946
49.3661142588
49.3866920471
49.3866920471
49.3331897974
49.3373053551
49.3167275667
49.3167275667
49.3373053551
49.3167275667
49.3702298164
49.3167275667
49.3866920471
49.3373053551
49.3167275667
49.3331897974
49.3331897974
49.3373053551
49.3702298164
49.3866920471
49.3866920471
49.3167275667
49.3866920471
49.3167275667
49.3331897974
49.3167275667
49.3331897974
49.3702298164
49.300265336
49.3167275667
49.3373053551
49.3167275667
49.3331897974
49.3373053551
49.300265336
49.3331897974
49.3167275667
49.1479897022
49.3702298164
49.3537675858
49.3537675858
49.3167275667
49.3373053551
49.300265336
49.3167275667
49.3537675858
49.3167275667
49.3331897974
49.3537675858
49.3373053551
49.2961497784
49.3331897974
49.3537675858
49.3167275667
49.3167275667
49.3702298164
49.3661142588
49.3331897974
49.3208431244
49.3661142588
49.300265336
49.3373053551
49.3331897974
49.3331897974
49.3208431244
49.3167275667
49.300265336

Block: 8
======================================
49.3331897974
49.2796875477
49.3331897974
49.3702298164
49.3661142588
49.4031542778
49.3373053551
49.3866920471
49.300265336
49.3537675858
49.3537675858
49.3208431244
49.3167275667
49.3331897974
49.3167275667
49.3373053551
49.3373053551
49.3167275667
49.3537675858
49.300265336
49.3331897974
49.3167275667
49.3208431244
49.3373053551
49.3167275667
49.3167275667
49.3167275667
49.3167275667
48.9051717997
49.3167275667
49.3702298164
49.3167275667
49.3373053551
49.3331897974
49.3167275667
49.3373053551
49.3373053551
49.3702298164
49.3167275667
49.3331897974
49.300265336
49.3702298164
49.3866920471
49.3825764894
49.3167275667
49.3373053551
49.3866920471
49.3167275667
49.3331897974
49.3331897974
49.300265336
49.3866920471
49.3167275667
49.3167275667
49.3331897974
49.3167275667
49.3208431244
49.3331897974
49.3702298164
49.300265336
49.4031542778
49.3866920471
49.3537675858
49.3661142588
49.3167275667
49.3702298164
49.3866920471
49.3331897974
49.3373053551
48.9216340303
49.3331897974
49.3537675858
49.3496520281
49.3373053551
49.3331897974

Block: 9
======================================
49.3331897974
49.3167275667
49.4031542778
49.3866920471
49.3167275667
49.3702298164
49.3167275667
49.300265336
49.3537675858
49.3167275667
49.3167275667
49.3167275667
49.3331897974
49.3702298164
49.3331897974
49.3208431244
49.3167275667
49.3167275667
49.3866920471
49.3167275667
49.3167275667
49.4031542778
49.3167275667
49.3537675858
49.3331897974
49.3167275667
49.3167275667
49.3167275667
49.3496520281
49.3331897974
49.3167275667
49.3331897974
49.3702298164
49.3702298164
49.3167275667
49.3167275667
49.3702298164
49.3373053551
49.4031542778
49.3167275667
49.3331897974
49.3167275667
49.3331897974
49.3167275667
49.3373053551
49.3866920471
49.3167275667
49.3537675858
49.300265336
49.3331897974
49.3702298164
49.3331897974
49.3167275667
49.3373053551
49.3373053551
49.3167275667
49.3866920471
49.3866920471
49.3167275667
49.3331897974
49.3167275667
49.3167275667
49.3373053551
49.3373053551
49.3331897974
49.3866920471
49.3331897974
49.3208431244
49.4072698355
49.3208431244
49.3661142588
49.3702298164
49.3331897974
49.3373053551
49.3331897974

Block: 10
======================================
49.3825764894
49.3702298164
49.3661142588
49.3331897974
49.3661142588
49.3496520281
49.3537675858
49.3331897974
49.4031542778
49.4031542778
49.3866920471
49.3496520281
49.3537675858
49.3537675858
49.3331897974
49.3702298164
49.3702298164
49.3167275667
49.3866920471
49.3866920471
49.3331897974
49.3702298164
49.3866920471
49.3496520281
49.3702298164
49.3331897974
49.3167275667
49.3866920471
49.3702298164
49.3167275667
49.3825764894
49.3866920471
49.3331897974
49.3866920471
49.3866920471
49.3661142588
49.3702298164
49.3702298164
49.3496520281
49.3702298164
49.3661142588
49.3661142588
49.3866920471
49.3496520281
49.3167275667
49.3331897974
49.3825764894
49.3866920471
49.300265336
49.3702298164
49.3167275667
49.3702298164
49.300265336
49.3537675858
49.3496520281
49.3702298164
49.3866920471
49.3331897974
49.3331897974
49.3167275667
49.3167275667
49.3866920471
49.3331897974
49.3373053551
48.901056242
49.300265336
49.3866920471
49.3866920471
49.3866920471
49.3167275667
49.3167275667
49.3167275667
49.3866920471
49.3702298164
49.3167275667
