
Block: 1
======================================
49.300265336
49.3702298164
49.3702298164
49.3661142588
49.3167275667
49.300265336
49.3866920471
49.3702298164
49.3702298164
49.3167275667

Average distance is : 49.347 cm
Average deviation is : 0.034 cm
Block: 2
======================================
49.3702298164
49.4196165085
49.3331897974
49.3702298164
49.3866920471
49.3167275667
49.3702298164
49.3702298164
49.3866920471
49.300265336

Average distance is : 49.362 cm
Average deviation is : 0.036 cm
Block: 3
======================================
49.3331897974
49.3702298164
49.4031542778
49.3661142588
49.3702298164
49.3702298164
49.3537675858
49.3167275667
49.3702298164
49.3866920471

Average distance is : 49.364 cm
Average deviation is : 0.025 cm
Block: 4
======================================
49.300265336
49.300265336
49.4031542778
49.3496520281
49.3866920471
49.3167275667
49.300265336
49.3496520281
49.3167275667
49.3208431244

Average distance is : 49.334 cm
Average deviation is : 0.037 cm
Block: 5
======================================
49.3702298164
49.300265336
49.3167275667
49.3167275667
49.300265336
49.3373053551
49.3167275667
49.300265336
49.3167275667
49.3537675858

Average distance is : 49.323 cm
Average deviation is : 0.024 cm
Block: 6
======================================
49.2838031054
49.3825764894
49.3537675858
49.3702298164
49.300265336
49.3702298164
49.3496520281
49.3373053551
49.3167275667
49.3537675858

Average distance is : 49.342 cm
Average deviation is : 0.032 cm
Block: 7
======================================
49.3661142588
49.2796875477
49.2838031054
49.3208431244
49.3167275667
49.3496520281
49.3331897974
49.3537675858
49.3167275667
49.3167275667

Average distance is : 49.324 cm
Average deviation is : 0.028 cm
Block: 8
======================================
49.300265336
49.300265336
49.300265336
49.3167275667
49.3661142588
49.2796875477
49.2961497784
49.300265336
49.3331897974
49.3496520281

Average distance is : 49.314 cm
Average deviation is : 0.027 cm
Block: 9
======================================
49.2796875477
49.3373053551
49.3373053551
49.3537675858
49.3331897974
49.3167275667
49.300265336
49.3167275667
49.3331897974
49.3167275667

Average distance is : 49.322 cm
Average deviation is : 0.021 cm
Block: 10
======================================
49.3167275667
49.3167275667
49.3702298164
49.3167275667
49.3167275667
49.3702298164
49.3537675858
49.3866920471
49.3537675858
49.4196165085

Average distance is : 49.352 cm
Average deviation is : 0.036 cm