
Block: 1
======================================
49.3537675858
49.3208431244
49.3537675858
49.2838031054
49.2796875477
48.9216340303
49.3373053551
49.300265336
49.3167275667
49.3331897974
49.3167275667
49.3167275667
48.888709569
48.901056242
48.5594649553
48.9175184727
48.938096261
49.3496520281
48.8845940113
48.888709569
49.3167275667
49.3167275667
49.3331897974
48.9216340303
48.938096261
48.8845940113
48.901056242
48.901056242
48.888709569
48.8845940113
49.300265336
49.300265336
49.300265336
49.3661142588
49.3373053551
49.2961497784
49.3331897974
49.3702298164
48.9051717997
49.3331897974
49.3866920471
49.3167275667
49.300265336
49.3661142588
49.300265336
49.3167275667
49.3373053551
49.3331897974
49.300265336
49.3331897974
49.3331897974
49.3167275667
49.3167275667
49.300265336
49.3331897974
49.3331897974
49.3331897974
49.3373053551
49.3331897974
49.3208431244
49.3373053551
49.3866920471
49.3702298164
49.3537675858
49.3167275667
49.3331897974
49.3167275667
49.300265336
49.3208431244
49.3496520281
49.3331897974
49.3537675858
49.3167275667
49.3661142588
49.3661142588
49.3825764894
49.3331897974
49.3661142588
49.3866920471
49.3496520281
49.3167275667
49.3496520281
49.3167275667
49.3702298164
49.3661142588
49.3496520281
49.3702298164
49.3702298164
49.3496520281
49.3537675858
49.3661142588
49.3537675858
49.3866920471
49.3208431244
49.3167275667
49.3208431244
49.3702298164
49.3702298164
49.3373053551
49.3331897974

Block: 2
======================================
49.3496520281
49.3331897974
49.3537675858
49.2838031054
49.3167275667
49.2838031054
48.9051717997
49.300265336
49.3331897974
48.8681317806
48.888709569
49.2838031054
48.901056242
49.2838031054
48.901056242
49.3167275667
49.3167275667
48.888709569
48.901056242
48.9175184727
49.3866920471
48.9051717997
48.9216340303
48.9051717997
48.9051717997
49.2673408747
48.8681317806
49.3167275667
49.3167275667
48.8845940113
48.8845940113
48.901056242
48.9175184727
48.938096261
48.9051717997
48.9175184727
48.8845940113
48.9051717997
48.901056242
48.9216340303
48.8845940113
49.3331897974
48.8681317806
49.2796875477
48.9216340303
48.901056242
48.8845940113
48.901056242
49.3331897974
48.8845940113
48.9175184727
48.8845940113
48.938096261
49.3331897974
49.3373053551
49.3373053551
49.3167275667
49.2961497784
49.300265336
48.9216340303
49.3167275667
48.9216340303
49.3167275667
49.3208431244
49.3331897974
49.3373053551
49.3167275667
49.3167275667
49.3496520281
49.300265336
49.300265336
49.3331897974
49.3167275667
49.3208431244
49.3331897974
49.2796875477
49.300265336
49.3373053551
49.300265336
48.3866115332
49.3167275667
49.3331897974
49.3331897974
49.300265336
49.3331897974
49.3167275667
49.300265336
49.3167275667
49.3496520281
49.3373053551
49.3331897974
49.3331897974
49.3167275667
49.300265336
49.3331897974
49.3208431244
49.300265336
49.3331897974
49.3167275667
49.3331897974

Block: 3
======================================
49.3496520281
49.3537675858
49.3702298164
49.3167275667
48.9175184727
49.3167275667
49.3208431244
48.8681317806
48.9175184727
49.3331897974
48.9175184727
48.9216340303
48.938096261
48.901056242
48.9051717997
48.888709569
48.8845940113
48.9216340303
48.9175184727
48.888709569
48.9175184727
48.8516695499
48.9051717997
48.901056242
49.300265336
49.3167275667
48.9216340303
48.9216340303
48.8681317806
48.888709569
48.9216340303
48.8845940113
48.8845940113
48.9216340303
48.938096261
48.9051717997
48.938096261
49.3373053551
48.9175184727
48.8845940113
48.9051717997
48.9051717997
48.9216340303
48.9051717997
48.8722473383
48.8681317806
48.938096261
49.3331897974
48.8845940113
49.3167275667
49.300265336
48.8845940113
48.901056242
49.3331897974
48.9216340303
49.300265336
49.3331897974
49.3373053551
49.3167275667
49.3331897974
49.3702298164
49.3167275667
49.3537675858
49.3331897974
49.3331897974
49.3331897974
49.3167275667
49.2838031054
49.3167275667
49.3537675858
49.300265336
49.3167275667
49.3167275667
49.3331897974
49.3167275667
49.3331897974
49.3167275667
49.300265336
49.3167275667
49.3167275667
50.30034585
49.3167275667
49.3167275667
49.300265336
49.3167275667
49.3167275667
49.3496520281
49.2961497784
49.3331897974
49.300265336
49.3167275667
49.3167275667
49.300265336
49.3331897974
49.2961497784
49.3537675858
49.300265336
49.3702298164
49.3208431244
49.3167275667

Block: 4
======================================
49.300265336
49.263225317
49.300265336
49.3167275667
49.3331897974
49.3167275667
49.3167275667
48.8516695499
48.9051717997
48.9175184727
48.9051717997
48.8681317806
48.9175184727
48.8845940113
48.8681317806
48.9051717997
48.901056242
48.8845940113
48.9216340303
48.8845940113
48.8845940113
49.300265336
48.8681317806
48.9051717997
48.9051717997
48.901056242
48.8516695499
48.888709569
48.888709569
48.9051717997
48.8845940113
48.9051717997
48.8516695499
49.2838031054
48.9051717997
49.3866920471
48.9051717997
48.8845940113
48.901056242
48.9051717997
49.3702298164
49.3702298164
48.8845940113
49.3331897974
48.8845940113
48.9051717997
48.8845940113
48.8845940113
48.9051717997
48.9545584917
49.300265336
49.3373053551
49.3373053551
48.901056242
48.901056242
48.901056242
48.938096261
49.3208431244
49.3702298164
49.300265336
49.2838031054
49.3167275667
49.3167275667
49.3331897974
49.300265336
49.300265336
49.300265336
49.3702298164
49.3208431244
49.3331897974
49.3331897974
49.3537675858
49.3208431244
49.3167275667
49.300265336
49.3373053551
49.300265336
49.3661142588
49.3167275667
49.3537675858
49.3167275667
49.3373053551
49.3331897974
48.8352073193
49.3866920471
49.3496520281
49.3167275667
49.3167275667
49.3167275667
49.3167275667
49.3537675858
49.3331897974
49.3373053551
49.3496520281
49.3496520281
49.300265336
49.3167275667
49.300265336
49.3167275667
49.3167275667

Block: 5
======================================
49.300265336
49.3167275667
49.3373053551
49.3537675858
49.3167275667
49.300265336
49.3537675858
49.3167275667
48.938096261
49.3331897974
49.3331897974
49.3167275667
49.3167275667
48.901056242
48.8352073193
48.9051717997
48.8681317806
49.3167275667
48.901056242
48.8845940113
49.3537675858
48.8845940113
49.3702298164
48.8845940113
48.8681317806
48.8845940113
48.9216340303
48.8681317806
48.938096261
48.9216340303
48.8845940113
48.8845940113
48.9216340303
48.8681317806
49.3167275667
49.1973763943
48.9051717997
48.901056242
48.888709569
48.888709569
48.9051717997
48.9175184727
48.888709569
48.9216340303
48.9216340303
48.901056242
48.9216340303
49.3331897974
48.9339807034
49.3167275667
49.3167275667
49.3496520281
49.3167275667
48.9216340303
49.3331897974
49.3373053551
49.3167275667
49.3331897974
49.3167275667
49.3167275667
49.3167275667
49.300265336
49.3373053551
49.3496520281
49.300265336
49.3661142588
49.3331897974
49.3331897974
49.3537675858
49.300265336
49.3167275667
49.3373053551
49.3496520281
49.3373053551
49.3208431244
49.3537675858
49.300265336
49.3167275667
49.3537675858
49.3331897974
49.300265336
49.300265336
49.3208431244
49.3167275667
49.3331897974
49.3208431244
49.3167275667
49.3331897974
49.3537675858
49.3167275667
49.3167275667
49.3167275667
49.300265336
49.3537675858
49.3331897974
49.3331897974
49.3373053551
49.3331897974
49.300265336
49.2838031054

Block: 6
======================================
49.3167275667
49.3331897974
49.3537675858
49.3537675858
49.3331897974
49.3331897974
49.3167275667
48.901056242
49.3167275667
49.3496520281
48.9175184727
49.3373053551
48.9051717997
48.9051717997
48.901056242
48.938096261
49.300265336
48.901056242
48.9175184727
48.888709569
48.9216340303
49.3373053551
48.9051717997
48.901056242
48.8681317806
48.9216340303
48.9051717997
48.901056242
48.9216340303
49.3167275667
49.2838031054
48.8845940113
48.9216340303
48.9216340303
48.8845940113
48.901056242
48.901056242
48.938096261
48.888709569
48.888709569
48.9216340303
49.3167275667
48.8845940113
48.8845940113
49.2838031054
48.8722473383
48.9216340303
49.300265336
48.8681317806
48.8845940113
48.8845940113
49.3331897974
48.8845940113
48.9051717997
49.3167275667
48.8681317806
49.3373053551
48.9051717997
49.3167275667
48.938096261
49.2838031054
48.8845940113
49.3496520281
49.300265336
49.3167275667
49.3167275667
49.300265336
49.300265336
49.3331897974
49.3167275667
49.300265336
49.3496520281
49.3167275667
49.3167275667
49.3496520281
49.2796875477
49.3331897974
49.3208431244
49.3496520281
49.300265336
49.300265336
49.3167275667
49.300265336
49.3537675858
49.3167275667
49.3331897974
49.3167275667
49.3373053551
49.300265336
49.3537675858
49.3496520281
49.3331897974
49.3167275667
49.5389676809
49.3496520281
49.3331897974
49.3208431244
49.300265336
49.3331897974
49.3537675858

Block: 7
======================================
49.3167275667
49.2796875477
49.3537675858
49.3331897974
49.300265336
49.3331897974
49.3331897974
49.3661142588
49.3537675858
49.3331897974
49.3167275667
49.3167275667
48.9051717997
49.3331897974
49.3331897974
49.3496520281
49.3331897974
48.9216340303
49.3373053551
49.2673408747
48.9051717997
48.901056242
49.3373053551
48.9216340303
48.8845940113
48.888709569
48.8681317806
49.3167275667
48.8845940113
49.3373053551
48.938096261
48.901056242
48.9051717997
48.8845940113
48.938096261
49.300265336
48.901056242
48.938096261
49.3331897974
49.300265336
48.9216340303
49.3167275667
49.3331897974
48.9216340303
48.938096261
49.3373053551
49.300265336
49.3496520281
49.3373053551
49.3373053551
49.3331897974
49.3167275667
49.3331897974
49.3373053551
49.3331897974
49.300265336
49.3702298164
49.300265336
49.3537675858
49.3537675858
48.9216340303
49.3167275667
49.3661142588
49.3496520281
49.3373053551
48.9216340303
49.3331897974
49.3167275667
49.3331897974
49.3537675858
49.3496520281
49.3537675858
49.3373053551
49.2838031054
49.3167275667
49.3496520281
49.3331897974
49.3373053551
49.300265336
49.3331897974
49.3496520281
49.3167275667
49.3373053551
49.300265336
49.3373053551
49.2796875477
49.3208431244
49.300265336
49.300265336
49.300265336
49.3373053551
49.3702298164
49.3331897974
49.300265336
49.3167275667
49.3331897974
49.3167275667
49.3167275667
49.3331897974
49.300265336

Block: 8
======================================
49.3331897974
49.3537675858
49.3331897974
49.3537675858
49.300265336
49.3331897974
49.3167275667
49.3331897974
49.3331897974
49.3496520281
49.3537675858
49.3331897974
49.3167275667
49.300265336
49.3167275667
49.3167275667
48.901056242
49.3331897974
49.300265336
49.300265336
48.9051717997
48.901056242
49.3331897974
48.9216340303
49.3167275667
49.3496520281
48.9175184727
48.888709569
49.3167275667
48.8681317806
48.8845940113
48.888709569
49.3537675858
49.3167275667
48.8845940113
49.2838031054
48.8845940113
49.3537675858
48.901056242
49.3331897974
48.8681317806
49.3373053551
48.938096261
48.9175184727
49.2961497784
48.8845940113
48.9051717997
49.3702298164
48.901056242
48.901056242
49.300265336
48.8516695499
48.9216340303
48.901056242
48.8681317806
49.2838031054
49.3496520281
49.300265336
49.3167275667
49.300265336
48.938096261
49.3167275667
48.8681317806
49.3167275667
49.3167275667
49.3167275667
49.3373053551
49.3167275667
49.3167275667
49.3331897974
49.300265336
49.3167275667
49.3331897974
49.3167275667
49.3167275667
49.300265336
49.3208431244
49.300265336
49.3331897974
49.3496520281
49.3208431244
49.3373053551
49.3373053551
49.300265336
49.3331897974
49.3331897974
49.3702298164
49.3702298164
49.3537675858
49.3167275667
49.300265336
49.3167275667
49.3537675858
49.3331897974
49.3331897974
49.3167275667
49.3167275667
49.3331897974
49.3331897974
49.3496520281

Block: 9
======================================
49.3496520281
49.3537675858
49.3702298164
49.3537675858
49.3331897974
49.3167275667
49.3373053551
49.3167275667
49.3537675858
49.3496520281
49.3167275667
49.3331897974
49.3661142588
49.3702298164
49.3167275667
49.3167275667
49.3373053551
49.300265336
49.3537675858
49.3661142588
49.3496520281
49.3537675858
49.3496520281
49.300265336
49.3373053551
48.901056242
49.3496520281
49.3208431244
49.3331897974
49.3373053551
49.3331897974
49.3331897974
49.3167275667
48.6458916664
48.8845940113
48.9216340303
49.3331897974
48.9051717997
49.3167275667
49.3167275667
49.3496520281
48.901056242
48.901056242
48.8681317806
48.9175184727
48.938096261
48.8681317806
49.3331897974
48.9051717997
48.9051717997
48.901056242
48.8681317806
48.9051717997
48.8845940113
48.901056242
48.9216340303
48.9051717997
48.8845940113
49.3167275667
48.9216340303
49.300265336
48.938096261
48.8845940113
48.901056242
49.2961497784
49.3208431244
49.3167275667
48.938096261
48.901056242
48.9051717997
48.901056242
49.3167275667
49.300265336
48.9216340303
49.3496520281
49.3373053551
49.3373053551
49.3537675858
49.3331897974
49.3167275667
49.3496520281
49.3331897974
49.3496520281
49.3331897974
49.3331897974
49.2961497784
49.3373053551
49.3373053551
49.2838031054
49.3496520281
49.3331897974
49.3167275667
49.3331897974
49.300265336
49.300265336
49.3208431244
49.3537675858
49.3331897974
49.3331897974
49.3496520281

Block: 10
======================================
49.300265336
49.3167275667
49.3167275667
49.300265336
49.300265336
49.3167275667
49.3702298164
49.3331897974
49.3208431244
49.3167275667
49.3373053551
49.3496520281
49.2838031054
49.300265336
49.3167275667
49.3331897974
49.3167275667
49.3208431244
49.3167275667
49.3331897974
49.300265336
49.3167275667
49.3167275667
49.3167275667
49.3537675858
49.300265336
49.300265336
49.3331897974
49.3331897974
49.3331897974
49.3167275667
49.3167275667
48.901056242
49.3167275667
48.8187450886
48.901056242
48.901056242
48.901056242
48.901056242
49.3331897974
48.9051717997
48.901056242
49.300265336
49.3167275667
48.9216340303
48.9051717997
49.3167275667
49.3167275667
49.300265336
49.3331897974
49.3167275667
48.901056242
49.3331897974
48.9216340303
48.8845940113
48.901056242
48.8845940113
49.3373053551
48.9216340303
48.9216340303
48.8845940113
48.9051717997
49.3373053551
49.3167275667
49.3331897974
49.3167275667
49.3331897974
49.3537675858
48.901056242
48.901056242
48.8681317806
48.8681317806
49.3496520281
49.3373053551
49.3331897974
49.300265336
49.3331897974
49.3373053551
49.3537675858
49.3537675858
49.3167275667
49.3537675858
49.3331897974
49.3537675858
49.3331897974
49.3167275667
49.2796875477
49.300265336
49.3331897974
49.3331897974
49.3496520281
49.3496520281
49.3331897974
49.3167275667
49.3496520281
49.3496520281
49.3331897974
49.3373053551
49.3167275667
49.300265336
