
Block: 1
======================================
100.346751809
99.9502712488
100.714322329
99.9874413013
100.710192323
99.9172312021
99.9544012547
99.9337512255
100.367401838
99.9502712488
99.9337512255
99.9337512255
99.9667912722
99.9337512255
100.367401838
99.9172312021
99.9337512255
99.9337512255
99.9337512255
100.367401838
99.9172312021
99.9502712488
100.780402422
100.768012404
99.9667912722

Block: 2
======================================
100.280671716
100.747362375
100.297191739
100.330231786
100.313711762
100.313711762
99.9502712488
100.330231786
99.9502712488
99.9502712488
99.9502712488
99.9667912722
100.367401838
100.346751809
99.9337512255
99.9172312021
100.363271832
100.330231786
100.367401838
100.367401838
100.313711762
100.330231786
100.330231786
100.346751809
100.350881815

Block: 3
======================================
100.367401838
99.6363908052
100.297191739
100.330231786
100.747362375
101.214053035
99.9544012547
100.346751809
99.9502712488
100.346751809
100.350881815
99.9667912722
100.334361792
99.9337512255
99.9502712488
100.346751809
100.346751809
100.350881815
99.9502712488
99.9337512255
100.350881815
99.970921278
100.383921862
99.9337512255
99.9337512255

Block: 4
======================================
100.763882399
100.313711762
99.9337512255
100.346751809
99.970921278
99.9337512255
100.330231786
100.367401838
100.334361792
99.8965811729
100.367401838
100.681282282
100.334361792
100.330231786
99.9337512255
99.9337512255
100.334361792
100.350881815
99.9337512255
100.350881815
99.9502712488
100.330231786
99.9172312021
100.334361792
100.346751809

Block: 5
======================================
100.330231786
100.768012404
100.317841768
100.367401838
101.201663017
100.784532428
99.9172312021
100.334361792
100.346751809
99.9172312021
99.9337512255
99.9337512255
100.780402422
99.9502712488
100.363271832
100.346751809
100.367401838
99.9337512255
100.367401838
100.334361792
100.334361792
100.330231786
100.367401838
100.350881815
99.9172312021

Block: 6
======================================
100.780402422
100.346751809
101.164492965
101.647703648
101.164492965
100.763882399
99.9502712488
100.763882399
100.747362375
101.214053035
99.9337512255
100.346751809
100.330231786
100.334361792
100.350881815
100.350881815
100.334361792
99.9502712488
100.784532428
99.9502712488
99.9337512255
99.9502712488
100.350881815
100.330231786
99.9337512255

Block: 7
======================================
100.313711762
100.350881815
100.763882399
91.8265497684
100.763882399
100.313711762
100.763882399
99.9337512255
99.9337512255
99.9337512255
99.9502712488
99.9502712488
100.367401838
99.9337512255
100.330231786
99.9502712488
99.9667912722
99.9337512255
99.970921278
99.9337512255
99.9337512255
99.970921278
99.9502712488
99.9502712488
99.9131011963

Block: 8
======================================
100.297191739
100.693672299
100.313711762
97.6994180679
100.850612521
100.313711762
100.784532428
101.197533011
100.350881815
99.9502712488
100.367401838
100.747362375
100.334361792
100.346751809
100.763882399
100.367401838
100.784532428
100.780402422
100.346751809
99.9337512255
100.334361792
100.334361792
100.350881815
100.346751809
100.330231786

Block: 9
======================================
100.313711762
100.94147265
100.350881815
99.9667912722
100.334361792
100.297191739
100.780402422
100.367401838
99.9172312021
99.9502712488
99.9667912722
100.780402422
100.768012404
100.350881815
101.197533011
100.763882399
100.350881815
99.9337512255
99.9502712488
99.9502712488
100.346751809
100.367401838
99.9337512255
100.763882399
100.350881815

Block: 10
======================================
100.367401838
100.714322329
100.297191739
100.796922445
100.330231786
100.784532428
99.9337512255
101.176882982
99.9667912722
99.9502712488
100.784532428
99.9667912722
99.9667912722
100.763882399
100.367401838
99.9502712488
100.367401838
100.780402422
99.9131011963
100.763882399
100.747362375
100.350881815
100.763882399
100.747362375
100.367401838
