
Block: 1
======================================
100.297191739
100.297191739
100.260021687
100.730842352
100.297191739

Block: 2
======================================
100.350881815
100.350881815
100.313711762
100.768012404
100.350881815

Block: 3
======================================
100.297191739
100.297191739
100.334361792
100.747362375
100.317841768

Block: 4
======================================
100.330231786
100.763882399
100.313711762
99.8965811729
100.313711762

Block: 5
======================================
100.350881815
100.763882399
100.350881815
100.350881815
99.5207506418

Block: 6
======================================
100.313711762
100.747362375
100.313711762
100.350881815
100.330231786

Block: 7
======================================
100.313711762
100.747362375
101.164492965
100.367401838
100.297191739

Block: 8
======================================
100.346751809
100.784532428
100.313711762
100.346751809
100.313711762

Block: 9
======================================
100.313711762
100.350881815
100.763882399
100.350881815
101.214053035

Block: 10
======================================
100.297191739
100.350881815
101.214053035
100.330231786
100.334361792
