
Block: 1
======================================
100.813442469
100.768012404
101.717913747
100.383921862
100.834092498
100.400441885
100.850612521
100.834092498
100.450001955
101.214053035
100.850612521
101.284263134
100.416961908
100.801052451
100.421091914
100.801052451
101.251223087
100.834092498
100.400441885
101.717913747
100.421091914
100.834092498
100.416961908
100.813442469
100.854742527
100.817572474
100.796922445
101.247093081
100.454131961
100.834092498
100.421091914
100.433481932
100.817572474
100.817572474
100.416961908
101.230573058
100.454131961
100.817572474
100.850612521
100.801052451
100.416961908
100.400441885
101.284263134
100.433481932
100.784532428
100.817572474
100.801052451
101.247093081
100.817572474
100.801052451

Average distance is : 100.788 cm
Average deviation is : 0.333 cm
Block: 2
======================================
100.834092498
100.400441885
100.834092498
100.437611938
101.701393723
100.850612521
100.817572474
100.400441885
100.801052451
101.230573058
100.817572474
100.400441885
100.817572474
100.421091914
101.251223087
100.834092498
100.416961908
101.680743694
101.697263718
101.201663017
100.400441885
100.400441885
100.421091914
100.834092498
100.416961908
100.850612521
100.421091914
100.796922445
100.437611938
100.454131961
100.850612521
100.834092498
100.416961908
100.850612521
100.850612521
100.400441885
101.28839314
100.400441885
100.363271832
100.817572474
100.383921862
100.297191739
100.801052451
100.780402422
101.251223087
101.218183041
100.400441885
100.796922445
100.400441885
100.817572474

Average distance is : 100.750 cm
Average deviation is : 0.372 cm
Block: 3
======================================
100.801052451
100.850612521
100.801052451
100.817572474
100.817572474
101.267743111
101.664223671
100.834092498
100.801052451
101.267743111
100.437611938
100.416961908
100.817572474
100.437611938
100.850612521
100.416961908
100.813442469
100.834092498
101.230573058
100.817572474
100.817572474
100.433481932
100.780402422
100.834092498
101.267743111
101.214053035
100.400441885
100.834092498
100.796922445
100.817572474
100.416961908
100.834092498
101.234703064
101.230573058
101.717913747
100.817572474
100.834092498
100.400441885
100.796922445
100.796922445
100.817572474
100.801052451
100.834092498
100.834092498
100.817572474
100.834092498
100.421091914
100.780402422
100.421091914
100.850612521

Average distance is : 100.834 cm
Average deviation is : 0.299 cm
Block: 4
======================================
100.433481932
100.416961908
100.400441885
101.234703064
100.784532428
100.850612521
101.267743111
100.400441885
101.234703064
100.834092498
101.701393723
100.416961908
100.817572474
100.817572474
100.801052451
100.817572474
100.834092498
101.267743111
100.421091914
100.421091914
100.404571891
97.5094377995
100.416961908
100.780402422
101.267743111
100.813442469
100.850612521
101.701393723
100.834092498
100.801052451
100.404571891
101.267743111
101.668353677
101.408163309
101.6848737
100.784532428
100.003961325
100.400441885
100.834092498
101.247093081
100.813442469
100.834092498
100.801052451
100.817572474
101.230573058
100.400441885
100.416961908
101.647703648
100.421091914
100.834092498

Average distance is : 100.789 cm
Average deviation is : 0.630 cm
Block: 5
======================================
100.801052451
100.768012404
101.680743694
100.834092498
100.400441885
101.267743111
100.817572474
100.796922445
101.701393723
100.400441885
100.433481932
100.834092498
100.454131961
101.267743111
100.780402422
101.300783157
100.817572474
100.834092498
100.817572474
100.416961908
100.854742527
100.817572474
100.834092498
100.834092498
100.416961908
100.801052451
101.680743694
100.801052451
100.801052451
100.834092498
100.383921862
100.400441885
100.834092498
100.747362375
100.801052451
100.817572474
101.701393723
100.817572474
100.813442469
100.817572474
100.817572474
100.817572474
101.197533011
100.780402422
100.817572474
100.834092498
100.400441885
100.850612521
101.197533011
100.784532428

Average distance is : 100.855 cm
Average deviation is : 0.332 cm
Block: 6
======================================
100.801052451
100.416961908
100.834092498
100.404571891
100.404571891
100.817572474
100.817572474
100.834092498
101.214053035
100.450001955
101.234703064
101.284263134
101.197533011
100.450001955
101.6848737
100.796922445
100.813442469
100.801052451
100.437611938
100.454131961
101.701393723
100.796922445
100.784532428
100.470651984
100.796922445
101.701393723
100.817572474
100.834092498
100.416961908
100.383921862
100.850612521
100.383921862
101.701393723
100.817572474
100.801052451
100.834092498
100.416961908
100.813442469
100.801052451
100.383921862
101.6848737
101.251223087
101.717913747
100.416961908
100.780402422
100.838222504
100.421091914
101.701393723
100.416961908
100.437611938

Average distance is : 100.846 cm
Average deviation is : 0.428 cm
Block: 7
======================================
100.834092498
101.6848737
101.230573058
100.796922445
100.801052451
100.450001955
100.834092498
100.383921862
100.817572474
100.834092498
100.780402422
100.801052451
100.813442469
100.834092498
100.834092498
100.850612521
100.421091914
100.796922445
101.680743694
101.701393723
101.230573058
100.813442469
100.801052451
100.400441885
101.6848737
100.400441885
101.234703064
101.251223087
101.218183041
100.813442469
100.404571891
100.780402422
100.834092498
100.780402422
101.651833653
100.796922445
100.796922445
100.817572474
100.383921862
100.801052451
100.834092498
101.247093081
100.817572474
101.230573058
100.817572474
100.834092498
100.416961908
101.664223671
100.416961908
100.854742527

Average distance is : 100.904 cm
Average deviation is : 0.373 cm
Block: 8
======================================
100.421091914
100.437611938
101.664223671
100.404571891
100.400441885
100.433481932
100.813442469
100.817572474
100.834092498
100.817572474
100.784532428
100.404571891
100.400441885
101.230573058
100.801052451
100.400441885
100.416961908
100.834092498
100.817572474
100.834092498
100.817572474
101.214053035
100.421091914
100.437611938
100.801052451
101.251223087
100.801052451
100.887782574
100.801052451
101.230573058
100.416961908
100.801052451
101.267743111
100.801052451
100.780402422
101.267743111
100.796922445
100.796922445
101.668353677
100.801052451
100.400441885
100.416961908
100.437611938
101.214053035
100.817572474
100.416961908
100.850612521
100.421091914
100.780402422
100.383921862

Average distance is : 100.763 cm
Average deviation is : 0.334 cm
Block: 9
======================================
100.817572474
100.796922445
100.400441885
100.400441885
100.838222504
100.796922445
100.383921862
100.421091914
100.421091914
100.437611938
100.416961908
100.22698164
100.834092498
100.834092498
100.421091914
100.817572474
100.834092498
100.801052451
100.834092498
100.383921862
100.834092498
101.680743694
100.400441885
100.780402422
101.701393723
100.801052451
100.437611938
101.267743111
101.701393723
101.697263718
100.817572474
101.230573058
100.400441885
100.416961908
100.416961908
101.647703648
100.834092498
100.817572474
100.416961908
101.701393723
100.400441885
100.801052451
100.801052451
101.6848737
100.834092498
100.834092498
100.433481932
100.784532428
100.801052451
100.784532428

Average distance is : 100.806 cm
Average deviation is : 0.424 cm
Block: 10
======================================
101.247093081
100.784532428
101.664223671
100.817572474
101.247093081
100.817572474
100.801052451
100.416961908
101.668353677
100.433481932
100.400441885
100.817572474
100.400441885
101.668353677
100.383921862
101.6848737
101.251223087
100.817572474
100.813442469
100.817572474
100.796922445
100.400441885
100.421091914
100.416961908
100.416961908
100.433481932
101.6848737
100.801052451
101.680743694
101.247093081
100.817572474
100.780402422
100.817572474
101.701393723
100.416961908
101.251223087
100.416961908
100.421091914
100.834092498
101.697263718
100.784532428
100.796922445
100.796922445
100.817572474
100.834092498
100.416961908
100.404571891
100.796922445
100.850612521
100.850612521

Average distance is : 100.875 cm
Average deviation is : 0.433 cm
Average distance for 10x50 is : 100.821 cm
Average deviation for 10x50 is : 0.396 cm
 Percentage of values that failed: 0.000