
Block: 1
======================================
198.178326273
197.722238398
198.214976192
192.697127342
198.231265044

Block: 2
======================================
198.231265044
197.722238398
197.787393808
197.824043727
198.198687339

Block: 3
======================================
198.166109633
197.787393808
197.787393808
198.198687339
198.214976192

Block: 4
======================================
198.178326273
198.214976192
198.214976192
198.231265044
198.214976192

Block: 5
======================================
198.214976192
198.214976192
197.803682661
198.198687339
197.343522573

Block: 6
======================================
198.16203742
198.16203742
198.16203742
198.194615126
198.182398486

Block: 7
======================================
198.235337257
198.231265044
197.701877332
197.819971514
197.771104956

Block: 8
======================================
197.771104956
198.149820781
197.771104956
197.754816103
197.787393808

Block: 9
======================================
197.803682661
198.214976192
197.787393808
195.295199347
197.787393808

Block: 10
======================================
197.58378315
198.198687339
197.803682661
197.836260366
197.787393808
