
Block: 1
======================================
49.9902030945
50.4215781212
49.9860947609
50.0025280952
49.9696614265
49.9902030945
50.364061451
50.3846031189
49.9532280922
49.9367947578
50.4010364532
49.9902030945
49.9696614265
50.3846031189
50.3846031189
41.3051858902
49.9860947609
49.9902030945
41.1819358826
49.9696614265
50.364061451
40.1507441521
49.9737697601
50.3846031189
40.4095691681
50.3846031189
49.9860947609
39.6495274544
49.9902030945
49.9902030945
40.5821191788
49.9902030945
50.4215781212
40.7505608559
49.9902030945
50.4215781212
40.2534524918
49.9696614265
49.9573364258
40.6683941841
49.9696614265
50.4215781212
40.3191858292
50.3681697845
50.4174697876
39.842619133
50.3846031189
50.4010364532
39.7522357941
49.9696614265

Average distance is : 47.814 cm
Average deviation is : 4.217 cm
Block: 2
======================================
50.0230697632
50.8159781456
50.8159781456
50.8365198135
50.3517364502
49.0576113701
50.3846031189
50.3846031189
36.6709856033
49.9696614265
49.9532280922
40.5780108452
49.9532280922
49.9696614265
40.6149858475
49.9696614265
50.3681697845
40.6314191818
49.9532280922
49.9737697601
40.1836108208
49.9532280922
49.9573364258
41.1655025482
49.9737697601
50.3681697845
39.6166607857
49.9532280922
49.9860947609
41.0997692108
49.9902030945
49.9367947578
40.6519608498
50.4010364532
50.0066364288
39.8385107994
49.9696614265
49.9902030945
40.7341275215
50.3846031189
50.0066364288
40.4753025055
49.9902030945
50.4010364532
40.2698858261
50.4051447868
50.4010364532
39.7686691284
50.3887114525
50.3846031189

Average distance is : 47.359 cm
Average deviation is : 4.576 cm
Block: 3
======================================
13.5944758415
50.8324114799
50.8365198135
36.514868927
50.4010364532
50.7995448112
36.5313022614
50.3681697845
50.7995448112
34.8058021545
49.9737697601
50.3846031189
40.1507441521
50.3681697845
50.3681697845
39.961760807
50.3846031189
50.4215781212
39.493410778
50.4010364532
50.3681697845
39.961760807
50.3681697845
50.3846031189
39.8385107994
50.4010364532
50.4051447868
40.3397274971
50.3681697845
50.4215781212
39.5303857803
50.4010364532
50.4174697876
39.6823941231
49.9737697601
50.3846031189
40.3027524948
50.3846031189
49.9696614265
39.8056441307
50.4010364532
49.9532280922
39.374269104
50.4215781212
50.3681697845
40.4424358368
50.3846031189
49.9532280922
40.5615775108
50.3887114525

Average distance is : 46.067 cm
Average deviation is : 7.093 cm
Block: 4
======================================
50.3517364502
50.7995448112
50.7995448112
50.4380114555
50.8159781456
50.4010364532
50.4051447868
50.7790031433
49.9902030945
50.4174697876
50.0066364288
50.4174697876
50.4010364532
50.4215781212
46.6460195541
50.0066364288
50.3681697845
40.3027524948
49.9902030945
49.9696614265
41.0833358765
49.9902030945
49.9902030945
40.3931358337
50.0066364288
49.9737697601
40.6848275185
50.3681697845
50.3681697845
40.3767024994
50.0066364288
50.0230697632
40.2370191574
49.9532280922
49.9737697601
40.5451441765
50.3681697845
50.3681697845
40.0110608101
50.4215781212
49.9696614265
40.2534524918
49.9902030945
50.0230697632
40.6478525162
49.9737697601
50.4051447868
40.3931358337
50.4010364532
50.4010364532

Average distance is : 48.027 cm
Average deviation is : 4.106 cm
Block: 5
======================================
13.8040008545
50.3681697845
50.8324114799
36.1327939034
50.4051447868
50.3846031189
36.913377285
50.4380114555
50.7995448112
36.18620224
50.4010364532
50.3846031189
34.9290521622
49.9737697601
50.4051447868
40.1137691498
49.9696614265
49.9573364258
40.7711025238
50.4051447868
49.9860947609
40.3767024994
50.4215781212
49.9696614265
40.1343108177
49.9902030945
50.4010364532
39.7358024597
50.0066364288
50.3476281166
40.2863191605
49.9696614265
50.0066364288
41.0792275429
49.9532280922
49.9696614265
40.6848275185
49.9696614265
50.3517364502
40.2739941597
49.9532280922
49.9902030945
40.6683941841
49.9696614265
49.9737697601
40.7875358582
49.9902030945
49.9860947609
40.3356191635
49.9902030945

Average distance is : 45.983 cm
Average deviation is : 6.979 cm
Block: 6
======================================
50.4339031219
50.3681697845
50.4010364532
50.4010364532
50.8324114799
50.8324114799
50.8324114799
50.7995448112
50.0066364288
50.3887114525
50.4010364532
50.4174697876
49.9737697601
50.3517364502
46.8843029022
50.4174697876
49.9860947609
40.1343108177
49.9902030945
49.9532280922
40.2164774895
49.9532280922
49.9902030945
40.3027524948
50.4010364532
49.9532280922
50.3846031189
50.0066364288
49.9737697601
50.0066364288
50.4051447868
50.3681697845
49.9737697601
50.4051447868
49.9860947609
49.9696614265
50.3846031189
49.9860947609
49.9573364258
45.0766361237
49.9532280922
50.0066364288
41.0792275429
50.3681697845
49.9902030945
40.2370191574
49.9902030945
50.0025280952
40.1137691498
49.9902030945

Average distance is : 48.865 cm
Average deviation is : 3.303 cm
Block: 7
======================================
50.8159781456
50.4380114555
50.0066364288
50.7995448112
50.3846031189
50.7954364777
50.4010364532
50.4215781212
50.4051447868
50.3846031189
50.4051447868
49.9573364258
49.9737697601
50.4174697876
48.3674113274
50.3846031189
50.0066364288
40.0480358124
49.9532280922
49.9696614265
40.2370191574
50.3846031189
49.9737697601
40.0439274788
49.9860947609
49.9737697601
40.6355275154
49.9902030945
49.9737697601
40.7012608528
49.9367947578
50.0066364288
40.4588691711
49.9367947578
50.0230697632
40.5821191788
49.9573364258
49.9902030945
40.7176941872
49.9737697601
49.9532280922
40.7341275215
49.9902030945
49.9737697601
40.0274941444
49.9696614265
50.4051447868
40.360269165
49.9860947609
49.9902030945

Average distance is : 47.984 cm
Average deviation is : 4.078 cm
Block: 8
======================================
13.0110924721
50.4215781212
50.4051447868
36.8928356171
50.4380114555
50.4051447868
36.9791106224
50.7995448112
50.4051447868
33.9635937691
50.3681697845
50.0929114342
40.0644691467
50.3846031189
50.3517364502
39.2879940987
49.9737697601
50.3681697845
39.6700691223
50.4010364532
50.3846031189
39.2715607643
50.0066364288
50.3846031189
39.5303857803
50.3681697845
50.3681697845
39.1688524246
50.4215781212
50.3846031189
38.6840690613
50.0066364288
50.4174697876
39.6988274574
50.3846031189
49.9696614265
39.9247858047
50.3846031189
50.3681697845
39.3208607674
49.9532280922
50.3846031189
39.6865024567
49.9532280922
50.3846031189
40.6519608498
50.4010364532
50.3846031189
39.2017190933
50.4010364532

Average distance is : 45.911 cm
Average deviation is : 7.224 cm
Block: 9
======================================
50.3681697845
50.4380114555
50.4174697876
50.4051447868
50.3846031189
52.7304615974
50.3846031189
49.9573364258
50.3846031189
50.4051447868
50.4010364532
50.4051447868
50.4010364532
50.3846031189
42.1515026093
50.3846031189
50.4010364532
39.8015357971
50.3846031189
50.3681697845
39.7851024628
50.3681697845
50.4051447868
39.513952446
50.3887114525
50.3887114525
39.9083524704
50.4174697876
50.3681697845
39.8385107994
50.4215781212
50.4051447868
39.513952446
50.4174697876
50.4010364532
39.7892107964
50.4010364532
49.9860947609
40.2205858231
50.3517364502
50.0025280952
40.2493441582
49.9737697601
50.4010364532
40.2534524918
49.9696614265
50.3846031189
39.6988274574
49.9902030945
50.3887114525

Average distance is : 47.911 cm
Average deviation is : 4.484 cm
Block: 10
======================================
13.1795341492
50.4380114555
50.4051447868
36.4820022583
50.4339031219
50.3846031189
36.9626772881
50.3846031189
50.3681697845
34.9824604988
50.0066364288
50.4010364532
39.7522357941
50.4215781212
50.4380114555
39.9946274757
50.4174697876
50.4010364532
39.7358024597
50.4174697876
50.4215781212
39.7892107964
50.3681697845
50.3846031189
39.8754858017
50.3887114525
50.4010364532
39.5961191177
50.3846031189
50.3517364502
39.8549441338
50.0066364288
50.3681697845
40.2863191605
50.4010364532
50.4051447868
39.5961191177
50.4174697876
50.4010364532
39.3085357666
50.3846031189
50.3846031189
40.2863191605
50.4215781212
50.4051447868
39.7851024628
50.4010364532
50.3846031189
7.21834211349
50.4215781212

Average distance is : 45.382 cm
Average deviation is : 8.975 cm