
Block: 1
======================================
399.17645514
399.212844992
194.414803672
399.245191526
399.17645514
196.060433626
399.281581378
399.196671724
399.261364794
399.229018259
399.208801675
398.751906872
399.180498457
398.772123456
399.229018259
398.772123456
398.755950189
398.824686575
398.788296723
194.127728176
397.906853652
398.772123456
399.212844992
398.804469991
398.788296723
398.772123456
194.928304911
398.840859842
398.751906872
195.433719516
398.755950189
399.229018259
399.212844992
399.229018259
398.772123456
399.249234843
399.229018259
398.739776921
399.233061576
399.233061576
399.212844992
399.229018259
194.36628387
398.85703311
399.212844992
399.245191526
193.941735601
398.363748455
399.229018259
193.585923719
398.751906872
399.229018259
193.569750452
398.808513308
399.245191526
195.247726941
398.804469991
399.180498457
399.621219993
193.602096987
398.788296723
399.63739326
399.653566527
399.63739326
399.160281873
399.653566527
399.617176676
399.653566527
399.673783112
194.435020256
399.229018259
399.621219993
399.63739326
400.078114796
250.127666426
343.499982238
306.531936359
400.057898211
193.990255404
398.788296723
194.823178673
399.265408111
196.044260359
399.277538061
399.63739326
400.078114796
399.63739326
399.669739795
399.689956379
399.196671724
399.653566527
399.689956379
399.689956379
399.669739795
399.689956379
399.669739795
399.653566527
399.633349943
197.754583383
395.395953894

Average distance is : 363.504 cm
Average deviation is : 76.224 cm
Block: 2
======================================
399.601003408
399.212844992
399.229018259
194.722095752
399.281581378
193.007729411
398.836816525
196.877183628
396.277396965
197.285558629
397.583388305
195.587365556
396.313786817
200.216963339
395.889238548
197.285558629
397.162883353
399.212844992
399.229018259
399.212844992
398.788296723
196.929746747
398.788296723
399.212844992
399.229018259
399.229018259
194.317764068
398.788296723
194.382457137
397.939200187
399.180498457
399.212844992
399.249234843
398.788296723
399.212844992
399.229018259
195.466066051
398.416311574
399.212844992
194.754442286
398.788296723
399.196671724
399.212844992
399.196671724
399.212844992
399.212844992
195.094080901
399.245191526
399.196671724
399.196671724
193.941735601
398.820643258
399.212844992
399.63739326
398.772123456
399.229018259
399.160281873
399.196671724
193.941735601
398.820643258
399.212844992
399.212844992
399.229018259
194.722095752
398.824686575
399.245191526
399.245191526
193.909389067
398.804469991
399.212844992
194.313720751
397.971546721
194.297547483
398.39609499
195.126427436
397.599561572
194.6857059
398.007936573
194.196464562
398.85703311
193.836609364
398.400138307
194.36628387
397.959416771
199.331476951
398.820643258
399.229018259
399.229018259
399.196671724
398.788296723
197.285558629
398.363748455
195.635885358
398.363748455
195.943177438
398.820643258
195.603538823
397.959416771
398.739776921
398.772123456

Average distance is : 339.804 cm
Average deviation is : 92.750 cm
Block: 3
======================================
398.755950189
192.12628634
399.63739326
399.63739326
193.432277679
399.229018259
154.224234271
399.212844992
192.684264064
399.196671724
399.208801675
399.196671724
399.196671724
399.633349943
399.212844992
399.621219993
194.010471988
398.755950189
195.30029006
398.363748455
399.63739326
399.212844992
194.414803672
399.160281873
399.63739326
399.617176676
399.588873458
399.180498457
399.605046725
399.617176676
399.605046725
399.605046725
399.584830141
399.568656874
399.653566527
399.584830141
399.144108605
399.63739326
399.601003408
399.621219993
400.061941528
399.605046725
399.63739326
400.045768261
400.061941528
400.057898211
400.061941528
400.114504647
399.669739795
193.1249856
399.208801675
399.633349943
399.621219993
399.601003408
399.669739795
399.653566527
399.621219993
399.617176676
399.653566527
193.553577185
398.824686575
399.669739795
399.653566527
399.212844992
399.621219993
399.633349943
399.63739326
399.669739795
399.669739795
399.617176676
399.605046725
399.673783112
399.621219993
399.63739326
399.63739326
399.160281873
399.63739326
399.633349943
399.617176676
399.653566527
399.653566527
399.601003408
399.653566527
399.588873458
399.63739326
399.16432519
399.160281873
399.601003408
399.584830141
399.63739326
399.617176676
399.568656874
399.584830141
399.601003408
399.568656874
399.605046725
399.617176676
399.127935338
195.009171247
398.70338707

Average distance is : 378.546 cm
Average deviation is : 63.350 cm
Block: 4
======================================
398.707430387
398.671040535
399.079415536
398.739776921
399.144108605
399.123892021
398.246492267
398.687213802
398.687213802
398.671040535
399.144108605
398.683170485
194.908088326
398.262665534
399.180498457
399.127935338
398.707430387
398.671040535
194.51992991
398.723603654
399.111762071
398.666997218
399.127935338
398.671040535
398.230318999
398.719560337
398.687213802
194.536103177
398.533567762
398.262665534
398.687213802
398.687213802
398.70338707
195.77335813
397.821943998
399.111762071
398.70338707
398.70338707
398.70338707
399.127935338
398.687213802
398.70338707
398.723603654
399.144108605
399.127935338
399.144108605
398.70338707
398.719560337
399.160281873
399.144108605
399.127935338
399.107718754
398.70338707
399.111762071
399.127935338
399.144108605
398.739776921
398.739776921
398.70338707
399.148151922
398.687213802
398.70338707
399.180498457
399.148151922
398.687213802
399.111762071
399.148151922
399.111762071
399.127935338
399.144108605
399.123892021
399.17645514
399.160281873
399.160281873
399.144108605
399.17645514
398.671040535
399.17645514
399.144108605
399.107718754
399.568656874
399.148151922
399.568656874
399.617176676
399.144108605
399.144108605
399.584830141
399.552483606
399.568656874
399.584830141
399.111762071
399.617176676
399.601003408
399.552483606
399.584830141
399.588873458
399.144108605
399.17645514
399.144108605
399.584830141

Average distance is : 390.828 cm
Average deviation is : 40.190 cm
Block: 5
======================================
399.621219993
399.148151922
399.16432519
399.63739326
399.196671724
399.17645514
399.617176676
399.617176676
399.17645514
399.605046725
399.180498457
399.617176676
399.180498457
399.17645514
398.719560337
399.212844992
399.17645514
399.16432519
399.180498457
399.180498457
399.196671724
399.212844992
399.621219993
399.584830141
399.196671724
193.957908869
398.735733604
399.601003408
399.16432519
194.82722199
398.33140192
399.208801675
196.076606894
398.379921722
194.790832138
398.804469991
398.719560337
399.160281873
399.17645514
399.180498457
399.229018259
399.160281873
399.17645514
399.180498457
399.196671724
194.843395257
398.788296723
399.17645514
399.212844992
194.402673721
398.772123456
399.196671724
399.212844992
399.17645514
399.196671724
194.467366791
399.605046725
194.010471988
398.347575188
398.723603654
194.467366791
398.751906872
399.212844992
399.17645514
399.229018259
398.723603654
399.196671724
399.229018259
399.192628407
399.212844992
399.17645514
399.212844992
399.0228091
399.160281873
399.180498457
399.229018259
399.229018259
399.212844992
193.569750452
398.367791772
197.790973234
397.906853652
194.891915059
398.347575188
194.010471988
398.840859842
195.635885358
398.873206377
195.263900208
398.39609499
399.212844992
398.824686575
194.042818522
398.363748455
399.229018259
193.808306146
399.669739795
192.316322231
398.840859842
194.418846989

Average distance is : 360.242 cm
Average deviation is : 80.625 cm
Block: 6
======================================
398.755950189
399.229018259
399.245191526
399.212844992
399.212844992
399.212844992
399.212844992
399.245191526
399.265408111
399.229018259
398.788296723
399.229018259
399.249234843
399.265408111
399.229018259
399.245191526
193.804262829
399.245191526
399.229018259
399.245191526
399.245191526
399.261364794
399.261364794
399.212844992
399.245191526
399.265408111
193.957908869
398.873206377
399.261364794
399.229018259
399.281581378
195.199207139
398.85703311
399.233061576
399.281581378
398.840859842
398.824686575
399.229018259
193.99429872
398.824686575
399.229018259
399.245191526
399.229018259
399.249234843
399.261364794
399.245191526
399.245191526
399.229018259
399.212844992
399.265408111
399.229018259
399.180498457
399.212844992
399.212844992
399.212844992
399.160281873
399.192628407
399.192628407
399.17645514
399.196671724
399.192628407
398.70338707
399.180498457
399.180498457
399.601003408
399.17645514
399.144108605
399.196671724
399.180498457
399.160281873
399.180498457
399.160281873
399.160281873
399.144108605
399.160281873
399.160281873
399.127935338
399.111762071
399.144108605
399.144108605
399.111762071
399.123892021
399.160281873
399.111762071
399.127935338
399.127935338
399.111762071
399.148151922
399.144108605
399.111762071
399.160281873
399.144108605
398.687213802
399.17645514
399.127935338
399.111762071
398.735733604
398.687213802
399.16432519
399.605046725

Average distance is : 390.962 cm
Average deviation is : 40.359 cm
Block: 7
======================================
399.111762071
399.601003408
399.111762071
399.584830141
399.144108605
399.536310339
399.111762071
399.548440289
399.127935338
399.568656874
399.127935338
399.160281873
195.757184863
398.755950189
399.17645514
399.160281873
399.16432519
399.568656874
399.584830141
399.180498457
399.180498457
399.17645514
399.605046725
399.584830141
399.16432519
399.144108605
399.160281873
399.144108605
399.584830141
193.68700664
399.208801675
399.196671724
399.160281873
399.192628407
399.601003408
399.160281873
399.127935338
399.144108605
399.144108605
399.180498457
399.144108605
399.160281873
399.160281873
399.17645514
399.621219993
399.196671724
399.160281873
399.160281873
399.144108605
399.180498457
196.161516547
398.278838801
398.788296723
399.17645514
398.719560337
195.348809862
397.890680385
399.160281873
399.180498457
399.196671724
194.871698475
398.33140192
399.212844992
196.533501697
396.887937808
399.17645514
194.891915059
398.33140192
399.160281873
194.075165057
398.755950189
398.735733604
398.735733604
399.17645514
398.739776921
399.180498457
195.757184863
398.347575188
399.196671724
399.160281873
399.17645514
399.180498457
398.735733604
398.755950189
194.924261594
399.617176676
399.212844992
198.656243038
398.788296723
399.212844992
399.212844992
399.192628407
399.229018259
398.687213802
399.16432519
398.687213802
399.160281873
399.180498457
399.192628407
399.180498457

Average distance is : 376.700 cm
Average deviation is : 64.021 cm
Block: 8
======================================
399.180498457
191.705781388
399.685913062
399.685913062
399.249234843
399.229018259
399.212844992
399.249234843
399.212844992
399.180498457
399.212844992
399.233061576
399.229018259
399.212844992
399.196671724
398.768080139
399.229018259
399.245191526
399.212844992
399.196671724
398.739776921
399.17645514
399.208801675
399.196671724
399.160281873
399.16432519
399.17645514
398.739776921
399.212844992
399.17645514
399.196671724
399.180498457
399.192628407
399.196671724
398.719560337
398.719560337
399.17645514
399.16432519
398.70338707
398.735733604
399.16432519
399.160281873
399.17645514
399.17645514
399.212844992
399.160281873
399.192628407
399.212844992
399.180498457
399.180498457
398.719560337
399.160281873
399.212844992
399.212844992
399.16432519
399.212844992
399.212844992
399.621219993
399.229018259
399.192628407
399.249234843
399.212844992
399.63739326
399.633349943
399.63739326
399.212844992
399.212844992
399.63739326
194.042818522
399.297754645
193.941735601
399.722302914
399.245191526
194.891915059
398.85703311
196.14534328
398.85703311
399.245191526
194.515886593
398.889379644
399.281581378
399.277538061
399.722302914
399.297754645
195.741011596
397.587431622
197.010613084
397.652124691
399.346274447
399.281581378
193.670833373
398.448658109
195.789531398
398.464831376
399.346274447
399.350317764
399.293711329
194.063035107
398.48504796
399.362447715

Average distance is : 376.656 cm
Average deviation is : 64.299 cm
Block: 9
======================================
399.281581378
399.350317764
399.33010118
399.281581378
399.297754645
398.905552912
399.297754645
399.281581378
398.852989793
399.293711329
399.297754645
399.297754645
399.277538061
399.265408111
399.277538061
399.281581378
399.293711329
399.281581378
399.722302914
399.313927913
399.265408111
399.277538061
399.33010118
399.281581378
399.33010118
399.277538061
399.313927913
399.313927913
399.281581378
399.281581378
399.281581378
399.281581378
399.33010118
399.261364794
399.261364794
399.281581378
399.702086329
399.297754645
399.277538061
399.245191526
399.229018259
399.653566527
399.245191526
399.702086329
399.192628407
399.281581378
399.685913062
399.685913062
399.706129646
399.669739795
399.702086329
399.689956379
399.702086329
399.702086329
399.706129646
399.669739795
399.669739795
399.718259597
399.249234843
399.702086329
399.689956379
399.702086329
399.685913062
399.689956379
399.718259597
399.689956379
399.265408111
399.669739795
399.277538061
399.265408111
399.738476181
194.398630404
398.905552912
399.281581378
399.261364794
399.706129646
399.265408111
398.820643258
399.313927913
399.313927913
399.738476181
399.297754645
399.281581378
399.33010118
399.281581378
193.549533868
398.909596229
399.261364794
399.297754645
399.297754645
399.33010118
195.247726941
397.652124691
399.346274447
399.313927913
399.313927913
399.313927913
195.656101942
397.635951424
399.281581378

Average distance is : 391.162 cm
Average deviation is : 40.304 cm
Block: 10
======================================
398.889379644
399.297754645
399.33010118
398.873206377
399.350317764
399.297754645
193.5333606
398.873206377
399.350317764
193.484840798
398.517394495
399.293711329
399.265408111
399.281581378
399.31797123
398.85703311
194.774658871
399.758692765
398.873206377
398.889379644
196.468808627
397.652124691
197.281515312
397.276096225
195.178990555
398.517394495
195.959350705
398.921726179
398.85703311
399.334144497
398.85703311
398.873206377
398.889379644
399.313927913
399.33010118
399.313927913
193.501014066
398.873206377
399.297754645
398.889379644
399.297754645
195.534802437
398.109019494
399.297754645
398.921726179
398.925769496
398.448658109
195.61971209
399.362447715
398.925769496
399.313927913
398.889379644
398.873206377
398.873206377
399.281581378
398.909596229
398.873206377
194.786788821
398.044326425
398.889379644
195.178990555
398.464831376
398.889379644
399.281581378
196.028087091
398.501221228
197.281515312
398.481004643
399.297754645
398.840859842
399.313927913
399.297754645
399.245191526
398.820643258
398.836816525
398.840859842
399.265408111
399.249234843
399.261364794
399.249234843
399.261364794
399.277538061
399.265408111
399.297754645
399.261364794
399.245191526
399.261364794
195.652058625
398.836816525
399.689956379
399.245191526
399.281581378
399.313927913
399.249234843
399.229018259
399.669739795
399.281581378
399.653566527
194.722095752
399.702086329

Average distance is : 366.449 cm
Average deviation is : 75.069 cm