
Block: 1
======================================
399.689956379
193.739569759
399.689956379
399.245191526
399.261364794

Average distance is : 358.325 cm
Average deviation is : 92.006 cm
Block: 2
======================================
399.265408111
195.166860604
398.889379644
194.350110602
398.873206377

Average distance is : 317.309 cm
Average deviation is : 111.873 cm
Block: 3
======================================
399.245191526
399.297754645
399.281581378
399.281581378
399.297754645

Average distance is : 399.281 cm
Average deviation is : 0.021 cm
Block: 4
======================================
399.346274447
399.33010118
398.921726179
399.350317764
194.281374216

Average distance is : 358.246 cm
Average deviation is : 91.659 cm
Block: 5
======================================
398.873206377
191.770474458
398.517394495
398.941942763
398.937899446

Average distance is : 357.408 cm
Average deviation is : 92.594 cm
Block: 6
======================================
398.893422961
398.468874693
196.468808627
397.652124691
196.45263536

Average distance is : 317.587 cm
Average deviation is : 110.574 cm
Block: 7
======================================
398.889379644
398.840859842
398.85703311
398.905552912
398.909596229

Average distance is : 398.880 cm
Average deviation is : 0.030 cm
Block: 8
======================================
398.873206377
193.824479413
399.33010118
398.416311574
398.840859842

Average distance is : 357.857 cm
Average deviation is : 91.698 cm
Block: 9
======================================
398.840859842
399.261364794
399.313927913
399.265408111
398.85703311

Average distance is : 399.108 cm
Average deviation is : 0.237 cm
Block: 10
======================================
399.245191526
399.722302914
194.790832138
399.245191526
196.909530163

Average distance is : 317.983 cm
Average deviation is : 111.494 cm