
Block: 1
======================================
200.589076471
200.214432859
200.572787619
200.605365324
200.605365324
200.572787619
200.572787619
201.016658854
200.519848847
200.503559995
200.092266464
200.059688759
200.043399906
200.519848847
200.043399906
200.503559995
200.043399906
200.039327693
200.027111053
200.503559995
200.519848847
200.519848847
200.519848847
200.043399906
200.519848847
200.055616546
200.519848847
200.963720083
200.963720083
200.059688759
200.059688759
200.059688759
200.931142378
200.043399906
200.128916383
200.519848847
200.092266464
200.145205235
200.075977612
200.059688759
200.059688759
200.075977612
200.519848847
200.075977612
200.556498766
200.996297789
200.092266464
200.161494088
200.552426553
200.572787619
200.556498766
200.12484417
200.568715405
200.181855154
200.11262753
200.108555317
200.128916383
200.556498766
200.128916383
201.032947707
200.12484417
200.556498766
200.177782941
200.108555317
200.092266464
200.198144007
200.177782941
200.12484417
200.572787619
200.128916383
200.177782941
201.000370002
201.000370002
200.556498766
200.556498766

Block: 2
======================================
200.5361377
200.5361377
200.5361377
200.161494088
200.145205235
200.161494088
200.963720083
201.000370002
200.075977612
200.519848847
200.540209913
200.075977612
200.5361377
200.161494088
200.519848847
200.523921061
200.980008936
201.012586641
201.000370002
200.984081149
200.621654177
200.075977612
200.996297789
200.621654177
200.621654177
200.080049825
200.080049825
200.609437537
200.589076471
200.075977612
200.963720083
200.075977612
200.963720083
200.967792296
200.589076471
200.963720083
200.589076471
200.075977612
200.589076471
200.523921061
200.963720083
200.075977612
200.967792296
200.5361377
200.075977612
200.589076471
200.931142378
201.427952385
200.947431231
200.947431231
200.096338677
201.391302466
200.568715405
200.589076471
200.5361377
200.503559995
200.075977612
201.407591319
200.503559995
200.947431231
200.947431231
200.967792296
200.963720083
200.967792296
200.503559995
200.519848847
200.503559995
200.519848847
200.519848847
200.487271142
200.503559995
200.503559995
200.487271142
200.503559995
200.503559995

Block: 3
======================================
200.043399906
200.503559995
200.059688759
200.519848847
200.947431231
200.487271142
200.519848847
200.503559995
200.540209913
200.947431231
200.059688759
200.947431231
200.585004258
200.947431231
200.947431231
200.947431231
200.947431231
200.947431231
200.503559995
200.931142378
200.483198929
200.503559995
200.487271142
200.963720083
200.470982289
200.466910076
200.483198929
200.483198929
200.487271142
200.540209913
200.503559995
200.487271142
200.503559995
200.931142378
200.503559995
200.499487782
200.487271142
200.483198929
200.483198929
200.466910076
200.487271142
200.483198929
200.466910076
200.487271142
200.556498766
200.487271142
200.487271142
200.487271142
200.470982289
200.470982289
200.487271142
201.000370002
200.503559995
200.503559995
200.487271142
200.503559995
200.487271142
200.963720083
200.947431231
200.540209913
200.947431231
200.589076471
200.589076471
201.39537468
200.247010565
200.519848847
201.407591319
200.519848847
201.407591319
200.589076471
200.519848847
200.552426553
200.523921061
200.519848847
200.519848847

Block: 4
======================================
201.000370002
200.487271142
200.519848847
200.059688759
200.027111053
201.000370002
200.519848847
200.075977612
200.540209913
200.519848847
200.556498766
200.503559995
200.540209913
200.5361377
200.075977612
200.5361377
200.059688759
201.000370002
200.621654177
200.519848847
200.161494088
200.552426553
200.556498766
201.000370002
200.161494088
200.177782941
200.177782941
200.177782941
200.621654177
200.194071794
200.642015243
200.12484417
200.589076471
200.210360646
200.161494088
200.12484417
200.11262753
201.012586641
200.198144007
200.12484417
200.128916383
200.145205235
200.145205235
200.108555317
200.128916383
200.11262753
200.11262753
200.108555317
200.589076471
200.128916383
200.12484417
200.128916383
200.12484417
200.108555317
200.096338677
200.12484417
200.177782941
200.128916383
200.145205235
200.181855154
201.016658854
200.11262753
200.177782941
200.108555317
200.145205235
200.177782941
200.11262753
200.198144007
200.128916383
200.177782941
200.128916383
200.11262753
200.108555317
200.092266464
200.128916383

Block: 5
======================================
200.11262753
200.181855154
200.12484417
200.568715405
201.016658854
200.177782941
201.032947707
200.128916383
200.108555317
200.177782941
201.016658854
200.128916383
200.572787619
200.108555317
200.572787619
200.092266464
200.568715405
200.12484417
200.572787619
200.108555317
200.11262753
200.108555317
200.568715405
200.11262753
200.108555317
200.108555317
200.572787619
200.568715405
200.145205235
200.108555317
200.092266464
200.092266464
200.108555317
200.11262753
200.177782941
200.128916383
200.161494088
200.092266464
201.444241238
200.092266464
200.145205235
200.11262753
200.585004258
200.092266464
200.621654177
200.108555317
200.096338677
200.161494088
200.092266464
200.5361377
200.108555317
200.556498766
200.161494088
200.108555317
200.11262753
200.092266464
200.128916383
200.108555317
200.11262753
200.108555317
200.11262753
200.108555317
200.161494088
200.161494088
200.11262753
200.980008936
200.996297789
200.108555317
200.145205235
201.000370002
201.016658854
200.161494088
200.980008936
201.000370002
200.980008936

Block: 6
======================================
200.963720083
200.980008936
200.5361377
200.984081149
200.996297789
200.984081149
201.000370002
200.5361377
200.996297789
200.963720083
200.503559995
200.540209913
200.552426553
200.5361377
200.984081149
200.996297789
200.984081149
200.980008936
200.62572639
201.000370002
201.012586641
200.11262753
200.519848847
200.5361377
200.5361377
200.556498766
200.963720083
200.984081149
200.637943029
200.984081149
200.519848847
200.984081149
200.5361377
200.585004258
200.605365324
200.5361377
200.540209913
200.552426553
200.540209913
200.519848847
200.552426553
200.5361377
200.5361377
200.519848847
200.5361377
200.5361377
200.519848847
200.540209913
200.980008936
200.499487782
200.5361377
200.540209913
200.996297789
201.000370002
200.540209913
200.552426553
200.5361377
201.012586641
200.540209913
200.075977612
200.556498766
200.519848847
200.5361377
201.000370002
200.996297789
200.540209913
201.04923656
200.5361377
201.000370002
200.540209913
201.016658854
200.5361377
200.540209913
201.000370002
200.519848847

Block: 7
======================================
200.556498766
200.519848847
200.980008936
200.621654177
200.5361377
201.000370002
201.016658854
200.984081149
200.5361377
201.016658854
200.519848847
200.556498766
201.000370002
200.637943029
200.996297789
200.552426553
200.5361377
201.000370002
200.996297789
201.016658854
200.552426553
200.980008936
200.556498766
200.540209913
201.012586641
200.568715405
200.5361377
201.016658854
201.032947707
201.000370002
201.016658854
201.016658854
200.980008936
201.012586641
200.996297789
201.012586641
200.62572639
200.996297789
200.5361377
200.637943029
200.984081149
201.032947707
201.000370002
201.000370002
200.62572639
201.016658854
201.000370002
200.108555317
200.621654177
201.016658854
200.642015243
200.642015243
200.621654177
200.637943029
200.11262753

Block: 1
======================================
200.263299417
200.829337049
200.283660483
200.283660483
200.263299417
201.183619595
200.247010565
200.723459506
200.723459506
200.727531719
200.711242867
200.723459506
200.707170653
200.727531719
200.723459506
200.707170653
200.723459506
200.267371631
202.466366744
200.707170653
201.187691808
200.723459506
200.263299417
200.727531719
200.743820572
200.723459506
200.727531719
200.263299417
200.723459506
200.711242867
201.167330742
200.707170653
200.263299417
200.267371631
200.263299417
200.723459506
201.171402955
200.707170653
200.707170653
200.743820572
200.263299417
200.263299417
200.727531719
200.707170653
200.263299417
200.263299417
200.263299417
200.727531719
200.727531719
200.27958827
200.723459506
200.247010565
200.247010565
200.267371631
200.247010565
200.727531719
200.727531719
200.267371631
200.727531719
200.247010565
200.723459506
200.230721712
201.151041889
200.707170653
200.723459506
200.707170653
200.743820572
200.727531719
200.694954014
200.723459506
200.723459506
200.263299417
200.727531719
201.167330742
200.247010565

Block: 2
======================================
200.27958827
201.220269513
201.167330742
200.283660483
201.647851896
200.247010565
200.283660483
200.247010565
200.247010565
200.690881801
200.711242867
200.247010565
200.263299417
200.743820572
200.79268713
201.155114102
200.707170653
200.263299417
200.723459506
200.263299417
200.267371631
200.723459506
200.723459506
200.707170653
200.723459506
200.247010565
200.727531719
200.727531719
200.723459506
200.723459506
200.247010565
200.723459506
200.230721712
200.723459506
200.263299417
200.247010565
200.263299417
200.247010565
200.247010565
200.723459506
200.707170653
200.727531719
200.267371631
200.247010565
200.707170653
200.711242867
200.247010565
200.707170653
200.707170653
200.707170653
200.263299417
200.711242867
200.267371631
200.707170653
200.707170653
200.263299417
200.711242867
200.690881801
200.727531719
200.727531719
200.267371631
200.723459506
200.263299417
201.187691808
200.247010565
200.707170653
200.723459506
200.690881801
200.267371631
200.230721712
200.263299417
200.723459506
200.707170653
200.267371631
200.707170653

Block: 3
======================================
200.707170653
200.267371631
200.263299417
200.727531719
200.690881801
200.247010565
200.739748359
200.247010565
200.247010565
200.739748359
201.167330742
201.187691808
201.167330742
201.171402955
201.167330742
200.348815894
200.711242867
200.263299417
200.707170653
200.723459506
201.151041889
200.727531719
200.707170653
201.171402955
200.690881801
200.723459506
200.247010565
200.247010565
200.263299417
200.707170653
200.263299417
200.707170653
201.167330742
200.263299417
200.263299417
200.283660483
200.711242867
200.263299417
200.263299417
200.247010565
200.27958827
200.743820572
200.263299417
200.247010565
200.27958827
200.247010565
200.727531719
200.727531719
200.263299417
200.723459506
200.707170653
200.723459506
200.723459506
200.723459506
201.187691808
200.711242867
201.167330742
200.723459506
200.690881801
201.167330742
200.707170653
201.151041889
200.230721712
200.707170653
200.707170653
200.723459506
201.171402955
201.187691808
201.187691808
201.167330742
201.167330742
200.707170653
200.727531719
200.727531719
200.727531719

Block: 4
======================================
200.247010565
200.743820572
201.155114102
200.711242867
201.155114102
200.707170653
200.739748359
200.27958827
200.707170653
200.727531719
200.727531719
200.283660483
200.247010565
200.299949336
200.739748359
200.263299417
201.171402955
201.167330742
200.707170653
200.727531719
200.711242867
201.151041889
200.247010565
201.151041889
200.711242867
201.187691808
200.27958827
200.690881801
201.155114102
200.707170653
201.171402955
201.134753036
200.707170653
201.187691808
201.187691808
200.707170653
201.171402955
201.187691808
200.707170653
201.167330742
201.183619595
200.707170653
201.171402955
201.167330742
200.707170653
200.707170653
201.155114102
201.171402955
201.167330742
200.707170653
200.707170653
200.711242867
200.711242867
200.711242867
200.711242867
200.707170653
200.690881801
200.711242867
201.183619595
201.187691808
201.187691808
201.187691808
200.727531719
200.727531719
200.723459506
200.727531719
200.723459506
200.707170653
200.263299417
201.171402955
200.352888107
201.183619595
200.690881801
200.707170653
200.707170653

Block: 5
======================================
201.187691808
200.690881801
200.707170653
201.134753036
201.187691808
200.27958827
200.808975983
201.171402955
200.711242867
200.707170653
200.707170653
200.707170653
201.167330742
200.723459506
200.690881801
200.723459506
200.263299417
200.727531719
200.707170653
200.690881801
200.247010565
200.727531719
201.167330742
201.171402955
201.171402955
201.167330742
200.690881801
201.171402955
200.690881801
200.707170653
201.183619595
200.707170653
200.711242867
200.776398277
201.151041889
201.155114102
200.332527041
201.167330742
200.707170653
200.707170653
201.171402955
201.151041889
200.263299417
200.723459506
200.727531719
200.707170653
200.690881801
201.171402955
200.727531719
200.743820572
200.711242867
200.707170653
200.707170653
200.711242867
200.690881801
200.247010565
200.247010565
201.171402955
200.690881801
200.690881801
200.723459506
200.707170653
200.247010565
200.707170653
200.707170653
200.690881801
200.707170653
200.690881801
200.707170653
201.167330742
200.707170653
200.707170653
200.711242867
200.263299417
200.723459506

Block: 6
======================================
200.707170653
200.230721712
200.267371631
200.79268713
201.151041889
200.312165976
200.27958827
200.690881801
202.059145427
200.263299417
200.267371631
200.707170653
200.776398277
200.247010565
200.707170653
200.263299417
200.707170653
200.247010565
200.230721712
200.707170653
200.247010565
200.247010565
200.707170653
200.226649499
200.690881801
200.707170653
200.707170653
200.711242867
200.707170653
200.230721712
200.727531719
200.707170653
200.247010565
200.690881801
200.707170653
200.226649499
200.707170653
200.707170653
200.711242867
200.690881801
200.707170653
200.707170653
200.690881801
200.707170653
200.690881801
200.707170653
200.690881801
200.690881801
200.230721712
200.230721712
200.247010565
200.230721712
200.226649499
200.707170653
200.707170653
200.743820572
200.723459506
200.267371631
200.230721712
200.690881801
200.247010565
200.690881801
200.247010565
200.214432859
200.711242867
200.230721712
200.707170653
200.690881801
200.230721712
200.247010565
200.247010565
200.760109425
200.230721712
200.690881801
200.743820572

Block: 7
======================================
201.134753036
200.247010565
201.118464184
200.707170653
200.690881801
201.134753036
201.118464184
201.171402955
201.151041889
200.247010565
200.674592948
200.711242867
200.690881801
200.230721712
200.247010565
200.230721712
200.674592948
200.247010565
200.230721712
200.707170653
200.690881801
200.776398277
200.776398277
201.134753036
200.690881801
200.690881801
200.674592948
200.707170653
200.674592948
200.690881801
200.690881801
200.690881801
200.226649499
200.230721712
200.674592948
200.690881801
200.230721712
201.598985338
200.247010565
200.230721712
200.776398277
201.13882525
200.247010565
200.247010565
200.739748359
200.760109425
200.760109425
200.247010565
200.247010565
200.267371631
200.247010565
200.247010565
200.694954014
200.230721712
200.226649499
200.247010565
200.247010565
200.690881801
200.247010565
200.707170653
200.267371631
200.723459506
200.230721712
200.247010565
200.760109425
201.134753036
200.707170653
201.118464184
200.247010565
200.711242867
200.674592948
201.114391971
201.134753036
200.247010565
200.230721712

Block: 8
======================================
200.226649499
200.690881801
200.760109425
200.263299417
201.134753036
200.760109425
201.134753036
200.760109425
200.690881801
200.760109425
200.674592948
200.690881801
200.230721712
200.674592948
200.727531719
200.674592948
200.230721712
200.690881801
200.230721712
200.263299417
201.134753036
200.247010565
200.707170653
200.743820572
201.134753036
201.134753036
201.134753036
201.134753036
201.118464184
201.134753036
200.674592948
201.151041889
200.670520735
201.151041889
201.134753036
201.118464184
201.118464184
201.134753036
200.707170653
201.118464184
200.247010565
200.263299417
200.247010565
200.743820572
200.760109425
200.760109425
201.134753036
201.20398066
200.674592948
200.674592948
201.134753036
200.711242867
201.134753036
200.247010565
200.760109425
200.760109425
201.134753036
200.674592948
200.658304095
200.760109425
201.114391971
201.134753036
200.670520735
201.134753036
201.134753036
201.118464184
200.776398277
201.118464184
201.134753036
201.118464184
201.13882525
201.134753036
200.674592948
201.134753036
201.151041889

Block: 9
======================================
200.739748359
200.707170653
200.79268713
201.118464184
200.267371631
201.155114102
200.27958827
201.134753036
200.247010565
200.263299417
200.247010565
200.247010565
200.247010565
201.118464184
200.247010565
200.247010565
201.155114102
201.134753036
200.984081149
200.263299417
200.776398277
200.332527041
201.134753036
200.247010565
200.247010565
200.27958827
200.263299417
201.151041889
200.674592948
201.151041889
200.78047049
200.776398277
200.247010565
200.247010565
200.247010565
200.267371631
200.79268713
200.776398277
201.134753036
200.743820572
200.247010565
200.776398277
200.267371631
200.743820572
201.594913125
200.776398277
200.723459506
200.760109425
200.263299417
201.155114102
200.776398277
200.263299417
201.151041889
201.167330742
200.776398277
200.247010565
200.247010565
200.776398277
200.796759343
201.134753036
200.247010565
200.267371631
200.727531719
200.332527041
201.151041889
201.151041889
201.155114102
200.796759343
200.776398277
200.776398277
200.247010565
200.776398277
200.267371631
200.263299417
200.707170653

Block: 10
======================================
200.247010565
200.776398277
200.727531719
200.723459506
200.776398277
201.167330742
201.171402955
200.723459506
201.134753036
201.155114102
200.230721712
200.743820572
200.230721712
201.134753036
200.247010565
200.263299417
200.723459506
200.723459506
200.739748359
200.79268713
200.267371631
200.332527041
200.263299417
200.711242867
200.743820572
200.267371631
200.247010565
200.263299417
200.711242867
200.247010565
200.707170653
200.267371631
200.690881801
200.247010565
200.727531719
200.707170653
200.267371631
200.283660483
200.267371631
200.263299417
200.707170653
200.247010565
200.263299417
200.727531719
200.727531719
200.711242867
200.711242867
200.263299417
200.707170653
200.247010565
200.711242867
200.711242867
200.711242867
200.711242867
200.316238189
201.167330742
200.707170653
201.187691808
200.711242867
200.707170653
200.707170653
200.723459506
200.707170653
200.267371631
200.707170653
200.707170653
201.183619595
200.707170653
200.727531719
200.694954014
200.727531719
201.167330742
200.690881801
200.247010565
200.727531719
