
Block: 1
======================================
200.79268713
201.236558366
200.813048196
201.220269513
200.776398277
200.813048196
200.808975983
200.878203607
200.79268713
201.680429602
200.861914754
201.664140749
201.240630579
200.743820572
201.256919432
201.220269513
201.631563044
200.808975983
200.760109425
201.256919432
202.091723132
201.240630579
201.187691808
200.743820572
200.776398277
201.236558366
201.684501815
200.79268713
201.256919432
201.256919432
201.269136071
201.713007307
201.273208284
201.733368373
201.733368373
200.808975983
201.252847219
201.273208284
202.124300838
201.289497137
201.30578599
201.696718454
201.375013614
201.71707952
201.273208284
201.71707952
201.252847219
201.786307144
201.256919432
201.252847219

Average distance is : 201.253 cm
Average deviation is : 0.375 cm
Block: 2
======================================
202.177239609
201.700790668
201.199908447
201.358724761
200.813048196
201.713007307
201.30578599
201.358724761
201.30578599
201.30578599
200.845625901
201.322074842
201.30578599
201.322074842
201.370941401
201.338363695
201.30578599
201.594913125
201.342435908
201.30578599
201.326147056
201.322074842
201.322074842
201.765946078
201.782234931
201.786307144
201.770018291
201.802595997
201.782234931
201.326147056
201.322074842
201.322074842
201.749657226
201.782234931
201.30578599
201.338363695
201.765946078
201.326147056
201.30578599
201.322074842
201.322074842
200.861914754
201.326147056
201.30578599
200.878203607
201.322074842
201.30578599
201.322074842
200.711242867
201.256919432

Average distance is : 201.389 cm
Average deviation is : 0.287 cm
Block: 3
======================================
200.79268713
200.829337049
201.370941401
200.931142378
201.391302466
200.861914754
201.322074842
200.898564672
201.81888485
201.391302466
201.375013614
200.914853525
200.931142378
200.931142378
200.914853525
200.914853525
200.931142378
200.980008936
201.338363695
200.898564672
201.338363695
201.322074842
200.845625901
200.910781312
200.861914754
201.326147056
201.765946078
201.770018291
201.30578599
201.285424924
201.342435908
201.81888485
201.81888485
201.354652548
201.423880172
201.798523784
201.770018291
201.322074842
202.226106167
201.342435908
201.786307144
201.802595997
201.358724761
202.258683872
202.258683872
201.358724761
202.262756085
201.81888485
200.927070165
202.24239502

Average distance is : 201.375 cm
Average deviation is : 0.441 cm
Block: 4
======================================
201.668212962
201.20398066
200.739748359
201.167330742
201.631563044
201.187691808
200.776398277
201.273208284
201.647851896
200.776398277
201.289497137
201.647851896
200.845625901
201.289497137
200.776398277
201.236558366
201.700790668
201.236558366
201.220269513
200.756037211
201.236558366
201.20398066
201.240630579
201.696718454
200.829337049
200.829337049
201.273208284
200.845625901
200.825264835
201.285424924
201.289497137
201.391302466
201.338363695
201.342435908
201.322074842
201.782234931
201.342435908
201.749657226
201.765946078
201.30578599
201.358724761
201.252847219
201.289497137
201.273208284
202.160950756
201.358724761
201.338363695
201.256919432
201.30578599
201.224341726

Average distance is : 201.276 cm
Average deviation is : 0.313 cm
Block: 5
======================================
201.598985338
201.220269513
201.611201978
201.187691808
200.743820572
201.187691808
200.727531719
201.183619595
200.743820572
200.727531719
200.743820572
200.707170653
200.723459506
200.727531719
200.727531719
200.707170653
200.727531719
200.743820572
201.171402955
200.723459506
201.167330742
201.151041889
201.171402955
200.756037211
200.743820572
200.723459506
200.739748359
200.739748359
200.739748359
200.739748359
200.739748359
200.739748359
200.79268713
200.79268713
201.594913125
201.611201978
200.674592948
201.134753036
200.690881801
201.151041889
201.134753036
201.13882525
201.134753036
201.134753036
200.658304095
201.151041889
201.236558366
201.240630579
201.256919432
200.743820572

Average distance is : 200.961 cm
Average deviation is : 0.286 cm
Block: 6
======================================
201.782234931
200.910781312
200.898564672
201.30578599
201.256919432
200.910781312
201.30578599
201.322074842
201.30578599
202.193528461
200.861914754
201.30578599
200.845625901
201.322074842
201.72929616
201.71707952
200.829337049
201.696718454
201.240630579
200.776398277
200.813048196
200.743820572
200.743820572
200.727531719
200.723459506
201.20398066
200.760109425
201.187691808
200.845625901
200.808975983
200.861914754
201.427952385
201.358724761
201.782234931
201.30578599
200.910781312
201.835173702
201.370941401
201.786307144
201.358724761
200.931142378
201.000370002
200.931142378
201.354652548
201.000370002
200.947431231
200.996297789
200.996297789
201.851462555
200.947431231

Average distance is : 201.181 cm
Average deviation is : 0.372 cm
Block: 7
======================================
201.370941401
200.910781312
201.375013614
201.354652548
201.391302466
201.81888485
201.016658854
201.016658854
200.947431231
201.855534768
200.984081149
200.947431231
200.947431231
200.996297789
200.931142378
201.835173702
201.46053009
201.46053009
200.947431231
200.984081149
201.835173702
201.835173702
200.947431231
201.46053009
200.967792296
201.000370002
201.000370002
201.375013614
201.391302466
201.81888485
201.375013614
201.81888485
201.000370002
201.000370002
201.016658854
200.996297789
200.996297789
200.996297789
201.81888485
201.423880172
201.81888485
201.814812636
200.996297789
200.894492459
200.894492459
200.910781312
201.798523784
200.967792296
201.358724761
201.782234931

Average distance is : 201.277 cm
Average deviation is : 0.357 cm
Block: 8
======================================
200.88227582
200.861914754
201.391302466
201.407591319
201.733368373
200.861914754
200.861914754
200.861914754
200.861914754
201.30578599
201.322074842
201.322074842
200.861914754
201.338363695
201.322074842
201.322074842
200.88227582
200.861914754
201.322074842
200.861914754
200.861914754
201.375013614
200.878203607
200.841553688
201.30578599
201.289497137
201.289497137
201.285424924
201.30578599
201.273208284
201.30578599
201.326147056
202.177239609
200.861914754
201.30578599
200.829337049
201.72929616
201.71707952
201.733368373
201.749657226
201.289497137
201.252847219
201.252847219
201.72929616
201.733368373
201.733368373
201.802595997
201.71707952
201.273208284
201.273208284

Average distance is : 201.279 cm
Average deviation is : 0.338 cm
Block: 9
======================================
200.845625901
201.749657226
200.878203607
201.289497137
201.289497137
200.829337049
200.829337049
200.776398277
200.808975983
200.808975983
200.813048196
200.845625901
200.79268713
201.236558366
200.79268713
200.825264835
201.20398066
201.20398066
200.723459506
200.727531719
200.727531719
200.658304095
201.102175331
200.637943029
201.102175331
200.690881801
201.04923656
201.04923656
201.032947707
200.572787619
200.589076471
200.572787619
200.572787619
201.028875494
201.032947707
200.552426553
201.032947707
200.556498766
200.621654177
201.440169024
201.000370002
200.637943029
201.000370002
200.963720083
200.540209913
200.5361377
200.963720083
200.963720083
200.483198929
200.503559995

Average distance is : 200.870 cm
Average deviation is : 0.269 cm
Block: 10
======================================
200.3813936
201.30578599
200.454693437
200.487271142
200.466910076
200.397682452
200.401754665
200.914853525
200.418043518
200.894492459
201.273208284
200.914853525
200.397682452
200.894492459
200.36917696
200.365104747
200.348815894
200.845625901
200.36917696
200.894492459
200.845625901
200.36917696
200.36917696
200.401754665
200.829337049
200.878203607
200.829337049
200.401754665
201.256919432
200.385465813
200.365104747
200.418043518
200.418043518
200.401754665
200.776398277
200.312165976
200.316238189
201.224341726
200.79268713
200.760109425
200.299949336
200.316238189
200.385465813
200.332527041
200.723459506
201.167330742
200.295877123
200.808975983
200.739748359
200.365104747

Average distance is : 200.612 cm
Average deviation is : 0.303 cm
Block: 1
======================================
200.690881801
201.220269513
200.825264835
200.756037211
200.723459506
200.760109425
200.760109425
200.760109425
200.760109425
200.365104747
200.401754665
200.756037211
200.739748359
201.240630579
200.760109425
200.776398277
200.760109425
201.20398066
200.760109425
200.295877123
200.760109425
201.220269513
200.760109425
200.743820572
200.283660483
200.283660483
200.760109425
200.743820572
200.743820572
200.743820572
200.756037211
200.295877123
200.27958827
200.756037211
200.295877123
200.739748359
200.739748359
200.295877123
200.79268713
200.316238189
200.316238189
200.283660483
200.299949336
200.299949336
200.299949336
200.316238189
200.27958827
200.808975983
200.295877123
200.776398277

Average distance is : 200.632 cm
Average deviation is : 0.278 cm
Block: 2
======================================
200.760109425
200.295877123
200.299949336
200.796759343
200.385465813
200.299949336
200.283660483
200.299949336
200.760109425
200.760109425
201.20398066
201.220269513
200.743820572
200.756037211
200.760109425
200.760109425
200.727531719
200.776398277
200.776398277
201.20398066
200.316238189
201.20398066
201.20398066
200.316238189
200.299949336
200.299949336
200.299949336
200.776398277
200.739748359
200.316238189
200.743820572
200.295877123
200.295877123
200.295877123
200.299949336
200.267371631
200.27958827
200.27958827
200.316238189
200.299949336
200.316238189
200.316238189
200.796759343
200.299949336
200.312165976
201.20398066
200.760109425
200.283660483
200.299949336
200.299949336

Average distance is : 200.558 cm
Average deviation is : 0.321 cm
Block: 3
======================================
200.760109425
200.263299417
200.739748359
200.760109425
200.760109425
200.316238189
200.295877123
200.348815894
201.171402955
201.187691808
201.20398066
201.183619595
201.183619595
201.167330742
201.20398066
200.813048196
201.20398066
200.316238189
200.316238189
201.167330742
201.187691808
201.187691808
200.756037211
201.183619595
201.20398066
201.171402955
201.171402955
201.167330742
200.312165976
201.20398066
200.299949336
200.299949336
200.743820572
200.760109425
201.187691808
201.183619595
201.167330742
201.183619595
201.236558366
201.187691808
201.187691808
201.183619595
201.187691808
201.151041889
201.167330742
201.167330742
200.295877123
201.183619595
201.187691808
200.295877123

Average distance is : 200.923 cm
Average deviation is : 0.365 cm
Block: 4
======================================
200.299949336
200.299949336
200.27958827
200.760109425
200.776398277
200.723459506
200.808975983
201.171402955
201.171402955
201.171402955
201.187691808
200.299949336
200.316238189
201.171402955
201.187691808
200.27958827
200.760109425
200.723459506
201.151041889
201.167330742
201.167330742
200.707170653
200.707170653
200.711242867
200.263299417
201.187691808
201.167330742
201.183619595
200.760109425
200.723459506
200.723459506
200.723459506
200.79268713
201.167330742
201.167330742
201.167330742
201.167330742
201.167330742
200.299949336
201.171402955
201.187691808
200.813048196
201.167330742
201.167330742
201.167330742
201.171402955
200.727531719
200.727531719
201.187691808
200.299949336

Average distance is : 200.869 cm
Average deviation is : 0.334 cm
Block: 5
======================================
200.813048196
200.263299417
200.263299417
200.756037211
200.27958827
200.723459506
200.27958827
200.739748359
200.723459506
200.723459506
200.707170653
201.187691808
200.727531719
200.316238189
200.743820572
200.707170653
200.723459506
200.723459506
200.707170653
200.727531719
200.727531719
200.707170653
200.263299417
200.263299417
200.723459506
200.552426553
200.723459506
200.739748359
200.707170653
200.263299417
200.263299417
200.723459506
200.723459506
200.263299417
200.707170653
200.707170653
201.183619595
200.27958827
200.743820572
200.727531719
200.727531719
200.247010565
200.743820572
200.727531719
200.723459506
200.727531719
200.727531719
200.711242867
200.727531719
200.711242867

Average distance is : 200.632 cm
Average deviation is : 0.227 cm
Block: 6
======================================
200.707170653
200.760109425
200.723459506
200.727531719
200.299949336
201.171402955
200.707170653
200.727531719
200.348815894
201.20398066
201.183619595
200.348815894
200.332527041
200.707170653
200.283660483
200.283660483
200.348815894
200.825264835
201.187691808
201.171402955
201.171402955
201.20398066
200.727531719
200.727531719
200.727531719
200.727531719
200.743820572
200.727531719
201.20398066
201.187691808
200.247010565
200.263299417
200.743820572
200.267371631
200.27958827
200.263299417
200.247010565
200.723459506
200.707170653
201.167330742
200.711242867
201.187691808
200.723459506
200.690881801
200.723459506
200.263299417
200.263299417
200.263299417
200.723459506
200.263299417

Average distance is : 200.678 cm
Average deviation is : 0.336 cm
Block: 7
======================================
200.263299417
200.295877123
200.299949336
200.283660483
200.36917696
200.727531719
200.283660483
201.167330742
200.263299417
200.247010565
200.743820572
200.263299417
200.263299417
200.267371631
200.263299417
200.263299417
201.187691808
200.707170653
200.723459506
200.723459506
200.267371631
200.707170653
200.727531719
200.723459506
200.247010565
200.723459506
200.263299417
200.743820572
200.707170653
200.27958827
200.27958827
200.727531719
200.263299417
200.707170653
200.723459506
200.739748359
200.723459506
200.723459506
200.723459506
200.283660483
200.723459506
200.263299417
201.171402955
200.727531719
200.711242867
200.707170653
200.263299417
201.187691808
200.707170653
200.727531719

Average distance is : 200.562 cm
Average deviation is : 0.285 cm
Block: 8
======================================
200.760109425
200.316238189
201.187691808
201.171402955
200.27958827
200.723459506
200.263299417
200.723459506
200.263299417
200.743820572
201.167330742
201.183619595
200.348815894
201.187691808
200.723459506
200.263299417
200.263299417
200.707170653
200.263299417
200.723459506
200.723459506
200.723459506
200.723459506
200.263299417
200.739748359
200.27958827
200.723459506
200.776398277
200.230721712
200.723459506
200.723459506
200.263299417
200.263299417
200.707170653
200.247010565
200.263299417
200.263299417
200.727531719
200.723459506
200.707170653
200.247010565
200.263299417
200.27958827
200.263299417
200.707170653
200.247010565
200.727531719
200.36917696
200.727531719
200.727531719

Average distance is : 200.572 cm
Average deviation is : 0.299 cm
Block: 9
======================================
200.739748359
200.760109425
200.299949336
200.283660483
200.776398277
200.727531719
200.267371631
201.187691808
200.79268713
200.27958827
200.283660483
200.723459506
200.727531719
201.187691808
200.263299417
200.263299417
201.167330742
201.20398066
200.723459506
200.727531719
201.167330742
201.187691808
200.707170653
200.711242867
201.167330742
201.187691808
200.263299417
201.187691808
200.332527041
201.151041889
201.171402955
200.727531719
200.707170653
200.707170653
200.707170653
200.723459506
200.263299417
200.707170653
200.723459506
200.263299417
200.727531719
201.171402955
201.187691808
200.723459506
200.727531719
201.155114102
200.707170653
201.171402955
200.727531719
201.187691808

Average distance is : 200.773 cm
Average deviation is : 0.331 cm
Block: 10
======================================
200.707170653
200.263299417
200.312165976
200.332527041
200.299949336
201.167330742
200.27958827
200.283660483
201.171402955
201.187691808
200.707170653
201.187691808
201.187691808
200.727531719
201.183619595
200.263299417
200.723459506
200.352888107
200.711242867
200.79268713
201.171402955
200.283660483
200.707170653
201.187691808
200.723459506
201.167330742
200.295877123
201.183619595
201.167330742
201.167330742
201.187691808
200.707170653
200.723459506
200.813048196
200.348815894
201.167330742
201.187691808
200.808975983
201.187691808
200.299949336
200.707170653
200.707170653
201.183619595
201.167330742
200.723459506
201.151041889
200.352888107
200.707170653
200.247010565
201.171402955

Average distance is : 200.789 cm
Average deviation is : 0.362 cm