wait time: 5.0 ms trigger time: 10.0 micros reps: 5,,,,
Distance, Deviation,,,
401.054,0.601,,,
400.297,0.707,,,
400.467,0.399,,,
400.366,0.578,,,
400.519,0.563,,,
400.657,0.478,,,
400.843,0.221,,,
401.085,0.364,,,
400.816,0.485,,,
400.647,0.716,,,
wait time: 5.0 ms trigger time: 10.0 micros reps: 10,,,,
Distance, Deviation,,,
400.822,0.298,,,
401.28,0.58,,,
400.96,0.416,,,
401.037,0.576,,,
400.969,0.301,,,
400.907,0.445,,,
401.141,0.365,,,
401.52,0.71,,,
400.961,0.506,,,
401.296,0.452,,,
wait time: 5.0 ms trigger time: 10.0 micros reps: 25,,,,
Distance, Deviation,,,
401.505,0.934,,,
401.004,0.46,,,
400.993,0.433,,,
401.126,0.696,,,
400.851,0.836,,,
400.579,0.884,,,
400.551,0.702,,,
400.515,0.764,,,
400.735,0.542,,,
400.655,0.906,,,
wait time: 5.0 ms trigger time: 10.0 micros reps: 50,,,,
Distance, Deviation,,,
401.443,1.063,,,
401.42,0.6,,,
401.355,0.587,,,
400.787,0.628,,,
448.382,340.769,,,
400.224,0.507,,,
401.46,0.982,,,
400.968,0.685,,,
401.075,0.573,,,
401.319,0.642,,,
wait time: 5.0 ms trigger time: 10.0 micros reps: 75,,,,
Distance, Deviation,,,
401.069,0.599,,,
401.331,0.722,,,
401.229,0.615,,,
401.013,0.56,,,
401.179,0.609,,,
401.054,0.537,,,
400.748,0.54,,,
400.657,0.582,,,
401.067,0.636,,,
401.306,0.532,,,
wait time: 5.0 ms trigger time: 10.0 micros reps: 100,,,,
Distance, Deviation,,,
401.21,0.564,,,
400.955,0.748,,,
401.651,0.74,,,
401.388,0.51,,,
401.591,0.726,,,
401.426,0.72,,,
400.954,0.509,,,
401.438,0.63,,,
401.317,0.596,,,
401.179,0.683,,,
wait time: 10.0 ms trigger time: 10.0 micros reps: 5,,,,
Distance, Deviation,,,
401.29,0.439,,,
401.96,0.581,,,
401.925,0.82,,,
401.484,0.375,,,
401.849,0.389,,,
401.178,0.594,,,
401.543,1.201,,,
400.58,0.383,,,
400.796,0.647,,,
401.422,0.557,,,
wait time: 10.0 ms trigger time: 10.0 micros reps: 10,,,,
Distance, Deviation,,,
401.537,0.515,,,
402.089,0.685,,,
401.686,0.753,,,
401.304,0.294,,,
401.935,0.71,,,
400.891,0.628,,,
401.392,0.58,,,
401.794,0.52,,,
401.647,0.669,,,
401.435,0.751,,,
wait time: 10.0 ms trigger time: 10.0 micros reps: 25,,,,
Distance, Deviation,,,
401.537,0.689,,,
401.517,0.432,,,
401.254,0.703,,,
401.499,0.598,,,
401.183,0.56,,,
401.732,0.79,,,
401.855,0.772,,,
401.801,0.594,,,
401.331,0.475,,,
401.041,0.533,,,
wait time: 10.0 ms trigger time: 10.0 micros reps: 50,,,,
Distance, Deviation,,,
401.016,0.623,,,
401.722,0.732,,,
401.766,0.567,,,
401.931,0.738,,,
401.745,0.744,,,
401.43,0.473,,,
401.343,0.612,,,
401.737,0.552,,,
401.883,0.577,,,
402.303,0.577,,,
wait time: 10.0 ms trigger time: 10.0 micros reps: 75,,,,
Distance, Deviation,,,
402.438,0.791,,,
401.813,0.729,,,
401.958,0.993,,,
433.45,275.59,,,
402.631,1.266,,,
402.295,0.799,,,
401.637,0.74,,,
402.233,0.971,,,
401.144,0.628,,,
401.454,0.519,,,
wait time: 10.0 ms trigger time: 10.0 micros reps: 100,,,,
Distance, Deviation,,,
401.687,0.787,,,
401.105,0.873,,,
401.721,0.845,,,
401.641,0.804,,,
593.072,653.692,,,
401.777,0.688,,,
401.522,0.745,,,
401.67,0.749,,,
401.854,0.707,,,
401.944,0.823,,,
wait time: 15.0 ms trigger time: 10.0 micros reps: 5,,,,
Distance, Deviation,,,
401.117,0.718,,,
401.125,0.89,,,
400.784,0.398,,,
401.319,0.801,,,
401.17,0.262,,,
402.367,0.509,,,
401.61,0.652,,,
401.769,0.306,,,
401.234,0.371,,,
401.763,0.752,,,
wait time: 15.0 ms trigger time: 10.0 micros reps: 10,,,,
Distance, Deviation,,,
402.02,0.917,,,
401.873,0.345,,,
402.111,0.417,,,
401.169,0.314,,,
400.829,0.225,,,
400.816,0.344,,,
401.227,0.427,,,
401.655,0.842,,,
400.841,0.506,,,
400.705,0.645,,,
wait time: 15.0 ms trigger time: 10.0 micros reps: 25,,,,
Distance, Deviation,,,
400.8,0.629,,,
401.383,0.571,,,
401.332,0.586,,,
402.12,0.766,,,
401.501,0.581,,,
401.584,0.512,,,
401.573,0.517,,,
401.379,0.619,,,
402.071,0.849,,,
401.661,0.798,,,
wait time: 15.0 ms trigger time: 10.0 micros reps: 50,,,,
Distance, Deviation,,,
401.646,0.7,,,
401.385,0.533,,,
401.882,0.566,,,
401.396,0.488,,,
401.399,0.57,,,
402.057,0.579,,,
401.801,0.632,,,
400.946,0.487,,,
401.881,0.597,,,
402.092,0.85,,,
wait time: 15.0 ms trigger time: 10.0 micros reps: 75,,,,
Distance, Deviation,,,
401.378,0.573,,,
401.692,0.801,,,
401.773,0.492,,,
401.662,0.604,,,
401.135,0.51,,,
401.578,0.617,,,
401.003,0.531,,,
401.378,0.648,,,
401.332,0.696,,,
401.327,0.603,,,
wait time: 15.0 ms trigger time: 10.0 micros reps: 100,,,,
Distance, Deviation,,,
401.875,0.655,,,
401.947,0.668,,,
401.981,0.686,,,
401.734,0.669,,,
402.193,0.586,,,
402.289,0.712,,,
401.733,0.542,,,
401.412,0.621,,,
402.043,0.799,,,
402.535,0.866,,,
wait time: 20.0 ms trigger time: 10.0 micros reps: 5,,,,
Distance, Deviation,,,
402.382,1.039,,,
401.364,0.293,,,
401.534,0.842,,,
401.377,0.538,,,
401.661,0.246,,,
401.038,0.194,,,
401.319,0.647,,,
401.055,0.351,,,
401.818,0.703,,,
402.732,0.482,,,
wait time: 20.0 ms trigger time: 10.0 micros reps: 10,,,,
Distance, Deviation,,,
402.364,0.796,,,
401.773,0.73,,,
402.083,0.773,,,
401.898,0.408,,,
402.619,0.582,,,
401.922,0.584,,,
402.001,0.709,,,
402.551,0.896,,,
402.148,0.352,,,
402.023,0.567,,,
wait time: 20.0 ms trigger time: 10.0 micros reps: 25,,,,
Distance, Deviation,,,
402.158,0.646,,,
402.643,0.901,,,
401.615,0.732,,,
401.405,0.488,,,
401.284,0.479,,,
401.511,0.866,,,
401.989,0.695,,,
401.485,0.404,,,
401.049,0.485,,,
401.216,0.513,,,
wait time: 20.0 ms trigger time: 10.0 micros reps: 50,,,,
Distance, Deviation,,,
401.825,0.78,,,
545.309,574.646,,,
401.841,0.716,,,
401.368,0.637,,,
401.64,0.601,,,
401.901,0.697,,,
401.335,0.56,,,
401.739,0.594,,,
401.517,0.559,,,
402.226,0.797,,,
wait time: 20.0 ms trigger time: 10.0 micros reps: 75,,,,
Distance, Deviation,,,
401.762,0.556,,,
402.191,1.011,,,
402.742,0.964,,,
402.139,0.917,,,
401.99,0.938,,,
401.579,0.596,,,
401.297,0.628,,,
401.306,0.702,,,
401.76,0.595,,,
401.599,0.596,,,
wait time: 20.0 ms trigger time: 10.0 micros reps: 100,,,,
Distance, Deviation,,,
401.395,0.722,,,
401.538,0.594,,,
402.18,0.744,,,
401.844,1.044,,,
449.608,336.411,,,
449.64,336.703,,,
401.685,0.811,,,
401.809,0.659,,,
425.312,238.325,,,
401.607,0.679,,,
wait time: 5.0 ms trigger time: 15.0 micros reps: 5,,,,
Distance, Deviation,,,
401.547,0.668,,,
401.611,0.205,,,
401.158,0.369,,,
401.615,1.076,,,
402.226,0.366,,,
401.536,0.375,,,
402.271,0.707,,,
879.645,1067.954,,,
402.577,1.075,,,
400.927,0.319,,,
wait time: 5.0 ms trigger time: 15.0 micros reps: 10,,,,
Distance, Deviation,,,
401.12,0.437,,,
401.363,0.444,,,
401.482,0.374,,,
401.378,0.456,,,
401.92,0.995,,,
401.961,0.655,,,
401.662,0.734,,,
401.713,0.735,,,
401.995,0.541,,,
402.388,1.076,,,
wait time: 5.0 ms trigger time: 15.0 micros reps: 25,,,,
Distance, Deviation,,,
402.081,0.594,,,
401.961,0.723,,,
401.259,0.499,,,
401.803,0.437,,,
401.305,0.877,,,
401.323,0.753,,,
691.962,796.707,,,
787.461,894.048,,,
402.289,0.701,,,
402.077,0.613,,,
wait time: 5.0 ms trigger time: 15.0 micros reps: 50,,,,
Distance, Deviation,,,
401.99,0.691,,,
401.472,0.541,,,
449.51,336.854,,,
401.857,0.417,,,
402.549,0.795,,,
401.961,0.56,,,
401.425,0.633,,,
402.204,0.828,,,
401.693,0.911,,,
593.306,657.316,,,
wait time: 5.0 ms trigger time: 15.0 micros reps: 75,,,,
Distance, Deviation,,,
401.851,0.751,,,
465.282,385.581,,,
560.143,601.839,,,
433.592,276.763,,,
401.901,0.603,,,
402.199,0.602,,,
435.022,274.756,,,
401.682,0.614,,,
401.296,0.62,,,
401.732,0.621,,,
wait time: 5.0 ms trigger time: 15.0 micros reps: 100,,,,
Distance, Deviation,,,
401.081,0.673,,,
473.363,409.623,,,
401.561,0.598,,,
401.815,0.72,,,
401.921,0.761,,,
401.881,0.689,,,
401.426,1.005,,,
642.361,720.519,,,
402.297,0.968,,,
402.024,0.734,,,
wait time: 10.0 ms trigger time: 15.0 micros reps: 5,,,,
Distance, Deviation,,,
401.257,0.568,,,
401.03,0.37,,,
401.021,0.194,,,
401.361,0.433,,,
401.763,0.545,,,
401.593,0.231,,,
401.59,0.498,,,
401.338,0.437,,,
401.408,0.368,,,
401.583,0.504,,,
wait time: 10.0 ms trigger time: 15.0 micros reps: 10,,,,
Distance, Deviation,,,
401.159,0.308,,,
401.382,0.427,,,
401.495,0.819,,,
401.292,0.258,,,
401.517,0.553,,,
401.515,0.771,,,
401.246,0.589,,,
403.338,6.186,,,
401.391,0.373,,,
401.754,0.519,,,
wait time: 10.0 ms trigger time: 15.0 micros reps: 25,,,,
Distance, Deviation,,,
402.054,0.691,,,
401.957,0.651,,,
401.612,0.715,,,
496.146,476.044,,,
400.701,0.802,,,
595.47,666.258,,,
402.038,0.646,,,
401.82,0.584,,,
401.458,0.714,,,
400.513,0.485,,,
wait time: 10.0 ms trigger time: 15.0 micros reps: 50,,,,
Distance, Deviation,,,
400.551,0.662,,,
401.303,0.686,,,
401.865,0.601,,,
401.843,0.622,,,
402.65,1.026,,,
402.524,0.758,,,
401.971,0.592,,,
401.461,0.673,,,
401.663,0.635,,,
401.558,0.605,,,
wait time: 10.0 ms trigger time: 15.0 micros reps: 75,,,,
Distance, Deviation,,,
401.51,0.597,,,
401.838,0.653,,,
401.424,0.655,,,
401.78,0.499,,,
401.636,0.565,,,
401.618,0.651,,,
401.136,0.435,,,
401.394,0.605,,,
401.495,0.562,,,
402.137,0.76,,,
wait time: 10.0 ms trigger time: 15.0 micros reps: 100,,,,
Distance, Deviation,,,
401.996,0.667,,,
401.613,0.627,,,
401.373,0.794,,,
401.777,1.173,,,
401.54,0.495,,,
402.417,0.929,,,
449.927,334.807,,,
401.281,0.606,,,
401.592,0.521,,,
402.236,0.984,,,
wait time: 15.0 ms trigger time: 15.0 micros reps: 5,,,,
Distance, Deviation,,,
401.907,0.579,,,
402.275,0.527,,,
402.173,0.637,,,
401.636,0.387,,,
401.538,0.379,,,
401.596,0.597,,,
401.492,0.493,,,
401.838,0.477,,,
402.251,1.196,,,
402.434,1.113,,,
wait time: 15.0 ms trigger time: 15.0 micros reps: 10,,,,
Distance, Deviation,,,
401.161,0.364,,,
402.052,0.713,,,
402.918,0.494,,,
402.682,1.247,,,
402.307,0.509,,,
403.036,0.881,,,
401.173,0.591,,,
401.587,0.82,,,
401.269,0.685,,,
400.787,0.305,,,
wait time: 15.0 ms trigger time: 15.0 micros reps: 25,,,,
Distance, Deviation,,,
401.878,0.618,,,
401.33,0.333,,,
401.225,0.64,,,
401.465,0.664,,,
401.436,0.623,,,
401.54,0.586,,,
401.815,0.507,,,
401.318,0.663,,,
401.802,0.426,,,
401.945,0.821,,,
wait time: 15.0 ms trigger time: 15.0 micros reps: 50,,,,
Distance, Deviation,,,
401.771,0.567,,,
402.017,0.644,,,
401.348,0.374,,,
401.325,0.565,,,
401.606,0.638,,,
401.613,0.669,,,
401.476,0.468,,,
401.169,0.482,,,
401.719,0.634,,,
401.603,0.605,,,
wait time: 15.0 ms trigger time: 15.0 micros reps: 75,,,,
Distance, Deviation,,,
401.532,0.588,,,
401.48,0.534,,,
401.519,0.724,,,
401.162,0.559,,,
401.505,0.616,,,
402.146,0.73,,,
401.864,0.689,,,
401.679,0.638,,,
402.08,0.672,,,
401.945,0.702,,,
wait time: 15.0 ms trigger time: 15.0 micros reps: 100,,,,
Distance, Deviation,,,
401.624,0.553,,,
401.316,0.578,,,
401.422,0.701,,,
401.885,0.814,,,
402.061,0.661,,,
401.758,0.653,,,
401.791,0.737,,,
401.561,0.638,,,
401.327,0.469,,,
401.9,0.746,,,
wait time: 20.0 ms trigger time: 15.0 micros reps: 5,,,,
Distance, Deviation,,,
401.078,0.241,,,
401.879,0.207,,,
402.154,0.886,,,
401.739,0.84,,,
401.112,0.663,,,
401.353,0.454,,,
401.336,0.306,,,
401.488,0.406,,,
401.831,0.382,,,
403.859,2.534,,,
wait time: 20.0 ms trigger time: 15.0 micros reps: 10,,,,
Distance, Deviation,,,
401.624,0.896,,,
402.486,0.822,,,
401.997,0.59,,,
401.692,0.761,,,
402.01,0.929,,,
401.99,0.76,,,
401.785,0.469,,,
401.617,0.651,,,
401.097,0.219,,,
401.79,0.767,,,
wait time: 20.0 ms trigger time: 15.0 micros reps: 25,,,,
Distance, Deviation,,,
401.261,0.583,,,
401.109,0.358,,,
401.32,0.491,,,
401.09,0.628,,,
401.127,0.594,,,
401.583,0.586,,,
689.104,791.732,,,
401.914,0.51,,,
401.14,0.418,,,
401.637,0.602,,,
wait time: 20.0 ms trigger time: 15.0 micros reps: 50,,,,
Distance, Deviation,,,
401.988,0.684,,,
689.508,784.6,,,
402.818,1.346,,,
402.153,1.517,,,
402.4,0.764,,,
401.657,0.598,,,
401.312,0.627,,,
402.102,0.696,,,
401.591,0.605,,,
401.022,0.421,,,
wait time: 20.0 ms trigger time: 15.0 micros reps: 75,,,,
Distance, Deviation,,,
400.733,0.592,,,
400.707,0.536,,,
400.446,0.453,,,
400.449,0.516,,,
400.478,0.574,,,
401.033,0.526,,,
400.771,0.585,,,
400.384,0.501,,,
400.185,0.524,,,
400.18,0.481,,,
wait time: 20.0 ms trigger time: 15.0 micros reps: 100,,,,
Distance, Deviation,,,
400.735,0.618,,,
401.124,0.637,,,
400.715,0.764,,,
496.014,470.05,,,
401.779,1.089,,,
401.313,0.734,,,
472.855,411.342,,,
401.734,0.658,,,
425.728,237.881,,,
401.32,0.61,,,
wait time: 5.0 ms trigger time: 20.0 micros reps: 5,,,,
Distance, Deviation,,,
400.943,0.242,,,
401.792,0.714,,,
401.167,0.596,,,
401.261,0.477,,,
401.196,0.449,,,
400.502,0.248,,,
401.638,0.442,,,
401.912,0.515,,,
401.56,0.828,,,
401.214,0.306,,,
wait time: 5.0 ms trigger time: 20.0 micros reps: 10,,,,
Distance, Deviation,,,
400.906,0.553,,,
400.816,0.38,,,
400.422,0.347,,,
400.395,0.258,,,
400.619,0.841,,,
400.674,0.42,,,
640.539,752.645,,,
402.203,0.745,,,
400.897,0.336,,,
401.37,0.584,,,
wait time: 5.0 ms trigger time: 20.0 micros reps: 25,,,,
Distance, Deviation,,,
401.417,0.501,,,
401.62,0.65,,,
401.467,0.483,,,
401.496,0.635,,,
401.105,0.51,,,
401.509,0.631,,,
401.621,0.625,,,
401.766,0.785,,,
497.464,477.777,,,
497.524,477.402,,,
wait time: 5.0 ms trigger time: 20.0 micros reps: 50,,,,
Distance, Deviation,,,
401.853,0.652,,,
402.616,0.864,,,
401.942,0.532,,,
497.629,476.099,,,
497.432,474.108,,,
402.16,1.016,,,
737.416,839.357,,,
402.376,1.122,,,
401.977,0.869,,,
401.601,0.766,,,
wait time: 5.0 ms trigger time: 20.0 micros reps: 75,,,,
Distance, Deviation,,,
402.099,0.841,,,
401.465,0.992,,,
690.318,782.584,,,
402.47,0.867,,,
403.164,0.984,,,
402.29,0.858,,,
401.651,0.587,,,
401.482,0.676,,,
400.772,0.644,,,
401.586,0.695,,,
wait time: 5.0 ms trigger time: 20.0 micros reps: 100,,,,
Distance, Deviation,,,
401.43,0.631,,,
400.585,0.686,,,
449.444,335.995,,,
401.538,0.766,,,
402.253,1.057,,,
427.072,238.575,,,
401.791,0.68,,,
738.486,834.11,,,
448.877,337.312,,,
401.002,0.791,,,
wait time: 10.0 ms trigger time: 20.0 micros reps: 5,,,,
Distance, Deviation,,,
401.023,0.383,,,
401.354,0.359,,,
401.446,0.244,,,
401.678,0.436,,,
401.289,0.379,,,
401.499,0.907,,,
401.678,0.525,,,
401.585,0.485,,,
401.333,0.354,,,
881.45,1070.417,,,
wait time: 10.0 ms trigger time: 20.0 micros reps: 10,,,,
Distance, Deviation,,,
401.877,1.213,,,
401.714,0.461,,,
401.718,1.074,,,
402.078,0.899,,,
401.478,0.465,,,
401.919,0.684,,,
401.879,0.424,,,
401.881,0.795,,,
402.057,0.784,,,
402.446,0.866,,,
wait time: 10.0 ms trigger time: 20.0 micros reps: 25,,,,
Distance, Deviation,,,
401.661,0.53,,,
401.597,0.561,,,
401.759,0.574,,,
401.425,0.656,,,
400.938,0.711,,,
401.052,0.776,,,
401.664,0.649,,,
401.069,0.286,,,
401.279,0.702,,,
498.706,477.378,,,
wait time: 10.0 ms trigger time: 20.0 micros reps: 50,,,,
Distance, Deviation,,,
497.764,471.326,,,
591.944,654.249,,,
497.274,474.812,,,
401.631,0.926,,,
401.404,1.07,,,
401.575,0.821,,,
593.703,654.675,,,
496.497,472.047,,,
785.104,886.912,,,
497.274,473.252,,,
wait time: 10.0 ms trigger time: 20.0 micros reps: 75,,,,
Distance, Deviation,,,
401.473,0.788,,,
432.63,276.597,,,
401.792,0.717,,,
401.729,0.737,,,
401.68,0.683,,,
402.254,0.839,,,
401.937,0.6,,,
401.056,0.481,,,
401.224,0.627,,,
402.311,1.161,,,
wait time: 10.0 ms trigger time: 20.0 micros reps: 100,,,,
Distance, Deviation,,,
569.876,611.29,,,
401.84,0.934,,,
402.061,0.806,,,
568.987,613.904,,,
401.323,0.656,,,
401.272,0.573,,,
402.086,0.701,,,
402.08,0.754,,,
401.734,0.538,,,
401.438,0.596,,,
wait time: 15.0 ms trigger time: 20.0 micros reps: 5,,,,
Distance, Deviation,,,
402.513,1.108,,,
401.628,0.569,,,
401.59,1.288,,,
400.895,0.716,,,
400.994,0.72,,,
878.193,1066.482,,,
400.838,0.433,,,
881.219,1069.332,,,
402.527,1.207,,,
401.597,0.359,,,
wait time: 15.0 ms trigger time: 20.0 micros reps: 10,,,,
Distance, Deviation,,,
401.615,0.866,,,
401.988,1.004,,,
401.531,0.876,,,
401.553,0.726,,,
401.56,0.379,,,
401.541,0.424,,,
401.671,0.902,,,
401.174,0.715,,,
401.022,0.562,,,
401.008,0.371,,,
wait time: 15.0 ms trigger time: 20.0 micros reps: 25,,,,
Distance, Deviation,,,
401.619,0.537,,,
401.664,0.718,,,
402.16,0.592,,,
401.978,0.591,,,
402.103,0.748,,,
1071.787,1096.087,,,
402.524,1.566,,,
402.197,0.797,,,
401.504,0.596,,,
401.497,0.533,,,
wait time: 15.0 ms trigger time: 20.0 micros reps: 50,,,,
Distance, Deviation,,,
401.926,0.537,,,
737.537,839.828,,,
401.781,0.854,,,
449.98,338.285,,,
401.962,0.536,,,
401.502,0.531,,,
401.612,0.949,,,
401.535,0.569,,,
402.115,0.641,,,
401.634,0.468,,,
wait time: 15.0 ms trigger time: 20.0 micros reps: 75,,,,
Distance, Deviation,,,
401.732,0.752,,,
402.017,0.793,,,
402.753,0.931,,,
402.008,0.708,,,
401.908,0.759,,,
401.521,0.561,,,
433.44,279.379,,,
466.321,388.546,,,
401.326,0.615,,,
401.299,0.62,,,
wait time: 15.0 ms trigger time: 20.0 micros reps: 100,,,,
Distance, Deviation,,,
401.801,0.903,,,
401.643,0.645,,,
473.883,411.127,,,
401.002,0.477,,,
401.507,0.678,,,
521.294,525.331,,,
401.546,0.583,,,
401.57,0.631,,,
401.419,0.529,,,
401.685,0.581,,,
wait time: 20.0 ms trigger time: 20.0 micros reps: 5,,,,
Distance, Deviation,,,
401.488,0.519,,,
401.657,0.765,,,
402.213,1.013,,,
402.032,0.585,,,
401.972,0.254,,,
402.507,0.653,,,
402.156,0.634,,,
401.263,0.56,,,
402.181,1.185,,,
401.95,0.5,,,
wait time: 20.0 ms trigger time: 20.0 micros reps: 10,,,,
Distance, Deviation,,,
401.021,0.608,,,
401.288,0.618,,,
401.292,0.411,,,
402.204,0.691,,,
401.389,0.737,,,
401.219,0.501,,,
641.506,761.052,,,
877.626,1005.779,,,
401.966,1.682,,,
401.075,0.558,,,
wait time: 20.0 ms trigger time: 20.0 micros reps: 25,,,,
Distance, Deviation,,,
402.321,0.708,,,
402.062,0.624,,,
402.695,0.785,,,
401.332,0.622,,,
496.437,474.401,,,
401.029,0.452,,,
402.88,0.801,,,
402.041,0.719,,,
401.904,0.667,,,
401.459,0.726,,,
wait time: 20.0 ms trigger time: 20.0 micros reps: 50,,,,
Distance, Deviation,,,
400.86,0.64,,,
401.971,0.785,,,
401.692,0.662,,,
401.738,0.477,,,
401.353,0.514,,,
401.668,0.715,,,
402.027,0.673,,,
402.031,0.789,,,
402.008,0.657,,,
401.647,0.541,,,
wait time: 20.0 ms trigger time: 20.0 micros reps: 75,,,,
Distance, Deviation,,,
401.812,0.746,,,
401.361,0.493,,,
401.633,0.617,,,
402.139,0.805,,,
401.781,0.651,,,
434.219,276.001,,,
401.418,0.61,,,
401.424,0.549,,,
401.55,0.792,,,
401.924,0.583,,,
wait time: 20.0 ms trigger time: 20.0 micros reps: 100,,,,
Distance, Deviation,,,
401.345,0.642,,,
401.506,0.573,,,
402.137,0.603,,,
402.252,0.672,,,
401.7,0.587,,,
401.994,0.643,,,
401.808,0.706,,,
401.521,0.579,,,
401.622,0.534,,,
401.66,0.634,,,
,,,,
,,,,
,,,,
