
Block: 1
======================================
200.247010565
200.316238189
200.332527041
200.316238189
200.295877123
200.263299417
200.263299417
200.299949336
200.263299417
200.295877123
199.835717034
199.803139329
200.295877123
200.283660483
200.263299417
200.299949336
200.145205235
200.247010565
200.27958827
200.263299417
200.247010565
200.27958827
199.819428182
199.803139329
200.230721712
200.283660483
200.247010565
200.263299417
199.819428182
200.247010565
200.27958827
199.819428182
200.27958827
200.283660483
200.299949336
199.803139329
200.283660483
200.247010565
200.299949336
200.263299417
200.283660483
200.267371631
200.27958827
200.299949336
199.823500395
199.819428182
193.637808585
199.852005887
199.823500395
200.316238189

Block: 2
======================================
200.295877123
200.283660483
200.295877123
200.263299417
200.267371631
200.283660483
200.263299417
199.835717034
199.786850476
200.27958827
199.803139329
200.27958827
200.283660483
200.27958827
200.263299417
200.299949336
199.819428182
199.803139329
200.283660483
200.295877123
199.819428182
199.835717034
194.985711145
199.888655806
200.263299417
200.263299417
200.263299417
200.283660483
200.332527041
200.299949336
200.263299417
199.839789248
200.27958827
199.803139329
200.295877123
200.263299417
199.839789248
199.819428182
199.819428182
200.283660483
200.283660483
200.295877123
199.823500395
200.295877123
199.839789248
200.247010565
199.8560781
200.267371631
200.27958827
200.316238189

Block: 3
======================================
200.316238189
200.214432859
200.263299417
200.299949336
200.299949336
200.283660483
200.263299417
200.283660483
200.295877123
199.819428182
200.299949336
200.316238189
199.835717034
200.295877123
200.316238189
200.247010565
200.27958827
200.247010565
200.295877123
200.267371631
200.312165976
200.299949336
200.283660483
200.263299417
200.247010565
200.283660483
200.312165976
200.263299417
200.27958827
200.295877123
200.283660483
200.247010565
200.247010565
200.299949336
200.247010565
200.263299417
200.299949336
200.247010565
200.295877123
200.27958827
200.299949336
200.283660483
200.299949336
200.299949336
199.835717034
199.782778263
200.27958827
200.247010565
200.230721712
200.263299417

Block: 4
======================================
200.332527041
200.263299417
200.295877123
200.316238189
199.8560781
200.295877123
200.299949336
200.316238189
200.247010565
200.247010565
200.299949336
200.27958827
200.316238189
200.283660483
200.299949336
200.247010565
200.295877123
200.247010565
200.283660483
200.263299417
200.299949336
200.247010565
200.295877123
200.27958827
200.295877123
200.230721712
200.299949336
200.283660483
199.819428182
200.316238189
200.316238189
200.263299417
200.27958827
200.299949336
199.888655806
200.299949336
200.263299417
199.835717034
200.283660483
200.299949336
200.283660483
199.839789248
200.295877123
200.299949336
200.283660483
200.27958827
200.295877123
200.263299417
200.283660483
200.27958827

Block: 5
======================================
200.27958827
200.316238189
200.299949336
200.299949336
200.299949336
200.299949336
199.803139329
199.819428182
200.27958827
200.27958827
200.312165976
200.267371631
200.263299417
200.299949336
199.819428182
200.263299417
200.295877123
199.852005887
200.27958827
200.267371631
200.299949336
200.27958827
199.803139329
200.283660483
200.263299417
200.283660483
200.299949336
200.299949336
200.299949336
200.283660483
200.263299417
200.27958827
200.299949336
200.263299417
199.786850476
200.27958827
199.819428182
200.263299417
200.316238189
200.27958827
200.295877123
200.299949336
199.819428182
200.299949336
200.299949336
200.295877123
200.316238189
200.263299417
200.316238189
200.247010565

Block: 6
======================================
200.316238189
200.27958827
200.27958827
200.295877123
199.819428182
200.332527041
200.283660483
200.263299417
200.295877123
199.852005887
200.299949336
200.299949336
200.247010565
199.852005887
200.263299417
200.316238189
200.299949336
199.819428182
200.263299417
200.299949336
200.263299417
199.803139329
200.247010565
200.295877123
200.247010565
200.299949336
200.27958827
200.283660483
200.316238189
200.27958827
200.263299417
200.299949336
200.283660483
200.247010565
200.316238189
200.283660483
200.295877123
200.283660483
200.283660483
200.27958827
200.299949336
200.299949336
199.803139329
199.819428182
200.27958827
200.27958827
200.247010565
200.263299417
200.295877123
200.283660483

Block: 7
======================================
200.316238189
200.316238189
200.316238189
200.299949336
200.283660483
200.247010565
200.332527041
200.230721712
200.295877123
200.299949336
200.27958827
200.247010565
199.835717034
200.230721712
200.27958827
200.247010565
200.312165976
200.247010565
200.247010565
200.27958827
200.283660483
200.299949336
199.835717034
200.27958827
200.316238189
200.263299417
200.299949336
199.819428182
200.295877123
200.295877123
200.263299417
200.295877123
200.283660483
199.888655806
200.283660483
199.803139329
199.786850476
199.819428182
200.283660483
200.27958827
200.299949336
200.27958827
200.27958827
199.872366953
200.263299417
200.27958827
200.27958827
200.247010565
200.267371631
200.295877123

Block: 8
======================================
200.247010565
200.299949336
200.299949336
200.267371631
200.263299417
200.283660483
200.283660483
199.803139329
200.263299417
200.27958827
200.283660483
200.27958827
200.27958827
200.267371631
200.263299417
200.295877123
200.299949336
200.247010565
200.316238189
200.299949336
200.27958827
200.267371631
200.27958827
200.295877123
200.295877123
200.283660483
200.27958827
200.312165976
200.263299417
200.263299417
200.263299417
200.247010565
200.263299417
200.247010565
199.835717034
199.852005887
200.299949336
200.263299417
199.839789248
200.295877123
199.884583592
200.295877123
200.27958827
199.803139329
200.247010565
200.312165976
200.267371631
200.295877123
199.839789248
200.263299417

Block: 9
======================================
200.299949336
200.299949336
200.316238189
199.852005887
200.295877123
199.819428182
199.839789248
200.299949336
199.852005887
200.295877123
200.27958827
200.295877123
200.316238189
200.316238189
200.27958827
200.27958827
200.332527041
200.316238189
200.295877123
200.332527041
200.263299417
200.299949336
200.316238189
200.299949336
200.27958827
200.316238189
200.267371631
200.27958827
199.835717034
200.316238189
200.263299417
200.27958827
199.872366953
200.27958827
200.316238189
200.316238189
200.27958827
199.872366953
200.312165976
200.299949336
200.27958827
199.872366953
200.332527041
200.283660483
200.299949336
200.27958827
199.852005887
199.909016871
200.263299417
200.332527041

Block: 10
======================================
200.263299417
200.247010565
200.348815894
199.835717034
200.283660483
200.316238189
200.27958827
200.299949336
200.316238189
200.267371631
200.263299417
200.283660483
200.27958827
200.295877123
199.872366953
200.316238189
200.27958827
200.299949336
200.27958827
200.295877123
200.27958827
200.332527041
199.819428182
200.283660483
200.283660483
199.872366953
200.299949336
200.283660483
199.872366953
200.263299417
200.299949336
200.27958827
200.295877123
200.283660483
199.888655806
200.267371631
200.312165976
200.299949336
200.263299417
200.299949336
200.316238189
199.819428182
200.316238189
199.839789248
200.316238189
200.299949336
199.835717034
200.299949336
200.316238189
200.27958827
