
Block: 1
======================================
49.3331897974
49.3167275667
49.3331897974
49.2838031054
49.3331897974
49.3496520281
49.3537675858
49.3331897974
49.3496520281
49.3373053551

Average distance is : 49.332 cm
Average deviation is : 0.020 cm
Block: 2
======================================
49.3331897974
49.3537675858
49.3537675858
49.3167275667
49.3167275667
49.3702298164
49.3373053551
49.3167275667
49.3702298164
49.3373053551

Average distance is : 49.341 cm
Average deviation is : 0.021 cm
Block: 3
======================================
49.3167275667
49.3537675858
49.3208431244
49.3167275667
49.4031542778
49.300265336
49.300265336
49.2838031054
49.3167275667
49.3537675858

Average distance is : 49.327 cm
Average deviation is : 0.035 cm
Block: 4
======================================
49.3331897974
49.3661142588
49.3537675858
49.3825764894
49.3167275667
49.3167275667
49.3167275667
49.300265336
49.300265336
49.3167275667

Average distance is : 49.330 cm
Average deviation is : 0.028 cm
Block: 5
======================================
49.3167275667
49.3496520281
49.3537675858
49.3661142588
49.3167275667
49.3167275667
49.3167275667
49.3331897974
49.3496520281
49.3496520281

Average distance is : 49.337 cm
Average deviation is : 0.019 cm
Block: 6
======================================
49.3331897974
49.2961497784
49.3331897974
49.3167275667
49.3373053551
49.3331897974
49.3331897974
49.3496520281
49.3496520281
49.3373053551

Average distance is : 49.332 cm
Average deviation is : 0.016 cm
Block: 7
======================================
49.300265336
49.2961497784
49.2796875477
49.3331897974
49.300265336
49.3167275667
49.300265336
49.3537675858
49.3373053551
49.3167275667

Average distance is : 49.313 cm
Average deviation is : 0.023 cm
Block: 8
======================================
49.3537675858
49.3702298164
49.3702298164
49.3537675858
49.3331897974
49.3496520281
49.3537675858
49.3167275667
49.3373053551
49.3167275667

Average distance is : 49.346 cm
Average deviation is : 0.019 cm
Block: 9
======================================
49.3167275667
49.3167275667
49.3331897974
49.3537675858
49.3167275667
49.3373053551
49.3331897974
49.3167275667
49.3331897974
49.3331897974

Average distance is : 49.329 cm
Average deviation is : 0.012 cm
Block: 10
======================================
49.3702298164
49.3866920471
49.3496520281
49.3373053551
49.3167275667
49.3496520281
49.3496520281
49.3331897974
49.3331897974
49.3208431244

Average distance is : 49.345 cm
Average deviation is : 0.021 cm