
Block: 1
======================================
49.3167275667
49.3496520281
49.3537675858
49.3496520281
49.3167275667
49.3537675858
49.3167275667
49.3373053551
49.300265336
49.3866920471
49.300265336
49.3208431244
49.3373053551
49.3331897974
49.3866920471
49.4237320662
49.3373053551
49.3167275667
49.3496520281
49.300265336
49.4031542778
49.3167275667
49.300265336
49.3167275667
49.4072698355
49.3331897974
49.3866920471
49.3167275667
49.3331897974
49.4031542778
49.3167275667
49.4031542778
49.3537675858
49.3331897974
49.3331897974
49.300265336
49.3167275667
49.3866920471
49.3331897974
49.3331897974
49.3661142588
49.3866920471
49.3167275667
49.300265336
49.3331897974
49.300265336
49.3702298164
49.3167275667
49.300265336
49.3331897974
49.3537675858
49.3496520281
49.3537675858
49.3167275667
49.3167275667
49.3331897974
49.3702298164
49.3167275667
49.3167275667
49.3167275667
49.300265336
49.3496520281
49.3331897974
49.3373053551
49.300265336
49.3537675858
49.3167275667
49.3331897974
49.3702298164
49.3702298164
49.3331897974
49.3702298164
49.3866920471
49.3331897974
49.3537675858

Average distance is : 49.340 cm
Average deviation is : 0.031 cm
Block: 2
======================================
49.3496520281
49.3537675858
49.4196165085
49.4196165085
49.3496520281
49.3702298164
49.300265336
49.3208431244
49.4031542778
49.3702298164
49.3373053551
49.3496520281
49.3866920471
49.3866920471
49.3496520281
49.3661142588
49.3702298164
49.3167275667
49.3661142588
49.3661142588
49.3702298164
49.3496520281
49.4031542778
49.4031542778
49.3661142588
49.3208431244
49.3537675858
49.3866920471
49.3866920471
49.3537675858
49.3537675858
49.4031542778
49.3537675858
49.300265336
49.3866920471
49.3866920471
49.3866920471
49.3825764894
49.3702298164
49.4031542778
49.3496520281
49.4031542778
49.3331897974
49.3167275667
49.3331897974
49.3866920471
49.3702298164
49.3167275667
49.4237320662
49.3866920471
49.3496520281
49.3167275667
49.3496520281
49.300265336
49.3702298164
49.3702298164
49.3167275667
49.3866920471
49.3537675858
49.3702298164
49.3702298164
48.9545584917
49.3167275667
49.3702298164
49.300265336
49.4031542778
49.3331897974
49.3373053551
49.3537675858
49.3373053551
49.3702298164
49.3331897974
49.3331897974
49.3537675858
49.4031542778

Average distance is : 49.355 cm
Average deviation is : 0.056 cm
Block: 3
======================================
49.300265336
49.3331897974
49.3702298164
49.3331897974
49.4031542778
49.3702298164
49.3866920471
49.3702298164
49.4031542778
49.3702298164
49.4031542778
49.3496520281
49.3702298164
49.3702298164
49.4031542778
49.3702298164
49.3537675858
49.3702298164
49.3496520281
49.4031542778
49.4031542778
49.3702298164
49.3702298164
49.4031542778
49.3825764894
49.3496520281
49.3661142588
49.3331897974
49.3866920471
49.3702298164
49.3373053551
49.3496520281
49.3167275667
49.3537675858
49.3331897974
49.3373053551
49.3373053551
49.4196165085
49.3167275667
49.3661142588
49.3331897974
49.3702298164
49.3331897974
49.3661142588
49.3331897974
49.3702298164
49.300265336
49.4072698355
49.3866920471
49.3331897974
49.3373053551
49.3331897974
49.3496520281
49.3537675858
49.3167275667
49.2961497784
49.3167275667
49.3331897974
49.4031542778
49.3866920471
49.3331897974
49.3373053551
49.3167275667
49.3167275667
49.3702298164
49.3331897974
49.3167275667
49.3537675858
49.3167275667
49.3661142588
49.3331897974
49.3167275667
49.3825764894
49.3496520281
49.3208431244

Average distance is : 49.355 cm
Average deviation is : 0.030 cm
Block: 4
======================================
50.1974569082
49.3373053551
49.3866920471
49.3167275667
49.3331897974
49.4031542778
49.3866920471
49.3702298164
49.3496520281
49.4031542778
49.4031542778
49.3496520281
49.3702298164
49.3702298164
49.3373053551
49.3537675858
49.3373053551
49.3373053551
49.3373053551
49.3866920471
49.3373053551
49.3866920471
49.3331897974
49.3373053551
49.3537675858
49.3496520281
49.3331897974
49.3702298164
49.3331897974
49.300265336
49.300265336
49.3661142588
49.3661142588
49.3702298164
49.3331897974
49.3167275667
49.3866920471
49.3496520281
49.3866920471
49.3537675858
49.3866920471
49.3661142588
49.300265336
49.3496520281
49.3373053551
49.3373053551
49.3373053551
49.3331897974
49.3496520281
49.3331897974
49.3496520281
49.3167275667
49.3537675858
49.3167275667
49.3496520281
49.3331897974
49.3208431244
49.3331897974
49.300265336
49.3167275667
49.3167275667
49.3167275667
49.3331897974
49.3167275667
49.3537675858
49.300265336
49.3537675858
49.3331897974
49.3167275667
49.3167275667
49.3167275667
49.300265336
49.3331897974
49.3167275667
48.8845940113

Average distance is : 49.349 cm
Average deviation is : 0.116 cm
Block: 5
======================================
49.3537675858
49.3496520281
49.3167275667
49.3331897974
49.3331897974
49.3661142588
49.3537675858
49.3331897974
49.3866920471
49.3702298164
49.3208431244
49.3331897974
49.3331897974
49.3167275667
49.3167275667
49.3331897974
49.3167275667
49.3866920471
49.3331897974
49.3866920471
49.3702298164
49.3661142588
49.3661142588
49.3661142588
49.3702298164
49.3331897974
49.3331897974
49.3661142588
49.3331897974
49.3373053551
49.3866920471
49.3537675858
49.3331897974
49.3866920471
49.3866920471
49.3331897974
49.3866920471
49.3167275667
49.3373053551
49.3331897974
49.3167275667
49.3331897974
49.3702298164
49.3373053551
49.3702298164
49.3661142588
49.4031542778
49.4031542778
49.300265336
49.3208431244
49.3537675858
49.3331897974
49.3702298164
49.3537675858
49.3331897974
49.3537675858
49.3373053551
49.3496520281
49.3496520281
49.3373053551
49.4031542778
49.4031542778
49.3331897974
49.3661142588
49.3537675858
49.3167275667
49.3537675858
49.3167275667
49.3537675858
49.3208431244
49.3373053551
49.3373053551
49.3702298164
49.3331897974
49.3167275667

Average distance is : 49.349 cm
Average deviation is : 0.025 cm
Block: 6
======================================
49.300265336
49.3866920471
49.3496520281
49.3167275667
49.4031542778
49.3373053551
49.3208431244
49.3331897974
49.3331897974
49.3167275667
49.3331897974
49.3537675858
49.3537675858
49.300265336
49.3702298164
49.2303008556
49.3167275667
49.300265336
49.300265336
49.3496520281
49.3373053551
49.3373053551
49.3537675858
49.3167275667
49.300265336
49.2796875477
49.3537675858
49.3331897974
49.3537675858
49.3167275667
49.3537675858
49.3866920471
49.3331897974
49.3167275667
49.3866920471
49.3167275667
49.3702298164
49.300265336
49.3167275667
49.3167275667
49.300265336
49.3167275667
49.3167275667
49.3167275667
49.3537675858
49.300265336
49.300265336
49.3373053551
49.3331897974
49.3537675858
49.3537675858
49.4031542778
49.3496520281
49.3167275667
49.300265336
49.3331897974
49.3167275667
49.3167275667
49.3373053551
49.3331897974
49.3167275667
49.3496520281
49.3331897974
49.3167275667
49.3167275667
49.1438741446
49.300265336
49.3167275667
49.3537675858
49.3167275667
49.300265336
49.3537675858
49.3167275667
49.3331897974
49.3167275667

Average distance is : 49.327 cm
Average deviation is : 0.035 cm
Block: 7
======================================
49.3866920471
49.3167275667
49.300265336
49.3331897974
49.4031542778
49.3537675858
49.3373053551
49.3331897974
49.3537675858
49.3331897974
49.3167275667
49.4031542778
49.3866920471
49.300265336
49.3373053551
49.3167275667
49.3537675858
49.3496520281
49.3496520281
49.3496520281
49.3331897974
49.3167275667
49.2961497784
49.3167275667
49.3496520281
49.3167275667
49.3167275667
49.3331897974
49.3496520281
49.3496520281
49.4031542778
49.3496520281
49.4196165085
49.3331897974
49.3167275667
49.3537675858
49.3167275667
49.3331897974
49.3702298164
49.300265336
49.3167275667
49.3331897974
49.300265336
49.3537675858
49.3208431244
49.3167275667
49.3331897974
49.3167275667
49.3331897974
49.3702298164
49.3167275667
49.3373053551
49.3167275667
49.300265336
49.3167275667
49.3331897974
49.3702298164
49.3702298164
49.3331897974
49.3167275667
49.3331897974
49.3167275667
49.3496520281
49.3866920471
49.3702298164
49.3331897974
49.3373053551
49.3331897974
49.2838031054
49.3537675858
49.3537675858
49.3537675858
49.3167275667
49.3331897974
49.3331897974

Average distance is : 49.338 cm
Average deviation is : 0.027 cm
Block: 8
======================================
49.3331897974
49.3331897974
49.3167275667
48.888709569
48.938096261
49.3702298164
49.3167275667
49.3167275667
48.9175184727
49.3496520281
49.3167275667
49.300265336
49.3373053551
49.3537675858
49.300265336
49.3167275667
49.3331897974
49.1809141636
49.300265336
49.3496520281
49.3167275667
49.3331897974
49.3167275667
49.3167275667
49.3167275667
49.3208431244
49.3373053551
49.3373053551
49.2961497784
49.3537675858
49.3167275667
49.3373053551
49.3496520281
49.3167275667
49.3167275667
49.3167275667
49.300265336
49.3537675858
49.3331897974
49.3167275667
49.300265336
49.300265336
49.3167275667
49.3331897974
49.3331897974
49.3167275667
49.3866920471
49.3496520281
49.3331897974
49.3537675858
49.300265336
49.3167275667
49.3702298164
49.300265336
49.2961497784
49.300265336
49.3373053551
49.300265336
49.3496520281
49.3702298164
49.3167275667
49.3331897974
49.3167275667
49.3167275667
49.300265336
49.3167275667
49.3537675858
49.3331897974
49.3331897974
49.3167275667
49.3167275667
49.300265336
49.3331897974
49.2838031054
49.3167275667

Average distance is : 49.307 cm
Average deviation is : 0.085 cm
Block: 9
======================================
49.300265336
49.300265336
49.300265336
49.3167275667
49.3373053551
49.3373053551
49.3331897974
49.3537675858
49.3331897974
49.3167275667
49.3167275667
49.3373053551
49.3167275667
49.3167275667
49.3373053551
49.3496520281
49.3167275667
49.3331897974
49.300265336
49.3208431244
49.3167275667
49.3167275667
49.3167275667
49.3702298164
49.3167275667
49.3167275667
49.3167275667
49.3331897974
49.3331897974
49.3167275667
49.300265336
49.3537675858
49.3331897974
49.3331897974
49.3866920471
49.4031542778
49.8352878332
49.3373053551
49.3331897974
49.3373053551
49.3496520281
49.3331897974
49.3661142588
49.3167275667
49.1932608366
49.3866920471
49.2961497784
49.3331897974
49.3167275667
49.4031542778
49.3702298164
49.3825764894
49.3331897974
49.4031542778
49.3331897974
49.3866920471
49.4031542778
49.3866920471
49.3661142588
49.3537675858
49.3866920471
49.3702298164
49.3661142588
49.3825764894
49.3661142588
49.3866920471
49.3331897974
49.3167275667
49.3661142588
49.4031542778
49.3866920471
49.3866920471
49.3866920471
49.4031542778
49.3702298164

Average distance is : 49.351 cm
Average deviation is : 0.067 cm
Block: 10
======================================
49.3331897974
49.3537675858
49.3331897974
49.3661142588
49.3331897974
49.3496520281
49.3702298164
49.3167275667
49.3167275667
49.3537675858
49.3167275667
49.3167275667
49.3167275667
49.3702298164
49.4031542778
49.3866920471
49.3866920471
49.3661142588
49.3373053551
49.3702298164
49.3702298164
49.3331897974
49.300265336
49.3866920471
49.3167275667
49.3373053551
49.3702298164
49.3373053551
49.3537675858
49.3373053551
49.3702298164
49.3331897974
49.3331897974
49.3167275667
49.3537675858
49.3331897974
49.3661142588
49.3866920471
49.3496520281
49.3373053551
49.3331897974
49.3866920471
49.3331897974
49.3331897974
49.3702298164
49.3167275667
49.300265336
49.3661142588
49.3537675858
49.3866920471
49.3866920471
49.300265336
49.4031542778
49.3331897974
49.3866920471
49.4196165085
49.4031542778
49.4031542778
49.3167275667
49.3537675858
49.3661142588
49.4360787392
49.3496520281
49.3702298164
49.3702298164
49.3537675858
49.4031542778
49.3702298164
49.3702298164
49.3866920471
49.3496520281
49.3702298164
49.4196165085
49.3702298164
49.4196165085

Average distance is : 49.357 cm
Average deviation is : 0.031 cm