
Block: 1
======================================
49.3331897974
49.3167275667
49.3167275667
49.3702298164
49.3661142588

Average distance is : 49.341 cm
Average deviation is : 0.026 cm
Block: 2
======================================
49.2961497784
49.300265336
49.3331897974
49.3167275667
49.3167275667

Average distance is : 49.313 cm
Average deviation is : 0.015 cm
Block: 3
======================================
49.3167275667
49.3537675858
49.3331897974
49.3537675858
49.3537675858

Average distance is : 49.342 cm
Average deviation is : 0.017 cm
Block: 4
======================================
49.3331897974
49.2796875477
49.3537675858
49.3496520281
49.300265336

Average distance is : 49.323 cm
Average deviation is : 0.032 cm
Block: 5
======================================
49.300265336
49.2838031054
49.2838031054
49.3331897974
49.3496520281

Average distance is : 49.310 cm
Average deviation is : 0.030 cm
Block: 6
======================================
49.3373053551
49.3537675858
49.3331897974
49.3331897974
49.3373053551

Average distance is : 49.339 cm
Average deviation is : 0.009 cm
Block: 7
======================================
49.3331897974
49.3496520281
49.2838031054
49.3496520281
49.3661142588

Average distance is : 49.336 cm
Average deviation is : 0.032 cm
Block: 8
======================================
49.3496520281
49.3331897974
49.3373053551
49.3702298164
49.3331897974

Average distance is : 49.345 cm
Average deviation is : 0.016 cm
Block: 9
======================================
49.3496520281
49.3537675858
49.3167275667
49.3331897974
49.3331897974

Average distance is : 49.337 cm
Average deviation is : 0.015 cm
Block: 10
======================================
49.2838031054
49.2838031054
49.3167275667
49.300265336
49.300265336

Average distance is : 49.297 cm
Average deviation is : 0.014 cm