
Block: 1
======================================
402.164466286
400.842301679
400.842301679
401.72374475
402.164466286

Average distance is : 401.547 cm
Average deviation is : 0.668 cm
Block: 2
======================================
401.675224948
401.707571483
401.739918017
401.687354898
401.246633363

Average distance is : 401.611 cm
Average deviation is : 0.205 cm
Block: 3
======================================
401.26280663
400.805911827
400.805911827
401.687354898
401.230460095

Average distance is : 401.158 cm
Average deviation is : 0.369 cm
Block: 4
======================================
400.822085094
401.72374475
401.266849947
400.838258362
403.421937823

Average distance is : 401.615 cm
Average deviation is : 1.076 cm
Block: 5
======================================
402.584971237
401.703528166
402.56879797
402.128076434
402.144249701

Average distance is : 402.226 cm
Average deviation is : 0.366 cm
Block: 6
======================================
401.246633363
401.691398215
401.299196482
402.128076434
401.315369749

Average distance is : 401.536 cm
Average deviation is : 0.375 cm
Block: 7
======================================
402.212986088
402.19681282
401.739918017
403.466414309
401.739918017

Average distance is : 402.271 cm
Average deviation is : 0.707 cm
Block: 8
======================================
402.132119751
403.045909357
400.858474946
402.128076434
2790.05843968

Average distance is : 879.645 cm
Average deviation is : 1067.954 cm
Block: 9
======================================
402.673924208
404.384247231
402.249375939
401.788437819
401.788437819

Average distance is : 402.577 cm
Average deviation is : 1.075 cm
Block: 10
======================================
400.923168015
400.923168015
400.48244648
401.384106135
400.923168015

Average distance is : 400.927 cm
Average deviation is : 0.319 cm