
Block: 1
======================================
50.4380114555
48.1784279823
50.8858198166
50.8693864822
50.4708781242
50.4174697876
50.9022531509
16.0759093285
50.4873114586
50.4544447899
50.4873114586
50.4708781242
50.4051447868
20.952501297
50.4174697876
50.8858198166
50.9022531509
50.9022531509
50.4380114555
19.7117845535
50.4010364532
50.8693864822
50.4339031219
50.8652781487
50.4174697876
21.022342968
50.4380114555
50.8858198166
50.4010364532
50.4174697876
50.4174697876
21.0428846359
50.4544447899
50.4749864578
50.4380114555
50.3846031189
50.4215781212
21.5934013367
50.4174697876
50.4215781212
50.4051447868
50.4380114555
50.8488448143
22.4561513901
50.9022531509
50.4010364532
50.4051447868
50.4174697876
50.4544447899
21.6427013397
50.4051447868
50.4380114555
50.4174697876
50.8858198166
50.4380114555
22.0576430321
50.4708781242
50.4380114555
50.881711483
50.881711483
50.3846031189
21.1086179733
50.4544447899
50.8693864822
50.4215781212
50.4339031219
50.4873114586
19.8021678925
50.4380114555
50.4215781212
50.3846031189
50.4010364532
50.4174697876
22.5054513931
50.4010364532
50.4215781212
50.4380114555
50.4051447868
50.4215781212
22.4849097252
50.8858198166
50.4051447868
50.4051447868
50.4010364532
50.4380114555
21.6755680084
50.4914197922
50.4215781212
50.4339031219
50.4380114555
50.4051447868
22.4849097252
50.4010364532
50.4174697876
50.4174697876
50.4544447899
50.4051447868
22.7601680756
50.3846031189
50.4010364532

Average distance is : 45.803 cm
Average deviation is : 10.810 cm
Block: 2
======================================
50.4174697876
50.4544447899
50.4380114555
50.4380114555
50.4380114555
50.4010364532
50.4544447899
50.4544447899
20.693676281
50.4544447899
50.4215781212
50.3846031189
50.4215781212
50.4174697876
21.8152513504
50.4215781212
50.4380114555
50.3887114525
50.4215781212
50.3846031189
22.5752930641
50.4010364532
50.4174697876
50.4544447899
50.4010364532
50.4010364532
22.8998514175
50.4380114555
50.4174697876
50.4544447899
50.4380114555
50.4215781212
21.8152513504
50.4380114555
50.4051447868
50.4215781212
50.4215781212
50.4010364532
22.6780014038
50.4380114555
50.4174697876
50.4215781212
50.4339031219
50.3846031189
22.5588597298
50.4051447868
50.4174697876
50.4215781212
50.4010364532
50.3846031189
22.4890180588
50.8858198166
50.0066364288
50.4544447899
50.4174697876
50.3846031189
21.868659687
50.8858198166
50.4215781212
50.3846031189
50.4010364532
50.4339031219
22.7807097435
50.4380114555
50.4010364532
50.4339031219
50.4339031219
50.4380114555
22.4150680542
50.4380114555
50.4051447868
50.4010364532
50.4010364532
50.4544447899
22.2137597084
49.9860947609
50.4051447868
50.3846031189
50.4010364532
50.4339031219
23.6393514633
50.4010364532
50.4010364532
50.4380114555
50.4380114555
50.4051447868
21.420851326
50.4873114586
50.4174697876
50.4380114555
50.4010364532
50.4380114555
22.5383180618
50.0066364288
50.4010364532
50.4010364532
50.4174697876
50.4051447868
22.5752930641
50.4215781212

Average distance is : 45.919 cm
Average deviation is : 10.359 cm
Block: 3
======================================
50.4174697876
50.4339031219
50.4215781212
50.4215781212
50.4544447899
50.4380114555
50.4380114555
50.4215781212
50.4174697876
26.3960433006
50.4174697876
50.4380114555
50.4339031219
50.4380114555
50.4051447868
21.4003096581
50.0066364288
50.3846031189
50.4380114555
50.4380114555
50.4215781212
22.6944347382
50.4010364532
50.4010364532
50.4380114555
50.4174697876
50.4174697876
22.2096513748
50.4174697876
50.4544447899
50.0066364288
50.4010364532
50.4174697876
22.1932180405
50.0066364288
50.4174697876
50.3846031189
50.4215781212
50.3681697845
49.9696614265
50.4010364532
50.3846031189
50.4010364532
50.4215781212
22.7437347412
50.0066364288
50.0230697632
50.3846031189
50.4215781212
50.4380114555
23.4339347839
50.0395030975
50.4380114555
50.4380114555
50.4380114555
50.4174697876
23.1586764336
50.4174697876
50.4380114555
50.4174697876
50.4339031219
50.4010364532
22.2096513748
50.4010364532
50.4380114555
50.4380114555
50.4010364532
50.4380114555
23.0231014252
50.4215781212
50.3846031189
50.3887114525
50.3846031189
50.4215781212
22.3822013855
50.4010364532
50.4380114555
50.4010364532
50.4215781212
50.4215781212
22.5547513962
50.4380114555
50.3846031189
50.4380114555
50.4051447868
50.4174697876
21.9015263557
50.3846031189
50.4174697876
50.4380114555
50.4051447868
50.3846031189
23.1956514359
49.9902030945
50.4380114555
50.4339031219
50.4380114555
50.4051447868
22.6944347382
50.4215781212

Average distance is : 46.244 cm
Average deviation is : 9.902 cm
Block: 4
======================================
50.4215781212
50.4051447868
50.4380114555
50.4051447868
50.4380114555
50.4380114555
50.3681697845
50.4051447868
50.4010364532
21.211326313
50.3846031189
50.4215781212
50.4380114555
50.4544447899
50.4051447868
22.6245930672
49.9532280922
50.4215781212
50.4051447868
50.4544447899
50.4010364532
22.2794930458
50.4339031219
50.3846031189
50.4215781212
50.4010364532
50.4215781212
23.1052680969
50.3846031189
50.4380114555
50.4051447868
50.4215781212
50.4051447868
22.6780014038
50.4215781212
50.4010364532
50.4174697876
50.4215781212
50.4544447899
22.4027430534
50.4708781242
50.4339031219
50.4380114555
50.4215781212
50.4215781212
22.8628764153
50.4544447899
50.4215781212
50.4174697876
50.4010364532
50.4051447868
22.7437347412
50.4380114555
50.4174697876
50.4339031219
50.4010364532
50.4010364532
18.6271844864
50.4051447868
50.9022531509
50.4051447868
50.4380114555
50.4174697876
21.7618430138
50.8858198166
50.9022531509
50.4215781212
50.4339031219
50.4339031219
22.2301930428
50.4215781212
50.8693864822
50.4051447868
50.4051447868
50.4010364532
21.7084346771
50.4708781242
50.4215781212
50.4010364532
50.4215781212
50.9022531509
21.9878013611
50.881711483
50.3846031189
50.8159781456
50.4380114555
50.4380114555
21.3838763237
50.4339031219
50.4380114555
50.4051447868
50.4544447899
50.4544447899
22.5218847275
50.881711483
50.4010364532
50.4174697876
50.4544447899
50.3846031189
21.2277596474

Average distance is : 45.899 cm
Average deviation is : 10.510 cm
Block: 5
======================================
50.8652781487
50.4010364532
50.4380114555
50.4503364563
50.4380114555
50.4010364532
50.4215781212
50.4339031219
50.8488448143
38.0637106895
50.4215781212
50.4010364532
50.4010364532
50.4544447899
50.4174697876
21.6427013397
50.4215781212
50.4380114555
50.4544447899
50.4010364532
50.4174697876
22.8341180801
50.4174697876
50.4051447868
50.4380114555
50.4380114555
50.4339031219
22.3822013855
50.4544447899
50.4380114555
50.4215781212
50.4215781212
50.4215781212
22.5218847275
50.4339031219
50.3846031189
50.4010364532
50.4010364532
50.3846031189
22.0042346954
49.9902030945
50.4174697876
50.4174697876
50.4380114555
50.4051447868
23.5736181259
50.4339031219
50.4339031219
50.4010364532
50.4174697876
50.4010364532
22.6780014038
50.4380114555
50.4174697876
50.4051447868
50.4174697876
50.4010364532
23.5037764549
50.4914197922
50.4339031219
50.4051447868
50.4010364532
50.4380114555
22.7437347412
50.4914197922
50.4010364532
50.4174697876
50.3846031189
50.4174697876
22.8998514175
50.8652781487
50.4215781212
50.4215781212
50.4215781212
50.4380114555
22.9696930885
50.0066364288
50.4215781212
50.4051447868
50.4339031219
50.3846031189
23.3805264473
50.4010364532
50.3887114525
50.8858198166
50.4174697876
50.4215781212
22.5547513962
50.4010364532
50.4215781212
50.4010364532
50.4174697876
50.4051447868
22.9327180862
50.4873114586
50.4380114555
50.4380114555
50.4010364532
50.4544447899
22.7314097404

Average distance is : 46.158 cm
Average deviation is : 9.959 cm
Block: 6
======================================
50.4544447899
50.4380114555
50.4380114555
50.4544447899
50.4215781212
50.4544447899
50.4010364532
50.3846031189
50.4010364532
50.4339031219
22.1439180374
50.3846031189
50.3846031189
50.8858198166
50.4010364532
50.4215781212
22.7273014069
49.9860947609
50.4544447899
50.4215781212
50.4010364532
50.4380114555
23.0231014252
50.4174697876
50.4174697876
50.4051447868
50.4380114555
50.4215781212
22.4520430565
50.3846031189
50.3846031189
50.4010364532
50.4010364532
50.4544447899
23.2120847702
50.8858198166
50.3846031189
50.4051447868
50.4339031219
50.4051447868
22.3164680481
50.3846031189
50.4215781212
50.4215781212
50.4174697876
50.4174697876
22.4890180588
50.4380114555
50.3887114525
50.4215781212
50.364061451
50.4051447868
23.2120847702
50.4215781212
50.4215781212
50.4174697876
50.881711483
50.4010364532
22.7437347412
50.4873114586
50.9022531509
50.4051447868
50.4010364532
50.4380114555
22.7642764091
50.5078531265
50.8858198166
50.4051447868
50.8652781487
50.4215781212
20.6608096123
50.4914197922
50.3846031189
50.4215781212
50.4174697876
50.4051447868
23.1586764336
50.4708781242
50.3846031189
50.4051447868
50.4010364532
50.8652781487
22.9368264198
50.4380114555
50.8858198166
50.4010364532
50.4010364532
50.4174697876
22.5752930641
50.5037447929
50.4380114555
50.4051447868
50.4010364532
50.4051447868
22.9327180862
50.4708781242
50.4544447899
50.4873114586
50.4010364532
50.4051447868

Average distance is : 46.284 cm
Average deviation is : 9.993 cm
Block: 7
======================================
50.4010364532
50.3681697845
6.44597539902
50.4174697876
50.4708781242
50.4544447899
50.4339031219
50.4051447868
17.1974843979
50.4215781212
50.4380114555
50.4051447868
50.4174697876
50.4010364532
23.9022848129
50.4339031219
50.4544447899
50.4051447868
50.4544447899
50.9227948189
22.3493347168
50.8858198166
50.9022531509
50.3681697845
50.9022531509
50.4544447899
21.5235596657
50.4873114586
50.4339031219
50.4051447868
50.4708781242
50.4544447899
22.7314097404
50.8488448143
50.4873114586
50.4708781242
50.4708781242
50.4339031219
22.0412096977
50.4544447899
50.4380114555
50.4544447899
50.4174697876
50.4010364532
23.0559680939
50.4749864578
50.4010364532
50.4051447868
50.4708781242
50.8858198166
22.4684763908
50.4174697876
50.4174697876
50.4544447899
50.4174697876
50.9022531509
22.6410264015
50.4010364532
50.4380114555
50.8488448143
50.3846031189
50.8858198166
21.9015263557
50.4174697876
50.4873114586
50.4873114586
50.4873114586
50.9022531509
22.2466263771
50.4503364563
50.4215781212
50.4215781212
50.3846031189
50.4051447868
23.4339347839
50.4708781242
50.4215781212
50.4010364532
50.3846031189
50.4051447868
22.9861264229
50.4051447868
50.8652781487
50.4010364532
50.4010364532
50.9022531509
22.0740763664
50.4215781212
50.4708781242
50.8652781487
50.4215781212
50.8324114799
21.9549346924
50.4380114555
50.4215781212
50.4174697876
50.4174697876
50.8858198166
22.5752930641
50.5037447929

Average distance is : 45.541 cm
Average deviation is : 11.163 cm
Block: 8
======================================
50.4380114555
50.8693864822
50.4215781212
50.4215781212
50.4010364532
50.4051447868
50.4380114555
50.4873114586
50.3681697845
24.7937932014
50.4010364532
50.4708781242
50.3846031189
50.4215781212
50.8652781487
22.6245930672
50.4873114586
50.4215781212
50.4010364532
50.4380114555
50.4174697876
22.3657680511
50.4544447899
50.4174697876
50.4010364532
50.4174697876
50.4215781212
23.0559680939
50.3887114525
50.4010364532
50.4544447899
50.4215781212
50.4914197922
22.9532597542
50.4380114555
50.4380114555
50.4544447899
50.4010364532
50.4708781242
22.6780014038
50.4544447899
50.4544447899
50.4380114555
50.4215781212
50.8652781487
22.0740763664
50.4215781212
50.4708781242
50.4174697876
50.4380114555
50.8858198166
22.1932180405
50.4010364532
50.4380114555
50.4010364532
50.9022531509
50.4174697876
22.6245930672
50.4215781212
50.4010364532
50.3846031189
50.4380114555
50.4051447868
22.6574597359
50.4010364532
50.4174697876
50.8858198166
50.8488448143
50.4174697876
22.6615680695
50.3846031189
50.4749864578
50.4174697876
50.4708781242
50.4544447899
22.7273014069
50.4708781242
50.4380114555
50.4708781242
50.4544447899
50.9022531509
22.2794930458
50.4010364532
50.4708781242
50.4174697876
50.8858198166
50.4380114555
21.8152513504
50.4914197922
50.9022531509
50.8488448143
50.8693864822
50.4380114555
50.4215781212
50.4544447899
7.60041713715
50.3681697845
50.4544447899
50.3846031189
50.4914197922

Average distance is : 46.171 cm
Average deviation is : 10.450 cm
Block: 9
======================================
50.4010364532
50.4174697876
50.4174697876
50.4339031219
50.881711483
50.4051447868
18.0602344513
50.4380114555
50.8652781487
50.4873114586
50.4215781212
50.3846031189
21.0428846359
50.4174697876
50.4010364532
50.4339031219
50.4380114555
50.4174697876
22.0905097008
50.8652781487
50.4051447868
50.4215781212
50.4051447868
50.4215781212
22.7971430779
50.4873114586
50.8652781487
50.4380114555
50.4215781212
50.4544447899
22.0740763664
50.4380114555
50.4215781212
50.4174697876
50.4380114555
50.4174697876
21.7289763451
50.4380114555
50.4010364532
50.4010364532
50.4174697876
50.4010364532
23.811901474
50.4339031219
50.4174697876
50.4010364532
50.3846031189
50.4010364532
21.5892930031
50.4380114555
50.8858198166
50.8693864822
50.4380114555
50.4215781212
21.470151329
50.4380114555
50.3846031189
50.4051447868
50.4010364532
50.4544447899
22.7642764091
50.5078531265
50.4174697876
50.4010364532
50.3846031189
50.4339031219
22.2630597115
50.4544447899
50.4380114555
50.4010364532
50.4174697876
50.4380114555
22.2260847092
50.4010364532
50.8488448143
50.3846031189
50.4051447868
50.4380114555
22.7642764091
50.4215781212
50.4708781242
50.4215781212
50.4010364532
50.8652781487
21.9508263588
50.4010364532
50.3846031189
50.8693864822
50.4339031219
50.9022531509
19.3666845322
50.4708781242
50.4010364532
50.4380114555
50.3846031189
50.4380114555
22.3657680511
50.4503364563
50.4010364532
50.4215781212

Average distance is : 45.883 cm
Average deviation is : 10.590 cm
Block: 10
======================================
50.4215781212
50.4380114555
50.9227948189
50.3681697845
50.4215781212
50.4010364532
50.8858198166
18.610751152
50.8652781487
50.4010364532
50.4174697876
50.4215781212
50.4503364563
21.1784596443
50.4215781212
50.4708781242
50.3887114525
50.3846031189
50.4380114555
21.609834671
50.8529531479
50.4380114555
50.4010364532
50.4380114555
50.881711483
20.8004929543
50.4380114555
50.4544447899
50.8858198166
50.8693864822
50.4380114555
21.281167984
50.4544447899
50.4215781212
50.4215781212
50.4544447899
50.4339031219
21.8316846848
50.4174697876
50.4380114555
50.3846031189
50.4380114555
50.4380114555
22.2959263802
50.8858198166
50.4380114555
50.4380114555
50.4380114555
50.4215781212
20.9196346283
50.3311947823
50.8652781487
50.4339031219
50.4544447899
50.4380114555
20.9566096306
50.4749864578
50.4215781212
50.4174697876
50.4215781212
50.4544447899
18.7298928261
50.4174697876
50.4174697876
50.3846031189
50.4215781212
40.0110608101
50.0436114311
50.4380114555
50.4380114555
50.4544447899
50.3846031189
21.6262680054
50.4544447899
50.4174697876
50.4010364532
50.4339031219
50.4380114555
22.7108680725
50.4380114555
50.4174697876
50.4010364532
50.4380114555
50.4215781212
21.4372846603
50.4215781212
50.4339031219
50.4174697876
50.4174697876
50.4380114555
21.3674429893
50.4174697876
50.4215781212
50.4215781212
50.4051447868
50.4051447868
22.2301930428
50.4380114555
50.4544447899
50.4380114555

Average distance is : 45.970 cm
Average deviation is : 10.531 cm