
Block: 1
======================================
50.1463197708
50.0929114342
50.0929114342
50.1093447685
50.1257781029
50.1627531052
50.0929114342
50.1093447685
50.1257781029
50.1093447685
50.1257781029
50.1298864365
50.1298864365
50.1422114372
39.9247858047
50.1298864365
50.1463197708
39.4810857773
50.1093447685
50.1093447685
40.5780108452
50.1298864365
50.0929114342
40.1877191544
50.1257781029
50.0888031006
40.1507441521
50.1093447685
50.1093447685
40.0439274788
50.0929114342
50.1257781029
40.3027524948
50.1422114372
50.1257781029
40.4095691681
50.0929114342
50.1093447685
40.1630691528
50.1298864365
50.1257781029
40.1137691498
50.1093447685
50.0929114342
39.6659607887
50.1093447685
50.1093447685
39.9083524704
50.1463197708
50.1257781029
40.8738108635
50.1463197708
50.1093447685
40.1507441521
50.1422114372
50.0929114342
39.6495274544
50.1093447685
50.0888031006
40.2205858231
50.0929114342
50.1134531021
39.9083524704
50.1422114372
50.0764780998
40.8368358612
50.1298864365
50.0929114342
39.702935791
50.1257781029
50.1422114372
40.6683941841
50.1422114372
50.1093447685
39.9576524734

Block: 2
======================================
50.1134531021
50.1257781029
50.1093447685
50.1093447685
50.1093447685
50.0929114342
50.1257781029
50.1093447685
50.1093447685
50.1463197708
50.1257781029
50.1093447685
50.1586447716
50.1257781029
50.0929114342
50.1257781029
50.1257781029
50.1463197708
39.185285759
50.1298864365
50.1093447685
40.4095691681
50.1093447685
50.0764780998
39.3578357697
50.0929114342
50.1463197708
39.5796857834
50.1257781029
50.1093447685
39.8385107994
50.1257781029
50.1093447685
40.7012608528
50.1298864365
50.1257781029
40.3397274971
50.1257781029
50.1257781029
40.0973358154
50.1463197708
50.1463197708
39.961760807
50.0929114342
50.1093447685
40.101444149
50.1257781029
50.1298864365
40.2205858231
50.1093447685
50.1298864365
40.4260025024
50.1093447685
50.1093447685
39.9083524704
50.1093447685
50.1586447716
40.5451441765
50.1093447685
50.0888031006
39.8056441307
50.1257781029
50.1257781029
40.5656858444
50.1257781029
50.0929114342
40.1507441521
50.1257781029
50.1627531052
40.1178774834
50.1257781029
50.5366114616
40.8409441948
50.1257781029
50.6762948036

Block: 3
======================================
9.88875894547
50.1093447685
50.0929114342
41.0258192062
50.1257781029
50.1093447685
39.8220774651
50.1093447685
50.1093447685
39.63309412
50.0929114342
50.0929114342
40.4958441734
50.0929114342
50.1463197708
39.7686691284
50.1422114372
50.1463197708
40.7341275215
50.1257781029
50.0929114342
40.2863191605
50.1257781029
50.1093447685
39.653635788
50.1422114372
50.1463197708
40.6519608498
50.1093447685
50.0764780998
40.3356191635
50.1422114372
50.0929114342
40.2534524918
50.1422114372
50.1298864365
39.9247858047
50.1463197708
50.1093447685
40.5985525131
50.1257781029
50.1298864365
40.2370191574
50.1463197708
50.1298864365
40.031602478
50.1257781029
50.0929114342
40.3725941658
50.1257781029
50.1257781029
38.926460743
50.1463197708
50.1257781029
41.6995859146
50.1298864365
50.1093447685
40.1466358185
50.1093447685
50.1093447685
40.3561608315
50.1586447716
50.1422114372
39.9453274727
50.1257781029
50.1257781029
40.3725941658
50.1257781029
50.0929114342
39.8878108025
50.1422114372
50.1257781029
40.7176941872
50.0929114342
50.1257781029

Block: 4
======================================
9.70388393402
50.1093447685
50.1093447685
36.375185585
50.1422114372
50.0929114342
37.2543689728
50.1093447685
50.0929114342
34.5510854721
50.1257781029
50.1093447685
40.7875358582
50.1093447685
50.1093447685
40.1836108208
50.0929114342
50.1093447685
40.4260025024
50.1093447685
50.0929114342
40.0439274788
50.0888031006
50.1257781029
39.6659607887
50.0929114342
50.1298864365
41.1326358795
50.1093447685
50.1257781029
39.9412191391
50.1093447685
50.0929114342
39.7399107933
50.1093447685
50.1257781029
40.9272192001
50.0929114342
50.0929114342
40.2534524918
50.1257781029
50.1093447685
39.1318774223
50.1093447685
50.0929114342
39.6495274544
50.1093447685
50.1463197708
40.3767024994
50.0929114342
50.1257781029
40.6149858475
50.1257781029
50.1298864365
40.1302024841
50.1093447685
50.1257781029
39.5303857803
50.1093447685
50.0929114342
40.2041524887
50.1298864365
50.1463197708
39.9781941414
50.1463197708
50.1422114372
40.2370191574
50.1422114372
50.0929114342
39.493410778
50.1093447685
50.1093447685
40.4260025024
50.1463197708
50.1257781029

Block: 5
======================================
9.83945894241
50.1257781029
50.1093447685
36.375185585
50.1093447685
50.1463197708
37.6857439995
50.1422114372
50.1093447685
35.9479188919
50.1298864365
49.7642447472
39.63309412
50.1257781029
50.1298864365
39.9781941414
50.0929114342
50.1627531052
39.4276774406
50.1093447685
50.0888031006
39.0127357483
50.0929114342
50.1093447685
39.8713774681
50.1257781029
50.1093447685
39.7892107964
50.0929114342
50.0929114342
38.786777401
50.1093447685
50.1422114372
40.0809024811
50.1298864365
50.1093447685
39.9412191391
50.1093447685
50.1422114372
39.5262774467
50.1093447685
50.1422114372
40.2863191605
50.1093447685
50.1298864365
39.63309412
50.1422114372
50.1093447685
40.3725941658
50.1463197708
50.1093447685
39.9412191391
50.1298864365
50.1463197708
40.3027524948
50.1093447685
50.1093447685
40.1137691498
50.1257781029
50.1257781029
40.5287108421
50.1257781029
50.1257781029
40.1137691498
50.1422114372
50.1093447685
50.1257781029
50.1257781029
50.1093447685
50.1257781029
50.1093447685
50.1093447685
50.1093447685
50.1093447685
50.1093447685

Block: 6
======================================
50.0723697662
36.703852272
50.1257781029
50.1257781029
37.3940523148
50.1463197708
50.0929114342
37.2913439751
50.1257781029
50.1093447685
39.304427433
50.1257781029
50.0929114342
39.563252449
50.1093447685
50.1257781029
40.8245108604
50.1093447685
50.1298864365
38.9634357452
50.1463197708
50.1422114372
41.1655025482
50.1298864365
50.1257781029
40.5615775108
50.1463197708
50.1093447685
39.6495274544
50.0929114342
50.1257781029
39.8549441338
50.1257781029
50.1257781029
40.8902441978
50.1257781029
50.1422114372
40.2698858261
50.1093447685
50.0929114342
40.2370191574
50.1422114372
50.1463197708
40.2863191605
50.1463197708
50.1298864365
40.2534524918
50.1093447685
50.1093447685
40.0603608131
50.1422114372
50.1257781029
40.3725941658
50.0929114342
50.1093447685
39.6495274544
50.1257781029
50.1298864365
40.7382358551
50.1422114372
50.1298864365
40.2000441551
50.0929114342
50.1093447685
39.7686691284
50.1257781029
50.1257781029
40.2863191605
50.1134531021
50.1463197708
40.3890275002
50.1093447685
50.0929114342
40.3232941628
50.0929114342

Block: 7
======================================
50.1257781029
50.1422114372
50.1093447685
50.1463197708
50.1093447685
50.0929114342
50.1463197708
50.1093447685
50.1298864365
50.1093447685
50.1463197708
50.1586447716
50.1093447685
50.1422114372
50.0929114342
50.1257781029
50.1422114372
40.4794108391
50.1298864365
50.1093447685
39.493410778
50.1093447685
50.1257781029
40.7012608528
50.1257781029
50.1093447685
39.772777462
50.1298864365
50.1298864365
40.4218941689
50.1298864365
50.1298864365
40.0110608101
50.1257781029
50.1093447685
40.1671774864
50.1093447685
50.1093447685
40.0809024811
50.1298864365
50.0888031006
35.0646271706
50.1257781029
50.1463197708
40.1836108208
50.0929114342
50.0888031006
39.961760807
50.1257781029
50.1257781029
39.5098441124
50.1463197708
50.0929114342
39.63309412
50.1093447685
50.1093447685
38.7046107292
50.0929114342
50.1093447685
40.3931358337
50.1257781029
50.1093447685
40.4095691681
50.1298864365
50.1257781029
39.374269104
50.1257781029
50.1257781029
39.5673607826
50.1093447685
50.1093447685
39.0620357513
50.0929114342
50.1422114372
40.1507441521

Block: 8
======================================
50.1257781029
50.0929114342
50.1093447685
50.1093447685
50.1257781029
50.1463197708
50.0929114342
50.1257781029
50.0929114342
50.1298864365
50.1093447685
50.1093447685
50.0888031006
50.1257781029
50.1093447685
44.6616944313
50.0929114342
50.1422114372
40.0480358124
50.1298864365
50.1298864365
39.9576524734
50.1093447685
50.1257781029
39.9412191391
50.0929114342
50.1257781029
39.772777462
50.0929114342
50.1257781029
40.0809024811
50.1093447685
50.1257781029
40.0809024811
50.1093447685
50.1257781029
38.7005023956
50.1093447685
50.1257781029
40.4588691711
50.1298864365
50.1093447685
40.031602478
50.1093447685
50.1093447685
40.2370191574
50.1093447685
50.1257781029
39.5468191147
50.1257781029
50.1257781029
40.5821191788
50.1257781029
50.1257781029
40.0439274788
50.1093447685
50.0929114342
40.3561608315
50.1298864365
50.1257781029
39.9946274757
50.1093447685
50.1257781029
40.1343108177
50.1422114372
50.0723697662
40.3191858292
50.1257781029
50.1422114372
40.1178774834
50.1257781029
50.1422114372
40.031602478
50.1093447685
50.1093447685

Block: 9
======================================
50.1093447685
50.1298864365
50.0929114342
50.1093447685
50.1093447685
50.1134531021
50.1093447685
39.8220774651
50.1093447685
50.1257781029
39.9781941414
50.1422114372
50.1422114372
39.25512743
50.1093447685
50.1093447685
40.9765192032
50.1093447685
50.1093447685
39.5468191147
50.1093447685
50.1257781029
40.8368358612
50.1298864365
50.1093447685
39.6125524521
50.1257781029
50.1093447685
40.5122775078
50.1298864365
50.1257781029
39.891919136
50.1422114372
50.1422114372
40.2329108238
50.0929114342
50.1257781029
40.2329108238
50.1093447685
50.1257781029
39.9946274757
50.1093447685
50.1627531052
39.563252449
50.1257781029
50.1257781029
41.1490692139
50.1422114372
50.0764780998
40.1302024841
50.1257781029
50.1463197708
39.9946274757
50.1463197708
50.1093447685
40.3397274971
50.1093447685
50.1422114372
40.1137691498
50.1257781029
50.1257781029
40.0480358124
50.1298864365
50.1257781029
40.2370191574
50.1093447685
50.1257781029
40.0480358124
50.1257781029
50.0929114342
39.8754858017
50.1422114372
50.1093447685
40.6149858475
50.0764780998

Block: 10
======================================
50.0723697662
50.1257781029
50.1422114372
50.1093447685
50.1422114372
50.1422114372
50.1093447685
50.1093447685
50.1422114372
50.1093447685
50.1257781029
50.1257781029
50.1093447685
50.0929114342
47.0938279152
50.1093447685
50.1627531052
39.9247858047
50.1463197708
50.1257781029
40.1671774864
50.1463197708
50.1463197708
40.1466358185
50.1298864365
50.1093447685
40.1507441521
50.1257781029
50.1298864365
40.1302024841
50.1257781029
50.1093447685
40.4095691681
50.1422114372
50.1257781029
40.1137691498
50.1093447685
50.1093447685
39.9781941414
50.1422114372
50.0929114342
40.1343108177
50.1093447685
50.0929114342
40.4958441734
50.1257781029
50.1093447685
39.7563441277
50.1257781029
50.1257781029
40.1836108208
50.0929114342
50.1093447685
40.3027524948
50.1257781029
50.1093447685
39.6002274513
50.1298864365
50.0888031006
39.9412191391
50.0929114342
50.1093447685
41.0258192062
50.1093447685
50.1586447716
40.4260025024
50.1093447685
50.1422114372
40.0480358124
50.1422114372
50.1257781029
40.0439274788
50.1298864365
50.0929114342
40.0809024811
