
Block: 1
======================================
50.1257781029
50.1257781029
50.1463197708
50.1257781029
50.0929114342
50.0929114342
50.1093447685
50.1257781029
50.1093447685
50.0929114342
50.1093447685
50.1463197708
50.1134531021
50.0888031006
50.0888031006
50.0929114342
50.1257781029
50.0888031006
50.1298864365
50.1093447685
50.1298864365
39.4605441093
50.1093447685
50.1422114372
50.1422114372
50.1093447685
50.1257781029
50.1093447685
50.1093447685
50.1093447685
50.1257781029
50.1093447685
50.1257781029
50.1257781029
50.1257781029
50.1257781029
50.1093447685
50.1093447685
50.1257781029
50.1093447685
50.1093447685
50.0929114342
50.1298864365
50.1093447685
50.0929114342
50.1257781029
50.1257781029
50.0929114342
50.1093447685
50.1093447685
50.1093447685
50.1257781029
50.1093447685
50.1257781029
50.1093447685
50.1257781029
50.1257781029
50.1093447685
50.0929114342
50.1298864365
50.1093447685
50.1093447685
50.1093447685
50.1093447685
50.0888031006
50.1093447685
50.1093447685
50.1257781029
50.1093447685
50.1298864365
50.1298864365
50.1257781029
50.1257781029
50.1257781029
50.1093447685
50.1093447685
50.1298864365
50.1257781029
50.1298864365
50.1257781029
50.1093447685
50.1134531021
50.0929114342
50.1093447685
50.1298864365
50.1298864365
50.1422114372
50.0929114342
50.1093447685
50.1257781029
50.1298864365
50.0929114342
50.1298864365
50.1298864365
50.1298864365
50.1093447685
50.1093447685
50.1257781029
50.0929114342
50.1093447685

Block: 2
======================================
50.1257781029
50.1627531052
50.1298864365
50.1093447685
50.1463197708
50.1093447685
50.1257781029
50.1298864365
50.1093447685
50.1257781029
50.1422114372
50.1463197708
50.0929114342
50.1298864365
50.1093447685
50.1093447685
50.1134531021
50.1257781029
50.1093447685
50.1257781029
50.1257781029
50.1093447685
50.1257781029
50.1257781029
50.0929114342
50.1257781029
50.1257781029
50.0929114342
50.1093447685
50.1257781029
50.0929114342
50.0929114342
50.1093447685
50.1257781029
50.1257781029
50.1093447685
50.1093447685
50.1093447685
50.1093447685
50.0929114342
50.1298864365
50.1093447685
50.1093447685
50.1422114372
50.1298864365
50.1093447685
50.0929114342
50.1093447685
50.1463197708
50.0929114342
50.1257781029
50.1093447685
50.1257781029
50.1257781029
50.1093447685
50.0929114342
50.0764780998
50.1463197708
50.1093447685
50.1463197708
50.1093447685
50.0929114342
50.1257781029
50.1093447685
50.0929114342
50.1093447685
50.1257781029
50.1463197708
50.0929114342
50.1257781029
50.1093447685
50.0929114342
50.0929114342
50.0888031006
50.1257781029
50.1257781029
50.1257781029
50.1093447685
50.1257781029
50.1257781029
50.1093447685
50.0888031006
50.1093447685
50.1257781029
50.0929114342
50.1093447685
50.1093447685
50.1257781029
50.0929114342
50.1257781029
38.0801440239
50.0929114342
50.1093447685
50.1093447685
50.1093447685
50.1093447685
50.0929114342
50.1257781029
50.0929114342
50.1422114372

Block: 3
======================================
50.1298864365
50.1257781029
50.0929114342
50.1134531021
50.1093447685
50.0929114342
50.1257781029
50.1257781029
50.1422114372
50.1257781029
50.1463197708
50.1257781029
50.1627531052
50.1093447685
50.1093447685
50.1093447685
50.1422114372
50.1257781029
50.1257781029
50.1257781029
50.1093447685
50.1093447685
50.1093447685
50.1257781029
50.1093447685
50.0929114342
50.1257781029
50.1257781029
50.1298864365
50.1093447685
50.1422114372
50.1257781029
50.1093447685
50.1257781029
50.1463197708
50.1257781029
50.1257781029
50.0929114342
50.1093447685
50.1093447685
50.1257781029
50.1093447685
50.0929114342
50.1257781029
50.1422114372
50.1257781029
50.1093447685
50.1093447685
50.1257781029
50.1093447685
50.1093447685
50.1257781029
50.1093447685
50.1257781029
50.1093447685
50.1257781029
50.1093447685
50.1093447685
50.1093447685
50.1257781029
50.1257781029
50.1093447685
50.1093447685
50.1257781029
50.1257781029
50.1257781029
50.1257781029
50.1257781029
50.1093447685
50.1298864365
50.1093447685
50.1257781029
50.1093447685
50.1093447685
50.1093447685
50.1093447685
50.0888031006
50.1298864365
50.5735864639
50.0888031006
50.1093447685
50.5900197983
50.0929114342
50.1093447685
50.1093447685
50.0929114342
50.1093447685
50.1093447685
50.1093447685
50.1257781029
50.1093447685
50.0764780998
50.0929114342
50.0929114342
50.1093447685
50.1093447685
50.1298864365
50.1422114372
50.1257781029
50.1093447685

Block: 4
======================================
50.1298864365
39.2222607613
50.0929114342
50.1298864365
50.0888031006
50.0395030975
50.1257781029
50.1093447685
50.0929114342
50.1298864365
50.1093447685
50.1257781029
50.1093447685
50.1093447685
50.0888031006
50.1298864365
50.1093447685
50.5776947975
50.0929114342
50.5941281319
50.1093447685
50.1093447685
50.1257781029
50.1093447685
50.5571531296
50.1093447685
50.1093447685
50.1257781029
50.0929114342
50.1093447685
50.1093447685
50.1093447685
50.1093447685
50.1257781029
50.1257781029
50.1257781029
50.0764780998
50.1298864365
50.0929114342
50.0929114342
50.1093447685
50.0929114342
50.1257781029
50.1257781029
50.1093447685
50.1257781029
50.1093447685
50.1257781029
50.0929114342
50.1257781029
50.1298864365
50.1093447685
50.1093447685
50.5941281319
50.1093447685
50.1093447685
50.1257781029
50.1257781029
50.1298864365
50.1298864365
50.1298864365
50.0888031006
50.1093447685
50.1257781029
50.1298864365
50.1257781029
50.0929114342
50.1093447685
50.1298864365
50.1093447685
50.1093447685
50.1093447685
50.1093447685
50.1257781029
50.1093447685
50.1093447685
50.1093447685
50.1093447685
50.1093447685
50.1257781029
37.3406439781
50.1257781029
50.1093447685
50.1093447685
50.1257781029
50.1257781029
50.1257781029
50.1093447685
50.1422114372
50.1093447685
50.1093447685
50.0929114342
50.1257781029
50.1463197708
50.0888031006
50.1093447685
50.1257781029
50.1257781029
50.1093447685
50.1134531021

Block: 5
======================================
50.1093447685
50.1093447685
50.0929114342
50.1298864365
50.1422114372
50.0929114342
50.1257781029
50.1422114372
50.0929114342
50.1257781029
44.2508610725
50.1093447685
50.1627531052
50.1463197708
50.0929114342
50.5941281319
50.1093447685
48.4372529984
50.0929114342
50.1257781029
50.0888031006
50.0929114342
50.1093447685
50.1093447685
50.1093447685
50.1093447685
50.1257781029
50.1093447685
50.1298864365
50.1093447685
50.0929114342
38.8771607399
50.0929114342
50.0929114342
50.1093447685
50.1257781029
50.1257781029
50.0929114342
50.1463197708
50.1422114372
50.1257781029
50.1093447685
50.0888031006
50.1093447685
50.1257781029
50.0929114342
50.1257781029
50.1093447685
50.1298864365
50.1093447685
50.1093447685
50.0929114342
50.1298864365
50.1257781029
50.1093447685
50.0888031006
50.0888031006
50.1093447685
50.1257781029
31.7409852982
50.1093447685
50.1422114372
50.1463197708
50.0929114342
50.1422114372
50.1257781029
50.0929114342
50.1093447685
50.0764780998
50.1257781029
50.1257781029
50.1134531021
50.1093447685
50.1257781029
50.1298864365
50.1093447685
50.0929114342
50.1422114372
50.1134531021
50.1093447685
50.1093447685
50.1093447685
50.1257781029
50.1257781029
50.1093447685
50.1257781029
50.1093447685
50.0929114342
50.0929114342
50.1422114372
50.1463197708
50.1093447685
50.1257781029
50.1257781029
34.9085104942
50.0929114342
50.1257781029
50.1093447685
50.1257781029
50.1298864365

Block: 6
======================================
50.1298864365
50.1463197708
50.1257781029
50.1093447685
50.0929114342
50.0929114342
50.0929114342
50.1463197708
50.0929114342
50.1422114372
50.1093447685
50.1257781029
50.5735864639
50.1093447685
50.0929114342
50.0929114342
50.1093447685
50.1093447685
50.1463197708
50.0929114342
50.1257781029
50.1257781029
50.1093447685
50.5571531296
50.5900197983
50.1093447685
50.0929114342
50.0929114342
50.5941281319
50.1093447685
50.1134531021
50.1257781029
50.1257781029
50.5900197983
50.5735864639
50.5941281319
50.1093447685
50.1257781029
50.1257781029
50.1093447685
50.1093447685
50.0888031006
50.1093447685
50.1257781029
50.1257781029
50.0888031006
50.0929114342
37.8377523422
50.0929114342
50.1298864365
50.5612614632
50.1257781029
50.1093447685
50.0929114342
50.1093447685
50.0929114342
50.1093447685
50.1298864365
50.1463197708
50.1257781029
50.1257781029
50.1257781029
50.1093447685
50.1093447685
50.1257781029
50.0723697662
50.1257781029
50.1257781029
50.1257781029
50.1298864365
50.1298864365
50.1093447685
50.1257781029
50.1257781029
50.1298864365
50.1093447685
50.1093447685
50.1093447685
50.0929114342
50.0929114342
50.1093447685
50.1298864365
50.1093447685
50.1257781029
50.1093447685
50.1093447685
50.1093447685
50.1093447685
50.1298864365
50.0764780998
50.1093447685
50.1134531021
50.1093447685
50.1093447685
50.0929114342
50.1257781029
50.0929114342
50.1093447685
50.0929114342
50.1093447685

Block: 7
======================================
50.1750781059
50.1257781029
50.1586447716
50.1093447685
50.1093447685
50.1257781029
50.1257781029
50.1093447685
50.1257781029
50.1257781029
50.1627531052
50.1257781029
50.1257781029
50.1257781029
50.1093447685
50.1257781029
50.0929114342
50.1093447685
50.1422114372
50.1093447685
50.1298864365
50.1422114372
50.0929114342
50.1093447685
50.1257781029
50.1257781029
50.1257781029
50.0888031006
50.1093447685
50.1257781029
50.1093447685
50.1257781029
50.1093447685
50.1257781029
50.1093447685
45.0273361206
50.1093447685
50.1257781029
50.1257781029
50.1257781029
50.0929114342
50.0929114342
50.1257781029
50.1093447685
50.0764780998
50.1257781029
50.1298864365
50.1257781029
50.1093447685
50.1093447685
50.1257781029
50.1093447685
50.1093447685
50.1093447685
50.0929114342
50.1093447685
28.8610434532
50.1298864365
50.0929114342
50.0929114342
50.0929114342
50.1093447685
50.1298864365
50.1093447685
50.1257781029
50.1257781029
50.1257781029
50.1257781029
50.1298864365
50.1093447685
50.1093447685
50.1093447685
50.1298864365
50.1422114372
50.0929114342
50.0929114342
50.1093447685
50.5735864639
50.1257781029
50.1093447685
50.0929114342
50.1093447685
50.1093447685
50.1422114372
50.1093447685
50.0888031006
50.1093447685
50.1257781029
50.1257781029
50.1093447685
50.1093447685
50.1093447685
50.1298864365
50.1093447685
50.1093447685
50.1093447685
50.1257781029
50.1093447685
33.2240937233
50.1463197708

Block: 8
======================================
50.1298864365
50.1093447685
50.1422114372
50.1463197708
50.1257781029
50.1093447685
50.1093447685
50.1422114372
50.0888031006
50.1257781029
50.1422114372
50.1257781029
50.1298864365
50.1093447685
50.1257781029
50.0929114342
50.1093447685
50.1093447685
50.0929114342
50.1134531021
50.1257781029
50.1093447685
50.1093447685
50.1298864365
50.1093447685
50.5735864639
50.1093447685
50.1257781029
50.1093447685
50.2818947792
50.1093447685
50.0888031006
50.1422114372
50.1257781029
50.1093447685
50.1093447685
50.1093447685
50.1298864365
50.1093447685
50.1093447685
50.1257781029
50.1257781029
50.1093447685
50.1257781029
50.1257781029
50.1093447685
50.0764780998
50.0929114342
50.1093447685
50.1422114372
50.0929114342
50.1257781029
50.0929114342
50.1093447685
50.1422114372
50.1257781029
50.1422114372
50.1463197708
50.1257781029
50.1257781029
50.1257781029
50.1093447685
50.1093447685
50.1093447685
50.1093447685
50.1298864365
50.1093447685
50.0929114342
50.1257781029
50.1093447685
50.1257781029
50.1093447685
50.1093447685
50.1257781029
50.1093447685
50.1257781029
50.1298864365
50.1093447685
50.1298864365
50.1093447685
50.1257781029
50.1093447685
50.1257781029
50.1257781029
50.0929114342
50.1463197708
50.1257781029
50.1093447685
50.1093447685
50.1093447685
50.1093447685
50.1298864365
50.1257781029
50.0929114342
50.1093447685
50.1257781029
50.1257781029
50.1463197708
50.0929114342
50.1093447685

Block: 9
======================================
50.1093447685
50.1791864395
50.1298864365
50.0929114342
50.1422114372
50.1422114372
50.1257781029
50.1627531052
50.1257781029
50.1257781029
50.1257781029
50.0723697662
50.0929114342
50.0929114342
50.1093447685
50.1093447685
50.1093447685
50.1298864365
50.1093447685
50.1093447685
50.1093447685
50.1093447685
50.1093447685
50.1463197708
50.1257781029
50.1257781029
50.1422114372
50.1257781029
50.1093447685
49.7971114159
50.1257781029
50.1093447685
50.0929114342
50.1298864365
50.1093447685
50.1257781029
50.1627531052
50.5735864639
50.1257781029
50.1298864365
50.1257781029
50.1422114372
50.1298864365
50.1463197708
50.1257781029
50.1093447685
50.1298864365
50.1257781029
50.1298864365
50.1257781029
50.1093447685
50.1257781029
50.0929114342
50.1093447685
50.1298864365
50.1093447685
50.1093447685
50.0929114342
50.0888031006
50.1093447685
50.0929114342
50.0929114342
50.0929114342
50.1093447685
50.1257781029
50.1093447685
50.1093447685
50.1422114372
50.1093447685
50.1093447685
50.0929114342
50.1093447685
50.1093447685
50.1093447685
31.1370602608
50.1257781029
50.1093447685
50.1093447685
50.1257781029
50.1093447685
50.1257781029
50.1093447685
50.1257781029
50.0929114342
50.1298864365
50.0929114342
50.0929114342
50.0929114342
50.1257781029
50.1257781029
50.1463197708
50.0929114342
50.1093447685
50.1093447685
50.0929114342
50.1093447685
50.1257781029
50.1093447685
50.1093447685
50.1093447685

Block: 10
======================================
22.0905097008
50.1257781029
50.1298864365
50.1463197708
50.1627531052
50.1257781029
50.1257781029
50.0929114342
50.1093447685
50.1463197708
50.1093447685
50.1422114372
50.1093447685
50.1134531021
50.1257781029
50.1422114372
50.0929114342
50.0929114342
50.1257781029
50.1257781029
50.1257781029
50.1093447685
50.1257781029
50.1463197708
50.1093447685
50.1093447685
50.1422114372
50.1093447685
50.1093447685
50.1257781029
50.1093447685
50.1093447685
50.1093447685
50.1093447685
50.1257781029
50.1257781029
50.1257781029
50.0929114342
50.1257781029
50.1257781029
50.1257781029
50.1257781029
50.1093447685
50.1257781029
50.1257781029
50.1257781029
50.1257781029
50.1093447685
50.1257781029
50.1093447685
50.1093447685
50.1463197708
50.1093447685
44.0125777245
50.1257781029
50.1298864365
50.1422114372
50.1093447685
50.0929114342
50.1093447685
50.1093447685
50.1134531021
50.1093447685
50.1257781029
50.1093447685
50.1257781029
50.1093447685
50.1093447685
50.1257781029
50.1298864365
50.1257781029
50.1422114372
50.1257781029
50.1134531021
31.0507852554
50.1257781029
50.1422114372
50.0929114342
50.1257781029
50.1257781029
50.1093447685
50.1093447685
50.1093447685
50.1257781029
50.1463197708
50.0888031006
50.1093447685
50.1093447685
50.1257781029
50.1093447685
50.1093447685
50.0929114342
50.0929114342
50.0929114342
50.1298864365
50.1093447685
50.1093447685
50.1134531021
50.1257781029
50.1093447685
