
Block: 1
======================================
402.791180396
402.823526931
400.599702668
400.231760836
401.076814055
400.652265787
401.080857372
400.656309104
400.619919252
400.619919252

Average distance is : 401.115 cm
Average deviation is : 0.924 cm
Block: 2
======================================
400.652265787
401.080857372
401.942083859
400.63609252
401.044467521
400.656309104
401.501362324
401.501362324
401.501362324
401.501362324

Average distance is : 401.202 cm
Average deviation is : 0.455 cm
Block: 3
======================================
401.076814055
401.044467521
400.603745985
400.603745985
400.619919252
401.060640788
401.044467521
401.469015789
401.044467521
401.909737325

Average distance is : 401.048 cm
Average deviation is : 0.408 cm
Block: 4
======================================
401.044467521
402.346415544
401.448799205
401.485189056
402.807353663
401.080857372
401.044467521
401.076814055
401.925910592
401.485189056

Average distance is : 401.575 cm
Average deviation is : 0.608 cm
Block: 5
======================================
400.619919252
400.619919252
401.012120986
402.770963812
400.63609252
400.656309104
401.060640788
401.076814055
400.63609252
400.63609252

Average distance is : 400.972 cm
Average deviation is : 0.662 cm
Block: 6
======================================
401.076814055
400.179197717
400.688655639
400.652265787
401.060640788
400.26410737
400.211544251
400.195370984
401.060640788
401.076814055

Average distance is : 400.647 cm
Average deviation is : 0.404 cm
Block: 7
======================================
401.060640788
401.076814055
401.044467521
401.464972472
401.485189056
401.469015789
401.464972472
402.770963812
401.485189056
401.925910592

Average distance is : 401.525 cm
Average deviation is : 0.514 cm
Block: 8
======================================
402.366632128
401.076814055
401.505405641
401.485189056
401.092987323
402.334285593
401.064684105
401.113203907
401.501362324
401.501362324

Average distance is : 401.504 cm
Average deviation is : 0.487 cm
Block: 9
======================================
400.656309104
401.521578908
401.517535591
400.63609252
400.640135837
400.656309104
401.044467521
400.688655639
401.925910592
401.113203907

Average distance is : 401.040 cm
Average deviation is : 0.470 cm
Block: 10
======================================
400.672482371
400.656309104
401.533708858
401.09703064
400.684612322
400.63609252
401.076814055
400.652265787
400.668439054
400.640135837

Average distance is : 400.832 cm
Average deviation is : 0.305 cm