
Block: 1
======================================
400.688655639
400.656309104
402.370675445
400.227717519
401.517535591
400.668439054
401.040424204
401.113203907
400.640135837
401.076814055
402.346415544
401.092987323
400.656309104
401.946127176
400.195370984
400.652265787
400.63609252
400.211544251
400.63609252
400.195370984
401.925910592
401.092987323
401.09703064
401.517535591
400.231760836

Average distance is : 400.977 cm
Average deviation is : 0.648 cm
Block: 2
======================================
400.688655639
401.485189056
400.656309104
400.231760836
400.672482371
401.517535591
401.942083859
400.668439054
400.231760836
400.231760836
402.386848712
400.211544251
401.09703064
401.113203907
400.656309104
400.195370984
401.092987323
401.09703064
401.080857372
401.076814055
400.668439054
400.211544251
400.211544251
401.064684105
401.501362324

Average distance is : 400.880 cm
Average deviation is : 0.585 cm
Block: 3
======================================
400.215587568
400.63609252
400.63609252
400.211544251
401.092987323
400.211544251
400.199414301
401.060640788
400.672482371
400.215587568
400.656309104
400.63609252
400.195370984
401.501362324
400.63609252
400.63609252
400.668439054
400.211544251
400.231760836
400.656309104
402.366632128
400.652265787
400.231760836
400.227717519
400.231760836

Average distance is : 400.596 cm
Average deviation is : 0.501 cm
Block: 4
======================================
400.656309104
401.076814055
400.652265787
400.640135837
402.366632128
400.211544251
401.060640788
401.925910592
400.63609252
402.346415544
401.501362324
401.060640788
400.63609252
400.640135837
400.652265787
401.060640788
400.619919252
402.758833861
400.640135837
400.619919252
400.63609252
401.076814055
401.040424204
400.640135837
401.925910592

Average distance is : 401.083 cm
Average deviation is : 0.670 cm
Block: 5
======================================
401.080857372
400.672482371
400.195370984
400.231760836
402.366632128
402.386848712
400.668439054
401.060640788
401.925910592
401.942083859
401.501362324
400.623962569
401.060640788
401.909737325
401.485189056
401.485189056
400.381363559
400.63609252
400.640135837
401.076814055
401.076814055
401.060640788
400.619919252
402.791180396
401.080857372

Average distance is : 401.198 cm
Average deviation is : 0.699 cm
Block: 6
======================================
401.092987323
401.909737325
401.485189056
401.469015789
401.517535591
401.09703064
401.537752175
401.076814055
401.517535591
401.09703064
403.231901932
401.09703064
402.366632128
401.925910592
401.09703064
401.092987323
400.672482371
401.521578908
401.09703064
401.942083859
401.080857372
401.092987323
401.076814055
401.09703064
401.076814055

Average distance is : 401.411 cm
Average deviation is : 0.539 cm
Block: 7
======================================
401.958257127
400.672482371
400.260064054
400.656309104
401.129377174
401.978473711
400.668439054
402.419195247
402.823526931
401.092987323
401.076814055
400.688655639
401.113203907
401.958257127
400.672482371
401.092987323
402.382805395
400.640135837
400.668439054
401.092987323
400.652265787
402.382805395
400.684612322
401.942083859
400.672482371

Average distance is : 401.255 cm
Average deviation is : 0.734 cm
Block: 8
======================================
401.092987323
401.080857372
400.63609252
401.092987323
401.537752175
401.517535591
400.656309104
401.517535591
401.974430394
401.076814055
401.080857372
401.09703064
401.517535591
402.843743515
402.382805395
401.092987323
401.533708858
401.537752175
401.09703064
400.668439054
401.092987323
401.533708858
401.080857372
401.517535591
400.672482371

Average distance is : 401.317 cm
Average deviation is : 0.521 cm
Block: 9
======================================
401.092987323
401.501362324
402.366632128
401.537752175
402.366632128
401.521578908
401.076814055
401.060640788
401.501362324
401.060640788
401.537752175
402.403021979
402.807353663
400.63609252
401.09703064
401.517535591
400.656309104
401.501362324
401.076814055
401.09703064
402.382805395
401.060640788
402.827570248
402.366632128
400.619919252

Average distance is : 401.547 cm
Average deviation is : 0.675 cm
Block: 10
======================================
400.684612322
400.652265787
400.63609252
401.09703064
401.10916059
400.656309104
403.215728664
401.517535591
401.080857372
400.63609252
400.63609252
402.366632128
402.382805395
400.640135837
400.63609252
400.652265787
400.63609252
401.925910592
401.076814055
401.537752175
400.63609252
400.619919252
403.211685348
400.652265787
400.656309104

Average distance is : 401.182 cm
Average deviation is : 0.816 cm