
Block: 1
======================================
49.3167275667
49.3167275667
49.3167275667
49.3331897974
49.3208431244

Average distance is : 49.321 cm
Average deviation is : 0.007 cm
Block: 2
======================================
49.3167275667
49.3331897974
49.3496520281
49.3331897974
49.3167275667

Average distance is : 49.330 cm
Average deviation is : 0.014 cm
Block: 3
======================================
49.3373053551
49.300265336
49.3537675858
49.3702298164
49.3331897974

Average distance is : 49.339 cm
Average deviation is : 0.026 cm
Block: 4
======================================
49.3331897974
49.3167275667
49.300265336
49.3167275667
49.4031542778

Average distance is : 49.334 cm
Average deviation is : 0.040 cm
Block: 5
======================================
49.3167275667
49.3331897974
49.3496520281
49.3167275667
49.300265336

Average distance is : 49.323 cm
Average deviation is : 0.019 cm
Block: 6
======================================
49.2838031054
49.300265336
49.3496520281
48.938096261
49.3167275667

Average distance is : 49.238 cm
Average deviation is : 0.169 cm
Block: 7
======================================
49.3167275667
49.3167275667
49.2796875477
49.3331897974
49.3167275667

Average distance is : 49.313 cm
Average deviation is : 0.020 cm
Block: 8
======================================
49.3373053551
49.3496520281
49.3331897974
49.3167275667
49.3167275667

Average distance is : 49.331 cm
Average deviation is : 0.014 cm
Block: 9
======================================
49.3331897974
49.3331897974
49.3537675858
49.3167275667
49.3702298164

Average distance is : 49.341 cm
Average deviation is : 0.021 cm
Block: 10
======================================
49.3167275667
49.300265336
49.3167275667
49.3167275667
49.3167275667

Average distance is : 49.313 cm
Average deviation is : 0.007 cm