
Block: 1
======================================
49.3167275667
49.3866920471
49.3702298164
49.3537675858
49.3496520281
49.3866920471
49.4031542778
49.3866920471
49.3825764894
49.3331897974
49.3866920471
49.3702298164
49.3496520281
49.300265336
49.3167275667
49.3167275667
49.3537675858
49.3702298164
49.3167275667
49.3167275667
49.3331897974
49.3167275667
49.3167275667
49.3167275667
49.3167275667

Average distance is : 49.347 cm
Average deviation is : 0.031 cm
Block: 2
======================================
49.3167275667
49.3167275667
49.3866920471
49.3496520281
49.300265336
49.3661142588
49.3167275667
49.3208431244
49.3208431244
49.3373053551
49.300265336
49.3373053551
49.3167275667
49.3331897974
49.2961497784
49.3208431244
49.3866920471
48.8681317806
49.3866920471
49.3167275667
49.2961497784
49.300265336
49.300265336
49.3331897974
49.3661142588

Average distance is : 49.312 cm
Average deviation is : 0.097 cm
Block: 3
======================================
49.3167275667
49.3167275667
49.2961497784
49.3331897974
49.3167275667
49.3167275667
49.3208431244
49.3331897974
49.3331897974
49.300265336
49.300265336
49.300265336
49.3167275667
49.3373053551
49.3167275667
49.300265336
49.3373053551
49.3331897974
49.3331897974
49.3373053551
49.3331897974
49.3496520281
49.3661142588
49.3167275667
49.3167275667

Average distance is : 49.323 cm
Average deviation is : 0.017 cm
Block: 4
======================================
49.3496520281
49.2838031054
49.3331897974
49.3167275667
49.3496520281
49.3167275667
49.300265336
49.3537675858
48.9874829531
49.3496520281
49.3496520281
49.3167275667
49.3702298164
49.3167275667
49.300265336
49.3373053551
49.3167275667
49.3167275667
49.3167275667
49.3331897974
49.3167275667
49.2961497784
49.3373053551
49.3331897974
49.3331897974

Average distance is : 49.313 cm
Average deviation is : 0.071 cm
Block: 5
======================================
49.3167275667
49.3331897974
49.3373053551
49.3167275667
49.3702298164
49.3167275667
48.901056242
49.3496520281
49.3167275667
49.3167275667
49.3702298164
49.3537675858
49.3167275667
49.3167275667
49.1809141636
49.3167275667
49.3331897974
49.300265336
49.3167275667
49.3208431244
49.300265336
49.3167275667
49.3208431244
49.3167275667
49.3167275667

Average distance is : 49.303 cm
Average deviation is : 0.090 cm
Block: 6
======================================
49.2838031054
49.3208431244
49.3167275667
49.3331897974
49.3331897974
49.3661142588
49.2838031054
49.3496520281
49.3331897974
48.9216340303
49.3331897974
48.9175184727
48.901056242
48.9216340303
49.3331897974
48.901056242
49.3167275667
48.9051717997
48.9175184727
49.3373053551
48.901056242
48.901056242
49.3537675858
48.901056242
49.3331897974

Average distance is : 49.161 cm
Average deviation is : 0.211 cm
Block: 7
======================================
49.3331897974
49.3167275667
49.3167275667
49.3208431244
49.3167275667
49.3331897974
49.3331897974
49.3496520281
49.3208431244
49.3373053551
49.3331897974
49.3537675858
49.3167275667
49.3167275667
49.3373053551
49.3825764894
49.3331897974
49.3537675858
49.3331897974
49.3331897974
49.3167275667
49.3866920471
49.3167275667
49.3373053551
49.3331897974

Average distance is : 49.335 cm
Average deviation is : 0.019 cm
Block: 8
======================================
49.3373053551
49.3167275667
49.3331897974
49.3373053551
49.3167275667
49.3167275667
49.3167275667
49.3331897974
49.3208431244
49.3167275667
49.3866920471
49.300265336
49.300265336
49.3866920471
49.3167275667
49.3537675858
49.3167275667
49.3331897974
49.3167275667
49.3331897974
49.3537675858
49.300265336
49.3331897974
49.3537675858
49.3167275667

Average distance is : 49.330 cm
Average deviation is : 0.023 cm
Block: 9
======================================
49.3661142588
49.3167275667
49.300265336
49.3331897974
49.2961497784
49.3331897974
49.3537675858
49.3496520281
49.3537675858
49.2796875477
49.3167275667
48.901056242
49.3167275667
48.9216340303
48.901056242
49.3208431244
48.9051717997
49.3331897974
48.888709569
49.300265336
49.3825764894
48.9051717997
48.901056242
48.9051717997
48.8845940113

Average distance is : 49.175 cm
Average deviation is : 0.210 cm
Block: 10
======================================
49.3167275667
49.300265336
49.3373053551
49.3331897974
49.3373053551
49.3167275667
49.3331897974
49.3331897974
49.3167275667
49.2838031054
49.3537675858
49.3167275667
49.3702298164
49.3331897974
49.3331897974
49.3167275667
49.3331897974
49.3167275667
49.300265336
49.3167275667
49.300265336
49.3167275667
49.3331897974
49.3208431244
49.3373053551

Average distance is : 49.324 cm
Average deviation is : 0.018 cm