
Block: 1
======================================
399.33010118
399.33010118
399.350317764
399.33010118
399.366491032

Block: 2
======================================
399.770822716
399.80316925
399.770822716
399.786995983
399.770822716

Block: 3
======================================
399.770822716
399.754649448
399.807212567
399.774866033
399.754649448

Block: 4
======================================
399.807212567
399.7910393
399.7910393
399.823385835
399.419054151

Block: 5
======================================
398.941942763
399.33010118
399.362447715
399.382664299
399.807212567

Block: 6
======================================
399.33010118
399.366491032
399.398837566
398.921726179
399.382664299

Block: 7
======================================
398.974289298
399.435227418
399.362447715
399.350317764
399.350317764

Block: 8
======================================
398.54974103
399.415010834
399.415010834
398.941942763
398.994505882

Block: 9
======================================
399.431184101
398.994505882
399.398837566
398.990462565
398.941942763

Block: 10
======================================
399.346274447
398.517394495
398.941942763
398.978332615
398.941942763
