
Block: 1
======================================
399.33010118
399.382664299
399.770822716
399.334144497
399.346274447
399.346274447
399.346274447
399.706129646
399.33010118
399.908295488

Average distance is : 399.480 cm
Average deviation is : 0.223 cm
Block: 2
======================================
399.382664299
399.722302914
399.770822716
399.738476181
399.706129646
399.297754645
399.738476181
399.754649448
399.281581378
399.33010118

Average distance is : 399.572 cm
Average deviation is : 0.217 cm
Block: 3
======================================
399.702086329
399.706129646
400.146851182
399.702086329
399.673783112
399.722302914
399.722302914
399.722302914
399.706129646
399.758692765

Average distance is : 399.756 cm
Average deviation is : 0.139 cm
Block: 4
======================================
399.702086329
400.130677915
400.114504647
400.163024449
400.158981133
400.130677915
400.195370984
400.163024449
399.669739795
400.179197717

Average distance is : 400.061 cm
Average deviation is : 0.199 cm
Block: 5
======================================
399.722302914
399.669739795
399.738476181
399.718259597
399.685913062
399.281581378
399.706129646
399.722302914
399.706129646
399.738476181

Average distance is : 399.669 cm
Average deviation is : 0.138 cm
Block: 6
======================================
399.281581378
399.229018259
399.249234843
399.245191526
399.281581378
399.277538061
398.751906872
399.245191526
399.249234843
399.63739326

Average distance is : 399.245 cm
Average deviation is : 0.211 cm
Block: 7
======================================
399.245191526
399.196671724
399.196671724
399.245191526
399.212844992
399.229018259
399.245191526
398.772123456
399.245191526
399.196671724

Average distance is : 399.178 cm
Average deviation is : 0.144 cm
Block: 8
======================================
399.229018259
399.196671724
399.229018259
399.196671724
399.212844992
398.768080139
399.261364794
399.196671724
398.772123456
399.212844992

Average distance is : 399.128 cm
Average deviation is : 0.189 cm
Block: 9
======================================
399.229018259
399.265408111
399.212844992
399.212844992
399.265408111
399.229018259
398.772123456
399.261364794
399.249234843
399.245191526

Average distance is : 399.194 cm
Average deviation is : 0.150 cm
Block: 10
======================================
399.245191526
399.669739795
399.669739795
399.653566527
399.689956379
399.281581378
399.245191526
399.212844992
398.788296723
399.229018259

Average distance is : 399.369 cm
Average deviation is : 0.295 cm