
Block: 1
======================================
401.400279403
400.48244648
400.502663064
400.959557867
400.975731134
400.959557867
401.420495987
400.518836331
401.841000938
400.959557867
400.502663064
400.959557867
400.518836331
402.265549207
400.9433846
400.959557867
401.808654404
400.927211332
400.939341283
401.400279403
400.939341283
400.959557867
400.9433846
401.841000938
400.927211332

Block: 2
======================================
400.9433846
400.906994748
401.788437819
401.384106135
400.470316529
400.466273212
401.351759601
400.923168015
401.384106135
400.923168015
402.281722474
401.384106135
400.48244648
400.923168015
400.9433846
400.48244648
400.927211332
400.466273212
400.906994748
401.824827671
402.249375939
401.363889551
400.923168015
401.792481136
400.890821481

Block: 3
======================================
401.756091285
400.890821481
400.429883361
400.927211332
400.433926678
400.454143262
400.906994748
400.890821481
400.890821481
400.454143262
400.450099945
400.466273212
400.470316529
400.923168015
400.9433846
400.911038065
401.363889551
400.939341283
400.874648213
400.486489797
401.335586333
400.911038065
400.890821481
401.363889551
401.367932868

Block: 4
======================================
400.939341283
400.502663064
401.384106135
401.384106135
400.450099945
400.498619747
401.384106135
401.363889551
400.911038065
400.923168015
400.450099945
400.906994748
400.923168015
400.923168015
400.906994748
400.470316529
400.498619747
400.48244648
400.48244648
400.486489797
401.384106135
400.9433846
400.466273212
400.466273212
400.927211332

Block: 5
======================================
401.857174206
401.824827671
400.927211332
401.363889551
401.808654404
400.498619747
401.824827671
401.363889551
400.486489797
401.384106135
401.400279403
400.9433846
400.486489797
400.502663064
400.514793015
401.857174206
400.518836331
400.923168015
400.939341283
403.130819011
403.110602427
400.48244648
401.824827671
400.890821481
401.808654404

Block: 6
======================================
400.923168015
401.824827671
401.367932868
401.363889551
400.927211332
401.367932868
401.347716284
400.923168015
402.249375939
400.906994748
401.367932868
400.923168015
401.792481136
401.363889551
401.772264552
400.911038065
401.315369749
401.772264552
400.927211332
401.347716284
400.906994748
401.351759601
401.347716284
401.331543016
402.653707623

Block: 7
======================================
403.078255892
401.772264552
402.621361089
402.212986088
401.299196482
401.299196482
401.792481136
400.906994748
403.470457625
401.739918017
401.331543016
401.315369749
401.315369749
403.470457625
401.299196482
401.315369749
401.315369749
401.756091285
401.315369749
402.164466286
402.19681282
401.278979897
403.486630893
402.180639553
401.739918017

Block: 8
======================================
401.776307869
401.315369749
400.874648213
402.621361089
400.890821481
401.756091285
401.788437819
401.315369749
401.331543016
401.335586333
400.48244648
401.315369749
401.776307869
400.894864798
401.315369749
401.788437819
400.858474946
401.772264552
401.347716284
401.331543016
400.890821481
400.890821481
402.637534356
401.315369749
400.911038065

Block: 9
======================================
401.400279403
400.486489797
402.297895741
400.923168015
401.436669254
400.923168015
402.706270742
400.939341283
402.706270742
401.384106135
400.939341283
401.400279403
400.979774451
401.804611087
400.939341283
400.9433846
400.9433846
401.400279403
400.927211332
401.820784354
401.824827671
401.824827671
401.824827671
400.9433846
401.380062819

Block: 10
======================================
401.41645267
401.400279403
400.48244648
400.518836331
400.959557867
401.41645267
400.518836331
400.959557867
400.959557867
400.939341283
401.41645267
400.486489797
401.400279403
400.518836331
400.502663064
400.975731134
400.502663064
400.991904402
401.400279403
400.061941528
401.400279403
400.923168015
400.9433846
401.384106135
401.384106135
