
Block: 1
======================================
299.650670767
299.244171858
179.810727406
298.862062883
180.270071173
298.353939247
179.448943377
297.910855436
183.761896801
294.50032959
186.286255026
292.829619074
186.26593008
291.569472456
188.363464451
292.012556267
185.810651302
292.849944019
187.119577789
290.715824747
299.187262011
299.687255669
180.709089994
298.353939247
181.631842518
298.764503145
179.892027187
298.817348003
179.875767231
297.08972764
182.042406416
296.223884964
182.038341427
296.683228731
181.188758707
296.666968775
181.135913849
298.423044062
178.989599609
298.866127872
180.676570082
297.573461342
299.650670767
179.875767231
298.439304018
179.822922373
298.866127872
179.822922373
298.459628963
179.379838562
297.996220207
180.692830038
297.146637487
181.103393936
298.882387829
178.546515799
298.829542971
299.207586956
181.631842518
297.910855436
182.091186285
295.333652353
184.668389368
293.618226957
185.928535986
294.00846591
185.534232044
291.874346638
187.241527462
293.207663059
186.798443651
292.744254303
184.631804466
298.748243189
179.944872046
298.764503145
299.666930723
179.448943377
298.353939247
180.745674896
297.500291538
181.599322605
295.353977299
183.749701834
294.927153444
186.302514982
291.91093154
186.729338837
292.333690405
187.582986546
290.667044878
186.26999507
291.975971365
188.400049353
291.569472456
187.989485455
291.126388645
189.692715883
287.256519032
190.534168625

Block: 2
======================================
299.666930723
176.688815784
300.162859392
177.318889093
298.471823931
179.534308147
298.305159378
180.404215813
299.187262011
182.058666372
296.618188906
181.188758707
298.374264193
181.57899766
295.166987801
182.668414736
296.036895466
299.244171858
178.664400482
298.813283014
179.058704424
298.813283014
179.892027187
297.959635305
181.156238794
298.423044062
179.363578606
299.276691771
180.266006184
298.012480164
181.989561558
297.110052586
182.432645369
297.142572498
183.249708176
297.146637487
181.08713398
296.736073589
180.692830038
298.882387829
180.233486271
298.455563974
299.699450636
180.676570082
298.866127872
179.400163507
298.882387829
178.969274664
298.423044062
182.400125456
295.459667015
182.806624365
294.707644033
185.704961586
295.540966797
299.240106869
181.156238794
297.142572498
181.135913849
296.614123917
183.798481703
294.910893488
183.778156757
295.353977299
183.355397892
294.504394579
183.794416714
299.207586956
178.599360657
298.83360796
179.022119522
298.817348003
181.920456743
297.195417356
183.611492205
296.345834637
181.509892845
297.162897444
299.68319068
178.989599609
298.866127872
180.270071173
298.9677526
179.416423464
298.439304018
179.416423464
298.423044062
181.562737703
297.996220207
182.347280598
297.227937269
299.68319068
177.729452991
299.256366825
178.562775755
298.83360796
179.43268342
297.959635305
179.43268342
298.83360796

Block: 3
======================================
299.699450636
299.650670767
179.859507275
298.390524149
179.43268342
298.797023058
179.026184511
298.829542971
179.875767231
298.849867916
181.566802692
298.845802927
180.676570082
299.650670767
299.240106869
179.513983202
295.866165924
180.270071173
299.292951727
180.335110998
298.797023058
180.351370955
298.358004236
182.058666372
296.223884964
181.188758707
298.801088047
180.351370955
297.484031582
182.534270096
296.581604004
299.272626781
181.509892845
296.752333546
182.37980051
297.146637487
182.196876001
297.792970753
181.770052147
299.614085865
299.276691771
299.699450636
179.416423464
298.882387829
180.266006184
296.992167902
180.847299623
296.581604004
182.139966154
295.727956295
183.367592859
297.484031582
181.241603565
297.890530491
180.383890867
297.040947771
180.814779711
296.59786396
185.091148233
294.036920834
183.387917805
293.597902012
185.55455699
294.447484732
182.518010139
296.154780149
182.144031143
294.431224775
183.867586517
295.264547539
182.196876001
296.122260237
181.700947332
296.988102913
180.847299623
295.642591524
182.196876001
295.199507713
183.522062445
294.329600048
184.359450197
295.199507713
183.078978634
295.012518215
182.908249092
299.260431814
178.595295668
298.406784105
179.448943377
298.813283014
180.745674896
298.829542971
177.729452991
299.292951727
180.318851042
298.845802927
180.713154984
297.996220207
179.892027187
298.866127872

Block: 4
======================================
299.650670767
176.737595654
299.687255669
299.731970549
179.875767231
296.955583
183.062718678
298.203534651
183.473282576
295.695436382
299.703515625
178.152211857
298.866127872
180.286331129
297.585656309
181.152173805
297.996220207
181.973301601
295.898685837
182.82694931
296.715748644
181.562737703
295.43934207
184.139940786
293.715786695
184.989523506
294.549109459
182.891989136
296.276729822
183.709051943
294.553174448
182.875729179
297.585656309
180.302591085
297.585656309
180.302591085
296.650708818
181.001769209
297.963700294
178.920494795
299.309211683
179.43268342
297.601916265
181.103393936
298.032805109
179.396098518
299.276691771
177.725388002
299.309211683
178.172536802
299.292951727
179.859507275
298.455563974
178.49367094
299.345796585
179.806662416
298.931167698
181.018029165
300.114079523
179.400163507
299.292951727
179.855442286
298.455563974
179.43268342
297.569396353
299.276691771
179.038379478
298.849867916
180.713154984
296.7320086
182.400125456
296.752333546
182.822884321
297.1791574
180.676570082
298.455563974
180.249746227
297.622241211
185.741546488
291.68735714
186.558609295
294.707644033
184.444814968
297.260457182
183.18466835
294.260495234
185.33098259
294.691384077
185.314722633
294.211715364
184.083030939
293.805216455
185.314722633
295.097882986
183.639947128
295.08162303
182.37980051
295.935270739
183.660272074
295.097882986

Block: 5
======================================
299.292951727
299.276691771
181.989561558
295.866165924
182.416385412
297.53687644
181.615582561
295.353977299
182.091186285
297.874270535
181.274123478
300.077494621
180.794454765
296.666968775
181.22127862
297.504356527
180.1481215
297.553136396
182.875729179
295.032843161
299.256366825
181.119653893
296.788918447
181.461112976
297.248262215
181.034289122
297.232002258
182.367605543
295.545031786
185.310657644
294.654799175
182.774104452
295.524706841
185.741546488
292.541004848
187.017953062
290.358105707
299.719775581
177.745712948
299.292951727
179.839182329
298.012480164
180.72941494
298.849867916
181.152173805
295.455602026
183.233448219
294.606019306
184.993588495
293.309287786
184.343190241
296.053155422
184.39197011
296.890543175
299.736035538
178.599360657
299.309211683
299.703515625
179.839182329
298.423044062
299.650670767
178.615620613
299.256366825
178.156276846
298.813283014
180.318851042
298.849867916
178.989599609
298.902712774
180.709089994
298.866127872
179.005859566
298.439304018
178.98553462
298.83360796
179.859507275
298.866127872
179.005859566
298.866127872
299.719775581
179.892027187
298.374264193
182.465165281
295.406822157
182.452970314
294.979998302
184.172460699
295.402757168
182.875729179
295.817386055
182.038341427
295.162922812
299.687255669
179.022119522
298.845802927
181.989561558
296.309249735
182.396060467
299.292951727
181.57899766

Block: 6
======================================
299.68319068
177.607503319
300.110014534
299.666930723
299.719775581
179.416423464
298.049065065
181.188758707
296.59786396
182.058666372
296.219819975
183.798481703
294.793008804
299.687255669
180.302591085
298.83360796
179.871702242
297.927115393
180.761934853
298.370199203
181.615582561
296.219819975
183.745636845
295.813321066
182.879794168
296.276729822
180.660310125
297.1791574
181.477372932
297.232002258
299.666930723
299.244171858
180.28226614
298.849867916
299.68319068
180.302591085
299.223846912
179.892027187
298.829542971
179.892027187
299.154742098
299.703515625
180.249746227
298.882387829
179.806662416
298.829542971
299.650670767
179.892027187
298.83360796
178.989599609
299.256366825
179.022119522
298.817348003
180.302591085
298.849867916
299.666930723
299.191327
299.68319068
179.448943377
298.780763102
181.152173805
297.963700294
181.188758707
297.500291538
181.648102474
297.484031582
181.631842518
298.760438156
180.782259798
296.699488688
182.859469223
298.370199203
181.969236612
297.975895262
181.139978838
297.126312542
181.989561558
298.813283014
179.465203333
299.223846912
178.172536802
299.223846912
299.715710592
179.859507275
298.418979073
179.875767231
298.849867916
180.709089994
298.866127872
299.703515625
178.98553462
299.276691771
178.969274664
298.866127872
176.465241385
299.699450636
180.253811216
298.866127872
181.493632889
296.272664833

Block: 7
======================================
299.687255669
179.123744249
299.614085865
180.355435944
297.927115393
181.139978838
297.53687644
181.818832016
295.561291742
181.80257206
299.666930723
177.745712948
299.223846912
177.745712948
298.813283014
179.465203333
298.817348003
178.27416153
300.093754578
177.33514905
299.244171858
179.928612089
297.654761124
299.666930723
179.038379478
298.845802927
181.989561558
297.573461342
180.302591085
298.406784105
180.692830038
296.736073589
180.249746227
298.439304018
178.973339653
298.882387829
178.070912075
299.32547164
177.656283188
299.32547164
179.43268342
298.83360796
178.172536802
298.829542971
182.02614646
296.292989779
182.02208147
297.53687644
180.3716959
297.927115393
179.9245471
297.077532673
181.205018663
298.370199203
180.778194809
297.520616484
182.038341427
294.94747839
183.355397892
294.894633532
182.534270096
296.171040106
299.276691771
178.546515799
299.276691771
180.302591085
297.553136396
299.240106869
299.240106869
181.188758707
297.963700294
180.351370955
297.963700294
180.335110998
297.943375349
180.778194809
297.927115393
182.501750183
295.353977299
182.944833994
294.927153444
183.745636845
299.223846912
182.02614646
295.813321066
182.485490227
296.223884964
299.240106869
178.631880569
298.817348003
179.058704424
298.813283014
179.485528278
298.845802927
181.156238794
298.370199203
179.481463289
298.849867916
299.666930723
179.481463289

Block: 8
======================================
299.272626781
299.240106869
178.611555624
298.849867916
179.928612089
299.666930723
179.619672918
298.146624804
181.274123478
297.825490665
180.831039667
298.301094389
299.666930723
299.666930723
179.481463289
298.83360796
179.453008366
298.797023058
299.227911901
299.240106869
180.692830038
296.736073589
181.583062649
297.947440338
180.286331129
298.849867916
178.973339653
298.845802927
179.448943377
298.849867916
177.745712948
299.260431814
299.244171858
179.054639435
298.813283014
299.703515625
299.223846912
299.223846912
181.119653893
297.162897444
181.562737703
298.845802927
181.566802692
297.146637487
181.989561558
297.146637487
299.223846912
299.203521967
180.355435944
298.370199203
180.367630911
298.38645916
181.135913849
297.585656309
182.37980051
294.996258259
183.729376888
294.963738346
182.875729179
295.337717342
299.666930723
299.63441081
178.611555624
298.797023058
299.256366825
299.666930723
179.875767231
298.406784105
180.709089994
297.979960251
179.843247318
298.443369007
179.843247318
298.455563974
181.119653893
296.309249735
183.253773165
299.223846912
180.298526096
297.963700294
181.595257616
297.963700294
181.546477747
296.272664833
181.989561558
298.849867916
299.223846912
180.318851042
298.402719116
180.249746227
298.016545153
181.103393936
298.032805109
179.806662416
298.459628963
180.233486271
298.439304018
178.562775755
298.423044062
178.546515799

Block: 9
======================================
299.240106869
180.883884525
296.870218229
299.260431814
299.666930723
179.79040246
299.260431814
178.579035711
298.797023058
181.135913849
298.370199203
299.68319068
176.822960424
299.703515625
299.260431814
176.022157574
299.207586956
181.08713398
296.68729372
181.103393936
298.459628963
181.9367167
298.423044062
179.383903551
299.276691771
178.957079697
298.866127872
182.331020641
297.601916265
299.63441081
177.745712948
299.223846912
181.57899766
298.402719116
180.302591085
298.38645916
180.266006184
297.585656309
180.676570082
297.963700294
179.822922373
298.849867916
180.28226614
298.406784105
178.969274664
298.866127872
178.546515799
298.813283014
180.302591085
298.813283014
180.270071173
298.402719116
181.119653893
298.882387829
180.623725224
296.715748644
180.233486271
298.83360796
178.733505297
300.077494621
180.709089994
297.996220207
180.692830038
298.439304018
181.493632889
296.736073589
181.103393936
296.715748644
182.363540554
295.455602026
182.82694931
296.715748644
181.973301601
295.866165924
184.530179739
292.84587903
185.810651302
295.386497211
183.302553034
296.650708818
181.631842518
295.333652353
182.452970314
296.223884964
181.172498751
296.24014492
182.005821514
297.943375349
180.318851042
298.374264193
178.615620613
298.337679291
179.022119522
298.390524149
179.875767231
297.057207727
181.546477747
298.38645916
182.400125456
298.370199203

Block: 10
======================================
299.256366825
177.026209879
300.061234665
178.034327173
299.345796585
179.310733747
298.049065065
181.887936831
296.345834637
183.148083448
294.654799175
182.725324583
297.67102108
180.981444263
298.134429836
180.554620409
297.264522171
180.485515594
297.280782127
182.225330925
295.134467888
183.932626343
296.427134418
299.260431814
177.249784279
299.260431814
178.936754751
298.882387829
178.530255842
298.866127872
179.822922373
298.797023058
179.839182329
297.910855436
180.725349951
298.780763102
178.98553462
298.83360796
180.660310125
298.406784105
181.083068991
296.272664833
181.513957834
298.866127872
179.806662416
298.849867916
299.650670767
179.400163507
298.866127872
179.822922373
298.849867916
299.687255669
178.119691944
299.260431814
181.509892845
298.439304018
181.920456743
296.138520193
182.091186285
296.955583
181.274123478
299.138482141
179.107484293
298.695398331
299.666930723
179.396098518
298.390524149
182.37980051
295.43934207
299.68319068
178.989599609
297.927115393
299.68319068
180.676570082
298.423044062
299.666930723
178.103431988
298.866127872
179.826987362
297.585656309
182.790364408
294.996258259
184.103355885
294.553174448
184.936678648
294.162935495
185.33098259
295.423082113
182.363540554
295.845840979
182.635894823
297.329561996
180.932664394
298.166949749
299.699450636
179.822922373
298.455563974
179.383903551
298.423044062
182.347280598
