
Block: 1
======================================
299.207586956
299.650670767
177.745712948
298.882387829
177.318889093
298.902712774
180.168446445
297.691346025
299.666930723
181.477372932
297.211677313
299.666930723
178.615620613
298.797023058
178.579035711
298.390524149
180.692830038
298.406784105
179.859507275
297.996220207
180.253811216
297.996220207
179.396098518
298.849867916
299.68319068

Average distance is : 251.004 cm
Average deviation is : 59.670 cm
Block: 2
======================================
299.260431814
175.831103086
299.138482141
175.81484313
299.618150854
179.379838562
298.882387829
180.660310125
298.049065065
182.709064627
293.975945997
184.274085426
296.528759146
181.290383434
297.841750622
181.700947332
296.581604004
182.042406416
298.353939247
181.172498751
297.08972764
299.68319068
179.855442286
298.829542971
178.579035711

Average distance is : 241.486 cm
Average deviation is : 60.057 cm
Block: 3
======================================
299.719775581
175.168509865
299.292951727
176.534346199
298.898647785
180.574945354
296.37428956
181.44485302
295.93120575
181.424528074
295.593811655
184.022056103
295.150727844
184.428555012
292.984088659
185.757806444
292.536939859
186.57893424
292.573524761
185.278137732
294.297080135
182.704999638
295.150727844
184.408230066
295.219832659

Average distance is : 241.282 cm
Average deviation is : 57.853 cm
Block: 4
======================================
299.703515625
176.343291712
300.130339479
176.107522345
298.813283014
176.192887115
299.187262011
178.221316671
298.780763102
179.022119522
298.390524149
179.908287144
297.756385851
180.526165485
296.443394375
181.839156961
294.740163946
183.09523859
294.36618495
183.489542532
293.955621052
184.802534008
293.528797197
183.883846474
294.809268761

Average distance is : 240.961 cm
Average deviation is : 59.560 cm
Block: 5
======================================
299.666930723
179.331058693
300.130339479
176.940845108
299.276691771
179.469268322
297.963700294
179.054639435
298.797023058
179.042444468
298.849867916
179.875767231
298.882387829
181.57899766
298.032805109
180.709089994
296.325509691
180.709089994
298.065325022
179.379838562
299.276691771
179.465203333
298.849867916
179.005859566
298.898647785

Average distance is : 241.503 cm
Average deviation is : 60.762 cm
Block: 6
======================================
299.666930723
179.347318649
299.736035538
178.172536802
299.341731596
179.058704424
298.797023058
299.207586956
180.814779711
297.910855436
179.977391958
298.797023058
299.650670767
179.908287144
298.813283014
179.908287144
297.963700294
179.465203333
297.947440338
179.892027187
297.979960251
181.188758707
297.996220207
179.412358475
298.866127872

Average distance is : 246.393 cm
Average deviation is : 60.304 cm
Block: 7
======================================
299.699450636
177.794492817
298.760438156
178.172536802
298.83360796
179.261953878
300.12627449
178.168471813
298.390524149
179.481463289
298.866127872
299.703515625
178.631880569
298.370199203
178.648140526
298.370199203
181.188758707
296.614123917
182.518010139
296.187300062
299.715710592
179.892027187
298.764503145
180.318851042
298.797023058

Average distance is : 246.211 cm
Average deviation is : 60.400 cm
Block: 8
======================================
299.666930723
178.322941399
300.057169676
299.244171858
179.022119522
298.882387829
180.607465267
299.292951727
179.839182329
298.83360796
178.989599609
298.866127872
179.176589108
299.191327
180.383890867
297.040947771
181.648102474
296.171040106
183.404177761
295.30519743
182.96109395
295.74828124
181.22127862
296.59786396
182.940769005

Average distance is : 241.737 cm
Average deviation is : 59.865 cm
Block: 9
======================================
299.703515625
177.196939421
298.134429836
177.591243362
297.756385851
176.684750795
299.256366825
180.63998518
297.142572498
179.774142504
298.829542971
179.843247318
297.943375349
180.270071173
297.532811451
180.713154984
298.423044062
181.493632889
298.882387829
179.379838562
299.32547164
177.676608133
299.272626781
181.493632889
295.914945793

Average distance is : 241.235 cm
Average deviation is : 60.653 cm
Block: 10
======================================
299.666930723
178.392046213
298.219794607
180.489580584
296.549084091
180.95298934
300.110014534
178.989599609
298.849867916
178.083107042
299.292951727
180.676570082
298.455563974
181.103393936
298.455563974
178.083107042
299.276691771
178.509930897
298.849867916
179.855442286
297.996220207
181.135913849
297.110052586
181.139978838
297.105987597

Average distance is : 241.494 cm
Average deviation is : 60.522 cm