
Block: 1
======================================
401.739918017
401.331543016
403.470457625
402.144249701
403.878832626

Average distance is : 402.513 cm
Average deviation is : 1.108 cm
Block: 2
======================================
401.266849947
402.584971237
401.72374475
401.278979897
401.283023214

Average distance is : 401.628 cm
Average deviation is : 0.569 cm
Block: 3
======================================
403.858616042
400.805911827
401.246633363
401.25067668
400.78973856

Average distance is : 401.590 cm
Average deviation is : 1.288 cm
Block: 4
======================================
400.365190291
401.671181631
400.365190291
400.385406876
401.687354898

Average distance is : 400.895 cm
Average deviation is : 0.716 cm
Block: 5
======================================
400.78973856
400.401580143
400.397536826
401.266849947
402.111903167

Average distance is : 400.994 cm
Average deviation is : 0.720 cm
Block: 6
======================================
400.822085094
401.691398215
2785.97468967
401.246633363
401.230460095

Average distance is : 878.193 cm
Average deviation is : 1066.482 cm
Block: 7
======================================
400.822085094
400.401580143
401.283023214
401.266849947
400.41775341

Average distance is : 400.838 cm
Average deviation is : 0.433 cm
Block: 8
======================================
2794.09771321
403.045909357
402.960999703
403.013562822
402.977172971

Average distance is : 881.219 cm
Average deviation is : 1069.332 cm
Block: 9
======================================
400.822085094
403.369374704
403.385547972
401.671181631
403.385547972

Average distance is : 402.527 cm
Average deviation is : 1.207 cm
Block: 10
======================================
401.687354898
401.707571483
401.26280663
402.095729899
401.230460095

Average distance is : 401.597 cm
Average deviation is : 0.359 cm