
Block: 1
======================================
200.365104747
79.0986686707
199.615817523
79.9864111423
198.280131602
80.9067313194
197.872910285
81.3017359972
197.038106585
82.6333497047

Block: 2
======================================
200.316238189
76.9444679022
201.615274191
75.9223423958
200.385465813
78.2272150517
198.846169233
79.1149575233
197.99507668
80.4139935255

Block: 3
======================================
199.884583592
79.1475352287
199.18823514
79.9864111423
197.872910285
81.2528694391
196.675679612
82.1039619923
195.792009354
82.9754156113

Block: 4
======================================
200.332527041
75.9874978065
199.033491039
78.4837644815
197.722238398
79.2697016239
197.461616755
79.200474
196.081136489
83.0446432352

Block: 5
======================================
200.385465813
78.8421192408
199.086429811
80.1533718824
198.25162611
80.9596700907
197.392389131
81.3506025553
197.017745519
82.2261283875

Block: 6
======================================
200.332527041
76.4150801897
199.461073422
77.2376672506
198.622197509
79.766511631
197.824043727
80.5483765602
196.541296577
81.4564800978

Block: 7
======================================
200.348815894
78.3493814468
199.546589899
79.6280563831
198.776941609
80.3936324596
197.958426762
81.3017359972
156.934951258
121.881340265

Block: 8
======================================
200.348815894
76.4191524029
199.477362275
76.7937960148
198.691425133
77.5634443045
156.914590192
118.774241614
159.121729732
119.287340474

Block: 9
======================================
200.348815894
79.1678962946
199.171946287
80.0515665531
197.872910285
81.3180248499
197.001456666
82.2587060928
196.541296577
82.2749949455

Block: 10
======================================
200.385465813
76.5005966663
199.750200558
77.4249890566
198.504103327
78.1946373463
197.685588479
79.8479558945
198.968335629
80.2918271303
