
Block: 1
======================================
299.410836411
177.948962402
300.195379305
175.936792803
299.85798521
176.005897617
299.463681269
176.534346199
298.898647785
178.27416153
298.47588892
177.879857588
298.882387829
178.322941399
298.455563974
177.879857588
298.918972731
177.420513821
298.492148876
178.749765253
297.1791574
179.176589108
298.492148876
177.843272686
298.935232687
179.603412962
298.508408833
179.56682806
297.675086069
179.534308147
297.248262215
181.680622387
295.93120575
182.127771187
295.508446884
182.058666372
297.691346025
181.241603565
296.837698317
183.387917805
293.341807699
185.55455699
293.801151466
184.274085426
292.947503757
184.668389368
292.557264805
184.631804466
292.589784718
184.428555012
293.614161968
185.33098259
292.727994347
186.148045397
291.041023874
188.298424625
289.7646173
187.42851696
291.057283831
187.42851696
291.057283831
185.282202721
292.780839205
186.164305353
290.630459976
187.444776917
289.744292355
189.237437105
287.971957111
188.810613251
288.841864777
191.826835155
285.398819017
191.810575199
287.08578949

Average distance is : 239.493 cm
Average deviation is : 56.583 cm
Block: 2
======================================
299.362056541
178.957079697
298.589708614
180.351370955
298.544993734
178.615620613
298.130364847
298.947427654
176.668490839
299.874245167
177.440838766
298.573448658
176.97743001
298.918972731
180.420475769
298.081584978
179.993651915
297.622241211
179.127809238
298.524668789
178.680660439
298.508408833
180.420475769
295.43934207
181.786312103
296.256404877
181.786312103
294.536914492
182.672479725
294.553174448
184.375710154
292.386535263
185.68870163
291.516627598
184.835053921
291.500367641
185.672441673
292.833684063
185.672441673
293.683266783
184.818793964
292.829619074
183.099303579
294.553174448
183.083043623
294.126350594
184.359450197
294.126350594
184.359450197
292.829619074
184.39197011
292.386535263
186.04642067
290.25648098
187.786236
289.829657125
188.229319811
289.813397169
188.265904713
289.354053402
188.245579767
288.516665649
188.245579767
290.662979889
187.855340815
290.667044878
185.245617819
292.849944019
184.375710154
292.406860209
185.656181717
292.386535263
185.68870163
293.256442928
138.612062979

Average distance is : 239.010 cm
Average deviation is : 56.845 cm
Block: 3
======================================
298.951492643
177.522138548
298.9677526
179.448943377
298.166949749
180.713154984
297.76045084
179.416423464
297.756385851
180.741609907
296.459654331
182.891989136
294.707644033
183.778156757
294.27675519
182.02208147
295.967790651
182.074926329
294.280820179
182.298500729
294.894633532
181.440788031
294.927153444
181.461112976
296.459654331
180.692830038
296.870218229
180.725349951
296.036895466
182.448905325
294.740163946
181.583062649
295.577551699
182.465165281
294.27675519
183.761896801
294.264560223
184.241565514
292.557264805
185.042368364
292.593849707
299.394576454
177.798557806
298.914907742
178.290421486
298.508408833
178.680660439
297.638501167
179.07496438
297.227937269
180.351370955
298.150689793
179.038379478
298.951492643
179.058704424
298.935232687
179.997716904
297.162897444
181.7131423
296.703553677
182.213135958
294.553174448
183.522062445
295.813321066
183.099303579
294.093830681
184.39197011
294.943413401
182.24565587
294.093830681
182.278175783
294.451549721
182.261915827
293.593837023
183.607427216

Average distance is : 239.547 cm
Average deviation is : 57.780 cm
Block: 4
======================================
299.410836411
174.96526041
299.76855545
176.672555828
298.423044062
180.079016685
299.821400309
178.680660439
298.065325022
179.518048191
298.508408833
179.091224337
298.577513647
177.745712948
298.114104891
179.054639435
297.691346025
181.648102474
298.150689793
179.058704424
298.561253691
180.794454765
296.378354549
299.374251509
179.058704424
298.9677526
179.022119522
297.723865938
179.892027187
299.004337502
178.156276846
298.134429836
180.351370955
296.837698317
180.761934853
296.427134418
180.302591085
298.9677526
178.85138998
299.76855545
177.847337675
298.032805109
180.896079493
295.711696339
181.855416918
297.024687815
180.981444263
297.910855436
178.814805079
300.211639261
177.794492817
298.935232687
176.961170053
298.9677526
179.481463289
297.723865938
180.745674896
299.870180178
178.152211857
298.114104891
182.518010139
295.118207932
183.794416714
292.097921038
186.814703608
289.524782944
188.550453949
287.305298901
190.753678036
286.01263237
192.013824654
286.829695177
189.44068656
288.976009417
188.176474953

Average distance is : 239.658 cm
Average deviation is : 58.343 cm
Block: 5
======================================
299.357991552
179.022119522
298.540928745
178.172536802
299.000272512
179.022119522
297.504356527
178.696920395
296.837698317
178.205056715
296.870218229
179.363578606
257.809738064
218.354953957
259.667438078
217.948455048
258.370706558
217.911870146
261.033274412
216.602943659
261.456033278
216.123274946
261.919442034
213.001363325
266.610439444
211.741216707
265.842156506
211.745281696
267.598231792
210.871309042
266.317760229
211.298132896
265.480372477
210.822529173
267.240512753
211.688371849
265.480372477
212.57860446
265.431592607
212.200560474
264.545424986
211.794061565
266.252720404
212.233080387
265.378747749
213.529811907
264.049496317
213.891595936
263.728362179
213.887530947
263.72429719
214.334679747
264.134861088
213.924115849
264.134861088
213.054208183
265.451917553
210.855049086
267.236447763
209.916036606
268.569764185
209.899776649
268.126680374
209.899776649
268.565699196
209.062388897
268.996588039
207.720942497
269.049432898
208.127441406
269.012847996
207.737202454
270.321774483
208.107116461
269.964055443

Average distance is : 239.106 cm
Average deviation is : 34.412 cm
Block: 6
======================================
299.4149014
177.180679464
299.443356323
177.302629137
299.020597458
180.318851042
296.410874462
181.595257616
297.76045084
181.562737703
296.01657052
181.566802692
294.671059132
181.7131423
298.951492643
176.993689966
298.114104891
180.72941494
296.036895466
181.123718882
296.496239233
183.302553034
294.297080135
182.875729179
295.146662855
183.761896801
292.524744892
185.522037077
291.671097183
185.944795942
293.801151466
183.387917805
294.675124121
182.924509048
293.390587568
183.798481703
295.540966797
182.944833994
294.687319088
182.481425238
299.036857414
299.4149014
178.615620613
298.557188702
178.62781558
298.557188702
180.741609907
296.870218229
183.778156757
293.004413605
187.188682604
290.410950565
187.65209136
289.963801765
189.834990501
289.504457998
187.241527462
291.634512281
185.981380844
294.179195452
184.717169237
293.683266783
183.440762663
295.455602026
182.566790009
293.715786695
184.737494183
292.402795219
186.030160713
292.866203976
185.180577993
293.256442928
185.209032917
294.532849503
184.375710154

Average distance is : 239.841 cm
Average deviation is : 56.487 cm
Block: 7
======================================
299.000272512
178.49367094
299.000272512
178.579035711
299.004337502
179.843247318
297.776710796
299.378316498
299.378316498
180.86355958
298.065325022
180.847299623
297.638501167
180.847299623
298.097844934
299.374251509
178.680660439
298.492148876
179.993651915
298.47588892
178.631880569
298.540928745
179.469268322
297.744190884
182.074926329
296.801113415
181.205018663
297.264522171
180.355435944
298.557188702
180.3716959
296.768593502
299.374251509
179.554633093
297.654761124
179.961132002
298.045000076
298.935232687
179.534308147
297.227937269
180.831039667
297.654761124
179.981456947
298.508408833
181.684687376
297.638501167
182.144031143
296.325509691
144.648571777
299.378316498
177.318889093
298.508408833
179.091224337
298.540928745
179.43268342
298.150689793
180.778194809
295.545031786
183.302553034
292.199545765
186.200890255
290.512575293
187.956965542
290.069491482
187.973225498
290.939399147
186.13178544
292.317430449
299.357991552
177.351409006
298.951492643
179.107484293
297.654761124
181.172498751
296.858023262

Average distance is : 244.055 cm
Average deviation is : 59.075 cm
Block: 8
======================================
299.357991552
177.969287348
299.736035538
177.900182533
297.858010578
179.79040246
296.443394375
181.103393936
296.955583
179.310733747
297.809230709
179.310733747
297.414926767
179.757882547
299.821400309
176.924585152
298.488083887
178.237576628
297.622241211
179.977391958
296.345834637
181.717207289
295.43934207
181.306643391
297.1791574
181.270058489
296.768593502
179.140004206
297.585656309
179.192849064
297.532811451
180.062756729
296.666968775
180.115601587
298.423044062
179.652192831
297.077532673
181.428593063
294.297080135
182.859469223
294.707644033
182.042406416
295.524706841
181.205018663
297.280782127
181.631842518
295.540966797
182.501750183
297.260457182
181.652167463
295.967790651
182.550530052
295.951530695
182.944833994
295.097882986
182.981418896
295.077558041
182.123706198
297.654761124
181.680622387
296.362094593
181.237538576
297.244197226
181.205018663
296.788918447
181.684687376
295.914945793
182.11151123
295.93120575
182.977353907
293.736111641
183.90010643
292.829619074
185.19683795
292.439380121

Average distance is : 239.557 cm
Average deviation is : 58.205 cm
Block: 9
======================================
299.394576454
177.196939421
299.427096367
180.302591085
296.394614506
181.168433762
297.195417356
179.550568104
296.410874462
180.810714722
296.069415379
182.363540554
295.199507713
182.810689354
293.870256281
185.891951084
291.707682085
299.410836411
179.912352133
298.557188702
179.501788235
298.097844934
180.387955856
295.88242588
182.997678852
294.622279263
183.831001616
294.687319088
183.420437717
294.191390419
182.997678852
293.309287786
183.896041441
294.158870506
183.879781485
292.423120165
187.343152189
289.419093227
188.213059855
288.106101751
190.343114138
287.272778988
189.916290283
286.829695177
190.790262938
285.549223614
191.607325745
287.732122755
190.721158123
286.878475046
191.160176945
286.028892326
191.131722021
286.455716181
190.737418079
286.435391235
192.493493366
285.56548357
190.753678036
287.272778988
191.639845657
285.56548357
192.530078268
285.516703701
192.131709337
285.943527555
191.676430559
285.959787512
191.265866661
285.959787512
191.233346748
288.565445518
189.062642574
289.419093227
186.932588291

Average distance is : 239.655 cm
Average deviation is : 52.968 cm
Block: 10
======================================
298.951492643
179.705037689
297.382406855
180.607465267
296.138520193
181.871676874
297.691346025
182.095251274
298.540928745
179.501788235
298.101909924
181.583062649
294.329600048
180.644050169
294.414964819
181.530217791
297.297042084
182.038341427
295.097882986
182.944833994
294.687319088
185.111473179
293.459692383
184.599284554
293.410912514
185.074888277
294.671059132
183.387917805
294.227975321
183.814741659
293.821476412
299.427096367
177.367668962
298.524668789
179.961132002
298.488083887
181.083068991
296.101935291
299.410836411
179.022119522
298.573448658
179.875767231
298.199469662
299.394576454
179.534308147
297.195417356
181.290383434
296.768593502
181.546477747
294.756423903
181.973301601
294.772683859
182.432645369
295.626331568
181.542412758
296.532824135
180.233486271
297.382406855
180.233486271
296.955583
180.196901369
297.825490665
179.79040246
299.837660265
178.253836584
298.577513647
180.3716959
296.817373371
180.794454765
297.675086069
180.387955856
298.065325022
178.713180351
298.488083887
179.107484293

Average distance is : 241.278 cm
Average deviation is : 58.273 cm