
Block: 1
======================================
198.231265044
79.0620187521
197.001456666
79.9497612238
196.113714194
79.9660500765
196.182941818
80.3244048357
195.804225993
81.1632807493

Block: 2
======================================
198.267914963
76.2644083023
196.834495926
78.8584080935
194.798389339
80.5157988548
193.177648497
82.1039619923
194.387095809
83.0283543825

Block: 3
======================================
197.803682661
79.0457298994
195.840875912
81.5745742798
193.316103745
83.6432585716
191.691290689
85.7078706503
190.494060016
86.0825142622

Block: 4
======================================
198.247553897
76.6553407669
194.883905816
80.4465712309
193.568580961
81.3017359972
191.927479053
83.2482538939
192.460938978
84.5147121906

Block: 5
======================================
198.214976192
78.6547974348
196.679751825
198.198687339
79.082379818
196.659390759
80.3244048357
195.893814683
81.0981253386
192.546455455

Block: 6
======================================
198.178326273
76.8060126543
197.278367162
78.5163421869
193.943224573
81.4035413265
191.927479053
85.0074499846
189.928022385
86.6811295986

Block: 7
======================================
197.787393808
78.7036639929
194.562200975
81.6234408379
192.917026854
82.8369603634
190.868703628
84.9422945738
189.211312866
86.9702567339

Block: 8
======================================
198.247553897
76.5209577322
195.958970094
78.1742762804
193.499353337
81.0451865673
191.931551266
84.1400685787
191.263708305
85.2273494959

Block: 9
======================================
198.231265044
78.8421192408
195.702420664
82.2261283875
193.193937349
83.863158083
192.033356595
84.6490952253
189.932094598
87.1087119818

Block: 10
======================================
198.198687339
77.6978273392
194.012452197
81.7659682989
190.355604768
84.2215128422
190.392254686
84.5798676014
189.964672303
87.5200055122
