
Block: 1
======================================
197.75074389
76.6064742088
197.412750196
78.2964426756
195.307415986
79.9171835184
194.54183991
82.3075726509
193.755902767
83.6432585716
192.884449148
84.0341910362
191.622063065
85.3495158911
153.07449317
123.469503403
151.808034873
123.880796933
152.251906109
123.884869146
152.235617256
124.275801611
151.824323726
123.901157999
152.235617256
124.22286284
151.824323726
123.335120368
152.712066197
123.831930375
152.732427263
123.404347992
153.123359728
122.997126675
153.107070875
123.009343314
153.070420957
123.44099791
153.086709809
123.457286763
153.123359728
122.549183226
153.583519816
122.532894373
154.0111022
122.089023137
154.438684583
121.645151901
154.454973435
121.470046735
154.642295241
121.950567889
153.994813347
122.549183226
154.0111022
122.10531199
153.978524494
122.072734284
154.487551141
122.00350666
154.096618676
122.036084366
151.653290772
124.532351041
151.620713067
124.955861211
151.193130684
125.371226954
151.209419537
124.8907058
151.620713067
124.532351041
151.63700192
124.8907058
151.653290772

Block: 2
======================================
198.178326273
77.1684396267
197.294656014
79.318568182
155.664420748
119.576467609
153.208876204
121.950567889
154.984361148
121.559635425
155.379365826
120.724831724
155.786587143
120.293177128
156.28339715
120.228021717
155.908753538
120.175082946
155.139105248
120.944731236
155.208332872
121.368241405
154.780750489
121.726596165
154.402034664
122.174539614
153.534653258
123.02970438
153.070420957
123.062282085
153.090782022
123.469503403
152.675416279
123.383986926
153.102998662
123.420636845
152.679488492
123.778991604
152.781293821
123.778991604
152.781293821
123.762702751
152.801654887
123.351409221
153.274031615
122.463666749
151.620713067
124.943644571
151.160552979
125.383443594
151.176841831
125.265349412
151.258286095
125.281638265
150.899931335
125.623704171
150.508998871
125.98205893
150.101777554
125.965770078
150.219871736
125.896542454
150.272810507
125.452671218
150.712609529
125.843603683
150.28909936
126.271186066
149.898166895
126.291547132
150.256521654
125.843603683
150.285027146
125.794737124
150.305388212

Block: 3
======================================
198.26384275
76.6390519142
197.310944867
78.8258303881
195.653554106
79.1841851473
195.278910494
81.248797226
194.95313344
82.0021566629
193.719252849
83.2116039753
192.48944447
84.5106399775
191.622063065
85.3495158911
190.355604768
86.6281908274
189.109507537
87.8579992056
187.883771372
89.1407463551
187.061184311
89.515389967
185.81508708
90.7614871979
183.69753623
93.2536816597
180.846987009
95.7173706293
179.596817565
96.5562465429
179.152946329
96.5725353956
179.136657476
97.4073390961
178.334431481
98.2136373043
175.870742512
100.314899302
175.443160129
101.064186525
175.052227664
101.508057761
172.576322055
103.556380987
170.507637763
104.34231813
171.790384912
104.378968048
170.951508999
105.160832977
132.59126091
143.146437454
130.954231215
144.77125051
130.526648831
145.679354048
128.03445437
147.332672596
127.590583134
147.723605061
126.75170722
149.368779182
126.34041369
149.364706969
126.772068286
149.397284675
124.259512758
151.482257819
124.259512758
151.054675436
124.259512758
150.594515347
125.094316459

Block: 4
======================================
198.267914963
76.0730142832
198.744363904
76.1911084652
197.445327902
76.398791337
197.209139538
77.5105055332
158.999563336
117.308244872
159.203173995
116.913240194
159.239823914
116.896951342
159.663334084
116.00920887
160.583654261
115.597915339
160.946081233
115.170332956
160.962370086
115.190694022
160.946081233
115.170332956
161.337013698
114.368106961
162.196250677
113.069070959
160.656954098
114.575789833
159.032141042
117.442627907
158.164759636
118.334442592
157.391039133
119.132596374
156.149014115
119.971472287
153.994813347
122.532894373
154.027391052
122.500316668
154.027391052
121.661440754
154.454973435
122.121600842
153.599808669
122.944187903
153.225165057
122.549183226
151.946490121
124.617867517
151.518907738
125.029161048
151.584063148
124.292090464
151.995356679
123.249603891
150.834775925
125.745870566
150.818487072
126.17345295
150.407193542
126.531807709
147.572933173
129.414934635
147.108700871
129.467873406
147.14535079
129.398645782
146.770707178
129.809939313
146.786996031
129.296840453
147.642160797

Block: 5
======================================
198.210903978
78.5489198923
196.712329531
79.8683169603
193.242803907
83.675836277
192.012995529
84.9422945738
191.247419453
85.2965771198
190.151994109
87.6380996943
186.018697739
91.8569125414
185.14724412
92.247845006
181.372302508
95.9739200592
181.050597668
96.3322748184
180.639304137
96.7761460543
180.244299459
97.171150732
179.837078142
97.7494050026
179.2058851
98.6045697689
178.367009187
98.6208586216
178.367009187
99.0810187101
177.499627781
99.8832447052
177.120911956
100.310827088
176.693329573
101.133414149
175.854453659
101.129341936
175.430943489
102.37951138
174.592067575
103.230603933
170.886353588
106.577963161
167.982865596
108.98871336
167.999154449
108.577419829
168.410447979
109.005002213
167.95028789
109.465162301
166.683829594
110.747909451
162.485377812
114.913783526
162.057795429
114.934144592
162.037434363
115.345438123
161.642429686
115.345438123
161.646501899
115.720081735
161.218919516
116.180241823
160.347465897
117.084273148
156.556235433
120.004049993
156.556235433
120.39905467
156.315974855

Block: 6
======================================
197.73852725
78.1254097223
199.106790876
198.178326273
77.9014379978
196.899651337
198.198687339
79.9701222897
196.915940189
81.2813749313
154.797039342
122.154178548
151.946490121
125.025088835
151.995356679
125.008799982
152.027934384
124.548639894
152.47180562
121.628863049
152.064584303
124.47941227
152.56139431
124.837767029
151.669579625
124.8907058
151.63700192
125.318288183
147.931287932
126.206030655
150.321677065
125.40380466
151.327513719
125.66035409
150.476421165
126.49515779
147.589222026
129.378284717
147.56886096
129.378284717
147.177928495
129.789578247
146.782923818
129.809939313
146.770707178
129.809939313
146.803284883
129.264262748
147.267517185
128.425386834
148.578769827
127.570222068
146.530446601
127.110061979
149.486873364
127.093773127
149.022641063
127.093773127
149.00635221
127.517283297
146.563024306
127.110061979
149.51945107
126.629540825
149.947033453
126.633613038
149.914455748
126.613251972
149.947033453
126.633613038
150.166932964
126.307835984
149.824867058
126.271186066
149.845228124

Block: 7
======================================
198.178326273
76.1788918257
197.787393808
77.9340157032
196.472068954
79.1801129341
195.311488199
81.5542132139
194.525551057
82.0021566629
194.150907445
82.8369603634
193.25909276
83.6961973429
192.408000207
84.5310010433
192.012995529
84.9056446552
191.243347239
86.1313808203
189.997250009
86.9580400944
189.146157455
87.8417103529
185.831375933
90.7126206398
185.40379355
91.2420083523
184.141407466
92.813882637
183.217015076
93.7179139614
182.77314384
94.1292074919
182.414789081
94.4875622511
181.596274233
95.3915935755
180.708531761
95.8191759586
180.333888149
96.5888242483
179.971461177
96.9960455656
179.547951007
96.9960455656
176.200591779
100.294538236
176.200591779
100.770987177
175.703781772
100.840214801
135.087527585
140.585015368
133.071782064
143.492575574
133.067709851
143.419275737
132.664560747
143.830569267
132.6808496
143.850930333
132.285844922
143.850930333
131.858262539
144.653156328
131.446969008
145.097027564
131.007169986
145.573476505
130.575515389
146.001058888
130.099066448
146.3757025
129.708133984

Block: 8
======================================
198.16203742
77.1195730686
197.241717243
78.9113468647
195.103805327
79.8153781891
195.054938769
80.874153614
195.225971723
82.120250845
154.353168106
122.125673056
153.567230964
122.960476756
153.550942111
122.565472078
153.978524494
122.532894373
153.550942111
123.009343314
153.481714487
123.062282085
153.502075553
123.025632167
153.518364406
122.598049784
153.07449317
123.45321455
152.712066197
123.848219228
152.695777345
123.848219228
152.712066197
123.815641522
152.748716116
123.795280457
152.765004969
123.762702751
152.337422585
124.206573987
152.353711438
124.153635216
152.357783651
124.169924068
151.926129055
124.63415637
151.498546672
124.585289812
151.942417908
124.601578665
151.946490121
125.008799982
151.53519659
124.532351041
151.144264126
125.399732447
150.716681743
125.778448272
150.781837153
125.709220648
150.765548301
125.31421597
150.749259448
125.371226954
151.172769618
125.387515807
151.156480765
125.367154741
151.176841831
125.367154741
151.160552979
125.350865889
151.176841831
125.318288183
151.225708389

Block: 9
======================================
198.129459715
77.270244956
199.000913334
77.1358619213
153.958163428
121.250147223
154.07625761
122.36186142
153.705686212
123.180376267
153.310681534
123.612030864
153.326970387
123.624247503
152.866810298
123.660897422
153.24145391
123.249603891
153.721975064
123.265892744
153.669036293
123.233315039
153.257742763
123.660897422
114.881205821
162.127023053
113.956813431
162.994404459
113.512942195
163.405697989
113.582169819
162.925176835
113.598458672
162.876310277
113.63510859
162.929249048
113.549592113
162.89259913
114.078979826
162.465016747
114.490273356
162.025217724
114.506562209
162.037434363
114.930072379
161.597635341
115.321004844
161.182269597
115.255849433
161.251497221
115.703792882
161.218919516
115.581626487
160.92979238
116.041786575
157.63129971
119.271051621
156.865723634
120.105855322
156.438141251
120.688181806
156.250819445
120.264671636
152.952326775
123.950024557
152.57361095
124.345029235
151.738807249
124.37760694
152.182678485
124.752250552
151.755096102
125.179832935
151.755096102
125.179832935

Block: 10
======================================
197.681516266
78.0561820984
197.172489619
79.3552181005
152.866810298
122.414800191
149.124446392
123.28625381
147.792832685
127.211867309
149.279190493
127.655738544
146.839934802
126.747635007
150.203582883
123.404347992
113.069070959
128.014093304
146.444930124
125.929120159
147.727677274
127.17521739
149.771928287
123.831930375
113.073143172
127.179289603
146.88880136
125.933192372
150.407193542
124.870344734
148.668358517
124.463123417
149.022641063
126.719129515
146.510085535
125.811025977
147.760254979
125.831387043
150.696320677
123.778991604
152.337422585
122.141961908
154.402034664
122.141961908
153.550942111
122.976765609
153.514292192
122.976765609
153.49800334
123.404347992
150.203582883
125.896542454
150.614876413
123.86450808
150.150644112
126.324124837
150.150644112
124.345029235
150.065127635
126.869801402
149.621256399
126.873873615
149.653834105
127.281094933
149.059290981
126.613251972
149.914455748
126.613251972
147.418189073
125.778448272
150.732970595
125.778448272
147.862060308
126.206030655
148.273353839
