
Block: 1
======================================
100.334361792
100.313711762
99.8470211029
100.280671716
99.4298905134
99.8635411263
99.8635411263
99.8841911554
100.313711762
99.4298905134
99.4298905134
99.8470211029
99.4133704901
100.297191739
99.4298905134
99.8305010796
100.801052451
100.763882399
99.8800611496
100.297191739
100.313711762
100.784532428
99.8635411263
99.8635411263
100.763882399
100.747362375
100.334361792
100.313711762
99.4133704901
100.297191739
99.8800611496
100.768012404
100.763882399
100.747362375
99.9007111788
100.313711762
100.313711762
100.297191739
100.763882399
100.768012404
100.297191739
100.297191739
99.8305010796
100.330231786
100.297191739
100.330231786
100.350881815
100.301321745
100.27654171
99.3968504667
100.297191739
100.297191739
99.8676711321
100.313711762
99.8098510504
99.8263710737
100.297191739
100.280671716
100.297191739
100.784532428
100.313711762
100.317841768
100.784532428
100.747362375
99.8841911554
99.8098510504
100.747362375
99.8635411263
100.297191739
100.317841768
99.4505405426
99.8470211029
99.4298905134
99.8470211029
100.330231786

Average distance is : 100.167 cm
Average deviation is : 0.413 cm
Block: 2
======================================
99.8635411263
99.9007111788
99.9007111788
99.8676711321
100.350881815
100.763882399
99.8841911554
99.8635411263
99.8841911554
99.8800611496
100.313711762
99.4464105368
99.9007111788
99.4133704901
100.330231786
100.280671716
100.280671716
100.334361792
100.297191739
100.334361792
100.313711762
100.313711762
100.313711762
99.8965811729
99.8470211029
100.330231786
99.3431603909
100.297191739
99.8800611496
99.8305010796
99.8800611496
99.8965811729
100.297191739
100.280671716
100.763882399
100.780402422
100.297191739
100.297191739
99.8470211029
99.8263710737
100.280671716
100.297191739
100.297191739
100.313711762
100.313711762
100.350881815
100.330231786
99.8139810562
100.313711762
100.313711762
100.297191739
100.334361792
100.763882399
100.747362375
99.8635411263
100.763882399
99.8305010796
99.8139810562
99.8428910971
99.8470211029
100.747362375
100.280671716
100.334361792
99.4133704901
100.330231786
100.280671716
100.297191739
100.317841768
100.297191739
99.9172312021
100.297191739
101.181012988
99.8470211029
100.297191739
100.317841768

Average distance is : 100.167 cm
Average deviation is : 0.347 cm
Block: 3
======================================
99.8305010796
100.334361792
100.280671716
99.8470211029
99.3968504667
99.8635411263
99.8676711321
99.4133704901
100.280671716
99.9007111788
100.297191739
101.197533011
100.297191739
100.297191739
100.763882399
100.334361792
101.214053035
99.4340205193
100.350881815
100.280671716
100.297191739
100.27654171
100.313711762
100.317841768
99.8305010796
99.8470211029
100.313711762
99.3968504667
100.330231786
100.313711762
100.27654171
100.280671716
100.313711762
100.768012404
100.763882399
100.763882399
99.8800611496
100.768012404
100.313711762
99.8635411263
99.4298905134
100.313711762
100.330231786
99.4340205193
100.313711762
100.280671716
100.280671716
100.297191739
100.297191739
100.297191739
100.313711762
100.317841768
100.297191739
100.784532428
100.763882399
100.784532428
100.280671716
100.297191739
100.297191739
100.313711762
99.8470211029
99.3968504667
100.317841768
100.784532428
100.280671716
101.197533011
99.8800611496
100.780402422
99.8635411263
100.297191739
100.313711762
100.297191739
99.8470211029
99.3968504667
100.313711762

Average distance is : 100.230 cm
Average deviation is : 0.422 cm
Block: 4
======================================
99.8800611496
99.8428910971
99.8139810562
99.8470211029
99.8635411263
100.264151692
99.8635411263
100.763882399
100.334361792
99.7066009045
99.9007111788
99.8098510504
101.181012988
100.313711762
99.4670605659
99.8305010796
99.8470211029
100.297191739
99.8139810562
99.8305010796
99.8470211029
99.8305010796
100.313711762
100.768012404
99.8841911554
100.330231786
101.631183624
99.4464105368
100.330231786
100.313711762
100.313711762
100.297191739
100.280671716
100.313711762
100.280671716
100.763882399
99.9007111788
100.27654171
100.280671716
100.313711762
100.280671716
100.297191739
100.317841768
99.8139810562
100.057651401
99.8470211029
100.317841768
99.4298905134
99.8470211029
100.334361792
99.4298905134
100.330231786
100.346751809
100.297191739
99.4133704901
100.317841768
100.297191739
100.313711762
100.313711762
100.297191739
100.297191739
100.747362375
99.8305010796
99.4133704901
100.313711762
100.313711762
100.297191739
100.334361792
100.330231786
100.330231786
100.313711762
100.334361792
100.264151692
100.280671716
99.8800611496

Average distance is : 100.152 cm
Average deviation is : 0.385 cm
Block: 5
======================================
100.297191739
100.313711762
99.8635411263
99.8635411263
100.313711762
99.8676711321
100.297191739
101.181012988
100.297191739
100.297191739
99.9502712488
100.313711762
99.4464105368
99.3968504667
99.8800611496
99.8635411263
100.730842352
100.763882399
100.780402422
100.780402422
100.768012404
99.8305010796
100.313711762
99.8800611496
99.8470211029
100.317841768
99.3968504667
100.313711762
100.297191739
100.313711762
100.330231786
100.297191739
99.8635411263
99.8470211029
101.594013572
100.313711762
99.4340205193
100.280671716
100.297191739
100.313711762
100.313711762
100.334361792
100.280671716
100.297191739
100.317841768
100.313711762
100.297191739
99.4464105368
100.297191739
100.313711762
100.317841768
100.334361792
99.4464105368
100.313711762
99.8305010796
100.317841768
100.297191739
100.313711762
99.8470211029
99.8470211029
99.4298905134
100.313711762
100.334361792
99.4133704901
100.297191739
100.313711762
100.768012404
100.317841768
100.297191739
100.297191739
100.317841768
100.334361792
100.313711762
100.334361792
100.313711762

Average distance is : 100.198 cm
Average deviation is : 0.399 cm
Block: 6
======================================
99.8635411263
100.751492381
100.297191739
99.8305010796
100.334361792
99.8635411263
100.313711762
99.4133704901
100.297191739
99.8470211029
99.8800611496
100.334361792
100.313711762
100.313711762
99.4133704901
100.747362375
99.3968504667
100.330231786
99.4464105368
100.313711762
99.8305010796
99.3968504667
100.297191739
100.768012404
100.317841768
100.763882399
99.8800611496
100.280671716
100.313711762
100.313711762
100.313711762
99.8305010796
100.297191739
100.350881815
99.4298905134
100.334361792
99.4464105368
100.334361792
100.297191739
99.4340205193
99.4298905134
100.297191739
100.784532428
100.297191739
99.8676711321
100.747362375
100.730842352
99.8800611496
99.4133704901
100.313711762
100.350881815
99.8470211029
100.313711762
99.4835805893
100.330231786
99.4505405426
100.313711762
100.334361792
100.317841768
99.4298905134
100.313711762
100.27654171
100.763882399
100.763882399
99.8635411263
100.317841768
100.297191739
99.8305010796
99.8305010796
99.3968504667
100.801052451
99.4133704901
100.297191739
100.334361792
100.313711762

Average distance is : 100.110 cm
Average deviation is : 0.431 cm
Block: 7
======================================
99.8470211029
99.8635411263
99.8470211029
99.8470211029
103.014735579
99.4133704901
100.801052451
99.4464105368
99.8305010796
99.8800611496
100.763882399
100.330231786
100.313711762
100.297191739
99.8470211029
100.297191739
100.297191739
99.4340205193
100.297191739
100.297191739
99.8470211029
100.297191739
99.8098510504
99.8305010796
100.317841768
99.8470211029
100.334361792
100.297191739
100.313711762
100.313711762
100.313711762
99.4340205193
101.234703064
100.297191739
100.280671716
100.297191739
99.8800611496
100.768012404
99.8635411263
100.768012404
100.763882399
100.747362375
100.801052451
100.763882399
100.334361792
100.313711762
99.3968504667
101.181012988
99.4670605659
100.334361792
100.334361792
100.297191739
100.280671716
99.9172312021
100.280671716
100.280671716
100.280671716
99.8428910971
99.8139810562
100.280671716
100.297191739
99.4298905134
100.297191739
99.8470211029
99.8676711321
100.297191739
100.763882399
99.8800611496
99.8800611496
100.330231786
99.4464105368
100.297191739
100.313711762
100.313711762
99.8470211029

Average distance is : 100.202 cm
Average deviation is : 0.526 cm
Block: 8
======================================
99.8305010796
100.313711762
100.317841768
99.8470211029
100.330231786
99.8098510504
99.8965811729
100.730842352
99.8676711321
99.4298905134
100.297191739
99.4505405426
100.297191739
100.313711762
100.280671716
100.27654171
99.8800611496
99.8965811729
99.8635411263
100.297191739
99.8676711321
100.330231786
100.297191739
99.8635411263
100.94147265
100.280671716
100.313711762
100.297191739
100.297191739
100.297191739
100.280671716
100.313711762
100.297191739
99.4133704901
100.301321745
99.8470211029
100.330231786
99.8139810562
100.317841768
100.297191739
99.8800611496
100.763882399
99.8841911554
99.8841911554
99.8635411263
100.297191739
100.280671716
99.4464105368
100.313711762
99.8305010796
100.297191739
100.280671716
100.297191739
99.8305010796
100.317841768
100.297191739
100.763882399
100.768012404
100.313711762
99.3968504667
100.346751809
100.297191739
100.280671716
100.313711762
101.181012988
99.4133704901
99.8800611496
99.4133704901
100.297191739
101.197533011
100.280671716
100.280671716
100.330231786
100.747362375
99.4133704901

Average distance is : 100.159 cm
Average deviation is : 0.393 cm
Block: 9
======================================
99.8139810562
99.8098510504
100.747362375
99.8470211029
100.747362375
100.313711762
100.346751809
99.8470211029
100.747362375
100.350881815
99.8841911554
100.747362375
100.796922445
100.350881815
99.4505405426
100.780402422
99.8965811729
101.218183041
100.751492381
100.763882399
99.8635411263
99.8800611496
100.747362375
100.280671716
100.297191739
100.313711762
100.747362375
100.330231786
100.297191739
99.4505405426
100.280671716
100.297191739
101.197533011
99.9007111788
99.8635411263
100.27654171
99.8800611496
99.4340205193
100.280671716
100.763882399
99.8841911554
100.747362375
100.763882399
100.763882399
100.768012404
100.280671716
100.317841768
100.313711762
100.780402422
99.8800611496
99.8305010796
99.8470211029
99.8635411263
99.4298905134
99.4133704901
99.4133704901
99.8263710737
99.8635411263
100.334361792
99.4298905134
100.280671716
100.313711762
100.763882399
99.8635411263
100.763882399
99.8470211029
100.313711762
100.297191739
99.8965811729
100.747362375
99.8800611496
100.747362375
101.181012988
100.334361792
100.317841768

Average distance is : 100.252 cm
Average deviation is : 0.465 cm
Block: 10
======================================
99.8965811729
100.334361792
99.0499299765
99.8635411263
100.334361792
100.768012404
100.747362375
100.780402422
99.8800611496
99.4133704901
100.317841768
100.297191739
99.8305010796
100.297191739
100.313711762
99.8800611496
99.3968504667
99.4670605659
99.9172312021
101.218183041
99.4505405426
100.313711762
101.214053035
99.4298905134
99.4133704901
99.4505405426
100.313711762
100.747362375
100.297191739
100.780402422
99.8800611496
100.297191739
100.330231786
100.280671716
99.9007111788
100.330231786
99.8800611496
100.747362375
99.8965811729
99.9007111788
99.4133704901
100.780402422
100.280671716
100.768012404
100.193941593
100.763882399
100.346751809
100.780402422
100.313711762
99.3762004375
100.313711762
100.784532428
99.4175004959
99.8800611496
100.763882399
100.763882399
100.297191739
99.8470211029
100.350881815
100.317841768
100.801052451
99.9007111788
100.334361792
99.4340205193
100.297191739
100.297191739
100.801052451
100.280671716
100.780402422
99.8676711321
100.780402422
100.763882399
99.8965811729
100.313711762
99.8965811729

Average distance is : 100.201 cm
Average deviation is : 0.493 cm
Average distance for 10x75 is : 100,184 cm
Average deviation for 10x75 is : 0,427 cm
 Percentage of values that failed: 0.000