
Block: 1
======================================
399.261364794
399.265408111
399.702086329
398.808513308
399.63739326

Average distance is : 399.335 cm
Average deviation is : 0.358 cm
Block: 2
======================================
400.061941528
399.621219993
399.601003408
400.045768261
280.412109566

Average distance is : 375.948 cm
Average deviation is : 53.407 cm
Block: 3
======================================
399.192628407
277.359405351
399.685913062
276.296013021
399.16432519

Average distance is : 350.340 cm
Average deviation is : 67.108 cm
Block: 4
======================================
399.621219993
399.653566527
280.497019219
398.804469991
280.533409071

Average distance is : 351.822 cm
Average deviation is : 65.095 cm
Block: 5
======================================
399.229018259
277.310885549
400.094288063
278.738176394
398.820643258

Average distance is : 350.839 cm
Average deviation is : 66.473 cm
Block: 6
======================================
399.196671724
280.840701151
398.820643258
399.669739795
398.755950189

Average distance is : 375.457 cm
Average deviation is : 52.893 cm
Block: 7
======================================
399.584830141
399.685913062
278.277238274
399.669739795
399.63739326

Average distance is : 375.371 cm
Average deviation is : 54.277 cm
Block: 8
======================================
399.249234843
399.633349943
399.673783112
399.673783112
399.706129646

Average distance is : 399.587 cm
Average deviation is : 0.191 cm
Block: 9
======================================
399.245191526
399.706129646
399.245191526
400.142807865
400.074071479

Average distance is : 399.683 cm
Average deviation is : 0.433 cm
Block: 10
======================================
399.689956379
399.685913062
399.669739795
399.702086329
399.229018259

Average distance is : 399.595 cm
Average deviation is : 0.205 cm