
Block: 1
======================================
99.136660099
99.5868307352
99.5331406593
99.5496606827
99.5001006126
99.5537906885
99.5496606827
99.5331406593
99.0829700232
99.0829700232
99.136660099
99.5331406593
99.5537906885
99.136660099
99.5537906885
99.1201400757
99.5331406593
99.5537906885
99.0829700232
99.1036200523
99.5868307352
99.5331406593
99.5207506418
99.136660099
99.5372706652
99.1201400757
99.5703107119
99.0994900465
99.5331406593
99.5537906885
99.5207506418
99.4629305601
99.4835805893
99.5042306185
99.5001006126
99.1036200523
99.4794505835
99.5001006126
99.5372706652
99.5042306185
99.0499299765
99.5207506418
99.0664499998
99.5496606827
99.5001006126
99.5001006126
99.516620636
99.5331406593
99.4835805893
99.5207506418
99.5001006126
99.4794505835
99.5207506418
99.5372706652
99.0829700232
99.516620636
99.516620636
99.5372706652
99.087100029
99.0829700232
99.5001006126
99.516620636
99.516620636
99.136660099
99.0664499998
99.5703107119
99.5001006126
99.5001006126
99.516620636
99.4794505835
99.4670605659
99.4835805893
99.0664499998
99.5207506418
99.5001006126

Average distance is : 99.409 cm
Average deviation is : 0.190 cm
Block: 2
======================================
99.5537906885
99.136660099
99.516620636
99.516620636
99.1573101282
99.1201400757
99.136660099
99.516620636
99.1201400757
99.1201400757
99.1697001457
99.1201400757
99.5001006126
99.5372706652
99.5537906885
99.516620636
99.5001006126
99.136660099
99.1201400757
99.0994900465
99.5537906885
99.4835805893
99.5207506418
99.516620636
99.5703107119
99.0994900465
99.1160100698
99.5496606827
99.516620636
99.516620636
99.5537906885
99.5496606827
99.5331406593
99.4298905134
99.4670605659
99.5703107119
99.1036200523
99.5496606827
99.5331406593
99.1531801224
99.1201400757
98.7732195854
99.5001006126
99.5537906885
99.4835805893
99.1407901049
99.516620636
99.136660099
99.5001006126
99.5001006126
99.4835805893
99.136660099
99.5537906885
99.1738301516
99.136660099
99.1201400757
99.5372706652
99.136660099
99.136660099
99.516620636
99.516620636
99.1036200523
99.1036200523
99.087100029
99.5331406593
99.136660099
99.1160100698
99.136660099
99.1036200523
99.5496606827
99.1201400757
99.5496606827
99.5331406593
99.0994900465
99.1036200523

Average distance is : 99.333 cm
Average deviation is : 0.211 cm
Block: 3
======================================
99.136660099
99.5703107119
99.5537906885
99.1160100698
99.1036200523
99.5331406593
99.1531801224
99.5372706652
99.1201400757
99.1201400757
99.1201400757
99.1201400757
99.5372706652
99.5331406593
99.5537906885
99.1201400757
99.5703107119
99.5207506418
99.1201400757
99.0829700232
99.5331406593
99.1160100698
99.5372706652
99.5331406593
99.5331406593
99.516620636
99.1160100698
99.1201400757
99.5537906885
99.0994900465
99.136660099
99.5372706652
99.5537906885
99.136660099
99.5331406593
99.566180706
99.5001006126
99.5537906885
99.136660099
99.4835805893
99.5537906885
99.5868307352
99.5537906885
99.1531801224
99.5496606827
99.5372706652
99.1036200523
99.0705800056
99.1036200523
99.136660099
99.1201400757
99.5372706652
99.5331406593
99.5703107119
99.0994900465
99.5496606827
99.136660099
99.5372706652
99.1036200523
99.1201400757
99.5703107119
99.1531801224
99.5537906885
99.5537906885
99.1036200523
99.0994900465
99.5331406593
99.1160100698
99.1201400757
99.5331406593
99.1036200523
99.136660099
99.0994900465
99.1201400757
99.087100029

Average distance is : 99.327 cm
Average deviation is : 0.215 cm
Block: 4
======================================
99.5331406593
99.1036200523
99.5331406593
99.0829700232
99.1201400757
99.1201400757
99.1201400757
99.1531801224
99.1573101282
99.1201400757
99.5537906885
99.5496606827
99.1201400757
99.5703107119
99.0994900465
99.1036200523
99.1036200523
99.1201400757
99.1036200523
99.1201400757
99.1201400757
99.1036200523
99.1160100698
99.5537906885
99.5537906885
99.1036200523
99.5207506418
99.1201400757
99.5331406593
99.5537906885
99.1201400757
99.5496606827
99.1036200523
99.5537906885
99.1036200523
99.0994900465
99.1201400757
99.0994900465
99.1201400757
99.136660099
99.5001006126
99.1036200523
99.5331406593
99.5331406593
99.0829700232
99.1201400757
99.0829700232
99.1201400757
99.516620636
99.516620636
99.1036200523
99.1036200523
99.1201400757
99.1201400757
99.5496606827
99.516620636
99.1201400757
99.1201400757
99.1201400757
99.1201400757
99.136660099
99.0829700232
99.5537906885
99.0829700232
99.5372706652
99.5537906885
99.136660099
99.1036200523
99.136660099
99.0994900465
99.1201400757
99.0994900465
99.1201400757
99.5331406593
99.136660099

Average distance is : 99.244 cm
Average deviation is : 0.198 cm
Block: 5
======================================
99.1201400757
99.1036200523
99.5537906885
99.1036200523
99.1201400757
99.516620636
99.136660099
99.1201400757
99.5537906885
99.5496606827
99.087100029
99.1036200523
99.0994900465
99.1201400757
99.5703107119
99.0664499998
99.0994900465
99.1036200523
99.5331406593
99.5868307352
99.5496606827
99.566180706
99.5537906885
99.136660099
99.0994900465
99.1036200523
99.0829700232
99.1201400757
99.1036200523
99.0994900465
99.136660099
99.1036200523
99.0994900465
99.5537906885
99.1201400757
99.087100029
99.1036200523
99.1201400757
99.0994900465
99.5868307352
99.1201400757
99.1201400757
99.136660099
99.0994900465
99.1201400757
99.1201400757
99.136660099
99.136660099
99.136660099
99.1201400757
99.0994900465
99.5331406593
99.1036200523
99.1201400757
99.1531801224
99.1036200523
99.136660099
99.0994900465
99.1531801224
99.516620636
99.0829700232
99.5001006126
99.136660099
99.5537906885
99.5372706652
99.1036200523
99.0829700232
99.1201400757
99.1201400757
99.136660099
99.1036200523
99.5703107119
99.1201400757
99.1036200523
99.087100029

Average distance is : 99.217 cm
Average deviation is : 0.189 cm
Block: 6
======================================
99.5001006126
99.0994900465
99.1201400757
99.5001006126
99.1036200523
99.1201400757
99.1201400757
99.1201400757
99.0829700232
99.1036200523
99.5868307352
99.0994900465
99.1160100698
99.1036200523
99.136660099
99.087100029
99.1531801224
99.1201400757
99.1036200523
99.5001006126
99.5868307352
99.5372706652
99.5331406593
99.516620636
99.1531801224
99.136660099
99.5042306185
99.1201400757
99.516620636
99.5372706652
99.5537906885
99.5703107119
99.566180706
99.5537906885
99.136660099
99.1036200523
99.1531801224
99.5372706652
99.5331406593
99.1201400757
99.136660099
99.136660099
99.5703107119
99.5372706652
99.1201400757
99.1201400757
99.1036200523
99.0994900465
99.1036200523
99.1201400757
99.136660099
99.0994900465
99.136660099
99.5331406593
99.5703107119
99.0994900465
99.1201400757
99.5001006126
99.1201400757
99.5537906885
99.0994900465
99.0829700232
99.5703107119
99.1201400757
99.0994900465
99.5331406593
99.1036200523
99.136660099
99.0994900465
99.1036200523
99.5331406593
99.0829700232
99.1201400757
99.1201400757
99.1531801224

Average distance is : 99.263 cm
Average deviation is : 0.204 cm
Block: 7
======================================
99.1036200523
99.1531801224
99.5703107119
99.5331406593
99.136660099
99.136660099
99.5496606827
99.1160100698
99.136660099
99.136660099
99.5537906885
99.136660099
99.136660099
99.566180706
99.5496606827
99.5001006126
99.1160100698
99.1201400757
99.1531801224
99.5703107119
99.1531801224
99.1160100698
99.1531801224
99.5372706652
99.5207506418
99.1036200523
99.1531801224
99.5372706652
99.1201400757
99.1201400757
99.1036200523
99.1036200523
99.136660099
99.1201400757
99.1201400757
99.1036200523
99.0829700232
99.087100029
99.136660099
99.1573101282
99.1036200523
99.136660099
99.1201400757
99.5331406593
99.1036200523
99.087100029
99.1036200523
99.0664499998
99.1036200523
99.0829700232
99.5372706652
99.136660099
99.1697001457
99.1036200523
99.0994900465
98.9631998539
99.087100029
99.1201400757
99.5207506418
99.0829700232
99.1201400757
99.5703107119
99.5331406593
99.1201400757
99.5496606827
99.0994900465
99.1201400757
99.516620636
99.0994900465
99.136660099
99.1201400757
99.0994900465
99.1036200523
99.5331406593
99.1036200523

Average distance is : 99.223 cm
Average deviation is : 0.189 cm
Block: 8
======================================
98.7566995621
99.1201400757
99.0994900465
99.0994900465
99.136660099
99.0994900465
99.1201400757
99.1201400757
99.1160100698
99.136660099
99.1201400757
99.0994900465
99.1201400757
99.1201400757
99.136660099
99.1201400757
99.1201400757
99.516620636
99.1201400757
99.5331406593
99.1201400757
99.1201400757
99.0994900465
99.1036200523
99.5331406593
99.0994900465
99.0994900465
99.1036200523
99.5372706652
99.1201400757
99.1201400757
99.5207506418
99.516620636
99.1201400757
99.1201400757
99.1531801224
99.516620636
99.136660099
99.0664499998
99.0705800056
99.0994900465
99.136660099
99.0829700232
99.1036200523
99.0994900465
99.1201400757
99.1201400757
99.1201400757
99.5207506418
99.0994900465
99.136660099
99.1036200523
99.1160100698
99.136660099
99.1160100698
99.136660099
99.136660099
99.0994900465
99.5537906885
99.087100029
99.1201400757
99.0994900465
99.136660099
99.087100029
99.1531801224
99.1201400757
99.136660099
99.136660099
99.1160100698
99.1201400757
99.1201400757
99.1160100698
99.136660099
99.1201400757
99.0829700232

Average distance is : 99.160 cm
Average deviation is : 0.144 cm
Block: 9
======================================
99.1531801224
99.1036200523
99.136660099
99.0664499998
99.136660099
99.1531801224
99.1036200523
99.087100029
99.0829700232
99.136660099
99.1201400757
99.5207506418
99.1201400757
99.0994900465
99.5496606827
99.1201400757
99.1697001457
99.5868307352
99.136660099
99.1036200523
99.5372706652
99.0994900465
99.087100029
99.5207506418
99.5372706652
99.0994900465
99.136660099
99.1201400757
99.5331406593
99.566180706
99.5537906885
99.1573101282
99.1036200523
99.5496606827
99.136660099
99.136660099
99.5868307352
99.1531801224
99.1201400757
99.1160100698
99.5868307352
99.566180706
99.5496606827
99.136660099
99.136660099
99.136660099
99.136660099
99.1201400757
99.1201400757
99.1201400757
99.5537906885
99.5331406593
99.5496606827
99.1160100698
99.5703107119
99.136660099
99.1201400757
99.136660099
99.0994900465
99.5703107119
99.1201400757
99.136660099
99.1531801224
99.136660099
99.136660099
99.1201400757
99.5703107119
99.136660099
99.136660099
99.5537906885
99.136660099
99.516620636
99.1201400757
99.5372706652
99.1531801224

Average distance is : 99.256 cm
Average deviation is : 0.199 cm
Block: 10
======================================
99.5331406593
99.5703107119
99.0994900465
99.0994900465
99.5331406593
99.5372706652
99.5001006126
99.087100029
99.516620636
99.1201400757
99.1201400757
99.1036200523
99.5496606827
99.136660099
99.1201400757
99.0994900465
99.1036200523
99.0829700232
99.0994900465
99.1036200523
99.0829700232
99.5537906885
99.1738301516
99.1160100698
99.136660099
99.136660099
99.0994900465
99.516620636
99.1201400757
99.136660099
99.087100029
99.1160100698
99.5703107119
99.5537906885
99.1160100698
99.1201400757
99.5703107119
99.5372706652
99.1201400757
99.1036200523
99.0994900465
99.1697001457
99.1201400757
99.1697001457
99.5537906885
99.1201400757
99.1201400757
99.1201400757
99.1903501749
99.1531801224
99.0829700232
99.1573101282
99.1160100698
99.1201400757
99.1201400757
99.1201400757
99.136660099
99.0994900465
99.1160100698
99.136660099
99.1036200523
99.0994900465
99.1201400757
99.1036200523
99.5537906885
99.136660099
99.590960741
99.1160100698
99.087100029
99.5207506418
99.1201400757
99.1201400757
99.1201400757
99.136660099
99.1201400757

Average distance is : 99.215 cm
Average deviation is : 0.181 cm
Average distance for 10x75 is : 99.265 cm
Average deviation for 10x75 is : 0.192 cm
 Percentage of values that failed: 0.000