
Block: 1
======================================
401.060640788
401.09703064
401.10916059
402.366632128
401.060640788
401.946127176
401.57009871
401.076814055
401.501362324
401.553925443

Block: 2
======================================
401.064684105
401.060640788
401.606488562
401.501362324
401.505405641
401.57009871
401.060640788
401.080857372
401.060640788
401.57009871

Block: 3
======================================
400.656309104
401.537752175
401.076814055
400.63609252
400.63609252
401.09703064
401.10916059
401.09703064
400.672482371
401.10916059

Block: 4
======================================
400.668439054
401.177896976
401.129377174
401.129377174
400.668439054
401.618618512
400.757392025
400.688655639
400.721002173
400.721002173

Block: 5
======================================
400.753348708
400.704828906
400.704828906
400.753348708
401.129377174
400.773565292
401.181940293
401.129377174
400.704828906
401.125333858

Block: 6
======================================
400.704828906
400.704828906
400.704828906
400.773565292
400.704828906
400.688655639
400.26410737
400.757392025
400.721002173
400.688655639

Block: 7
======================================
400.280280638
399.807212567
400.260064054
400.704828906
400.26410737
401.210243511
400.72504549
400.773565292
400.260064054
401.145550442

Block: 8
======================================
400.26410737
400.26410737
400.773565292
400.704828906
400.243890786
401.145550442
400.704828906
400.688655639
401.994646978
400.704828906

Block: 9
======================================
400.753348708
400.704828906
399.908295488
400.721002173
400.704828906
402.026993513
400.769521976
400.72504549
400.26410737
400.704828906

Block: 10
======================================
401.549882126
400.668439054
401.129377174
401.125333858
401.113203907
401.181940293
401.181940293
401.113203907
400.688655639
401.553925443
