
Block: 1
======================================
400.721002173
400.688655639
400.704828906
401.149593759
400.773565292
400.688655639
401.145550442
400.737175441
401.145550442
400.26410737
400.757392025
400.704828906
400.721002173
400.26410737
400.769521976
400.721002173
401.125333858
400.280280638
401.145550442
400.280280638
401.214286828
400.704828906
400.26410737
400.26410737
400.280280638
400.688655639
400.757392025
401.129377174
400.688655639
401.129377174
400.688655639
400.704828906
400.247934103
401.145550442
400.704828906
401.145550442
400.280280638
400.704828906
400.757392025
400.704828906
400.721002173
400.684612322
401.57009871
400.26410737
400.753348708
400.227717519
400.231760836
400.247934103
401.113203907
401.129377174
400.672482371
400.26410737
401.129377174
400.688655639
401.113203907
401.129377174
400.247934103
400.672482371
400.757392025
400.668439054
400.26410737
400.773565292
400.672482371
400.672482371
400.668439054
400.668439054
401.177896976
401.145550442
400.672482371
400.688655639
400.688655639
401.145550442
400.668439054
401.10916059
400.668439054
401.553925443
400.672482371
400.668439054
400.656309104
400.672482371
402.419195247
400.26410737
400.247934103
400.684612322
400.672482371
401.566055393
400.672482371
400.684612322
400.737175441
400.688655639
401.145550442
400.668439054
401.129377174
400.753348708
400.704828906
400.26410737
400.757392025
400.688655639
400.247934103
401.161723709

Block: 2
======================================
400.721002173
400.773565292
401.125333858
400.672482371
400.704828906
400.280280638
401.145550442
401.145550442
402.41515193
400.773565292
400.757392025
400.773565292
400.247934103
400.721002173
400.684612322
401.125333858
400.247934103
400.247934103
400.227717519
400.26410737
400.26410737
400.247934103
400.332843757
400.704828906
400.247934103
400.704828906
400.72504549
400.26410737
400.688655639
400.704828906
401.129377174
400.704828906
400.688655639
400.332843757
400.753348708
400.284323955
400.688655639
400.688655639
400.688655639
400.668439054
400.247934103
400.26410737
400.672482371
400.704828906
400.688655639
400.312627172
400.247934103
400.26410737
400.688655639
400.349017024
400.26410737
400.26410737
400.243890786
400.247934103
400.316670489
400.688655639
400.684612322
400.26410737
400.247934103
400.316670489
400.247934103
400.704828906
400.247934103
401.198113561
400.688655639
400.312627172
400.296453905
400.332843757
400.32880044
400.280280638
399.823385835
400.243890786
400.247934103
400.688655639
400.721002173
400.688655639
400.284323955
400.231760836
400.26410737
400.757392025
400.26410737
400.280280638
400.247934103
400.721002173
400.704828906
400.26410737
400.721002173
400.684612322
400.247934103
401.161723709
400.32880044
400.243890786
400.688655639
400.280280638
400.688655639
400.247934103
400.349017024
400.704828906
400.704828906
400.26410737

Block: 3
======================================
400.721002173
400.741218758
400.247934103
400.247934103
400.721002173
401.586271977
400.704828906
400.773565292
400.688655639
400.227717519
401.125333858
400.280280638
400.26410737
400.312627172
400.26410737
400.26410737
400.753348708
400.704828906
400.316670489
400.312627172
401.990603662
400.247934103
400.704828906
400.316670489
400.332843757
400.26410737
400.769521976
401.145550442
400.296453905
400.26410737
402.403021979
400.231760836
400.243890786
401.129377174
401.210243511
400.688655639
400.227717519
400.668439054
400.668439054
400.652265787
400.668439054
400.704828906
400.688655639
400.721002173
400.688655639
400.688655639
400.672482371
400.672482371
400.672482371
400.672482371
400.672482371
400.688655639
400.668439054
400.688655639
400.688655639
400.688655639
400.684612322
400.688655639
400.688655639
400.247934103
400.672482371
400.737175441
400.672482371
400.684612322
400.753348708
400.757392025
401.129377174
400.652265787
400.26410737
400.227717519
400.704828906
401.549882126
400.668439054
400.688655639
400.741218758
401.113203907
400.737175441
401.125333858
401.125333858
400.227717519
401.161723709
400.668439054
400.672482371
401.113203907
401.129377174
400.688655639
401.113203907
401.129377174
401.566055393
400.668439054
400.672482371
400.672482371
400.704828906
400.668439054
401.145550442
401.198113561
400.656309104
400.672482371
400.672482371
400.688655639

Block: 4
======================================
401.092987323
400.672482371
401.076814055
400.684612322
400.741218758
401.57009871
401.113203907
401.129377174
401.994646978
400.247934103
400.672482371
400.773565292
400.243890786
400.741218758
400.672482371
400.668439054
400.668439054
400.688655639
400.704828906
401.194070244
400.704828906
400.757392025
400.672482371
400.737175441
400.247934103
401.10916059
400.688655639
400.672482371
402.419195247
400.688655639
400.688655639
400.26410737
400.688655639
401.145550442
401.113203907
400.247934103
400.668439054
400.656309104
400.688655639
401.125333858
401.177896976
401.198113561
401.181940293
400.688655639
400.672482371
400.247934103
400.247934103
401.129377174
401.198113561
401.113203907
400.688655639
400.26410737
400.243890786
400.211544251
400.684612322
400.227717519
400.652265787
401.10916059
400.668439054
400.227717519
400.26410737
401.10916059
401.161723709
401.113203907
401.129377174
400.227717519
400.231760836
400.247934103
401.177896976
400.227717519
400.668439054
401.09703064
401.113203907
400.668439054
401.994646978
400.227717519
400.672482371
400.652265787
400.652265787
400.227717519
400.672482371
401.161723709
400.672482371
401.129377174
401.129377174
401.129377174
400.688655639
400.672482371
400.672482371
400.684612322
401.113203907
401.177896976
401.161723709
400.26410737
401.10916059
401.57009871
401.129377174
401.10916059
400.668439054
400.247934103

Block: 5
======================================
400.688655639
400.668439054
400.672482371
400.704828906
400.26410737
400.704828906
401.181940293
400.247934103
400.688655639
401.57009871
400.247934103
401.586271977
401.129377174
401.145550442
400.753348708
400.684612322
400.684612322
400.672482371
400.688655639
400.26410737
400.672482371
400.688655639
400.704828906
400.769521976
400.704828906
400.721002173
400.26410737
400.243890786
402.435368514
400.26410737
400.704828906
400.773565292
400.688655639
400.757392025
400.32880044
400.26410737
400.247934103
400.247934103
400.312627172
400.247934103
400.704828906
400.704828906
400.247934103
400.26410737
400.704828906
400.773565292
400.704828906
401.586271977
400.247934103
400.704828906
400.227717519
400.243890786
401.129377174
400.243890786
400.668439054
400.26410737
400.672482371
400.688655639
400.753348708
400.688655639
400.231760836
400.668439054
401.129377174
400.247934103
400.231760836
401.553925443
400.757392025
401.198113561
400.668439054
400.688655639
401.113203907
400.688655639
400.688655639
400.704828906
400.247934103
402.843743515
401.10916059
401.145550442
400.704828906
400.688655639
401.177896976
401.129377174
400.668439054
400.688655639
400.672482371
400.227717519
400.652265787
401.10916059
400.231760836
400.672482371
400.652265787
400.231760836
401.113203907
401.978473711
400.684612322
400.721002173
400.247934103
400.668439054
400.688655639
401.092987323

Block: 6
======================================
400.721002173
400.211544251
400.668439054
400.652265787
400.668439054
400.757392025
400.684612322
401.553925443
400.672482371
400.684612322
400.688655639
400.672482371
400.753348708
400.688655639
400.688655639
400.704828906
400.688655639
400.688655639
401.161723709
400.688655639
400.704828906
400.227717519
400.688655639
400.688655639
400.332843757
400.688655639
401.145550442
400.672482371
401.145550442
400.247934103
400.332843757
400.227717519
400.688655639
400.704828906
400.704828906
400.312627172
401.145550442
400.332843757
400.280280638
400.26410737
400.126634598
400.312627172
400.247934103
400.332843757
400.344973707
400.316670489
400.26410737
400.227717519
400.312627172
400.26410737
401.161723709
400.26410737
401.145550442
400.26410737
400.247934103
400.26410737
400.284323955
400.280280638
400.26410737
400.316670489
401.57009871
400.26410737
400.688655639
400.688655639
400.280280638
400.26410737
400.721002173
400.26410737
400.247934103
400.280280638
400.349017024
400.280280638
400.26410737
400.26410737
400.26410737
401.57009871
400.26410737
401.990603662
400.26410737
400.247934103
401.129377174
400.26410737
400.280280638
400.312627172
400.247934103
400.26410737
400.688655639
400.26410737
400.672482371
400.688655639
400.247934103
400.672482371
400.672482371
400.721002173
400.704828906
400.247934103
400.312627172
400.247934103
400.26410737
400.672482371

Block: 7
======================================
400.656309104
400.656309104
400.672482371
400.227717519
400.737175441
400.300497222
401.113203907
401.161723709
400.652265787
400.672482371
400.672482371
400.672482371
400.672482371
400.296453905
400.247934103
401.113203907
400.737175441
400.231760836
400.721002173
401.09703064
400.741218758
400.656309104
401.080857372
401.076814055
400.63609252
401.092987323
401.092987323
401.092987323
401.092987323
401.145550442
400.704828906
401.10916059
401.076814055
401.092987323
400.652265787
400.656309104
400.63609252
400.652265787
401.165767026
401.113203907
401.09703064
401.080857372
401.080857372
401.076814055
401.092987323
401.092987323
400.721002173
401.962300444
401.10916059
400.737175441
400.737175441
401.177896976
401.161723709
400.672482371
401.181940293
401.113203907
401.10916059
401.553925443
401.076814055
400.672482371
401.113203907
400.652265787
401.129377174
401.602445245
400.737175441
401.129377174
401.09703064
401.113203907
401.113203907
401.092987323
400.688655639
400.757392025
400.672482371
401.198113561
400.652265787
400.757392025
401.553925443
400.737175441
400.684612322
400.688655639
401.978473711
400.668439054
401.638835096
400.688655639
400.688655639
400.672482371
400.652265787
400.656309104
400.652265787
400.63609252
400.656309104
401.553925443
401.537752175
401.09703064
401.533708858
401.09703064
401.113203907
401.537752175
401.958257127
401.092987323

Block: 8
======================================
401.09703064
401.145550442
401.145550442
401.533708858
401.092987323
400.672482371
401.553925443
401.537752175
401.533708858
401.533708858
401.553925443
401.076814055
401.517535591
401.63479178
401.517535591
401.092987323
401.521578908
401.533708858
402.382805395
401.09703064
401.501362324
401.517535591
401.517535591
401.521578908
401.942083859
401.076814055
401.537752175
401.501362324
401.501362324
401.505405641
401.521578908
401.501362324
401.521578908
401.501362324
402.386848712
402.010820246
401.703528166
401.925910592
402.791180396
402.435368514
401.485189056
401.553925443
402.419195247
401.942083859
402.382805395
401.501362324
401.485189056
401.517535591
401.517535591
401.533708858
401.501362324
401.517535591
401.905694008
401.501362324
401.994646978
401.946127176
401.978473711
401.505405641
401.076814055
401.521578908
401.060640788
401.501362324
401.521578908
401.501362324
401.044467521
401.521578908
401.501362324
401.942083859
401.942083859
401.553925443
401.044467521
401.080857372
401.925910592
401.060640788
401.044467521
401.501362324
401.521578908
401.060640788
401.549882126
401.076814055
401.485189056
401.501362324
401.485189056
401.044467521
401.517535591
401.485189056
401.485189056
401.485189056
401.553925443
401.517535591
402.435368514
402.35045886
401.485189056
401.501362324
401.485189056
401.553925443
401.553925443
401.485189056
401.485189056
401.485189056

Block: 9
======================================
401.485189056
401.501362324
401.469015789
401.549882126
401.040424204
401.485189056
401.974430394
401.905694008
401.09703064
401.060640788
401.064684105
401.044467521
401.925910592
401.044467521
401.469015789
401.024250937
401.485189056
401.012120986
401.024250937
401.485189056
401.044467521
401.09703064
401.485189056
401.501362324
401.10916059
401.10916059
401.044467521
401.909737325
401.044467521
401.469015789
401.044467521
401.469015789
401.024250937
401.044467521
401.044467521
401.044467521
401.925910592
401.48114574
401.060640788
401.044467521
401.10916059
401.028294253
401.060640788
402.791180396
400.603745985
401.044467521
400.603745985
401.060640788
401.044467521
401.064684105
401.044467521
401.060640788
401.925910592
400.619919252
401.909737325
401.040424204
401.080857372
401.060640788
401.076814055
401.044467521
401.485189056
401.501362324
401.113203907
401.060640788
402.010820246
401.060640788
401.060640788
401.076814055
400.603745985
401.076814055
401.501362324
401.060640788
401.125333858
401.113203907
400.640135837
401.501362324
401.485189056
400.63609252
401.060640788
401.060640788
401.060640788
400.640135837
401.517535591
401.044467521
401.501362324
401.501362324
400.668439054
400.599702668
401.028294253
400.603745985
401.485189056
400.63609252
401.044467521
401.040424204
400.619919252
400.603745985
401.044467521
401.485189056
400.619919252
400.603745985

Block: 10
======================================
400.603745985
401.044467521
400.603745985
401.909737325
401.125333858
401.129377174
400.640135837
401.076814055
400.619919252
400.603745985
401.129377174
401.113203907
401.060640788
401.942083859
401.076814055
401.501362324
402.791180396
400.704828906
400.688655639
401.060640788
400.63609252
400.623962569
400.652265787
400.684612322
400.603745985
401.064684105
400.619919252
401.129377174
401.517535591
400.619919252
400.63609252
400.619919252
400.619919252
401.092987323
401.080857372
400.619919252
401.080857372
400.619919252
401.165767026
400.619919252
400.63609252
400.63609252
400.619919252
401.501362324
401.064684105
401.501362324
400.63609252
401.129377174
401.028294253
400.619919252
401.501362324
400.619919252
401.044467521
401.113203907
401.113203907
401.501362324
401.024250937
401.505405641
401.485189056
401.485189056
401.469015789
401.974430394
401.464972472
401.10916059
401.060640788
401.942083859
401.925910592
401.501362324
401.48114574
401.485189056
401.113203907
401.469015789
401.028294253
401.533708858
401.012120986
401.469015789
401.464972472
401.464972472
401.008077669
401.533708858
401.464972472
401.464972472
401.469015789
401.942083859
401.501362324
401.485189056
402.334285593
401.469015789
401.044467521
401.024250937
401.040424204
401.044467521
401.076814055
401.064684105
401.501362324
401.517535591
401.129377174
401.145550442
401.946127176
401.092987323
