
Block: 1
======================================
200.572787619
200.177782941
199.685045147
199.648395228
200.177782941
200.128916383
200.096338677
126.287474918
199.680972934
199.664684081

Average distance is : 192.612 cm
Average deviation is : 23.306 cm
Block: 2
======================================
199.701334
199.680972934
200.589076471
199.648395228
199.701334
199.697261786
200.145205235
199.733911705
199.668756294
200.145205235

Average distance is : 199.871 cm
Average deviation is : 0.316 cm
Block: 3
======================================
199.717622852
200.177782941
200.145205235
199.701334
199.701334
200.145205235
200.161494088
199.680972934
199.701334
200.589076471

Average distance is : 199.972 cm
Average deviation is : 0.314 cm
Block: 4
======================================
199.701334
200.556498766
200.996297789
199.668756294
200.145205235
200.108555317
199.668756294
199.701334
199.680972934
200.12484417

Average distance is : 200.035 cm
Average deviation is : 0.452 cm
Block: 5
======================================
200.556498766
200.11262753
200.145205235
199.664684081
200.589076471
200.12484417
199.701334
199.701334
200.145205235
199.680972934

Average distance is : 200.042 cm
Average deviation is : 0.350 cm
Block: 6
======================================
199.664684081
199.680972934
200.141133022
199.664684081
199.701334
200.11262753
200.108555317
200.108555317
200.128916383
200.161494088

Average distance is : 199.947 cm
Average deviation is : 0.233 cm
Block: 7
======================================
200.621654177
199.717622852
200.568715405
200.556498766
199.701334
200.161494088
199.668756294
200.145205235
200.609437537
199.685045147

Average distance is : 200.144 cm
Average deviation is : 0.423 cm
Block: 8
======================================
199.701334
199.273751616
199.273751616
200.194071794
199.257462764
200.161494088
200.177782941
200.145205235
199.668756294
200.12484417

Average distance is : 199.798 cm
Average deviation is : 0.412 cm
Block: 9
======================================
199.717622852
199.717622852
199.273751616
199.754272771
200.145205235
199.701334
199.701334
199.273751616
199.701334
199.273751616

Average distance is : 199.626 cm
Average deviation is : 0.277 cm
Block: 10
======================================
199.273751616
199.664684081
200.589076471
200.589076471
199.273751616
200.145205235
199.733911705
199.257462764
199.717622852
200.145205235

Average distance is : 199.839 cm
Average deviation is : 0.511 cm