
Block: 1
======================================
198.198687339
198.16203742
198.182398486
198.178326273
198.231265044
198.194615126
198.194615126
198.198687339
198.178326273
198.231265044
198.16203742
197.75074389
198.178326273
198.198687339
198.182398486
197.718166184
198.214976192
198.16203742
198.198687339
198.198687339
198.178326273
198.182398486
198.178326273
198.198687339
198.178326273
198.16203742
198.198687339
198.178326273
197.73852725
198.182398486
198.182398486
198.198687339
198.16203742
198.182398486
198.198687339
198.214976192
198.214976192
198.182398486
197.701877332
198.182398486
198.231265044
198.214976192
198.214976192
198.210903978
198.194615126
198.198687339
198.198687339
198.198687339
197.787393808
198.214976192
198.214976192
198.182398486
198.214976192
198.231265044
197.771104956
198.198687339
198.25162611
198.178326273
198.182398486
197.771104956
198.198687339
198.247553897
198.231265044
198.214976192
197.75074389
198.16203742
198.231265044
198.182398486
198.214976192
198.214976192
198.231265044
198.214976192
197.718166184
198.210903978
198.214976192
198.247553897
198.198687339
198.166109633
198.182398486
198.194615126
198.178326273
198.178326273
198.214976192
197.718166184
197.73852725
198.178326273
198.182398486
198.178326273
197.734455037
198.198687339
198.178326273
197.771104956
197.771104956
198.178326273
197.807754874
197.767032743
198.210903978
198.182398486
198.145748568
197.734455037

Average distance is : 198.121 cm
Average deviation is : 0.170 cm
Block: 2
======================================
198.214976192
198.25162611
198.198687339
198.247553897
198.214976192
198.182398486
197.75074389
198.16203742
198.182398486
198.214976192
198.16203742
197.771104956
198.178326273
198.182398486
198.194615126
198.198687339
197.75074389
197.771104956
198.214976192
198.231265044
198.182398486
198.178326273
198.231265044
198.214976192
198.145748568
198.198687339
198.231265044
197.73852725
198.194615126
198.16203742
198.231265044
198.231265044
198.198687339
197.787393808
198.214976192
198.231265044
198.182398486
198.214976192
198.198687339
198.231265044
198.178326273
197.75074389
198.194615126
197.754816103
197.734455037
197.75074389
198.214976192
198.214976192
197.754816103
198.247553897
198.214976192
198.214976192
198.231265044
198.182398486
198.16203742
197.734455037
197.771104956
198.194615126
198.198687339
198.231265044
198.231265044
198.231265044
197.722238398
198.182398486
197.75074389
198.210903978
198.214976192
197.73852725
198.210903978
198.194615126
198.214976192
197.754816103
198.231265044
198.231265044
198.194615126
198.210903978
197.734455037
198.25162611
198.198687339
198.16203742
198.198687339
198.182398486
198.231265044
198.214976192
197.771104956
198.198687339
197.787393808
198.194615126
198.231265044
198.231265044
198.231265044
198.231265044
198.178326273
198.178326273
198.182398486
198.235337257
198.178326273
198.182398486
198.247553897
198.198687339

Average distance is : 198.116 cm
Average deviation is : 0.183 cm
Block: 3
======================================
197.75074389
197.787393808
198.182398486
198.178326273
198.166109633
197.754816103
197.754816103
198.16203742
198.194615126
198.214976192
198.214976192
198.214976192
198.231265044
198.231265044
197.75074389
198.214976192
197.754816103
198.231265044
197.75074389
198.166109633
198.182398486
197.754816103
198.198687339
198.198687339
198.182398486
197.754816103
198.166109633
198.178326273
198.214976192
198.214976192
198.235337257
198.178326273
198.198687339
198.182398486
198.214976192
198.178326273
198.198687339
198.178326273
198.235337257
197.754816103
197.819971514
198.198687339
198.145748568
198.231265044
198.214976192
198.182398486
198.214976192
198.178326273
198.182398486
198.182398486
198.214976192
198.214976192
198.178326273
198.178326273
198.214976192
198.198687339
198.194615126
198.198687339
197.754816103
198.178326273
198.198687339
198.198687339
198.231265044
198.231265044
198.178326273
198.194615126
198.231265044
198.198687339
198.178326273
197.73852725
198.178326273
198.231265044
198.267914963
198.194615126
198.198687339
197.787393808
198.214976192
198.198687339
198.198687339
198.231265044
197.771104956
198.198687339
198.231265044
198.198687339
197.734455037
198.182398486
198.182398486
198.214976192
198.16203742
197.754816103
198.198687339
198.182398486
198.231265044
198.178326273
198.198687339
198.198687339
198.178326273
198.16203742
198.198687339
198.145748568

Average distance is : 198.124 cm
Average deviation is : 0.167 cm
Block: 4
======================================
198.178326273
198.198687339
198.166109633
198.178326273
198.198687339
198.194615126
198.178326273
197.754816103
197.734455037
198.16203742
198.166109633
198.182398486
198.178326273
198.178326273
198.182398486
198.214976192
198.214976192
198.166109633
198.16203742
197.73852725
198.178326273
198.178326273
198.198687339
198.214976192
198.198687339
198.178326273
198.178326273
198.166109633
198.178326273
198.198687339
198.182398486
198.231265044
198.235337257
198.166109633
197.75074389
197.771104956
198.182398486
198.194615126
198.182398486
198.214976192
197.701877332
198.198687339
198.194615126
198.178326273
198.178326273
197.767032743
197.73852725
197.718166184
198.145748568
197.771104956
198.210903978
198.198687339
198.198687339
198.16203742
198.214976192
198.145748568
198.182398486
197.75074389
198.149820781
197.754816103
197.75074389
198.198687339
198.198687339
197.75074389
198.178326273
198.198687339
198.235337257
197.771104956
197.754816103
198.214976192
198.247553897
198.182398486
198.145748568
198.198687339
198.178326273
198.198687339
198.214976192
198.231265044
198.166109633
198.214976192
197.75074389
198.182398486
198.182398486
197.75074389
197.754816103
198.178326273
197.754816103
198.214976192
198.214976192
198.182398486
198.178326273
197.771104956
197.75074389
198.214976192
197.754816103
197.75074389
198.178326273
197.734455037
198.198687339
198.198687339

Average distance is : 198.080 cm
Average deviation is : 0.193 cm
Block: 5
======================================
198.198687339
197.73852725
198.231265044
198.214976192
198.231265044
197.807754874
198.214976192
198.178326273
197.73852725
198.178326273
198.214976192
197.754816103
198.214976192
197.771104956
198.214976192
198.182398486
197.787393808
198.214976192
198.214976192
198.210903978
198.210903978
198.182398486
198.198687339
198.178326273
198.231265044
197.771104956
198.231265044
198.231265044
198.198687339
198.198687339
198.214976192
198.210903978
198.178326273
197.75074389
198.231265044
198.198687339
198.247553897
198.214976192
198.198687339
198.247553897
198.247553897
198.198687339
198.214976192
197.787393808
198.16203742
197.75074389
198.267914963
197.787393808
197.767032743
197.807754874
197.787393808
198.194615126
197.771104956
198.247553897
198.247553897
197.787393808
198.231265044
198.198687339
198.231265044
198.231265044
198.231265044
198.214976192
198.231265044
198.231265044
198.231265044
198.231265044
198.214976192
198.247553897
197.771104956
197.771104956
198.231265044
198.231265044
198.214976192
198.25162611
198.247553897
198.214976192
198.214976192
198.231265044
198.231265044
197.787393808
198.26384275
198.267914963
198.267914963
198.247553897
198.247553897
198.231265044
198.214976192
198.247553897
197.754816103
197.803682661
198.214976192
198.231265044
198.247553897
198.231265044
198.214976192
198.25162611
198.235337257
198.214976192
198.231265044
198.231265044

Average distance is : 198.128 cm
Average deviation is : 0.185 cm
Block: 6
======================================
198.214976192
198.284203815
198.247553897
198.231265044
198.214976192
198.231265044
197.734455037
198.198687339
198.231265044
198.247553897
198.214976192
198.198687339
197.75074389
197.807754874
198.231265044
198.231265044
198.231265044
198.247553897
198.267914963
198.26384275
198.25162611
198.231265044
198.214976192
198.231265044
197.787393808
197.819971514
198.214976192
198.214976192
198.214976192
197.734455037
198.198687339
198.194615126
198.214976192
198.231265044
198.231265044
198.231265044
198.231265044
198.198687339
198.214976192
198.231265044
197.771104956
198.25162611
198.194615126
198.247553897
197.771104956
198.214976192
198.247553897
198.25162611
198.231265044
198.247553897
198.194615126
198.210903978
197.734455037
198.231265044
198.210903978
198.247553897
198.231265044
198.214976192
198.26384275
198.235337257
198.25162611
198.214976192
198.198687339
198.247553897
198.214976192
198.214976192
198.16203742
198.214976192
198.231265044
197.73852725
198.182398486
198.231265044
198.198687339
197.787393808
198.214976192
198.214976192
198.214976192
198.210903978
198.25162611
198.214976192
197.787393808
198.231265044
198.198687339
198.247553897
197.787393808
198.231265044
198.198687339
197.771104956
198.16203742
198.194615126
198.247553897
198.231265044
198.25162611
198.214976192
197.734455037
197.771104956
197.771104956
198.231265044
198.231265044
198.231265044

Average distance is : 198.147 cm
Average deviation is : 0.174 cm
Block: 7
======================================
198.198687339
197.754816103
198.182398486
198.145748568
198.166109633
198.182398486
198.235337257
198.182398486
198.231265044
198.231265044
197.734455037
198.214976192
198.178326273
198.166109633
197.771104956
198.198687339
198.178326273
198.194615126
198.198687339
198.182398486
198.198687339
198.178326273
198.182398486
197.771104956
198.194615126
197.718166184
198.198687339
198.198687339
198.198687339
198.194615126
198.182398486
197.75074389
198.198687339
198.178326273
198.178326273
198.231265044
198.145748568
198.231265044
198.198687339
198.198687339
198.182398486
198.198687339
198.178326273
198.214976192
197.73852725
198.231265044
198.145748568
198.178326273
198.182398486
198.194615126
198.247553897
198.178326273
197.771104956
198.198687339
198.231265044
198.182398486
197.75074389
198.182398486
197.754816103
198.214976192
198.214976192
198.214976192
197.754816103
198.214976192
197.771104956
197.75074389
197.807754874
198.235337257
198.198687339
197.771104956
198.247553897
197.771104956
197.73852725
198.194615126
198.182398486
198.231265044
198.214976192
198.16203742
198.231265044
198.194615126
198.178326273
197.771104956
197.771104956
198.16203742
197.771104956
198.247553897
198.194615126
198.231265044
198.198687339
198.16203742
198.182398486
198.166109633
197.75074389
197.787393808
198.198687339
198.198687339
197.754816103
198.247553897
198.182398486
198.198687339

Average distance is : 198.097 cm
Average deviation is : 0.186 cm
Block: 8
======================================
198.776941609
198.178326273
197.771104956
198.214976192
198.214976192
198.16203742
197.75074389
198.214976192
198.198687339
198.247553897
198.166109633
197.787393808
197.754816103
198.214976192
198.178326273
198.16203742
198.231265044
198.198687339
198.247553897
198.178326273
198.214976192
198.166109633
198.178326273
198.194615126
198.198687339
198.182398486
197.73852725
197.75074389
197.734455037
197.771104956
197.734455037
197.787393808
197.771104956
198.178326273
198.231265044
198.166109633
198.178326273
197.75074389
198.182398486
198.16203742
198.231265044
197.771104956
198.194615126
198.210903978
198.194615126
198.198687339
198.16203742
198.198687339
198.198687339
198.182398486
198.145748568
198.214976192
198.182398486
198.214976192
198.182398486
197.734455037
197.685588479
198.198687339
198.194615126
197.767032743
198.182398486
198.178326273
197.75074389
198.166109633
198.145748568
198.182398486
198.145748568
197.75074389
198.182398486
197.734455037
197.75074389
198.16203742
197.771104956
198.182398486
198.198687339
198.16203742
198.182398486
198.166109633
198.16203742
198.198687339
198.178326273
198.182398486
198.231265044
198.145748568
198.178326273
198.194615126
198.166109633
198.194615126
198.182398486
197.754816103
197.75074389
198.182398486
198.231265044
198.129459715
198.198687339
198.182398486
198.198687339
197.754816103
198.194615126
198.231265044

Average distance is : 198.090 cm
Average deviation is : 0.200 cm
Block: 9
======================================
198.149820781
198.145748568
198.194615126
197.722238398
198.214976192
198.178326273
198.198687339
198.129459715
197.722238398
197.722238398
198.41858685
198.198687339
198.194615126
198.16203742
198.214976192
198.16203742
198.145748568
197.701877332
198.198687339
198.182398486
197.718166184
198.178326273
198.214976192
198.198687339
197.718166184
198.129459715
198.214976192
198.166109633
198.178326273
198.178326273
198.16203742
198.145748568
197.718166184
198.198687339
197.685588479
198.231265044
198.145748568
197.701877332
198.16203742
198.145748568
198.166109633
198.145748568
198.231265044
198.16203742
198.198687339
198.16203742
198.16203742
198.182398486
198.166109633
198.16203742
198.145748568
198.198687339
198.166109633
198.178326273
198.198687339
198.166109633
198.214976192
198.16203742
198.145748568
198.198687339
198.178326273
198.166109633
198.198687339
198.198687339
198.194615126
198.178326273
198.210903978
198.16203742
198.214976192
197.75074389
198.16203742
198.198687339
198.182398486
198.194615126
198.178326273
198.182398486
197.771104956
198.194615126
198.178326273
198.166109633
198.198687339
198.178326273
198.194615126
198.214976192
198.194615126
198.182398486
198.178326273
198.194615126
198.194615126
198.178326273
198.198687339
198.16203742
198.16203742
198.16203742
198.178326273
198.16203742
198.145748568
198.145748568
198.16203742
198.214976192

Average distance is : 198.131 cm
Average deviation is : 0.149 cm
Block: 10
======================================
198.145748568
198.16203742
198.182398486
198.194615126
198.198687339
198.231265044
198.145748568
198.198687339
198.198687339
197.722238398
198.198687339
198.194615126
198.182398486
198.166109633
198.178326273
197.701877332
198.149820781
198.182398486
198.145748568
198.16203742
197.73852725
198.16203742
198.194615126
198.231265044
198.182398486
198.166109633
198.182398486
198.129459715
197.701877332
198.166109633
198.194615126
198.178326273
198.145748568
198.214976192
198.178326273
198.198687339
198.166109633
198.198687339
198.214976192
198.235337257
198.194615126
198.16203742
197.771104956
198.247553897
198.214976192
198.178326273
198.182398486
198.194615126
198.214976192
197.73852725
198.194615126
198.178326273
198.182398486
198.182398486
198.182398486
198.178326273
198.247553897
198.194615126
198.145748568
198.182398486
198.178326273
198.182398486
198.178326273
198.149820781
198.182398486
198.182398486
198.145748568
198.178326273
198.166109633
198.605908656
198.198687339
198.182398486
197.754816103
198.178326273
197.722238398
198.166109633
198.198687339
198.214976192
198.178326273
198.198687339
198.145748568
198.178326273
198.182398486
197.754816103
198.182398486
198.198687339
197.771104956
198.194615126
198.16203742
197.771104956
198.182398486
198.149820781
198.178326273
198.198687339
198.182398486
198.198687339
198.214976192
198.16203742
198.166109633
197.771104956

Average distance is : 198.135 cm
Average deviation is : 0.153 cm