
Block: 1
======================================
198.214976192
198.214976192
198.198687339
198.214976192
198.178326273
197.73852725
198.194615126
197.73852725
198.198687339
197.73852725
198.149820781
198.166109633
198.178326273
198.214976192
197.787393808
198.214976192
198.178326273
198.231265044
198.194615126
197.75074389
198.166109633
198.16203742
198.235337257
198.145748568
198.182398486
198.214976192
198.178326273
198.145748568
198.182398486
198.198687339
198.198687339
198.198687339
198.178326273
198.166109633
198.178326273
198.166109633
198.182398486
198.194615126
198.182398486
198.198687339
198.182398486
197.734455037
198.198687339
198.178326273
198.198687339
198.182398486
198.182398486
198.178326273
198.194615126
198.214976192

Average distance is : 198.136 cm
Average deviation is : 0.146 cm
Block: 2
======================================
198.214976192
198.194615126
198.198687339
198.145748568
198.198687339
197.734455037
198.16203742
197.734455037
198.178326273
198.231265044
198.198687339
198.16203742
198.182398486
198.178326273
198.182398486
198.178326273
197.771104956
198.182398486
198.178326273
197.734455037
198.182398486
198.166109633
197.705949545
197.754816103
197.754816103
198.182398486
198.16203742
198.194615126
198.178326273
198.16203742
198.16203742
198.198687339
198.182398486
198.178326273
198.198687339
198.16203742
198.182398486
198.16203742
198.16203742
198.16203742
197.75074389
198.214976192
198.145748568
198.198687339
198.198687339
198.145748568
197.754816103
197.734455037
198.166109633
198.198687339

Average distance is : 198.093 cm
Average deviation is : 0.178 cm
Block: 3
======================================
198.16203742
197.718166184
198.145748568
198.129459715
198.145748568
198.182398486
198.231265044
197.734455037
198.214976192
198.214976192
198.231265044
197.73852725
197.807754874
197.767032743
198.166109633
197.734455037
198.182398486
197.73852725
197.803682661
198.214976192
198.16203742
198.182398486
198.16203742
197.734455037
197.754816103
197.754816103
198.182398486
197.767032743
198.198687339
197.718166184
197.734455037
198.198687339
198.166109633
198.16203742
198.182398486
198.178326273
198.194615126
198.16203742
198.145748568
197.787393808
198.149820781
198.178326273
198.182398486
197.734455037
197.722238398
198.198687339
198.178326273
197.754816103
198.214976192
197.734455037

Average distance is : 198.017 cm
Average deviation is : 0.213 cm
Block: 4
======================================
198.166109633
198.231265044
198.166109633
198.198687339
198.214976192
198.166109633
198.210903978
198.194615126
198.16203742
198.198687339
198.194615126
198.182398486
198.198687339
198.198687339
197.73852725
198.214976192
198.178326273
198.182398486
198.16203742
198.182398486
197.734455037
198.16203742
197.754816103
197.718166184
198.145748568
198.182398486
198.149820781
197.734455037
198.214976192
198.198687339
197.771104956
197.718166184
197.754816103
198.182398486
198.166109633
198.16203742
198.166109633
198.194615126
198.178326273
198.145748568
197.718166184
198.182398486
197.75074389
197.722238398
198.16203742
198.198687339
198.198687339
198.145748568
198.198687339
198.178326273

Average distance is : 198.085 cm
Average deviation is : 0.187 cm
Block: 5
======================================
197.718166184
198.182398486
198.16203742
198.16203742
198.145748568
198.145748568
198.129459715
198.145748568
198.129459715
198.16203742
198.16203742
198.16203742
198.178326273
198.145748568
198.16203742
197.754816103
198.166109633
197.718166184
198.182398486
198.16203742
198.149820781
198.166109633
198.145748568
198.166109633
197.701877332
198.113170862
197.701877332
198.182398486
198.145748568
198.182398486
198.16203742
198.182398486
198.16203742
198.16203742
197.718166184
198.182398486
198.16203742
198.16203742
198.182398486
198.178326273
198.145748568
198.198687339
198.182398486
198.178326273
198.129459715
198.316781521
198.178326273
197.73852725
198.145748568
198.16203742

Average distance is : 198.103 cm
Average deviation is : 0.158 cm
Block: 6
======================================
198.182398486
198.149820781
197.734455037
198.16203742
198.145748568
198.145748568
197.718166184
198.16203742
198.145748568
198.182398486
198.129459715
198.145748568
198.166109633
198.198687339
198.178326273
198.210903978
197.718166184
197.718166184
197.73852725
197.718166184
198.145748568
197.701877332
197.73852725
198.214976192
198.145748568
198.178326273
198.267914963
197.734455037
197.705949545
197.73852725
198.145748568
198.210903978
197.734455037
197.718166184
198.214976192
198.145748568
197.718166184
197.73852725
198.194615126
198.194615126
198.198687339
198.178326273
197.771104956
198.198687339
198.182398486
197.75074389
198.231265044
197.705949545
198.214976192
197.734455037

Average distance is : 198.008 cm
Average deviation is : 0.223 cm
Block: 7
======================================
198.25162611
198.198687339
198.198687339
198.198687339
198.198687339
198.129459715
198.214976192
198.178326273
198.198687339
197.754816103
198.16203742
197.734455037
198.178326273
198.182398486
198.214976192
197.718166184
198.231265044
198.214976192
198.214976192
198.166109633
197.718166184
198.231265044
198.145748568
197.787393808
197.734455037
197.771104956
197.701877332
197.722238398
197.771104956
198.182398486
198.198687339
197.734455037
198.149820781
198.214976192
198.198687339
197.754816103
197.722238398
198.178326273
198.194615126
197.73852725
198.194615126
198.198687339
198.198687339
198.182398486
198.182398486
198.182398486
198.182398486
198.214976192
197.722238398
198.214976192

Average distance is : 198.057 cm
Average deviation is : 0.212 cm
Block: 8
======================================
198.247553897
198.182398486
197.803682661
197.722238398
198.16203742
197.734455037
198.182398486
197.771104956
198.178326273
198.214976192
197.734455037
198.182398486
198.198687339
198.145748568
198.198687339
198.16203742
198.198687339
197.771104956
198.129459715
198.16203742
198.178326273
197.722238398
198.178326273
198.214976192
198.231265044
198.194615126
198.166109633
198.166109633
198.145748568
198.194615126
198.16203742
198.214976192
197.734455037
198.166109633
198.16203742
198.182398486
198.182398486
198.231265044
198.182398486
197.771104956
198.145748568
197.722238398
197.767032743
197.754816103
198.178326273
198.210903978
198.16203742
198.149820781
197.771104956
198.214976192

Average distance is : 198.071 cm
Average deviation is : 0.193 cm
Block: 9
======================================
198.178326273
197.722238398
197.722238398
198.178326273
197.75074389
198.16203742
198.182398486
198.178326273
198.178326273
198.16203742
198.178326273
197.771104956
198.178326273
197.73852725
197.734455037
198.16203742
198.214976192
198.178326273
198.182398486
198.214976192
197.787393808
198.166109633
198.198687339
198.16203742
197.754816103
197.75074389
198.198687339
198.182398486
197.75074389
198.16203742
198.16203742
198.198687339
197.771104956
197.701877332
198.316781521
198.145748568
198.182398486
198.198687339
198.198687339
197.754816103
197.734455037
197.75074389
197.685588479
197.718166184
198.178326273
198.198687339
198.145748568
198.145748568
198.182398486
198.166109633

Average distance is : 198.032 cm
Average deviation is : 0.213 cm
Block: 10
======================================
197.718166184
198.214976192
197.754816103
198.214976192
198.198687339
198.198687339
198.178326273
198.182398486
198.16203742
198.214976192
198.178326273
198.178326273
197.722238398
197.718166184
198.194615126
198.145748568
198.214976192
198.182398486
198.198687339
197.718166184
198.16203742
197.73852725
198.129459715
198.16203742
197.701877332
198.16203742
198.16203742
197.734455037
198.198687339
198.16203742
197.734455037
198.149820781
197.718166184
198.16203742
197.754816103
198.198687339
198.166109633
197.718166184
198.166109633
197.754816103
197.73852725
198.231265044
198.210903978
198.198687339
198.198687339
198.166109633
198.214976192
197.754816103
198.194615126
198.178326273

Average distance is : 198.048 cm
Average deviation is : 0.210 cm