
Block: 1
======================================
199.8560781
200.723459506
200.316238189
200.247010565
200.283660483
200.267371631
200.723459506
201.171402955
200.247010565
200.263299417
200.263299417
200.27958827
200.263299417
200.263299417
199.803139329
200.295877123
200.711242867
200.27958827
200.263299417
201.13882525
200.283660483
200.295877123
199.819428182
200.075977612
201.118464184
200.263299417
200.267371631
200.247010565
200.267371631
200.27958827
199.819428182
200.263299417
200.27958827
200.711242867
199.823500395
199.819428182
200.247010565
199.823500395
199.819428182
199.819428182
199.819428182
199.803139329
199.819428182
201.134753036
200.707170653
201.546046567
200.247010565
199.819428182
201.171402955
199.839789248
199.819428182
199.839789248
199.803139329
199.803139329
199.803139329
199.803139329
200.727531719
201.114391971
200.263299417
200.316238189
199.835717034
200.723459506
199.839789248
199.823500395
199.835717034
199.835717034
200.707170653
200.727531719
199.819428182
200.727531719
199.852005887
199.803139329
199.819428182
199.839789248
199.819428182

Block: 2
======================================
200.263299417
199.786850476
199.770561624
199.803139329
199.786850476
200.247010565
199.803139329
199.819428182
199.819428182
199.803139329
200.226649499
199.782778263
199.770561624
199.819428182
199.819428182
200.161494088
199.819428182
199.819428182
199.803139329
200.674592948
199.803139329
199.819428182
199.819428182
199.819428182
199.839789248
199.819428182
200.247010565
200.283660483
199.803139329
199.823500395
200.690881801
199.819428182
200.247010565
200.263299417
200.263299417
200.263299417
200.247010565
199.819428182
200.263299417
200.283660483
199.835717034
201.134753036
200.267371631
200.247010565
199.803139329
200.27958827
201.578624272
200.27958827
200.247010565
200.299949336
199.803139329
199.852005887
201.56233542
199.819428182
200.263299417
200.27958827
199.803139329
200.263299417
199.819428182
199.819428182
199.803139329
200.263299417
199.819428182
200.283660483
199.819428182
200.27958827
200.283660483
200.263299417
200.707170653
200.711242867
200.707170653
200.267371631
200.711242867
200.723459506
200.263299417

Block: 3
======================================
200.739748359
200.707170653
199.835717034
199.8560781
200.690881801
200.723459506
200.263299417
200.27958827
199.872366953
200.690881801
199.8560781
199.8560781
200.27958827
200.247010565
199.86829474
200.743820572
200.247010565
200.690881801
199.839789248
200.27958827
201.134753036
200.27958827
200.283660483
200.263299417
200.723459506
200.743820572
199.823500395
200.707170653
200.267371631
199.819428182
201.155114102
200.727531719
200.263299417
200.263299417
200.247010565
199.974172282
199.823500395
200.283660483
200.723459506
200.283660483
200.295877123
200.267371631
200.27958827
200.247010565
200.247010565
200.299949336
199.786850476
199.8560781
199.852005887
200.727531719
200.707170653
200.247010565
200.743820572
199.872366953
199.803139329
200.723459506
200.711242867
200.707170653
200.743820572
199.839789248
200.711242867
199.835717034
200.267371631
200.247010565
200.267371631
199.819428182
200.247010565
200.27958827
200.690881801
199.8560781
200.247010565
200.707170653
200.707170653
200.723459506
200.743820572

Block: 4
======================================
199.835717034
199.872366953
199.835717034
200.727531719
200.230721712
200.247010565
199.8560781
199.872366953
200.739748359
200.723459506
199.839789248
200.723459506
199.8560781
200.739748359
200.263299417
200.27958827
199.852005887
199.86829474
200.247010565
199.823500395
200.707170653
200.247010565
200.27958827
199.8560781
199.819428182
200.743820572
200.739748359
199.852005887
199.835717034
200.707170653
199.852005887
199.852005887
200.295877123
200.295877123
199.823500395
200.299949336
199.819428182
199.819428182
199.835717034
199.819428182
200.299949336
200.263299417
201.134753036
199.835717034
199.852005887
199.835717034
200.727531719
199.852005887
200.723459506
199.8560781
199.819428182
199.839789248
199.835717034
200.723459506
199.8560781
200.316238189
199.835717034
200.690881801
200.283660483
199.8560781
200.707170653
200.711242867
200.723459506
199.8560781
200.727531719
199.8560781
200.723459506
200.711242867
199.852005887
199.835717034
199.819428182
200.707170653
200.711242867
200.727531719
199.819428182

Block: 5
======================================
199.823500395
199.819428182
199.819428182
200.299949336
200.707170653
200.723459506
200.711242867
200.711242867
200.263299417
200.263299417
199.835717034
200.27958827
200.723459506
200.707170653
200.707170653
200.727531719
200.727531719
199.835717034
199.8560781
199.872366953
199.819428182
200.727531719
200.247010565
200.27958827
200.283660483
200.263299417
200.723459506
199.835717034
200.727531719
200.707170653
200.690881801
200.707170653
200.723459506
199.819428182
200.690881801
200.723459506
200.247010565
201.546046567
199.839789248
201.134753036
200.690881801
200.247010565
200.263299417
199.835717034
199.819428182
199.839789248
199.852005887
200.27958827
200.707170653
200.707170653
200.707170653
199.852005887
200.707170653
199.819428182
200.247010565
200.727531719
199.8560781
199.835717034
200.739748359
200.707170653
199.852005887
200.316238189
199.8560781
200.707170653
200.707170653
200.283660483
200.723459506
199.852005887
199.8560781
200.723459506
200.727531719
200.283660483
199.8560781
200.743820572
200.707170653

Block: 6
======================================
200.589076471
199.803139329
199.835717034
199.835717034
199.782778263
200.707170653
200.283660483
200.707170653
199.835717034
201.155114102
199.835717034
199.819428182
199.803139329
199.835717034
201.578624272
199.823500395
199.835717034
200.299949336
199.803139329
199.803139329
199.819428182
199.803139329
199.839789248
199.819428182
199.803139329
199.823500395
199.786850476
199.835717034
200.707170653
199.786850476
199.803139329
200.690881801
200.247010565
200.247010565
199.803139329
199.823500395
199.819428182
200.263299417
200.27958827
200.690881801
200.263299417
199.819428182
199.803139329
200.247010565
200.230721712
199.819428182
199.835717034
199.835717034
199.819428182
199.803139329
199.819428182
200.267371631
200.263299417
201.134753036
199.786850476
199.803139329
200.263299417
199.803139329
199.819428182
199.819428182
199.819428182
200.283660483
199.839789248
199.835717034
200.263299417
199.786850476
200.707170653
199.803139329
199.803139329
199.839789248
199.839789248
199.819428182
200.299949336
199.786850476
199.823500395

Block: 7
======================================
199.786850476
200.674592948
200.247010565
199.8560781
199.835717034
200.690881801
199.839789248
199.835717034
199.819428182
199.839789248
199.819428182
200.247010565
200.247010565
199.803139329
200.263299417
199.852005887
199.803139329
201.56233542
199.803139329
199.839789248
199.803139329
199.803139329
200.263299417
200.267371631
199.803139329
200.263299417
199.819428182
200.263299417
199.872366953
200.283660483
200.454693437
200.247010565
200.247010565
200.247010565
200.690881801
200.299949336
200.711242867
200.707170653
200.27958827
200.27958827
200.247010565
200.247010565
200.247010565
200.283660483
199.819428182
200.263299417
200.267371631
201.098103118
200.263299417
200.263299417
199.819428182
200.27958827
200.247010565
200.263299417
200.263299417
199.835717034
200.263299417
200.743820572
200.230721712
199.823500395
200.690881801
199.852005887
200.27958827
199.839789248
199.803139329
200.283660483
199.823500395
199.819428182
199.835717034
200.247010565
200.263299417
199.819428182
199.839789248
199.819428182
200.263299417

Block: 8
======================================
200.283660483
200.214432859
200.658304095
201.134753036
199.823500395
200.263299417
199.819428182
199.852005887
200.247010565
200.247010565
200.27958827
200.247010565
200.283660483
200.263299417
200.263299417
201.134753036
199.835717034
200.299949336
199.835717034
200.263299417
199.786850476
200.263299417
199.819428182
200.690881801
201.134753036
200.247010565
200.263299417
200.707170653
201.151041889
200.247010565
200.723459506
200.247010565
199.8560781
200.707170653
200.263299417
200.247010565
200.247010565
199.786850476
199.803139329
199.819428182
201.118464184
200.263299417
199.823500395
199.819428182
200.247010565
200.690881801
200.727531719
200.283660483
199.835717034
199.819428182
201.102175331
200.247010565
200.690881801
200.267371631
200.263299417
199.803139329
200.263299417
200.727531719
200.263299417
200.690881801
199.839789248
200.707170653
199.835717034
200.230721712
200.723459506
201.134753036
199.852005887
200.723459506
199.819428182
199.8560781
200.711242867
199.8560781
200.707170653
200.743820572
199.852005887

Block: 9
======================================
199.839789248
199.819428182
199.823500395
199.835717034
200.690881801
200.707170653
200.723459506
200.727531719
199.839789248
199.819428182
200.743820572
199.803139329
199.839789248
200.690881801
200.263299417
199.835717034
199.786850476
199.786850476
200.707170653
200.263299417
200.690881801
201.098103118
200.690881801
200.711242867
200.690881801
200.707170653
200.263299417
200.690881801
200.267371631
200.247010565
200.263299417
200.267371631
200.247010565
201.118464184
200.247010565
200.267371631
201.118464184
200.247010565
200.247010565
200.247010565
200.263299417
200.230721712
200.263299417
200.263299417
200.723459506
199.8560781
200.711242867
200.247010565
200.711242867
200.247010565
200.711242867
200.690881801
200.707170653
200.707170653
200.27958827
199.786850476
200.27958827
199.872366953
199.835717034
199.835717034
200.247010565
200.251082778
200.711242867
200.711242867
200.247010565
200.263299417
200.263299417
199.823500395
200.247010565
200.247010565
199.852005887
200.690881801
200.690881801
200.723459506
200.263299417

Block: 10
======================================
199.819428182
200.299949336
201.56233542
199.839789248
200.27958827
200.27958827
200.283660483
200.27958827
200.283660483
199.819428182
200.295877123
199.819428182
199.835717034
200.723459506
199.8560781
200.711242867
200.707170653
200.690881801
200.263299417
200.707170653
200.263299417
200.230721712
200.711242867
199.839789248
200.727531719
199.823500395
199.852005887
199.8560781
200.711242867
199.819428182
200.690881801
200.707170653
199.8560781
199.819428182
199.823500395
199.86829474
199.86829474
199.839789248
199.852005887
199.835717034
199.839789248
199.852005887
199.872366953
201.598985338
199.835717034
200.739748359
199.8560781
199.839789248
199.835717034
200.283660483
199.839789248
199.86829474
199.835717034
199.8560781
200.27958827
199.8560781
200.723459506
199.839789248
199.852005887
200.707170653
199.8560781
199.835717034
200.707170653
200.727531719
199.852005887
200.727531719
200.707170653
199.86829474
200.760109425
199.852005887
200.727531719
199.872366953
199.86829474
200.727531719
200.707170653
