
Block: 1
======================================
198.280131602
193.466775632
198.231265044
198.26384275
198.26384275
197.909560204
198.267914963
198.284203815
198.333070374
198.247553897
198.267914963
198.280131602
198.300492668
198.284203815
198.316781521
198.267914963
198.300492668
198.300492668
198.267914963
198.284203815
198.284203815
198.300492668
198.300492668
198.280131602
198.280131602

Block: 2
======================================
198.26384275
197.787393808
198.316781521
198.280131602
198.300492668
197.429039049
198.300492668
198.300492668
198.284203815
198.280131602
198.280131602
198.300492668
198.26384275
197.872910285
198.267914963
198.284203815
198.267914963
198.284203815
198.284203815
198.267914963
198.267914963
198.267914963
198.284203815
198.26384275
198.247553897

Block: 3
======================================
198.316781521
197.791466022
198.26384275
198.280131602
198.247553897
198.267914963
198.316781521
198.280131602
198.284203815
198.280131602
198.300492668
198.284203815
197.856621432
193.755902767
197.889199138
198.267914963
198.26384275
198.316781521
198.316781521
198.26384275
198.300492668
198.316781521
198.316781521
198.316781521
198.284203815

Block: 4
======================================
198.280131602
198.26384275
198.300492668
198.284203815
198.284203815
197.856621432
198.316781521
198.316781521
198.267914963
198.284203815
198.284203815
198.284203815
198.280131602
197.872910285
198.267914963
192.509805536
197.84033258
198.300492668
198.284203815
192.526094389
197.836260366
198.26384275
198.26384275
198.267914963
197.872910285

Block: 5
======================================
198.267914963
198.25162611
198.280131602
198.300492668
198.267914963
197.445327902
198.284203815
198.267914963
198.487814474
198.300492668
198.280131602
198.316781521
198.284203815
198.300492668
198.296420455
198.284203815
198.284203815
198.316781521
198.26384275
198.26384275
198.284203815
197.819971514
198.280131602
198.280131602
198.284203815

Block: 6
======================================
198.333070374
197.836260366
198.316781521
198.247553897
193.857708097
198.231265044
198.316781521
198.280131602
198.284203815
198.300492668
198.300492668
198.316781521
198.300492668
198.284203815
198.267914963
198.284203815
198.337142587
197.852549219
197.856621432
198.300492668
198.267914963
198.284203815
198.296420455
198.26384275
198.284203815

Block: 7
======================================
198.25162611
197.787393808
198.267914963
198.300492668
198.296420455
197.872910285
197.856621432
198.267914963
198.280131602
198.300492668
198.300492668
198.247553897
198.300492668
197.852549219
198.284203815
198.300492668
197.856621432
197.872910285
198.300492668
198.316781521
197.872910285
198.284203815
198.316781521
198.300492668
198.280131602

Block: 8
======================================
197.872910285
197.803682661
197.836260366
194.647717452
197.872910285
197.412750196
195.893814683
193.633736372
198.300492668
191.65464077
198.231265044
198.284203815
198.300492668
198.300492668
198.26384275
198.267914963
198.284203815
193.906574655
197.32723372
198.267914963
191.658712983
197.856621432
198.284203815
198.280131602
198.26384275

Block: 9
======================================
198.333070374
198.316781521
198.316781521
198.284203815
198.284203815
197.84033258
198.300492668
198.320853734
198.300492668
198.300492668
198.316781521
198.26384275
197.856621432
198.333070374
198.25162611
198.333070374
198.320853734
197.034034371
198.284203815
198.300492668
198.316781521
198.267914963
198.300492668
198.316781521
198.300492668

Block: 10
======================================
198.284203815
192.611610866
198.231265044
198.267914963
198.316781521
197.396461344
197.872910285
197.856621432
192.045573235
197.872910285
198.284203815
198.280131602
198.280131602
198.280131602
198.284203815
198.300492668
198.300492668
198.300492668
197.465688968
198.284203815
198.333070374
197.889199138
197.461616755
198.337142587
197.872910285
