
Block: 1
======================================
100.383921862
100.817572474
100.817572474
100.400441885
101.284263134
100.817572474
100.850612521
101.234703064
100.437611938
99.9502712488
100.437611938
100.433481932
100.416961908
100.437611938
100.838222504
100.383921862
100.400441885
100.87126255
101.251223087
100.834092498
100.817572474
100.817572474
100.817572474
100.834092498
100.817572474
100.834092498
100.817572474
100.817572474
100.817572474
100.817572474
100.817572474
100.813442469
100.817572474
100.817572474
100.817572474
100.817572474
101.230573058
100.813442469
100.817572474
100.817572474
100.817572474
100.817572474
100.817572474
100.801052451
100.801052451
100.817572474
100.796922445
100.817572474
100.346751809
101.251223087
100.834092498
100.801052451
100.817572474
100.796922445
100.834092498
100.817572474
100.801052451
100.817572474
100.796922445
101.230573058
100.834092498
101.234703064
100.834092498
100.801052451
100.834092498
101.234703064
100.450001955
101.230573058
100.801052451
100.817572474
101.664223671
100.817572474
101.214053035
101.251223087
100.801052451
101.234703064
101.6848737
100.801052451
100.834092498
100.367401838
101.251223087
100.834092498
101.267743111
100.313711762
100.350881815
98.1495887041
101.251223087
100.904302597
100.780402422
99.9874413013
100.850612521
100.817572474
100.796922445
101.234703064
101.234703064
100.834092498
101.251223087
101.247093081
100.850612521
100.334361792

Block: 2
======================================
100.796922445
100.834092498
101.218183041
100.350881815
100.383921862
100.367401838
100.400441885
100.784532428
100.367401838
99.9833112955
100.817572474
100.817572474
100.834092498
100.801052451
100.817572474
101.234703064
100.817572474
100.834092498
100.813442469
100.817572474
100.817572474
100.817572474
100.817572474
100.813442469
100.834092498
100.763882399
101.230573058
100.834092498
100.817572474
100.834092498
100.813442469
100.834092498
100.817572474
100.813442469
100.817572474
100.817572474
100.813442469
101.234703064
100.817572474
101.251223087
100.834092498
100.817572474
100.834092498
100.817572474
100.834092498
100.813442469
100.834092498
100.801052451
100.817572474
100.817572474
100.834092498
100.834092498
100.796922445
100.400441885
100.817572474
100.817572474
100.817572474
100.834092498
100.817572474
100.817572474
100.813442469
100.834092498
100.801052451
100.801052451
100.801052451
100.796922445
100.834092498
100.834092498
100.834092498
100.003961325
100.350881815
101.234703064
100.817572474
101.251223087
100.813442469
100.813442469
100.817572474
100.801052451
100.817572474
100.817572474
100.834092498
100.834092498
100.817572474
100.817572474
100.801052451
100.796922445
100.817572474
100.817572474
100.813442469
101.251223087
100.817572474
100.834092498
100.817572474
100.813442469
100.817572474
100.817572474
100.813442469
100.817572474
100.817572474
100.817572474

Block: 3
======================================
100.801052451
100.850612521
100.834092498
100.834092498
100.834092498
100.817572474
99.9833112955
100.801052451
100.834092498
100.834092498
100.784532428
100.383921862
99.9667912722
101.230573058
100.817572474
100.817572474
100.817572474
100.796922445
100.817572474
100.817572474
100.350881815
101.230573058
100.817572474
100.817572474
100.834092498
100.817572474
100.817572474
100.834092498
100.801052451
100.350881815
100.763882399
99.9337512255
101.251223087
100.834092498
100.817572474
100.801052451
100.817572474
100.834092498
100.817572474
100.817572474
100.334361792
101.234703064
100.801052451
100.817572474
100.834092498
100.801052451
100.817572474
101.230573058
100.796922445
100.801052451
100.817572474
100.817572474
100.817572474
100.834092498
100.801052451
100.817572474
100.817572474
100.817572474
100.817572474
101.218183041
100.817572474
100.813442469
100.817572474
100.817572474
100.817572474
100.834092498
100.834092498
100.801052451
100.817572474
100.817572474
100.801052451
100.813442469
100.796922445
100.817572474
100.817572474
101.234703064
100.817572474
100.801052451
100.817572474
100.796922445
100.817572474
99.9172312021
101.251223087
100.763882399
101.230573058
100.817572474
100.817572474
100.784532428
100.367401838
101.230573058
100.801052451
101.234703064
101.234703064
101.230573058
100.796922445
100.817572474
100.817572474
100.817572474
100.817572474
100.834092498

Block: 4
======================================
100.796922445
100.350881815
101.197533011
100.834092498
100.433481932
100.817572474
100.834092498
99.9667912722
99.9833112955
99.9667912722
99.9874413013
100.404571891
100.367401838
100.416961908
100.817572474
101.230573058
100.834092498
100.817572474
100.813442469
100.834092498
100.834092498
100.834092498
100.838222504
100.817572474
100.834092498
100.817572474
100.834092498
100.367401838
100.784532428
100.780402422
101.234703064
100.817572474
100.801052451
100.350881815
101.251223087
100.850612521
100.817572474
100.350881815
99.9337512255
99.9172312021
99.9172312021
99.9337512255
99.9337512255
101.251223087
100.834092498
100.834092498
100.346751809
101.214053035
100.834092498
101.230573058
100.817572474
100.796922445
100.796922445
100.817572474
100.817572474
100.817572474
100.817572474
100.817572474
100.801052451
100.817572474
100.350881815
101.234703064
100.801052451
101.251223087
100.346751809
99.9337512255
101.230573058
100.834092498
100.834092498
100.817572474
100.817572474
100.334361792
99.9337512255
101.247093081
100.400441885
100.817572474
100.817572474
100.813442469
100.817572474
100.350881815
100.330231786
100.834092498
100.817572474
100.850612521
101.247093081
100.834092498
100.834092498
100.834092498
101.234703064
101.717913747
100.817572474
100.801052451
100.834092498
100.796922445
100.796922445
100.817572474
101.247093081
100.817572474
100.834092498
100.834092498

Block: 5
======================================
100.813442469
100.367401838
100.834092498
100.817572474
100.367401838
100.796922445
101.230573058
100.796922445
101.197533011
100.817572474
100.834092498
101.247093081
100.817572474
100.817572474
100.834092498
100.834092498
100.834092498
100.834092498
100.817572474
100.813442469
100.817572474
100.796922445
100.817572474
100.834092498
100.813442469
100.817572474
100.834092498
100.813442469
100.834092498
100.817572474
100.834092498
100.801052451
100.350881815
101.214053035
100.813442469
100.350881815
101.647703648
100.763882399
99.9337512255
101.234703064
100.330231786
101.230573058
100.813442469
100.834092498
100.834092498
100.52434206
100.850612521
100.817572474
100.834092498
100.817572474
100.838222504
100.817572474
100.817572474
100.817572474
100.346751809
99.9337512255
100.817572474
100.817572474
100.817572474
100.611072183
100.796922445
101.234703064
100.817572474
100.801052451
100.834092498
100.834092498
100.834092498
100.834092498
100.834092498
100.796922445
99.9874413013
101.214053035
100.817572474
100.834092498
101.234703064
100.834092498
100.817572474
100.817572474
101.230573058
100.817572474
100.834092498
100.817572474
100.850612521
100.834092498
99.9337512255
99.9337512255
100.784532428
99.9544012547
101.234703064
100.801052451
100.796922445
100.813442469
100.817572474
100.363271832
101.230573058
100.817572474
100.834092498
100.817572474
100.817572474
100.363271832

Block: 6
======================================
100.433481932
99.9874413013
100.801052451
100.437611938
100.346751809
100.796922445
101.267743111
101.251223087
101.284263134
100.817572474
100.817572474
100.817572474
101.230573058
101.234703064
100.817572474
101.230573058
100.813442469
100.834092498
100.834092498
100.834092498
100.801052451
99.9172312021
100.850612521
100.817572474
100.817572474
100.454131961
101.230573058
100.817572474
100.834092498
100.817572474
100.817572474
100.367401838
101.234703064
100.796922445
100.817572474
100.817572474
100.796922445
100.350881815
101.218183041
100.817572474
100.838222504
100.817572474
100.817572474
100.796922445
100.817572474
100.817572474
100.817572474
100.817572474
100.801052451
101.234703064
101.234703064
100.817572474
100.813442469
100.834092498
100.834092498
100.834092498
100.801052451
100.367401838
99.9502712488
101.230573058
101.214053035
100.346751809
100.763882399
100.780402422
100.801052451
99.9544012547
101.230573058
101.234703064
100.834092498
100.850612521
99.9998313189
101.230573058
100.796922445
100.813442469
100.817572474
100.817572474
100.796922445
100.817572474
100.817572474
101.230573058
100.817572474
100.817572474
101.251223087
100.834092498
100.350881815
100.784532428
100.763882399
100.367401838
100.780402422
100.780402422
100.763882399
101.230573058
100.834092498
100.817572474
100.817572474
100.834092498
100.817572474
100.367401838
100.763882399
100.763882399

Block: 7
======================================
100.801052451
100.383921862
100.817572474
100.383921862
100.367401838
100.350881815
101.230573058
100.813442469
99.9667912722
100.367401838
101.247093081
100.834092498
100.817572474
99.9874413013
101.251223087
100.817572474
100.813442469
100.817572474
100.801052451
100.813442469
100.834092498
100.838222504
100.817572474
100.834092498
100.834092498
100.834092498
101.057112813
100.801052451
100.854742527
100.817572474
100.817572474
100.817572474
100.834092498
101.267743111
101.247093081
100.850612521
100.796922445
100.817572474
100.854742527
100.834092498
100.838222504
100.834092498
101.044722795
100.834092498
100.801052451
100.834092498
100.834092498
100.854742527
100.834092498
100.367401838
101.234703064
100.817572474
100.834092498
100.834092498
100.834092498
100.834092498
100.346751809
101.247093081
100.817572474
100.817572474
100.834092498
100.834092498
100.817572474
100.834092498
100.796922445
100.850612521
100.834092498
100.817572474
100.817572474
100.854742527
99.9874413013
101.230573058
100.834092498
100.817572474
100.834092498
100.817572474
100.817572474
100.813442469
100.817572474
100.801052451
100.817572474
100.834092498
100.817572474
100.796922445
100.817572474
100.350881815
100.834092498
100.817572474
100.813442469
101.251223087
100.834092498
100.817572474
100.817572474
101.230573058
100.834092498
100.817572474
100.834092498
100.796922445
100.817572474
100.813442469

Block: 8
======================================
101.230573058
100.834092498
100.334361792
100.383921862
100.367401838
100.400441885
101.218183041
100.400441885
100.383921862
100.834092498
99.9544012547
99.9833112955
101.251223087
100.817572474
101.230573058
101.247093081
100.817572474
100.801052451
100.801052451
100.838222504
100.834092498
100.817572474
100.817572474
100.817572474
100.801052451
100.817572474
100.817572474
100.801052451
100.834092498
100.834092498
100.817572474
100.834092498
100.817572474
100.817572474
100.817572474
100.817572474
100.817572474
100.801052451
100.801052451
100.838222504
100.801052451
100.363271832
101.247093081
100.334361792
101.234703064
100.796922445
100.801052451
101.251223087
100.817572474
100.834092498
100.817572474
100.834092498
100.817572474
100.817572474
100.834092498
101.247093081
100.817572474
100.367401838
100.334361792
101.218183041
100.383921862
100.801052451
100.801052451
100.834092498
100.817572474
100.817572474
100.834092498
100.817572474
100.813442469
101.214053035
100.817572474
100.817572474
100.817572474
100.363271832
101.230573058
101.234703064
100.817572474
99.9502712488
101.230573058
100.363271832
100.834092498
100.817572474
100.838222504
100.834092498
100.834092498
100.850612521
100.817572474
100.834092498
101.251223087
101.234703064
100.813442469
100.817572474
100.834092498
100.817572474
100.834092498
100.817572474
101.251223087
100.850612521
100.817572474
100.817572474

Block: 9
======================================
100.801052451
100.363271832
100.780402422
101.234703064
100.450001955
100.817572474
100.404571891
100.801052451
100.817572474
99.9337512255
100.367401838
101.251223087
100.817572474
100.834092498
100.817572474
100.834092498
101.251223087
101.234703064
101.251223087
100.850612521
100.834092498
100.817572474
100.817572474
100.801052451
100.834092498
100.817572474
100.813442469
100.834092498
100.817572474
100.834092498
101.251223087
100.834092498
100.817572474
100.834092498
100.817572474
100.834092498
100.834092498
100.834092498
100.834092498
100.817572474
100.557382107
101.230573058
100.834092498
100.834092498
100.817572474
100.817572474
100.834092498
100.817572474
100.834092498
100.817572474
100.350881815
101.230573058
100.367401838
100.780402422
100.780402422
100.796922445
100.796922445
101.267743111
100.834092498
100.817572474
100.817572474
100.834092498
100.817572474
100.813442469
100.834092498
100.817572474
100.350881815
100.763882399
100.780402422
100.780402422
100.400441885
100.817572474
100.834092498
100.834092498
100.834092498
100.834092498
100.834092498
99.9337512255
101.234703064
100.367401838
101.234703064
100.850612521
100.367401838
100.784532428
101.6848737
100.834092498
100.350881815
100.784532428
100.763882399
101.230573058
101.247093081
100.834092498
101.230573058
100.817572474
100.801052451
100.801052451
100.813442469
100.801052451
101.218183041
100.817572474

Block: 10
======================================
100.383921862
100.780402422
100.817572474
100.383921862
100.780402422
100.817572474
101.263613105
100.780402422
101.251223087
100.834092498
100.817572474
100.834092498
100.834092498
100.801052451
100.813442469
101.247093081
100.817572474
100.801052451
100.838222504
100.834092498
100.400441885
100.834092498
100.817572474
100.834092498
100.817572474
100.817572474
100.834092498
101.028202772
100.020481348
100.834092498
101.247093081
100.817572474
100.834092498
100.817572474
100.834092498
100.817572474
100.817572474
100.817572474
101.234703064
100.367401838
101.647703648
100.817572474
100.817572474
100.834092498
100.796922445
100.817572474
100.801052451
100.834092498
100.817572474
100.363271832
101.680743694
101.247093081
101.251223087
100.817572474
100.834092498
100.834092498
100.817572474
100.367401838
101.214053035
100.834092498
100.813442469
100.834092498
100.817572474
100.817572474
100.383921862
101.214053035
100.834092498
100.834092498
100.834092498
100.817572474
100.003961325
101.247093081
100.834092498
100.834092498
100.817572474
100.850612521
100.834092498
100.817572474
100.346751809
101.247093081
100.817572474
100.346751809
99.9337512255
101.234703064
100.346751809
101.247093081
100.350881815
101.230573058
100.838222504
100.817572474
100.834092498
100.834092498
101.230573058
101.230573058
100.817572474
100.834092498
100.813442469
100.350881815
100.768012404
100.768012404
