
Block: 1
======================================
48.8516695499
48.8516695499
48.8146295309
48.8352073193
48.8475539923

Block: 2
======================================
48.8516695499
48.8187450886
48.8681317806
48.8681317806
48.8516695499

Block: 3
======================================
48.8516695499
48.4359982252
48.8352073193
48.888709569
48.8681317806

Block: 4
======================================
48.8516695499
48.8681317806
48.8352073193
48.8516695499
48.8516695499

Block: 5
======================================
49.2303008556
48.8187450886
48.8845940113
48.888709569
48.8845940113

Block: 6
======================================
48.8681317806
48.8352073193
48.8352073193
48.8516695499
48.8310917616

Block: 7
======================================
48.8516695499
48.8681317806
48.8516695499
48.8516695499
48.8352073193

Block: 8
======================================
48.8146295309
48.8681317806
48.8516695499
48.8722473383
48.901056242

Block: 9
======================================
49.300265336
48.8681317806
48.8516695499
48.8681317806
48.8681317806

Block: 10
======================================
49.1932608366
49.213838625
49.263225317
48.8516695499
48.888709569
