
Block: 1
======================================
48.8516695499
48.8146295309
48.8310917616
48.8516695499
48.8516695499
48.8352073193
48.8516695499
48.888709569
48.8516695499
48.8845940113
48.8187450886
48.8516695499
48.8681317806
48.8352073193
48.8516695499
48.8516695499
48.8516695499
48.8516695499
48.8845940113
48.8681317806
48.8681317806
48.8516695499
48.8516695499
48.8475539923
48.8516695499

Average distance is : 48.853 cm
Average deviation is : 0.018 cm
Block: 2
======================================
48.8352073193
48.888709569
48.8352073193
48.8681317806
48.8681317806
48.8845940113
48.8516695499
48.8310917616
48.8516695499
48.8310917616
48.8681317806
48.8516695499
48.8681317806
48.8845940113
48.8516695499
48.8516695499
48.8516695499
48.6417761087
48.8845940113
48.8516695499
48.8681317806
48.8681317806
48.8516695499
48.8681317806
48.8310917616

Average distance is : 48.850 cm
Average deviation is : 0.047 cm
Block: 3
======================================
48.8352073193
48.8146295309
48.8516695499
48.8310917616
48.8681317806
48.8516695499
48.8475539923
48.8516695499
48.8352073193
48.8516695499
48.8310917616
48.8516695499
48.8310917616
48.8516695499
48.8681317806
48.8516695499
48.8516695499
48.8681317806
48.8352073193
48.8516695499
48.8516695499
48.8352073193
48.8516695499
48.8681317806
48.8352073193

Average distance is : 48.847 cm
Average deviation is : 0.014 cm
Block: 4
======================================
48.8681317806
48.8516695499
48.8352073193
48.8845940113
48.8310917616
48.8845940113
48.8516695499
48.8722473383
48.8516695499
48.8845940113
48.8516695499
48.8722473383
48.8681317806
48.8681317806
48.8681317806
48.8681317806
48.8310917616
48.8516695499
48.8681317806
48.8310917616
48.8516695499
48.8310917616
48.8516695499
48.8681317806
48.8681317806

Average distance is : 48.859 cm
Average deviation is : 0.017 cm
Block: 5
======================================
48.8516695499
48.8475539923
48.8845940113
48.8516695499
48.8516695499
48.8310917616
48.8681317806
48.8352073193
48.8681317806
48.8475539923
48.8845940113
48.8352073193
48.8516695499
48.8516695499
48.8681317806
48.8187450886
48.8516695499
48.8681317806
48.8352073193
48.8681317806
48.8516695499
48.8516695499
48.8352073193
48.8475539923
48.8516695499

Average distance is : 48.852 cm
Average deviation is : 0.016 cm
Block: 6
======================================
48.8845940113
48.8845940113
48.8352073193
48.8352073193
48.8352073193
48.8516695499
48.8681317806
48.8310917616
48.8352073193
48.8681317806
48.8310917616
48.8187450886
48.8516695499
48.8681317806
48.8681317806
48.8516695499
48.8681317806
48.8681317806
48.8516695499
48.8681317806
48.8516695499
48.8352073193
48.8516695499
48.8475539923
48.8681317806

Average distance is : 48.853 cm
Average deviation is : 0.018 cm
Block: 7
======================================
48.8516695499
48.8310917616
48.8516695499
48.8681317806
48.8516695499
48.8352073193
48.8681317806
48.8681317806
48.8352073193
48.8722473383
48.888709569
48.8352073193
48.8516695499
48.8681317806
48.8516695499
48.8845940113
48.8516695499
48.8516695499
48.8722473383
48.8681317806
48.8845940113
48.8352073193
48.8722473383
48.8681317806
48.8310917616

Average distance is : 48.858 cm
Average deviation is : 0.018 cm
Block: 8
======================================
49.4895809889
48.8475539923
48.8516695499
48.8681317806
48.8352073193
48.8516695499
48.8681317806
48.8681317806
48.8516695499
48.8845940113
48.8681317806
48.8516695499
48.8681317806
48.9051717997
48.8681317806
48.8845940113
48.8516695499
48.8516695499
48.8516695499
48.8845940113
48.8681317806
48.8845940113
48.8845940113
48.8845940113
48.8681317806

Average distance is : 48.892 cm
Average deviation is : 0.126 cm
Block: 9
======================================
48.8516695499
48.8516695499
48.8310917616
48.8681317806
48.8516695499
48.8681317806
48.8681317806
48.8681317806
48.8681317806
48.8516695499
48.8475539923
48.8845940113
48.8516695499
48.8681317806
48.8516695499
48.8516695499
48.8681317806
48.8516695499
48.8475539923
48.8516695499
48.8681317806
48.8516695499
48.8516695499
48.8516695499
48.8310917616

Average distance is : 48.856 cm
Average deviation is : 0.012 cm
Block: 10
======================================
48.8516695499
48.888709569
48.8516695499
48.8845940113
48.8516695499
48.8681317806
48.8516695499
48.8352073193
48.8516695499
48.8681317806
48.8681317806
48.8516695499
48.8681317806
48.8681317806
48.8352073193
48.8681317806
48.8681317806
48.8516695499
48.8845940113
48.8352073193
48.8681317806
48.8516695499
48.8681317806
48.8516695499
48.8722473383

Average distance is : 48.861 cm
Average deviation is : 0.015 cm