
Block: 1
======================================
48.8310917616
48.8681317806
48.8516695499
48.888709569
48.8681317806
48.8516695499
48.8722473383
48.8681317806
48.8845940113
48.8516695499
48.8845940113
48.8516695499
48.8516695499
48.8681317806
48.8681317806
48.8352073193
48.8845940113
48.8681317806
48.8516695499
48.8681317806
48.8681317806
48.8681317806
48.8722473383
48.8516695499
48.8516695499

Average distance is : 48.863 cm
Average deviation is : 0.015 cm
Block: 2
======================================
48.8681317806
48.8681317806
48.8516695499
48.888709569
48.8722473383
48.8681317806
48.8681317806
48.8845940113
48.8845940113
48.8722473383
48.8681317806
48.8187450886
48.8722473383
48.8516695499
48.8516695499
48.8516695499
48.8681317806
48.8352073193
48.8352073193
48.8681317806
48.8681317806
48.8516695499
48.8516695499
48.8352073193
48.8187450886

Average distance is : 48.859 cm
Average deviation is : 0.019 cm
Block: 3
======================================
48.8681317806
48.901056242
48.8352073193
48.8681317806
48.8516695499
48.8681317806
48.8310917616
48.8681317806
48.8681317806
48.901056242
48.8845940113
48.8516695499
48.8516695499
48.8516695499
48.8516695499
48.8516695499
48.8681317806
48.8516695499
48.8516695499
48.8681317806
48.8845940113
48.8681317806
48.8516695499
48.8187450886
48.8516695499

Average distance is : 48.861 cm
Average deviation is : 0.019 cm
Block: 4
======================================
48.8845940113
48.888709569
48.8681317806
48.8516695499
48.8146295309
48.8845940113
48.8681317806
48.8352073193
48.8352073193
48.8475539923
48.8845940113
48.8516695499
48.8681317806
48.8516695499
48.8352073193
48.8681317806
48.8516695499
48.8681317806
48.8681317806
48.8516695499
48.8681317806
48.8681317806
48.8845940113
48.8845940113
48.8352073193

Average distance is : 48.861 cm
Average deviation is : 0.020 cm
Block: 5
======================================
48.8681317806
48.9175184727
48.8845940113
48.8352073193
48.8146295309
49.250878644
48.8310917616
48.8681317806
48.8352073193
48.8516695499
48.8516695499
48.8681317806
48.8681317806
48.8681317806
48.8845940113
48.8845940113
48.8352073193
48.8516695499
48.8352073193
48.8516695499
48.8146295309
48.8845940113
48.8516695499
48.8310917616
48.8516695499

Average distance is : 48.872 cm
Average deviation is : 0.083 cm
Block: 6
======================================
48.8516695499
48.8516695499
48.8187450886
48.8516695499
48.8516695499
48.8681317806
48.8845940113
48.8475539923
48.8516695499
48.8681317806
48.888709569
48.8310917616
48.8516695499
48.8845940113
48.8516695499
48.8516695499
48.888709569
48.8681317806
48.8516695499
48.8352073193
48.8845940113
48.8475539923
48.8845940113
48.8681317806
48.8310917616

Average distance is : 48.859 cm
Average deviation is : 0.020 cm
Block: 7
======================================
47.851589036
48.8845940113
48.8845940113
48.8722473383
48.8681317806
48.8681317806
48.8187450886
48.8516695499
48.8187450886
48.8352073193
48.8352073193
48.8516695499
48.8516695499
48.8516695499
48.8352073193
48.9051717997
48.8516695499
48.901056242
48.8310917616
48.8681317806
48.8352073193
48.8845940113
48.888709569
48.8845940113
48.8146295309

Average distance is : 48.818 cm
Average deviation is : 0.203 cm
Block: 8
======================================
48.8681317806
48.8475539923
48.8310917616
48.8516695499
48.888709569
48.8310917616
48.8352073193
48.8516695499
48.888709569
48.8845940113
48.8516695499
48.8681317806
48.8516695499
48.8681317806
48.8722473383
48.8310917616
48.8187450886
48.8681317806
48.8352073193
48.8516695499
48.8681317806
48.8146295309
48.8475539923
48.8516695499
48.8516695499

Average distance is : 48.853 cm
Average deviation is : 0.020 cm
Block: 9
======================================
48.8516695499
48.8516695499
48.8187450886
48.8310917616
48.8722473383
48.8516695499
48.8681317806
48.8146295309
48.8352073193
48.8146295309
48.8681317806
48.8681317806
48.8310917616
48.8681317806
48.8681317806
48.8310917616
48.8681317806
48.8475539923
48.8352073193
48.8352073193
48.8681317806
48.8681317806
48.8681317806
48.8516695499
48.8146295309

Average distance is : 48.848 cm
Average deviation is : 0.020 cm
Block: 10
======================================
48.8187450886
48.9051717997
48.8516695499
48.8681317806
48.9051717997
48.8681317806
48.8475539923
48.8681317806
48.8352073193
48.8352073193
48.8352073193
48.8516695499
48.8681317806
48.8352073193
48.8845940113
48.8722473383
48.8516695499
48.8516695499
48.8516695499
48.8516695499
48.8845940113
48.8352073193
48.8310917616
48.8516695499
48.8681317806

Average distance is : 48.857 cm
Average deviation is : 0.022 cm