
Block: 1
======================================
48.8516695499
48.8681317806
48.8681317806
48.8516695499
48.8146295309
48.8352073193
48.8681317806
48.8516695499
48.8681317806
48.8352073193
48.8516695499
48.8681317806
48.8681317806
48.8352073193
48.8681317806
48.8845940113
48.8681317806
48.8681317806
48.888709569
48.8475539923
48.8681317806
48.8845940113
48.9051717997
48.8516695499
48.8475539923
48.8352073193
48.8516695499
48.8681317806
48.8516695499
48.8516695499
48.8187450886
48.8681317806
48.8352073193
48.888709569
48.8475539923
48.8516695499
48.888709569
48.8681317806
48.8516695499
48.8516695499
48.8146295309
48.8516695499
48.8845940113
48.8352073193
48.8681317806
48.8516695499
48.8310917616
48.8681317806
48.8352073193
48.8681317806
48.8475539923
48.8845940113
48.8310917616
48.8187450886
48.8681317806
48.8681317806
48.8475539923
48.8845940113
48.8475539923
48.8516695499
48.8681317806
48.8352073193
48.8681317806
48.8681317806
48.8681317806
48.8352073193
48.8681317806
48.8516695499
48.8516695499
48.8681317806
48.8352073193
49.2303008556
48.8352073193
48.8310917616
48.8516695499
48.8681317806
48.8352073193
48.8516695499
48.8310917616
48.8722473383
48.8681317806
48.8352073193
48.8516695499
48.8516695499
48.8681317806
48.8352073193
48.8722473383
48.8516695499
48.8681317806
48.8681317806
48.8845940113
48.8681317806
48.8681317806
48.8146295309
48.8352073193
48.8681317806
48.8310917616
48.8681317806
48.8516695499
48.8310917616

Average distance is : 48.859 cm
Average deviation is : 0.042 cm
Block: 2
======================================
48.8845940113
48.8475539923
48.8681317806
48.8516695499
48.8681317806
48.8187450886
48.8352073193
48.8352073193
48.8681317806
48.8352073193
48.8681317806
48.8516695499
48.8681317806
48.8146295309
48.8681317806
48.8310917616
48.8310917616
48.8352073193
48.888709569
48.8352073193
48.7981673002
48.8352073193
48.8516695499
48.8681317806
48.8516695499
48.8681317806
48.8516695499
48.8310917616
48.8352073193
48.8516695499
48.8475539923
48.8516695499
48.8352073193
48.8310917616
48.8681317806
48.8681317806
48.8352073193
48.8310917616
48.8475539923
48.8352073193
48.8681317806
48.8681317806
48.8681317806
48.8310917616
48.8845940113
48.8681317806
48.8310917616
48.8516695499
48.8352073193
48.8845940113
48.8352073193
48.8516695499
48.8310917616
48.8352073193
48.8845940113
48.8187450886
48.8146295309
48.8310917616
48.8845940113
48.8310917616
48.8516695499
49.2303008556
48.8187450886
49.2467630863
49.2467630863
48.8681317806
49.2303008556
49.2303008556
49.213838625
48.8310917616
48.8681317806
48.8516695499
48.888709569
48.8845940113
48.888709569
49.3167275667
48.8516695499
49.2796875477
49.2838031054
49.2673408747
49.2344164133
48.8681317806
48.8681317806
49.263225317
49.300265336
49.2303008556
49.2838031054
48.8310917616
49.2838031054
48.8475539923
48.8845940113
48.8516695499
48.8722473383
48.901056242
48.8845940113
48.8681317806
48.8146295309
48.8146295309
49.2467630863
48.7981673002

Average distance is : 48.920 cm
Average deviation is : 0.156 cm
Block: 3
======================================
48.8516695499
48.8516695499
48.8146295309
48.8516695499
48.8845940113
48.8516695499
48.9051717997
48.8681317806
49.2838031054
48.8516695499
48.8845940113
48.8722473383
48.8681317806
48.8681317806
48.8475539923
48.8516695499
48.8516695499
48.888709569
48.888709569
48.8681317806
48.8352073193
48.8516695499
48.8681317806
48.8722473383
48.8681317806
48.8516695499
48.8681317806
48.8681317806
48.8516695499
49.2467630863
49.2961497784
48.8681317806
48.8516695499
48.8845940113
48.8681317806
48.8146295309
48.8681317806
48.8681317806
48.8352073193
48.8516695499
48.8681317806
48.8681317806
48.8516695499
48.8681317806
48.888709569
48.8681317806
48.8187450886
48.8845940113
48.888709569
48.8681317806
48.8681317806
48.8187450886
48.8845940113
48.8845940113
48.8352073193
48.8681317806
48.8516695499
48.8516695499
48.9051717997
48.8516695499
48.8146295309
48.8516695499
48.8146295309
48.8681317806
48.8681317806
48.8845940113
48.8681317806
48.8352073193
48.8146295309
48.8516695499
48.8681317806
48.8681317806
48.8516695499
48.8681317806
48.8516695499
48.8146295309
48.8352073193
48.8352073193
48.8516695499
48.888709569
48.8516695499
48.8681317806
48.8845940113
48.8845940113
48.8516695499
48.8187450886
48.8310917616
48.8352073193
48.8352073193
48.8310917616
48.8681317806
48.8352073193
48.8516695499
48.8516695499
48.8681317806
48.8845940113
48.8146295309
48.8516695499
48.8681317806
48.8310917616

Average distance is : 48.870 cm
Average deviation is : 0.075 cm
Block: 4
======================================
48.8845940113
48.8516695499
48.8187450886
48.9051717997
48.8516695499
48.8475539923
48.8352073193
48.8516695499
48.8352073193
48.8516695499
48.8352073193
48.8146295309
48.8516695499
48.8352073193
48.8352073193
48.8516695499
48.8516695499
48.8352073193
48.8516695499
48.8681317806
48.8681317806
48.8475539923
48.8352073193
48.888709569
48.8516695499
48.8352073193
48.8516695499
48.8681317806
48.8475539923
48.8516695499
48.8475539923
48.8681317806
48.8681317806
48.8516695499
48.8681317806
48.8516695499
48.8681317806
48.8845940113
48.8475539923
48.8352073193
48.8516695499
48.8516695499
48.8146295309
48.8845940113
48.8310917616
48.888709569
48.8310917616
48.8352073193
48.8352073193
48.8516695499
48.8845940113
48.8516695499
48.8516695499
48.8722473383
48.8516695499
48.8722473383
48.8352073193
48.8516695499
48.8310917616
48.8681317806
48.8681317806
48.8845940113
48.8310917616
48.8516695499
48.8516695499
48.8516695499
48.8352073193
48.8310917616
48.8516695499
48.8845940113
48.8146295309
48.8845940113
48.8681317806
48.8516695499
48.8681317806
48.8516695499
48.8352073193
48.8845940113
48.8475539923
48.8681317806
48.8516695499
48.888709569
48.8681317806
48.8352073193
48.8681317806
48.8681317806
48.8310917616
48.8352073193
48.8352073193
48.8681317806
48.8681317806
48.8681317806
48.8187450886
48.8352073193
48.8722473383
48.8352073193
48.8722473383
48.8516695499
48.901056242
48.8845940113

Average distance is : 48.854 cm
Average deviation is : 0.020 cm
Block: 5
======================================
48.8845940113
48.8352073193
48.8516695499
48.8681317806
48.8845940113
48.8352073193
48.8681317806
48.8352073193
48.8187450886
48.8681317806
48.8352073193
48.8352073193
48.8681317806
48.8845940113
48.8516695499
48.8681317806
48.888709569
48.8352073193
48.8681317806
48.8516695499
48.8352073193
48.8516695499
48.8516695499
48.8475539923
48.8352073193
48.8681317806
48.8475539923
48.8516695499
48.8475539923
48.8516695499
48.8310917616
48.8516695499
48.8845940113
48.8310917616
48.8845940113
48.8845940113
48.8516695499
48.888709569
48.8146295309
48.8516695499
48.8681317806
48.888709569
48.8516695499
48.8516695499
48.8681317806
48.8352073193
48.8681317806
48.8310917616
48.8352073193
48.8681317806
48.8516695499
48.8352073193
48.8146295309
48.8146295309
48.8516695499
48.8516695499
48.8516695499
48.8352073193
48.8516695499
48.8352073193
48.8681317806
48.8187450886
48.9051717997
48.8681317806
48.8475539923
48.8681317806
48.8475539923
48.8516695499
48.8681317806
48.8352073193
48.8352073193
48.8475539923
48.8722473383
48.8310917616
48.8475539923
48.8845940113
48.8516695499
48.8516695499
48.888709569
48.8845940113
48.8310917616
48.8516695499
48.8516695499
48.8681317806
48.8352073193
48.8681317806
48.8516695499
48.8516695499
48.8681317806
48.8681317806
48.8845940113
48.8516695499
48.8516695499
48.8475539923
48.8845940113
48.8516695499
48.8845940113
48.8516695499
48.8681317806
48.8516695499

Average distance is : 48.855 cm
Average deviation is : 0.020 cm
Block: 6
======================================
48.8516695499
48.8146295309
48.8516695499
48.8310917616
48.8187450886
48.8681317806
48.8516695499
48.8516695499
48.8681317806
48.8681317806
48.8516695499
48.8516695499
48.8352073193
48.8516695499
48.8681317806
48.8845940113
48.9051717997
48.8352073193
48.8516695499
48.8475539923
48.8845940113
48.8516695499
48.8475539923
48.8681317806
48.8845940113
48.8352073193
48.8681317806
48.8352073193
48.8310917616
48.8516695499
48.8187450886
48.888709569
48.8516695499
48.8845940113
48.8310917616
48.8845940113
48.8516695499
48.8516695499
48.8681317806
48.8352073193
48.8722473383
48.8352073193
48.8681317806
48.8516695499
48.8516695499
48.8516695499
48.8310917616
48.8516695499
48.8516695499
48.8681317806
48.8681317806
48.8146295309
48.8310917616
48.8516695499
48.8516695499
48.8352073193
48.8681317806
48.5553493977
48.8516695499
48.8352073193
48.8310917616
48.8516695499
48.8516695499
48.8516695499
48.8516695499
48.8681317806
48.8681317806
48.8516695499
48.8475539923
48.8187450886
48.8845940113
48.8516695499
48.8352073193
48.8352073193
48.8681317806
48.8681317806
48.8187450886
48.8352073193
48.8352073193
48.8681317806
49.1767986059
48.8681317806
48.888709569
48.8681317806
48.8516695499
48.8516695499
48.8352073193
48.8516695499
48.8310917616
48.8681317806
48.8516695499
48.8681317806
48.8516695499
48.8516695499
48.8516695499
48.8516695499
48.8845940113
48.8681317806
48.8681317806
48.8310917616

Average distance is : 48.853 cm
Average deviation is : 0.048 cm
Block: 7
======================================
48.8516695499
48.8352073193
48.8310917616
48.888709569
48.8516695499
48.8516695499
48.8516695499
48.8516695499
48.8516695499
48.8516695499
48.8475539923
48.8310917616
48.8352073193
48.8352073193
48.8516695499
48.8516695499
48.8516695499
48.8516695499
48.8681317806
48.8681317806
48.8310917616
48.8310917616
48.8352073193
49.2838031054
49.300265336
48.8681317806
48.8681317806
49.2673408747
49.2838031054
48.8845940113
49.2673408747
48.8516695499
48.8681317806
49.2303008556
49.2796875477
49.300265336
49.250878644
49.2796875477
49.2673408747
49.300265336
48.8352073193
48.8845940113
48.8681317806
48.8722473383
49.263225317
48.8681317806
48.8845940113
48.8516695499
49.2838031054
49.3208431244
49.2838031054
48.8352073193
49.2673408747
48.8681317806
48.8681317806
48.8352073193
48.8310917616
48.8516695499
48.8352073193
48.8681317806
48.8681317806
49.2796875477
48.8516695499
48.8845940113
48.8845940113
49.300265336
48.8681317806
48.888709569
49.2467630863
48.8681317806
48.8681317806
48.8516695499
48.901056242
48.8516695499
48.8146295309
48.8310917616
48.8516695499
48.8681317806
48.8516695499
48.8845940113
48.8681317806
48.8310917616
48.8310917616
48.8352073193
48.8516695499
48.8516695499
49.300265336
48.8516695499
48.8516695499
48.8516695499
48.8516695499
48.8310917616
48.8681317806
48.8516695499
48.8516695499
49.3167275667
48.8845940113
48.8681317806
48.8516695499
48.8516695499

Average distance is : 48.949 cm
Average deviation is : 0.178 cm
Block: 8
======================================
48.8310917616
49.2838031054
48.901056242
49.2961497784
48.8516695499
48.8845940113
48.8187450886
48.8352073193
48.8516695499
48.8352073193
48.8516695499
48.8475539923
48.8475539923
48.8722473383
48.8845940113
48.8516695499
48.8681317806
48.8310917616
48.8681317806
48.8516695499
48.8516695499
48.8516695499
48.8845940113
48.8516695499
48.8516695499
48.8352073193
48.8516695499
48.8146295309
48.8310917616
48.8352073193
48.8516695499
48.8681317806
48.8681317806
48.8681317806
48.8681317806
48.8310917616
48.8516695499
48.8681317806
48.8516695499
48.8681317806
48.8681317806
48.8681317806
48.8681317806
48.8352073193
48.8352073193
48.8516695499
48.8845940113
48.8681317806
48.8681317806
48.8310917616
48.8681317806
48.8475539923
48.8352073193
48.8516695499
48.8845940113
48.8146295309
48.8681317806
48.8310917616
48.8352073193
48.9051717997
48.8681317806
48.8187450886
48.8516695499
48.8681317806
48.8845940113
48.888709569
48.8475539923
48.8845940113
48.8352073193
48.8516695499
48.8516695499
48.8475539923
48.8352073193
48.8352073193
48.8352073193
48.9051717997
48.8516695499
48.8681317806
48.8516695499
48.8310917616
48.8310917616
48.8681317806
48.8516695499
48.8352073193
48.8187450886
48.8516695499
48.8681317806
48.8310917616
48.8352073193
48.8845940113
48.8681317806
48.8516695499
48.8681317806
48.8352073193
48.8516695499
48.8516695499
48.8516695499
48.8146295309
48.8845940113
48.8516695499

Average distance is : 48.863 cm
Average deviation is : 0.065 cm
Block: 9
======================================
48.8845940113
48.8516695499
48.8352073193
48.8352073193
48.8681317806
48.8681317806
48.8681317806
48.8516695499
48.8516695499
48.8681317806
48.8516695499
48.8681317806
48.8845940113
48.8352073193
48.8681317806
48.8352073193
48.8516695499
48.8352073193
48.8310917616
48.8516695499
48.8352073193
48.8352073193
48.8516695499
48.8681317806
48.8516695499
48.8516695499
48.8681317806
48.8516695499
48.8516695499
48.8681317806
48.8516695499
48.8352073193
48.8681317806
48.8516695499
48.8516695499
48.8516695499
48.8516695499
48.8722473383
48.8187450886
48.8352073193
48.8516695499
48.8516695499
48.8681317806
48.8681317806
48.8475539923
48.8187450886
48.8516695499
48.8681317806
48.8681317806
48.8516695499
48.8310917616
48.8352073193
48.8516695499
48.8146295309
48.8352073193
48.8681317806
48.8516695499
48.888709569
48.8475539923
48.8310917616
48.8681317806
48.8310917616
48.8352073193
48.8681317806
48.8516695499
48.8310917616
48.8681317806
48.8516695499
48.8681317806
48.8516695499
48.8516695499
48.8516695499
48.8516695499
48.8681317806
48.8681317806
48.8146295309
48.8475539923
48.8722473383
48.8681317806
48.8681317806
48.888709569
48.8516695499
48.8187450886
48.8681317806
48.8516695499
48.8516695499
48.8516695499
48.8187450886
48.888709569
48.8681317806
48.8681317806
48.8516695499
48.8310917616
48.8681317806
48.8146295309
48.8146295309
48.8681317806
48.8516695499
48.888709569
48.8681317806

Average distance is : 48.853 cm
Average deviation is : 0.018 cm
Block: 10
======================================
48.8516695499
48.8187450886
48.8310917616
48.8516695499
48.8516695499
48.8681317806
48.8681317806
48.8516695499
48.8681317806
48.8681317806
48.8681317806
48.8516695499
48.8681317806
48.8681317806
48.8516695499
48.8516695499
48.8845940113
48.8310917616
48.8845940113
48.8681317806
48.8352073193
48.8845940113
48.8681317806
48.8516695499
48.8352073193
48.8516695499
48.8516695499
48.8681317806
48.8310917616
48.8352073193
48.8310917616
48.8187450886
48.8681317806
48.888709569
48.8845940113
48.8516695499
48.8187450886
48.8681317806
48.8681317806
48.8516695499
48.8516695499
48.8516695499
48.8681317806
48.8845940113
48.8681317806
48.8310917616
48.8681317806
48.8722473383
48.8845940113
48.8845940113
48.8516695499
48.8310917616
48.8681317806
48.8681317806
48.8516695499
48.8681317806
48.8187450886
48.8681317806
48.8310917616
48.8516695499
48.8681317806
48.8352073193
48.8352073193
49.300265336
48.8681317806
48.8681317806
48.8146295309
48.8681317806
48.8516695499
48.8516695499
48.8352073193
48.8681317806
48.8516695499
48.888709569
48.8516695499
48.8146295309
48.8516695499
48.8681317806
48.8845940113
48.8352073193
48.8681317806
48.8516695499
48.8475539923
48.8722473383
48.8516695499
48.8681317806
48.8475539923
48.8516695499
48.8722473383
48.8516695499
48.8516695499
48.8516695499
48.8352073193
48.8681317806
48.8845940113
48.8516695499
48.8516695499
48.888709569
48.8516695499
48.8845940113

Average distance is : 48.861 cm
Average deviation is : 0.048 cm