
Block: 1
======================================
48.8352073193
48.8516695499
48.888709569
48.8310917616
48.8845940113
48.8352073193
48.8722473383
48.8681317806
48.8516695499
48.8187450886
48.8516695499
48.8681317806
48.8475539923
48.8352073193
48.8516695499
48.8681317806
48.8681317806
48.8310917616
48.8352073193
48.8516695499
48.8516695499
48.8352073193
48.8681317806
48.8516695499
48.8516695499
48.8681317806
48.8352073193
48.8681317806
48.8516695499
48.8681317806
48.8681317806
48.8516695499
48.8516695499
48.8352073193
48.8516695499
48.8681317806
48.8516695499
48.8681317806
48.8516695499
48.8516695499
48.8681317806
48.8722473383
48.8516695499
48.8681317806
48.8516695499
48.8516695499
48.8516695499
48.8516695499
48.8681317806
48.8681317806
48.8516695499
48.8681317806
48.8681317806
48.8516695499
48.8681317806
48.8516695499
48.8516695499
48.8516695499
48.8681317806
48.8516695499
48.8681317806
48.8516695499
48.8516695499
48.8516695499
48.8681317806
48.8681317806
48.8516695499
48.8681317806
48.8681317806
48.8516695499
48.8352073193
48.8681317806
48.8516695499
48.8475539923
48.8475539923

Average distance is : 48.856 cm
Average deviation is : 0.013 cm
Block: 2
======================================
48.8681317806
48.8681317806
48.8187450886
48.8516695499
48.8310917616
48.8146295309
48.8681317806
48.8146295309
48.8516695499
48.888709569
48.8516695499
48.8352073193
48.8516695499
48.8516695499
48.8681317806
48.8516695499
48.8310917616
48.8352073193
48.8681317806
48.8310917616
48.8681317806
48.8516695499
48.8516695499
48.8681317806
48.8681317806
48.8352073193
48.8516695499
48.8310917616
48.8681317806
48.8681317806
48.8352073193
48.8516695499
48.8516695499
48.8681317806
48.8516695499
48.8681317806
48.8681317806
48.8516695499
48.8681317806
48.8681317806
48.8516695499
48.8516695499
48.8681317806
48.8516695499
48.8352073193
48.8516695499
48.8681317806
48.8310917616
48.8681317806
48.8516695499
48.8681317806
48.8516695499
48.8681317806
48.8516695499
48.8516695499
48.8516695499
48.8475539923
48.8516695499
48.8475539923
48.8516695499
48.8516695499
48.8681317806
48.8516695499
48.8681317806
48.8681317806
48.8681317806
48.8681317806
48.8516695499
48.8516695499
48.8681317806
48.8681317806
48.8516695499
48.8516695499
48.8681317806
48.8516695499

Average distance is : 48.854 cm
Average deviation is : 0.015 cm
Block: 3
======================================
48.8845940113
48.9051717997
48.8681317806
48.8310917616
48.8516695499
48.8516695499
48.8352073193
48.8681317806
48.901056242
48.8352073193
48.8352073193
48.8516695499
49.0080607414
48.8475539923
48.8516695499
48.8516695499
48.8516695499
48.8475539923
48.8475539923
48.8310917616
48.8475539923
48.8722473383
48.8681317806
48.8516695499
48.8681317806
48.8516695499
48.8475539923
48.8475539923
48.8516695499
48.8352073193
48.8352073193
48.8516695499
48.8516695499
48.8516695499
48.8681317806
48.8681317806
48.8352073193
48.8516695499
48.8516695499
48.8681317806
48.8516695499
48.8681317806
48.8352073193
48.8352073193
48.8516695499
48.8516695499
48.8516695499
48.8516695499
48.8681317806
48.8516695499
48.8516695499
48.8681317806
48.8516695499
48.8352073193
48.8516695499
48.8681317806
48.8475539923
48.8516695499
48.8681317806
48.8845940113
48.8516695499
48.8681317806
48.8516695499
48.8681317806
48.8516695499
48.8516695499
48.9751362801
48.8681317806
48.8845940113
48.8516695499
48.8516695499
48.8352073193
48.8681317806
48.8681317806
48.8845940113

Average distance is : 48.859 cm
Average deviation is : 0.027 cm
Block: 4
======================================
48.8516695499
48.8681317806
48.8352073193
48.8310917616
48.9051717997
48.8516695499
48.8516695499
48.8681317806
48.8187450886
48.8845940113
48.8845940113
48.8516695499
48.8681317806
48.8722473383
48.8516695499
48.8516695499
48.8475539923
48.8516695499
48.8681317806
48.8681317806
48.8516695499
48.8516695499
48.8681317806
48.8475539923
48.8516695499
48.8310917616
48.8516695499
48.8475539923
48.8681317806
48.8722473383
48.8681317806
48.8516695499
48.8516695499
48.8475539923
48.8516695499
48.8475539923
48.8516695499
48.8516695499
48.8681317806
48.8681317806
48.8352073193
48.8352073193
48.8681317806
48.8681317806
48.8516695499
48.8681317806
48.8516695499
48.8352073193
48.8681317806
48.8475539923
48.8516695499
48.8516695499
48.8516695499
48.8187450886
48.8516695499
48.8516695499
48.8516695499
48.8681317806
48.8516695499
48.8516695499
48.8681317806
48.8475539923
48.8681317806
48.8352073193
48.8516695499
48.8516695499
48.8516695499
48.8516695499
48.8310917616
48.8681317806
48.8516695499
48.8516695499
48.8516695499
48.8516695499
48.8352073193

Average distance is : 48.854 cm
Average deviation is : 0.014 cm
Block: 5
======================================
48.8681317806
48.8352073193
48.8352073193
48.8352073193
48.8681317806
48.8516695499
48.8681317806
48.8516695499
48.8352073193
48.8516695499
48.8475539923
48.8516695499
48.8681317806
48.8516695499
48.8352073193
48.888709569
48.8681317806
48.8681317806
48.8845940113
48.8681317806
48.8681317806
48.8516695499
48.8352073193
48.8352073193
48.8310917616
48.8681317806
48.8516695499
48.8352073193
48.8845940113
48.8516695499
48.8516695499
48.8516695499
48.8516695499
48.8516695499
48.8475539923
48.8516695499
48.8516695499
48.8516695499
48.8516695499
48.8516695499
48.8681317806
48.8352073193
48.8681317806
48.8516695499
48.8681317806
48.8475539923
48.8516695499
48.8681317806
48.8681317806
48.8516695499
48.8352073193
48.8516695499
48.8516695499
48.8516695499
48.8681317806
48.8516695499
48.8516695499
48.8516695499
48.8681317806
48.8516695499
48.8475539923
48.8722473383
48.8475539923
48.8516695499
48.8475539923
48.8516695499
48.8475539923
48.8722473383
48.8681317806
48.8516695499
48.8681317806
48.8475539923
48.8681317806
48.8516695499
48.8516695499

Average distance is : 48.855 cm
Average deviation is : 0.013 cm
Block: 6
======================================
48.8681317806
48.8681317806
48.8310917616
48.8352073193
48.8845940113
48.8722473383
48.8516695499
48.8516695499
48.8516695499
48.8681317806
48.8516695499
48.8681317806
48.8516695499
48.8516695499
48.8352073193
48.888709569
48.8516695499
48.8516695499
48.8516695499
48.8516695499
48.8681317806
48.8475539923
48.8681317806
48.8516695499
48.8516695499
48.8845940113
48.8187450886
48.8681317806
48.8722473383
48.8681317806
48.8516695499
48.8516695499
48.8516695499
48.8516695499
48.8516695499
48.8681317806
48.8516695499
48.8681317806
48.8681317806
48.8516695499
48.8516695499
48.8681317806
48.8310917616
48.8516695499
48.8681317806
48.8516695499
48.8722473383
48.8681317806
48.8681317806
48.8516695499
48.8681317806
48.8681317806
48.8516695499
48.8516695499
48.8681317806
48.8475539923
48.8681317806
48.8516695499
48.8681317806
48.8310917616
48.8681317806
48.8516695499
48.8516695499
48.8681317806
48.8681317806
48.8681317806
48.8681317806
48.8681317806
48.8516695499
48.8516695499
48.8475539923
48.8722473383
48.8475539923
48.8516695499
48.8516695499

Average distance is : 48.858 cm
Average deviation is : 0.013 cm
Block: 7
======================================
48.8516695499
48.8516695499
48.888709569
48.8516695499
48.8516695499
48.8681317806
48.8516695499
48.8681317806
48.8516695499
48.8516695499
48.8681317806
48.8681317806
48.8310917616
48.8681317806
48.8681317806
48.8475539923
48.8681317806
48.8681317806
48.8681317806
48.8681317806
48.8516695499
48.8681317806
48.8722473383
48.8516695499
48.8516695499
48.8475539923
48.8516695499
48.8681317806
48.8681317806
48.8516695499
48.8516695499
48.8681317806
48.8681317806
48.8516695499
48.8516695499
48.8310917616
48.8516695499
48.8516695499
48.8516695499
48.8681317806
48.8681317806
48.8516695499
48.8475539923
48.8516695499
48.8681317806
48.8516695499
48.8516695499
48.8681317806
48.8516695499
48.8516695499
48.8681317806
48.8681317806
48.8516695499
48.8516695499
48.8516695499
48.8516695499
48.8722473383
48.8681317806
48.8516695499
48.8681317806
48.8681317806
48.8310917616
48.8516695499
48.8681317806
48.8516695499
48.8516695499
48.8516695499
48.8681317806
48.8681317806
48.8352073193
48.8516695499
48.8681317806
48.8681317806
48.8352073193
48.8516695499

Average distance is : 48.858 cm
Average deviation is : 0.011 cm
Block: 8
======================================
48.8310917616
48.8516695499
48.8516695499
48.8187450886
48.8146295309
48.8310917616
48.8187450886
48.8516695499
48.8516695499
48.8516695499
48.8516695499
48.8516695499
48.8516695499
48.8516695499
48.8352073193
48.8516695499
48.8681317806
48.8681317806
48.8681317806
48.8516695499
48.8352073193
48.8516695499
48.8681317806
48.8681317806
48.8310917616
48.8516695499
48.8516695499
48.8310917616
48.8516695499
48.8352073193
48.8516695499
48.8681317806
48.8516695499
48.8352073193
48.8516695499
48.8516695499
48.8681317806
48.8516695499
48.8475539923
48.8722473383
48.8475539923
48.8516695499
48.8516695499
48.8516695499
48.8516695499
48.8475539923
48.8516695499
48.8516695499
48.8681317806
48.8516695499
48.8352073193
48.8516695499
48.8352073193
48.8516695499
48.8516695499
48.8516695499
48.8516695499
48.8516695499
48.8516695499
48.8722473383
48.8681317806
48.8681317806
48.8516695499
48.8516695499
48.8352073193
48.8681317806
48.8516695499
48.8516695499
48.8516695499
48.8516695499
48.8516695499
48.8516695499
48.8681317806
48.8352073193
48.8516695499

Average distance is : 48.850 cm
Average deviation is : 0.012 cm
Block: 9
======================================
48.8516695499
48.8722473383
48.8516695499
48.8681317806
48.8352073193
48.8475539923
48.8516695499
48.8516695499
48.8516695499
48.8681317806
48.8681317806
48.8475539923
48.8352073193
48.8352073193
48.8681317806
48.888709569
48.8516695499
48.8681317806
48.8352073193
48.8681317806
48.8352073193
48.8516695499
48.8352073193
48.8681317806
48.8352073193
48.8722473383
48.8516695499
48.8516695499
48.8475539923
48.8516695499
48.8516695499
48.8681317806
48.8516695499
48.8352073193
48.8352073193
48.8516695499
48.8310917616
48.8516695499
48.8722473383
48.8681317806
48.8681317806
48.8516695499
48.8516695499
48.8516695499
48.8516695499
48.8352073193
48.8516695499
48.8516695499
48.8516695499
48.8352073193
48.8681317806
48.8681317806
48.8516695499
48.8475539923
48.8516695499
48.8516695499
48.8681317806
48.8516695499
48.8516695499
48.8681317806
48.8681317806
48.8516695499
48.8516695499
48.8475539923
48.8516695499
48.8516695499
48.8516695499
48.8516695499
48.888709569
48.8681317806
48.8310917616
48.8516695499
48.8516695499
48.8516695499
48.8516695499

Average distance is : 48.854 cm
Average deviation is : 0.013 cm
Block: 10
======================================
48.8681317806
48.8516695499
48.8352073193
48.8352073193
48.8681317806
48.8352073193
48.8310917616
48.8681317806
48.8310917616
48.8681317806
48.888709569
48.8845940113
48.8352073193
48.8681317806
48.8722473383
48.8681317806
48.8681317806
48.8475539923
48.8516695499
48.8681317806
48.8310917616
48.8516695499
48.8516695499
48.8516695499
48.8681317806
48.8516695499
48.8475539923
48.8681317806
48.8681317806
48.888709569
48.8516695499
49.4566565275
48.8845940113
48.8681317806
48.8516695499
48.8516695499
48.8516695499
48.8681317806
48.8352073193
48.8681317806
48.8516695499
48.8681317806
48.8516695499
48.8352073193
48.8516695499
48.8516695499
48.8516695499
48.8681317806
48.8681317806
48.8352073193
48.8516695499
48.8681317806
48.8681317806
48.8516695499
48.8681317806
48.8516695499
48.8681317806
48.8681317806
48.8352073193
48.8475539923
48.8516695499
48.8516695499
48.8516695499
48.8516695499
48.8516695499
48.8516695499
48.8722473383
48.8310917616
48.8516695499
48.8516695499
48.8475539923
48.8516695499
48.8516695499
48.8516695499
48.8475539923

Average distance is : 48.864 cm
Average deviation is : 0.071 cm