
Block: 1
======================================
48.8516695499
48.8516695499
48.8146295309
48.8352073193
48.8475539923

Average distance is : 48.840 cm
Average deviation is : 0.016 cm
Block: 2
======================================
48.8516695499
48.8187450886
48.8681317806
48.8681317806
48.8516695499

Average distance is : 48.852 cm
Average deviation is : 0.020 cm
Block: 3
======================================
48.8516695499
48.4359982252
48.8352073193
48.888709569
48.8681317806

Average distance is : 48.776 cm
Average deviation is : 0.191 cm
Block: 4
======================================
48.8516695499
48.8681317806
48.8352073193
48.8516695499
48.8516695499

Average distance is : 48.852 cm
Average deviation is : 0.012 cm
Block: 5
======================================
49.2303008556
48.8187450886
48.8845940113
48.888709569
48.8845940113

Average distance is : 48.941 cm
Average deviation is : 0.164 cm
Block: 6
======================================
48.8681317806
48.8352073193
48.8352073193
48.8516695499
48.8310917616

Average distance is : 48.844 cm
Average deviation is : 0.016 cm
Block: 7
======================================
48.8516695499
48.8681317806
48.8516695499
48.8516695499
48.8352073193

Average distance is : 48.852 cm
Average deviation is : 0.012 cm
Block: 8
======================================
48.8146295309
48.8681317806
48.8516695499
48.8722473383
48.901056242

Average distance is : 48.862 cm
Average deviation is : 0.032 cm
Block: 9
======================================
49.300265336
48.8681317806
48.8516695499
48.8681317806
48.8681317806

Average distance is : 48.951 cm
Average deviation is : 0.195 cm
Block: 10
======================================
49.1932608366
49.213838625
49.263225317
48.8516695499
48.888709569

Average distance is : 49.082 cm
Average deviation is : 0.196 cm