
Block: 1
======================================
49.3496520281
49.3167275667
49.3167275667
49.3496520281
49.3537675858
49.3331897974
49.3167275667
49.3331897974
49.3167275667
49.3496520281
49.3331897974
49.3331897974
49.3496520281
49.3167275667
49.3331897974
49.3331897974
49.3167275667
49.2961497784
49.3167275667
49.3373053551
49.300265336
49.3167275667
49.3373053551
49.300265336
49.3537675858
49.3331897974
49.3167275667
49.3537675858
49.3167275667
49.3167275667
48.9175184727
49.3373053551
49.300265336
49.3167275667
49.3496520281
49.3331897974
49.3331897974
49.3537675858
49.300265336
49.3167275667
49.300265336
49.3537675858
49.263225317
49.3331897974
49.3331897974
49.3331897974
49.300265336
49.3537675858
49.2838031054
49.3167275667
49.300265336
49.3373053551
49.3331897974
49.300265336
49.3167275667
49.3496520281
49.3167275667
49.300265336
49.2838031054
49.3167275667
49.3208431244
49.300265336
49.3537675858
49.3496520281
49.3331897974
49.300265336
49.3167275667
49.3167275667
49.300265336
49.300265336
49.300265336
49.3167275667
49.3331897974
49.3331897974
49.300265336
49.300265336
49.3208431244
49.3331897974
49.4031542778
49.3167275667
49.300265336
49.3167275667
49.3167275667
49.3208431244
49.3496520281
49.300265336
49.4072698355
49.3167275667
49.3331897974
49.3167275667
49.3167275667
49.3331897974
49.2961497784
49.3331897974
49.3331897974
49.3537675858
49.3331897974
49.3537675858
49.3537675858
49.3167275667

Block: 2
======================================
49.3167275667
49.3331897974
49.3537675858
49.3208431244
49.3167275667
49.3373053551
49.3496520281
49.3331897974
49.300265336
49.3167275667
49.2796875477
49.3331897974
49.3167275667
49.3331897974
49.3373053551
49.3167275667
49.3537675858
49.3167275667
49.300265336
49.3167275667
49.3167275667
48.8681317806
49.3167275667
49.300265336
49.3208431244
49.300265336
49.300265336
49.3167275667
49.3167275667
49.3167275667
49.3208431244
49.3331897974
49.3167275667
49.2838031054
49.300265336
49.3167275667
49.300265336
49.3167275667
49.3331897974
49.2838031054
49.300265336
49.3208431244
49.3373053551
49.3167275667
49.2796875477
49.3167275667
49.3167275667
49.263225317
49.3373053551
49.2796875477
49.3167275667
49.2796875477
49.300265336
49.300265336
49.300265336
49.3331897974
49.3331897974
49.3496520281
49.3331897974
49.3331897974
49.3496520281
49.3167275667
49.3167275667
49.3167275667
49.3167275667
49.3331897974
49.1973763943
49.3331897974
49.3702298164
49.300265336
48.901056242
49.3331897974
49.3331897974
49.300265336
48.3331092834
49.3537675858
48.8681317806
48.8845940113
49.3167275667
49.3167275667
49.3331897974
49.3496520281
49.3537675858
49.3167275667
49.300265336
49.3496520281
49.3496520281
49.3331897974
48.8681317806
49.3331897974
49.3167275667
49.3167275667
49.3167275667
48.888709569
49.3167275667
49.3331897974
49.3537675858
49.300265336
49.3373053551
49.3167275667

Block: 3
======================================
49.3496520281
49.3208431244
49.300265336
49.300265336
49.3167275667
49.3167275667
49.300265336
49.3167275667
49.300265336
49.300265336
49.3167275667
49.3496520281
49.3331897974
49.3167275667
49.2838031054
49.2838031054
49.3167275667
49.300265336
49.3167275667
49.3167275667
49.3167275667
49.3167275667
49.300265336
49.300265336
49.300265336
49.3373053551
49.300265336
49.300265336
49.3167275667
49.3373053551
49.3167275667
49.300265336
49.2673408747
49.300265336
49.3208431244
49.300265336
49.2838031054
49.3331897974
49.3167275667
49.3331897974
49.3373053551
49.3331897974
49.300265336
49.2838031054
49.3167275667
49.3331897974
49.3537675858
49.3167275667
49.300265336
49.3167275667
49.3208431244
49.3373053551
49.3167275667
49.300265336
49.3167275667
49.3496520281
49.3331897974
49.3208431244
49.300265336
49.300265336
49.3373053551
49.3167275667
49.3167275667
49.3167275667
49.300265336
49.3537675858
49.3167275667
49.300265336
49.2796875477
49.3331897974
49.300265336
49.3167275667
49.300265336
49.300265336
49.2673408747
49.3167275667
49.3331897974
49.3167275667
49.3537675858
49.3167275667
49.3331897974
49.3537675858
49.3331897974
49.3167275667
49.300265336
49.3331897974
49.2838031054
49.3537675858
48.901056242
49.3331897974
48.938096261
49.300265336
49.2961497784
48.9175184727
48.938096261
49.3496520281
48.8845940113
48.9216340303
49.300265336
49.2796875477

Block: 4
======================================
49.3496520281
49.3167275667
49.3208431244
49.3167275667
49.263225317
49.3537675858
49.263225317
49.3496520281
49.300265336
49.3167275667
49.2796875477
49.3373053551
49.3331897974
49.300265336
49.3167275667
49.3331897974
49.3167275667
49.3208431244
49.3167275667
49.3331897974
49.300265336
49.3373053551
49.3496520281
49.3167275667
49.3167275667
49.3167275667
49.3208431244
49.3167275667
49.9217145443
49.3208431244
49.3331897974
49.263225317
49.300265336
49.300265336
49.263225317
49.3167275667
49.2303008556
49.3167275667
49.3167275667
49.2673408747
49.3331897974
49.3537675858
49.3331897974
49.300265336
49.3167275667
49.3373053551
49.3331897974
49.300265336
49.3167275667
49.2838031054
49.3331897974
49.3167275667
49.3167275667
49.3167275667
49.300265336
49.3167275667
49.3167275667
49.3373053551
49.300265336
49.3661142588
49.3167275667
49.3537675858
49.300265336
49.3537675858
48.9545584917
49.3331897974
49.300265336
49.3167275667
49.2838031054
49.300265336
49.3167275667
49.3167275667
49.300265336
49.300265336
49.2796875477
49.3373053551
49.3208431244
49.3208431244
49.3167275667
49.300265336
49.3373053551
49.300265336
49.3331897974
49.3167275667
49.3331897974
49.2961497784
49.3331897974
49.3208431244
49.300265336
49.3331897974
49.3537675858
49.300265336
49.3167275667
49.3331897974
49.3537675858
49.3537675858
49.3331897974
49.3167275667
49.3167275667
49.300265336

Block: 5
======================================
49.3167275667
49.3331897974
49.300265336
49.3167275667
49.300265336
49.3208431244
49.2838031054
49.3167275667
48.4195359945
49.3167275667
49.3331897974
49.300265336
49.300265336
49.3373053551
49.300265336
49.3167275667
49.3331897974
49.3167275667
49.3167275667
49.3331897974
49.300265336
49.300265336
49.2838031054
49.3167275667
49.3331897974
49.2796875477
49.2838031054
49.300265336
49.300265336
49.3167275667
49.300265336
49.3208431244
49.2796875477
49.3373053551
49.300265336
49.3331897974
48.9874829531
49.3167275667
49.3331897974
49.300265336
49.3167275667
49.3331897974
49.3331897974
49.3167275667
49.3167275667
49.3167275667
49.300265336
49.3208431244
49.3373053551
49.3537675858
49.3331897974
49.3331897974
49.300265336
49.3167275667
49.300265336
49.3331897974
49.3331897974
49.3373053551
49.2838031054
49.3496520281
49.3373053551
49.2961497784
49.300265336
49.3537675858
49.3331897974
49.3537675858
49.3167275667
49.3167275667
49.300265336
49.3167275667
49.3167275667
49.3208431244
49.3167275667
49.3496520281
49.3331897974
49.2838031054
49.3167275667
49.3167275667
49.300265336
49.3331897974
49.3331897974
49.300265336
49.3167275667
49.3167275667
49.662434411
49.3167275667
49.3373053551
49.3167275667
49.3496520281
49.3331897974
49.3167275667
49.3331897974
49.300265336
49.3373053551
49.3167275667
49.300265336
49.3167275667
49.3167275667
49.3331897974
49.3373053551

Block: 6
======================================
49.3537675858
49.3537675858
49.3331897974
49.300265336
49.3167275667
49.300265336
49.3496520281
49.3661142588
49.3537675858
49.263225317
49.3331897974
49.3167275667
49.3167275667
49.3373053551
49.3537675858
49.3702298164
49.3373053551
49.3331897974
49.3167275667
49.3208431244
49.3208431244
49.3167275667
49.2838031054
49.3373053551
49.3537675858
49.3331897974
49.3331897974
49.300265336
49.3537675858
49.3167275667
49.3496520281
49.3331897974
49.300265336
49.3373053551
49.3373053551
49.300265336
49.3702298164
49.3496520281
49.3331897974
49.300265336
49.300265336
49.3167275667
49.3331897974
49.3167275667
49.300265336
49.3167275667
49.300265336
49.300265336
49.3331897974
49.3167275667
49.3167275667
49.3167275667
49.3496520281
49.3167275667
49.3167275667
49.3331897974
49.3167275667
49.300265336
49.300265336
49.2796875477
49.3331897974
49.300265336
49.3373053551
49.3496520281
49.300265336
49.3496520281
49.3167275667
49.3331897974
49.3167275667
49.3373053551
49.3373053551
49.3167275667
49.300265336
49.3496520281
49.3373053551
49.3331897974
49.2303008556
49.3537675858
49.3331897974
49.3702298164
49.3331897974
49.3208431244
49.3167275667
49.300265336
49.6788966417
49.3496520281
49.3167275667
49.300265336
49.300265336
49.300265336
49.3373053551
49.3537675858
49.2796875477
49.300265336
49.3496520281
49.3331897974
49.3331897974
49.3331897974
49.300265336
49.3208431244

Block: 7
======================================
49.3167275667
49.3167275667
49.3167275667
49.3167275667
49.300265336
49.300265336
49.3167275667
49.3167275667
49.3702298164
49.3167275667
49.300265336
49.2961497784
49.3208431244
49.3496520281
49.3331897974
49.3331897974
49.3331897974
49.4031542778
49.3537675858
49.3167275667
49.3373053551
49.3167275667
49.3496520281
49.2961497784
49.3866920471
49.3167275667
49.0780252218
49.3496520281
49.3866920471
49.2796875477
49.3537675858
49.3331897974
49.3373053551
49.3331897974
49.3866920471
49.3167275667
49.2838031054
49.3496520281
49.4031542778
49.3167275667
49.3537675858
49.3537675858
49.3702298164
49.3331897974
49.3702298164
49.3373053551
49.3373053551
49.300265336
49.300265336
49.2673408747
49.3167275667
49.4031542778
49.3167275667
49.3661142588
49.3167275667
49.3373053551
49.3208431244
49.3167275667
49.3167275667
49.3167275667
49.3331897974
49.3167275667
49.3373053551
49.3537675858
49.3331897974
49.3208431244
49.3866920471
49.3661142588
49.3208431244
49.3167275667
49.300265336
49.3496520281
49.3331897974
49.3208431244
49.3702298164
49.3331897974
49.3702298164
49.2838031054
49.300265336
49.300265336
49.3167275667
49.3702298164
49.3208431244
49.2796875477
49.3167275667
49.3208431244
49.3167275667
49.3167275667
49.300265336
49.3496520281
49.3167275667
49.3331897974
49.3167275667
49.3702298164
49.3866920471
49.3331897974
49.3167275667
49.3537675858
49.3167275667
49.3331897974

Block: 8
======================================
49.2838031054
49.3331897974
49.3825764894
49.300265336
49.3331897974
49.3661142588
49.2796875477
49.3167275667
49.3866920471
49.3167275667
49.3167275667
49.3496520281
49.3702298164
49.3702298164
49.3537675858
49.3537675858
49.3702298164
49.3167275667
49.3661142588
49.3866920471
49.3167275667
49.4031542778
49.3331897974
49.3373053551
49.3331897974
49.3661142588
49.3208431244
49.3702298164
49.3702298164
49.3866920471
49.3702298164
49.3702298164
49.3702298164
49.3866920471
49.4031542778
49.4031542778
49.3866920471
49.3331897974
49.3866920471
49.3661142588
49.3866920471
49.300265336
49.3661142588
49.3537675858
49.3866920471
49.3702298164
49.3866920471
49.4031542778
49.4031542778
49.3866920471
49.3496520281
49.3331897974
49.3866920471
49.3661142588
49.3866920471
49.3661142588
49.4031542778
49.3167275667
49.4196165085
49.3496520281
49.3866920471
49.3167275667
49.300265336
49.3537675858
49.3537675858
49.4031542778
49.3702298164
49.3866920471
49.3167275667
49.3866920471
49.3702298164
49.3373053551
49.3331897974
49.3167275667
49.300265336
49.3702298164
49.3702298164
49.3496520281
49.3702298164
49.3167275667
49.3702298164
49.3702298164
49.4031542778
49.3702298164
49.3702298164
49.3331897974
49.3331897974
49.3702298164
49.3866920471
49.3661142588
49.3866920471
49.3866920471
49.3496520281
49.3702298164
49.3496520281
49.3702298164
49.3866920471
49.3496520281
49.3866920471
49.2961497784

Block: 9
======================================
49.3331897974
49.3702298164
49.3866920471
49.3537675858
49.3496520281
49.3537675858
49.3866920471
49.3702298164
49.3866920471
49.3331897974
49.3702298164
49.3167275667
49.3866920471
49.3866920471
49.3866920471
49.300265336
49.4031542778
49.3702298164
49.3866920471
49.3496520281
49.3496520281
49.3702298164
49.3702298164
49.3167275667
49.3373053551
49.3866920471
49.3331897974
49.3167275667
49.3167275667
49.3167275667
49.3496520281
49.3866920471
49.3661142588
49.3331897974
49.3825764894
49.3373053551
49.3661142588
49.3866920471
49.4196165085
49.300265336
49.3167275667
49.3702298164
49.3373053551
49.3661142588
49.3167275667
49.3866920471
49.4196165085
49.4031542778
49.3331897974
49.3866920471
49.4031542778
49.4031542778
49.3537675858
49.3167275667
49.3167275667
49.3537675858
49.300265336
49.3373053551
49.3661142588
49.3537675858
49.3167275667
49.3331897974
49.7653233528
49.3331897974
49.3331897974
49.3331897974
49.300265336
49.3167275667
49.300265336
49.3537675858
49.3167275667
49.3331897974
49.3331897974
49.300265336
49.3331897974
49.3661142588
49.3537675858
49.3373053551
49.3496520281
49.3167275667
49.3331897974
49.3496520281
49.3208431244
49.3537675858
49.4031542778
49.300265336
49.3866920471
49.3167275667
49.3331897974
49.3208431244
50.1809946775
49.3702298164
49.3208431244
49.3496520281
49.3537675858
49.3866920471
49.3537675858
49.3496520281
49.3866920471
49.300265336

Block: 10
======================================
49.3331897974
49.4031542778
49.3331897974
49.300265336
49.3167275667
49.300265336
49.3496520281
49.3496520281
49.3866920471
49.3537675858
49.300265336
49.3496520281
49.3496520281
49.3331897974
49.3373053551
49.300265336
49.3537675858
49.3537675858
49.3373053551
49.4031542778
49.3496520281
49.3167275667
49.3866920471
49.3537675858
49.3866920471
49.3167275667
49.3661142588
49.3702298164
49.3373053551
49.4031542778
49.4031542778
49.3537675858
49.3661142588
49.3702298164
49.3537675858
49.4031542778
49.3331897974
49.3702298164
49.4196165085
49.300265336
49.4031542778
49.300265336
49.3866920471
49.3866920471
49.3866920471
49.4031542778
49.3702298164
49.3167275667
49.3537675858
49.300265336
49.4031542778
49.3167275667
49.3167275667
49.3866920471
49.3825764894
49.4196165085
49.3866920471
49.3537675858
49.4196165085
49.3167275667
49.3331897974
49.3373053551
49.3167275667
49.3167275667
49.3661142588
49.3537675858
49.3537675858
49.3331897974
49.3866920471
49.3866920471
49.3661142588
49.3537675858
49.4031542778
49.300265336
49.3167275667
49.4072698355
49.3866920471
49.3702298164
49.3167275667
49.3331897974
49.3167275667
49.4031542778
49.3167275667
49.6953588724
49.3167275667
49.4031542778
49.3496520281
49.3866920471
49.3702298164
49.3702298164
49.3496520281
49.3825764894
49.3496520281
49.3331897974
49.3702298164
49.4031542778
49.3702298164
49.4031542778
49.300265336
49.3702298164
