
Block: 1
======================================
50.6830927134
50.3168080807
50.2674213886
50.2674213886
50.7530571938
50.7530571938
50.7695194244
50.7160171747
50.3168080807
50.30034585

Average distance is : 50.514 cm
Average deviation is : 0.234 cm
Block: 2
======================================
50.7530571938
50.7160171747
50.3209236383
50.7160171747
50.7324794054
50.3538480997
50.7324794054
50.7160171747
50.30034585
50.30034585

Average distance is : 50.564 cm
Average deviation is : 0.212 cm
Block: 3
======================================
50.3209236383
50.3168080807
50.30034585
50.337385869
50.2674213886
50.30034585
50.30034585
50.3332703114
50.2674213886
50.337385869

Average distance is : 50.308 cm
Average deviation is : 0.026 cm
Block: 4
======================================
50.2838836193
50.30034585
50.337385869
50.3332703114
50.0246034861
50.2838836193
50.7324794054
50.7324794054
50.7654038668
50.7489416361

Average distance is : 50.454 cm
Average deviation is : 0.265 cm
Block: 5
======================================
50.7160171747
50.7160171747
50.3209236383
50.30034585
50.2838836193
50.7489416361
50.3209236383
50.2838836193
50.7160171747
50.7324794054

Average distance is : 50.514 cm
Average deviation is : 0.224 cm
Block: 6
======================================
50.6954393864
50.7160171747
50.7654038668
50.7119016171
50.2838836193
50.3044614077
50.30034585
50.3209236383
50.3332703114
50.7489416361

Average distance is : 50.518 cm
Average deviation is : 0.222 cm
Block: 7
======================================
50.2838836193
50.30034585
50.7695194244
50.7489416361
50.3209236383
50.2838836193
50.2674213886
50.3168080807
50.7324794054
50.3332703114

Average distance is : 50.436 cm
Average deviation is : 0.218 cm
Block: 8
======================================
50.3168080807
50.3044614077
50.3209236383
50.3209236383
50.2674213886
50.2674213886
50.7324794054
50.337385869
50.2838836193
50.337385869

Average distance is : 50.349 cm
Average deviation is : 0.137 cm
Block: 9
======================================
50.30034585
50.3044614077
50.2838836193
50.2674213886
50.30034585
50.3168080807
50.7324794054
50.3703103304
50.6830927134
50.2838836193

Average distance is : 50.384 cm
Average deviation is : 0.173 cm
Block: 10
======================================
50.263305831
50.30034585
50.3332703114
50.2838836193
50.2838836193
50.3168080807
50.30034585
50.3332703114
50.30034585
50.7530571938

Average distance is : 50.347 cm
Average deviation is : 0.144 cm