
Block: 1
======================================
50.30034585
50.7489416361
50.30034585
50.2838836193
50.30034585
50.7324794054
50.337385869
50.2674213886
50.3538480997
50.337385869
50.30034585
50.7119016171
50.30034585
50.7489416361
50.7695194244
50.337385869
50.2838836193
50.7530571938
50.7489416361
50.3332703114
50.7160171747
50.7324794054
50.2838836193
50.30034585
50.2674213886
50.2838836193
50.30034585
50.7489416361
50.7324794054
50.7324794054
50.6954393864
50.2838836193
50.30034585
50.7160171747
50.7160171747
50.7530571938
50.6954393864
50.3332703114
50.7160171747
50.6789771557
50.7324794054
50.6789771557
50.7530571938
50.2838836193
50.337385869
50.3168080807
50.7489416361
50.7160171747
50.7489416361
50.2838836193
50.30034585
50.2674213886
50.6789771557
50.2838836193
50.263305831
50.7324794054
50.2838836193
50.7489416361
50.263305831
50.2674213886
50.7324794054
50.2838836193
50.30034585
50.2838836193
50.30034585
50.7489416361
50.7324794054
50.7695194244
50.2838836193
50.7324794054
50.2838836193
50.6830927134
50.2674213886
50.337385869
50.7489416361

Average distance is : 50.499 cm
Average deviation is : 0.219 cm
Block: 2
======================================
50.3332703114
50.3168080807
50.30034585
50.6830927134
50.30034585
50.3168080807
50.2838836193
50.30034585
50.2838836193
50.3168080807
50.337385869
50.3209236383
50.30034585
50.3168080807
50.3209236383
50.3168080807
50.30034585
50.2838836193
50.2838836193
50.30034585
50.3044614077
50.30034585
50.30034585
50.30034585
50.2838836193
50.3044614077
50.2838836193
50.3209236383
50.3209236383
50.3209236383
50.30034585
50.3168080807
50.30034585
50.337385869
50.3332703114
50.3168080807
50.7160171747
50.30034585
50.3332703114
50.2838836193
50.3332703114
50.3209236383
50.3209236383
50.3168080807
50.3168080807
50.30034585
50.3168080807
50.3168080807
50.3209236383
50.3209236383
50.3044614077
50.3209236383
50.3332703114
50.3168080807
50.3168080807
50.3332703114
50.3332703114
50.7324794054
50.3209236383
50.7324794054
50.30034585
50.3209236383
50.3209236383
50.30034585
50.3209236383
50.30034585
50.3168080807
50.2838836193
50.337385869
50.3168080807
50.7324794054
50.3044614077
50.337385869
50.30034585
50.30034585

Average distance is : 50.339 cm
Average deviation is : 0.104 cm
Block: 3
======================================
50.3209236383
50.2838836193
50.2838836193
50.3168080807
50.3209236383
50.3044614077
50.7859816551
50.7160171747
50.3538480997
50.7695194244
50.30034585
50.30034585
50.3168080807
50.30034585
50.7530571938
50.3168080807
50.7489416361
50.3332703114
50.3332703114
50.2838836193
50.3209236383
50.3168080807
50.3168080807
50.7530571938
50.337385869
50.3332703114
50.7324794054
50.3332703114
50.6954393864
50.7489416361
50.337385869
50.30034585
50.30034585
50.30034585
50.2674213886
50.30034585
50.3209236383
50.2838836193
50.30034585
50.30034585
50.30034585
50.30034585
50.7324794054
50.3168080807
50.30034585
50.2838836193
50.3168080807
50.3044614077
50.3168080807
50.337385869
50.30034585
50.30034585
50.7324794054
50.30034585
50.3168080807
50.7530571938
50.3538480997
50.337385869
50.3209236383
50.3168080807
50.3044614077
50.3209236383
50.3209236383
50.7160171747
50.30034585
50.337385869
50.3209236383
50.6789771557
50.699554944
50.2674213886
50.2674213886
50.7489416361
50.6954393864
50.2838836193
50.3538480997

Average distance is : 50.407 cm
Average deviation is : 0.179 cm
Block: 4
======================================
50.2838836193
50.3168080807
50.337385869
50.30034585
50.2838836193
50.3168080807
50.3168080807
50.30034585
50.3209236383
50.3332703114
50.30034585
50.2838836193
50.3168080807
50.2838836193
50.30034585
50.2838836193
50.3168080807
50.3168080807
50.3209236383
50.3168080807
50.3168080807
50.3209236383
50.2838836193
50.30034585
50.30034585
50.349732542
50.30034585
50.3332703114
50.3168080807
50.30034585
50.3209236383
50.30034585
50.3209236383
50.337385869
50.3044614077
50.3168080807
50.3209236383
50.30034585
50.3168080807
50.30034585
50.2838836193
50.3168080807
50.2838836193
50.3168080807
50.3168080807
50.3209236383
50.7695194244
50.3168080807
50.3209236383
50.3168080807
50.3168080807
50.0945679665
50.7530571938
50.7489416361
50.3168080807
50.7324794054
50.3209236383
50.3209236383
50.337385869
50.3168080807
50.30034585
50.7489416361
50.3168080807
50.30034585
50.30034585
50.3168080807
50.30034585
50.3209236383
50.3209236383
50.7530571938
50.3538480997
50.3332703114
50.7695194244
50.7530571938
50.2838836193

Average distance is : 50.356 cm
Average deviation is : 0.141 cm
Block: 5
======================================
50.337385869
50.2838836193
50.30034585
50.30034585
50.3168080807
50.30034585
50.30034585
50.2838836193
50.3332703114
50.7324794054
50.30034585
50.30034585
50.2838836193
50.2674213886
50.30034585
50.2838836193
50.30034585
50.3168080807
50.3168080807
50.3209236383
50.30034585
50.30034585
50.3209236383
50.3168080807
50.3209236383
50.30034585
50.30034585
50.3209236383
50.3168080807
50.30034585
50.2838836193
50.3168080807
50.3209236383
50.30034585
50.337385869
50.2674213886
50.30034585
50.337385869
50.7654038668
50.7489416361
50.337385869
50.337385869
50.30034585
50.7695194244
50.30034585
50.3209236383
50.7695194244
50.337385869
50.7324794054
50.337385869
50.3332703114
50.2838836193
50.2838836193
50.7654038668
50.7530571938
50.7324794054
50.7160171747
50.30034585
50.3168080807
50.2838836193
50.7160171747
50.7489416361
50.3209236383
50.3332703114
50.3168080807
50.3209236383
50.7530571938
50.30034585
50.7489416361
50.3168080807
50.7489416361
50.3168080807
50.3168080807
50.30034585
50.3168080807

Average distance is : 50.397 cm
Average deviation is : 0.177 cm
Block: 6
======================================
50.2838836193
50.30034585
50.3044614077
50.2838836193
50.3332703114
50.7530571938
50.2838836193
50.7324794054
50.3209236383
50.30034585
50.30034585
50.2674213886
50.30034585
50.3168080807
50.30034585
50.30034585
50.3332703114
50.7654038668
50.7859816551
50.7365949631
50.3332703114
50.337385869
50.7530571938
50.7530571938
50.337385869
50.30034585
50.7119016171
50.7654038668
50.3168080807
50.3209236383
50.30034585
50.3168080807
50.3209236383
50.3044614077
50.337385869
50.3209236383
50.2838836193
50.7489416361
50.2838836193
50.3209236383
50.3209236383
50.3168080807
50.3168080807
50.30034585
50.3209236383
50.30034585
50.7324794054
50.7324794054
50.7324794054
50.699554944
50.7324794054
50.7695194244
50.7324794054
50.6830927134
50.3332703114
50.30034585
50.3044614077
50.30034585
50.3044614077
50.30034585
50.3044614077
50.3168080807
50.2838836193
50.30034585
50.2838836193
50.30034585
50.30034585
50.3168080807
50.3168080807
50.3332703114
50.337385869
50.3168080807
50.7530571938
50.337385869
50.699554944

Average distance is : 50.424 cm
Average deviation is : 0.192 cm
Block: 7
======================================
50.3332703114
50.3703103304
50.699554944
50.3168080807
50.3538480997
50.337385869
50.3168080807
50.3168080807
50.7695194244
50.7324794054
50.7324794054
50.337385869
50.7324794054
50.7489416361
50.3332703114
50.3044614077
50.337385869
50.30034585
50.30034585
50.7324794054
50.3168080807
50.30034585
50.30034585
49.8682122946
50.3168080807
50.3168080807
50.3168080807
50.3538480997
50.30034585
50.3209236383
50.3332703114
50.3332703114
50.2838836193
50.7489416361
50.3168080807
50.337385869
50.3209236383
50.7489416361
50.3168080807
50.3209236383
50.7695194244
50.3168080807
50.337385869
50.3168080807
50.337385869
50.3168080807
50.3168080807
50.30034585
50.3168080807
50.337385869
50.7489416361
50.7654038668
50.3044614077
50.7489416361
50.699554944
50.7489416361
50.7530571938
50.30034585
50.6954393864
50.7324794054
50.30034585
50.3209236383
50.7489416361
50.30034585
50.7695194244
50.7530571938
50.7489416361
50.7530571938
50.699554944
50.699554944
50.3209236383
50.7654038668
50.3044614077
50.30034585
50.7324794054

Average distance is : 50.465 cm
Average deviation is : 0.215 cm
Block: 8
======================================
50.1768791199
50.7160171747
50.30034585
50.7818660975
50.7489416361
50.30034585
50.30034585
50.7324794054
50.30034585
50.7324794054
50.30034585
50.3044614077
50.7654038668
50.7489416361
50.7489416361
50.2674213886
50.337385869
50.337385869
50.7365949631
50.30034585
50.3209236383
50.3209236383
50.3168080807
50.30034585
50.30034585
50.3209236383
50.3209236383
50.7489416361
50.6954393864
50.3168080807
50.3168080807
50.337385869
50.3168080807
50.3168080807
50.7489416361
50.7324794054
50.699554944
50.337385869
50.3209236383
50.7489416361
50.30034585
50.3168080807
50.337385869
50.7489416361
50.3168080807
50.7530571938
50.3168080807
50.7530571938
50.7324794054
50.3538480997
50.3209236383
50.337385869
50.3168080807
50.7489416361
50.7489416361
50.3209236383
50.3168080807
50.30034585
50.30034585
50.3209236383
50.7160171747
50.7324794054
50.7324794054
50.7324794054
50.3168080807
50.349732542
50.3209236383
50.30034585
50.30034585
50.7160171747
50.7160171747
50.337385869
50.3209236383
50.349732542
50.3044614077

Average distance is : 50.466 cm
Average deviation is : 0.206 cm
Block: 9
======================================
50.7695194244
50.2838836193
50.263305831
50.3332703114
50.7324794054
50.349732542
50.3538480997
50.30034585
50.7859816551
50.30034585
50.7859816551
50.7654038668
50.7818660975
50.3332703114
50.7695194244
50.3332703114
50.7530571938
50.7530571938
50.30034585
50.30034585
50.30034585
50.3209236383
50.7324794054
50.30034585
50.7530571938
50.7489416361
50.3332703114
50.7324794054
50.2674213886
50.3168080807
50.7489416361
50.2838836193
50.7654038668
50.3168080807
50.30034585
50.7324794054
50.7324794054
50.3209236383
50.2838836193
50.2838836193
50.3209236383
50.30034585
50.3168080807
50.2838836193
50.3168080807
50.3044614077
50.7530571938
50.337385869
50.3168080807
50.7530571938
50.3168080807
50.3209236383
50.7654038668
50.7160171747
50.30034585
50.30034585
50.7530571938
50.7489416361
50.30034585
50.2838836193
50.7489416361
50.3168080807
50.7695194244
50.337385869
50.7324794054
50.7489416361
50.7489416361
50.30034585
50.7695194244
50.7324794054
50.30034585
50.699554944
50.7365949631
50.3332703114
50.3044614077

Average distance is : 50.498 cm
Average deviation is : 0.221 cm
Block: 10
======================================
50.7160171747
50.2509591579
50.2674213886
50.7530571938
50.7695194244
50.7324794054
50.7324794054
49.5101587772
50.30034585
50.30034585
50.2838836193
50.3209236383
50.2838836193
50.2838836193
50.2838836193
50.2838836193
50.7160171747
50.6954393864
50.2509591579
50.7324794054
50.7489416361
50.30034585
50.2838836193
50.2838836193
50.7695194244
50.6830927134
50.2674213886
50.30034585
50.2838836193
50.7160171747
50.6954393864
50.7160171747
50.699554944
50.7324794054
50.2674213886
50.30034585
50.7489416361
50.7530571938
50.6954393864
50.2674213886
50.7530571938
50.2838836193
50.2838836193
50.3168080807
50.2838836193
50.30034585
50.30034585
50.7530571938
50.7489416361
50.7324794054
50.7324794054
50.7489416361
50.3209236383
51.3333508253
50.7489416361
50.699554944
50.7324794054
50.7654038668
50.6954393864
50.7324794054
50.3044614077
50.3209236383
50.30034585
50.7324794054
50.6789771557
50.2838836193
50.7160171747
50.7654038668
50.7489416361
50.7489416361
50.7324794054
50.3332703114
50.7489416361
50.7160171747
50.7489416361

Average distance is : 50.535 cm
Average deviation is : 0.265 cm