
Block: 1
======================================
50.3168080807
50.7324794054
50.30034585
50.7695194244
50.3168080807
50.7324794054
50.2838836193
50.7324794054
50.3209236383
50.3168080807
50.30034585
50.2674213886
50.3209236383
50.2674213886
50.30034585
50.30034585
50.30034585
50.3168080807
50.7160171747
50.3168080807
50.2838836193
50.3168080807
50.3168080807
50.3168080807
50.30034585

Average distance is : 50.391 cm
Average deviation is : 0.177 cm
Block: 2
======================================
50.3332703114
50.337385869
50.3168080807
50.30034585
50.2509591579
50.3209236383
50.337385869
50.337385869
50.3209236383
50.337385869
50.337385869
50.3168080807
50.3044614077
50.337385869
50.7160171747
50.3209236383
50.3209236383
50.3044614077
50.30034585
50.3209236383
50.3168080807
50.2838836193
50.2674213886
50.30034585
50.30034585

Average distance is : 50.330 cm
Average deviation is : 0.084 cm
Block: 3
======================================
50.7324794054
50.7160171747
50.2674213886
50.7160171747
50.30034585
50.2509591579
50.2674213886
50.7654038668
50.3044614077
50.3044614077
50.2674213886
50.7160171747
50.3209236383
50.30034585
50.699554944
50.3168080807
50.337385869
50.2838836193
50.30034585
50.30034585
50.7324794054
50.3168080807
50.2674213886
50.7489416361
50.3209236383

Average distance is : 50.434 cm
Average deviation is : 0.207 cm
Block: 4
======================================
50.2838836193
50.3168080807
50.337385869
50.3209236383
50.3538480997
50.3044614077
50.3168080807
50.30034585
50.30034585
50.3044614077
50.30034585
50.3044614077
50.2838836193
50.30034585
50.3209236383
50.3168080807
50.30034585
50.30034585
50.30034585
50.30034585
50.30034585
50.3044614077
50.3168080807
50.3044614077
50.30034585

Average distance is : 50.308 cm
Average deviation is : 0.015 cm
Block: 5
======================================
50.3168080807
50.3168080807
50.3044614077
50.30034585
50.0781057358
50.30034585
50.2468436003
50.6954393864
50.30034585
50.30034585
50.30034585
50.2838836193
50.30034585
50.3168080807
50.3209236383
50.30034585
50.30034585
50.2838836193
50.3209236383
50.3168080807
50.3168080807
50.3209236383
50.2838836193
50.337385869
50.2838836193

Average distance is : 50.310 cm
Average deviation is : 0.094 cm
Block: 6
======================================
50.30034585
50.2838836193
50.3044614077
50.2838836193
50.2838836193
50.30034585
50.2674213886
50.3168080807
50.3044614077
50.3168080807
50.2838836193
50.30034585
50.3209236383
50.2838836193
50.3209236383
50.30034585
50.2838836193
50.2838836193
50.3209236383
50.3332703114
50.2838836193
50.30034585
50.3044614077
50.30034585
50.2838836193

Average distance is : 50.299 cm
Average deviation is : 0.016 cm
Block: 7
======================================
50.3168080807
50.7489416361
50.337385869
50.3044614077
50.2838836193
50.2838836193
50.30034585
50.2468436003
50.2838836193
50.337385869
50.30034585
50.2838836193
50.2838836193
50.2838836193
50.3209236383
50.3209236383
50.3044614077
50.30034585
50.30034585
50.337385869
50.30034585
50.30034585
50.30034585
50.30034585
50.2838836193

Average distance is : 50.319 cm
Average deviation is : 0.092 cm
Block: 8
======================================
50.2838836193
50.30034585
50.349732542
50.3538480997
50.7324794054
50.2838836193
50.2838836193
50.337385869
50.263305831
50.3209236383
50.2838836193
50.30034585
50.3168080807
50.7530571938
50.7489416361
50.3168080807
50.30034585
50.3044614077
50.3168080807
50.337385869
50.7324794054
50.3209236383
50.3332703114
50.2838836193
50.30034585

Average distance is : 50.378 cm
Average deviation is : 0.163 cm
Block: 9
======================================
50.2838836193
50.2674213886
50.3332703114
50.2838836193
50.2838836193
50.30034585
50.3209236383
50.2838836193
50.2838836193
50.337385869
50.2838836193
50.7489416361
50.30034585
50.3538480997
50.7530571938
50.3332703114
50.337385869
50.3209236383
50.30034585
50.337385869
50.3332703114
50.30034585
50.3044614077
50.7489416361
50.7324794054

Average distance is : 50.379 cm
Average deviation is : 0.165 cm
Block: 10
======================================
50.3332703114
50.2838836193
50.3538480997
50.2674213886
50.30034585
50.3168080807
50.2468436003
50.2674213886
50.30034585
50.30034585
50.7160171747
50.30034585
50.2674213886
50.30034585
50.30034585
50.30034585
50.3209236383
50.3168080807
50.30034585
50.2674213886
50.2838836193
50.30034585
50.3168080807
50.30034585
50.7160171747

Average distance is : 50.331 cm
Average deviation is : 0.118 cm