
Block: 1
======================================
401.012120986
400.551182866
400.535009599
401.432625937
401.432625937

Average distance is : 400.993 cm
Average deviation is : 0.445 cm
Block: 2
======================================
401.464972472
401.889520741
400.995947719
400.567356133
401.448799205

Average distance is : 401.273 cm
Average deviation is : 0.506 cm
Block: 3
======================================
401.432625937
401.873347473
401.909737325
401.889520741
402.35045886

Average distance is : 401.891 cm
Average deviation is : 0.325 cm
Block: 4
======================================
401.044467521
401.537752175
400.652265787
401.060640788
401.517535591

Average distance is : 401.163 cm
Average deviation is : 0.371 cm
Block: 5
======================================
400.652265787
401.517535591
401.537752175
400.63609252
401.076814055

Average distance is : 401.084 cm
Average deviation is : 0.442 cm
Block: 6
======================================
401.549882126
401.537752175
400.656309104
400.684612322
401.125333858

Average distance is : 401.111 cm
Average deviation is : 0.437 cm
Block: 7
======================================
400.704828906
400.672482371
401.10916059
400.688655639
400.704828906

Average distance is : 400.776 cm
Average deviation is : 0.187 cm
Block: 8
======================================
401.129377174
400.704828906
401.590315294
401.10916059
401.145550442

Average distance is : 401.136 cm
Average deviation is : 0.314 cm
Block: 9
======================================
401.113203907
401.113203907
401.57009871
401.129377174
401.129377174

Average distance is : 401.211 cm
Average deviation is : 0.201 cm
Block: 10
======================================
401.198113561
401.145550442
400.280280638
400.721002173
400.316670489

Average distance is : 400.732 cm
Average deviation is : 0.437 cm