
Block: 1
======================================
400.684612322
400.688655639
401.092987323
400.227717519
401.537752175
400.211544251
401.958257127
401.113203907
401.533708858
400.668439054
400.672482371
401.113203907
400.672482371
400.227717519
401.10916059
401.537752175
400.668439054
400.652265787
400.672482371
400.668439054
401.10916059
400.656309104
400.656309104
401.962300444
401.501362324
401.092987323
400.652265787
400.672482371
400.656309104
400.672482371
401.129377174
401.962300444
400.656309104
401.09703064
401.09703064
401.958257127
400.688655639
400.211544251
400.243890786
400.652265787
400.668439054
400.227717519
400.652265787
400.656309104
400.652265787
401.537752175
401.113203907
401.10916059
400.63609252
400.656309104

Average distance is : 400.899 cm
Average deviation is : 0.474 cm
Block: 2
======================================
400.656309104
401.092987323
401.537752175
401.09703064
401.517535591
401.10916059
401.044467521
401.517535591
401.942083859
401.060640788
401.501362324
402.787137079
401.076814055
401.553925443
401.942083859
401.080857372
403.211685348
401.060640788
401.076814055
401.060640788
401.533708858
401.076814055
400.656309104
401.521578908
401.537752175
401.092987323
400.672482371
402.386848712
400.640135837
401.092987323
402.823526931
400.63609252
402.366632128
400.619919252
400.640135837
401.080857372
401.060640788
401.060640788
401.517535591
401.060640788
400.619919252
401.076814055
401.942083859
401.064684105
401.485189056
400.619919252
401.064684105
401.501362324
402.791180396
401.485189056

Average distance is : 401.353 cm
Average deviation is : 0.628 cm
Block: 3
======================================
401.485189056
401.485189056
401.012120986
401.064684105
401.028294253
401.040424204
401.044467521
401.060640788
401.060640788
402.366632128
401.060640788
401.060640788
402.366632128
400.619919252
400.619919252
401.501362324
400.619919252
401.962300444
401.076814055
401.517535591
401.533708858
401.076814055
401.060640788
400.63609252
401.080857372
400.603745985
400.640135837
401.958257127
400.63609252
401.533708858
401.553925443
401.517535591
401.533708858
401.092987323
400.672482371
401.521578908
401.09703064
401.09703064
401.09703064
401.553925443
401.57009871
400.652265787
400.668439054
400.656309104
401.113203907
400.672482371
400.63609252
400.63609252
400.619919252
400.672482371

Average distance is : 401.129 cm
Average deviation is : 0.457 cm
Block: 4
======================================
400.211544251
400.163024449
400.652265787
400.652265787
401.080857372
400.656309104
401.533708858
401.09703064
401.092987323
400.652265787
401.09703064
401.533708858
401.521578908
400.668439054
400.231760836
400.243890786
401.537752175
400.668439054
400.215587568
400.211544251
401.129377174
400.211544251
400.672482371
400.231760836
400.247934103
401.09703064
400.652265787
401.958257127
401.549882126
400.672482371
401.09703064
400.668439054
401.958257127
401.076814055
401.092987323
401.080857372
400.656309104
402.382805395
400.652265787
400.672482371
400.652265787
402.386848712
400.652265787
402.366632128
400.672482371
400.215587568
400.211544251
401.10916059
400.640135837
400.672482371

Average distance is : 400.901 cm
Average deviation is : 0.596 cm
Block: 5
======================================
400.231760836
400.211544251
400.652265787
400.63609252
400.668439054
400.470316529
401.09703064
400.195370984
400.211544251
400.211544251
401.942083859
401.092987323
400.227717519
400.227717519
401.09703064
400.652265787
401.09703064
400.211544251
400.672482371
400.640135837
400.668439054
400.199414301
400.652265787
400.656309104
400.247934103
400.227717519
401.129377174
401.09703064
400.211544251
400.211544251
401.974430394
400.247934103
400.652265787
401.113203907
401.537752175
400.672482371
400.195370984
400.63609252
400.672482371
401.537752175
400.211544251
400.195370984
400.211544251
400.619919252
400.63609252
401.942083859
400.63609252
401.469015789
401.076814055
400.603745985

Average distance is : 400.692 cm
Average deviation is : 0.501 cm
Block: 6
======================================
401.893564057
401.41645267
401.452842522
401.432625937
401.909737325
401.889520741
402.791180396
401.448799205
401.464972472
401.925910592
401.946127176
401.044467521
401.501362324
402.366632128
401.076814055
401.958257127
400.587572718
401.517535591
401.076814055
400.63609252
400.652265787
400.640135837
401.537752175
401.080857372
400.623962569
401.092987323
401.517535591
401.501362324
401.044467521
401.044467521
401.044467521
401.469015789
401.909737325
403.6564502
401.905694008
402.791180396
401.469015789
401.41645267
401.448799205
401.909737325
401.469015789
401.909737325
401.452842522
401.905694008
401.028294253
400.995947719
401.028294253
401.469015789
401.925910592
402.791180396

Average distance is : 401.541 cm
Average deviation is : 0.614 cm
Block: 7
======================================
400.640135837
400.603745985
401.537752175
401.060640788
401.044467521
401.09703064
400.63609252
401.060640788
400.619919252
401.501362324
401.076814055
401.537752175
400.63609252
400.603745985
401.076814055
401.064684105
401.044467521
401.060640788
401.060640788
400.619919252
400.603745985
401.080857372
401.113203907
401.521578908
402.398978662
401.974430394
401.113203907
400.619919252
401.501362324
400.619919252
400.652265787
400.603745985
401.09703064
401.962300444
400.63609252
400.619919252
401.10916059
400.672482371
401.092987323
400.640135837
401.537752175
401.09703064
401.076814055
401.076814055
401.553925443
401.09703064
401.958257127
401.092987323
401.537752175
400.656309104

Average distance is : 401.078 cm
Average deviation is : 0.433 cm
Block: 8
======================================
400.247934103
401.533708858
400.652265787
401.113203907
401.129377174
400.668439054
401.09703064
401.09703064
401.10916059
401.113203907
400.247934103
400.195370984
401.09703064
401.10916059
400.227717519
401.553925443
402.398978662
400.63609252
401.958257127
401.10916059
400.652265787
400.688655639
400.656309104
400.656309104
401.10916059
400.640135837
400.652265787
400.227717519
401.958257127
401.533708858
400.656309104
400.211544251
400.672482371
401.537752175
401.080857372
401.501362324
400.63609252
401.076814055
401.044467521
401.076814055
401.060640788
401.044467521
401.521578908
400.652265787
400.63609252
402.366632128
401.060640788
401.517535591
401.060640788
400.619919252

Average distance is : 401.002 cm
Average deviation is : 0.519 cm
Block: 9
======================================
400.619919252
401.060640788
401.501362324
400.587572718
401.469015789
401.485189056
401.452842522
401.909737325
401.060640788
401.485189056
401.501362324
400.587572718
400.57139945
401.485189056
401.485189056
401.501362324
401.060640788
401.501362324
400.567356133
401.044467521
400.587572718
402.346415544
401.044467521
400.583529401
401.044467521
400.603745985
400.603745985
401.076814055
400.583529401
401.485189056
401.925910592
401.485189056
401.485189056
401.485189056
400.567356133
400.587572718
401.044467521
401.044467521
401.044467521
401.469015789
401.48114574
400.583529401
400.603745985
400.603745985
401.485189056
400.587572718
400.603745985
400.587572718
400.583529401
401.044467521

Average distance is : 401.084 cm
Average deviation is : 0.460 cm
Block: 10
======================================
401.505405641
401.505405641
400.583529401
400.603745985
401.076814055
400.587572718
401.060640788
401.040424204
400.587572718
400.587572718
401.044467521
402.366632128
401.060640788
401.485189056
401.485189056
401.469015789
401.044467521
400.583529401
401.501362324
401.521578908
401.044467521
401.501362324
400.587572718
401.485189056
401.040424204
401.028294253
401.028294253
401.044467521
401.060640788
401.942083859
401.024250937
401.044467521
401.024250937
401.028294253
401.925910592
401.485189056
401.485189056
401.452842522
401.909737325
401.044467521
401.044467521
400.587572718
400.567356133
400.587572718
400.583529401
401.028294253
401.024250937
400.583529401
401.909737325
400.587572718

Average distance is : 401.128 cm
Average deviation is : 0.443 cm