
Block: 1
======================================
99.9502712488
99.9502712488
100.313711762
99.9172312021
99.9337512255
100.313711762
99.9172312021
99.9131011963
100.334361792
99.9007111788
99.8800611496
99.9337512255
99.9337512255
99.9172312021
99.9337512255
99.9172312021
99.9337512255
99.9337512255
99.9131011963
99.9172312021
100.383921862
99.9337512255
99.8965811729
99.9337512255
98.859949708
99.9337512255
99.9172312021
99.9007111788
99.9337512255
99.9172312021
99.9172312021
99.9337512255
99.9337512255
99.9172312021
99.9007111788
99.8470211029
99.9502712488
99.9502712488
99.9172312021
99.9131011963
99.9172312021
99.9337512255
99.8800611496
99.9502712488
99.9337512255
99.9172312021
99.9502712488
99.9502712488
100.280671716
99.8635411263
99.9502712488
99.9296212196
99.9337512255
99.9172312021
99.8800611496
99.9337512255
99.9007111788
99.9172312021
99.8965811729
99.8635411263
99.9131011963
99.9337512255
99.9131011963
99.8635411263
99.9337512255
99.8841911554
100.350881815
100.313711762
99.9172312021
100.317841768
99.9172312021
99.9007111788
99.9337512255
99.9172312021
99.9337512255

Block: 2
======================================
99.9007111788
99.8635411263
99.9172312021
99.9172312021
99.8965811729
99.8635411263
99.8635411263
99.9337512255
99.8800611496
99.9337512255
100.313711762
99.9544012547
99.9007111788
99.9172312021
99.8965811729
99.9667912722
99.8965811729
99.8800611496
99.9172312021
99.8800611496
99.8635411263
99.9502712488
99.9337512255
99.8800611496
99.8635411263
99.9131011963
99.9337512255
99.9337512255
100.334361792
99.9337512255
100.297191739
99.9337512255
99.9337512255
99.9544012547
99.8965811729
99.8676711321
99.9337512255
99.9502712488
100.367401838
100.317841768
99.9337512255
100.334361792
99.9007111788
99.9337512255
100.334361792
99.8800611496
99.9502712488
100.297191739
99.9337512255
99.9502712488
100.297191739
99.9172312021
99.9337512255
99.8635411263
99.9337512255
99.9007111788
99.8800611496
99.9337512255
99.9131011963
99.9007111788
100.487172008
99.9007111788
99.8635411263
99.9337512255
100.313711762
99.8965811729
99.8965811729
99.9007111788
99.9296212196
99.8841911554
99.9502712488
99.9667912722
99.9172312021
99.8965811729
99.9172312021

Block: 3
======================================
100.334361792
99.9502712488
99.9172312021
100.520212054
99.9172312021
99.8841911554
99.9337512255
99.8800611496
99.8841911554
99.9337512255
99.9337512255
99.9172312021
99.9544012547
99.9337512255
99.9337512255
99.9337512255
99.8800611496
99.9007111788
99.9172312021
99.9131011963
99.9337512255
99.9131011963
99.9007111788
99.9502712488
99.9131011963
99.8635411263
99.9337512255
99.9172312021
99.9502712488
99.9337512255
99.9172312021
99.9337512255
99.8470211029
100.334361792
99.9544012547
99.9502712488
99.9337512255
99.9502712488
99.8841911554
99.8635411263
99.9172312021
99.9007111788
99.9337512255
99.9007111788
99.8965811729
99.9007111788
99.8635411263
99.8841911554
99.8965811729
99.9337512255
99.9131011963
99.9337512255
99.8965811729
99.8800611496
99.9172312021
99.8965811729
99.8965811729
99.8965811729
99.9337512255
99.9172312021
99.9172312021
99.8841911554
99.9007111788
99.9544012547
99.8800611496
99.8635411263
99.8965811729
99.9007111788
99.8470211029
99.9007111788
100.334361792
99.9502712488
99.8635411263
99.9172312021
99.9337512255

Block: 4
======================================
99.9007111788
99.9337512255
99.9007111788
99.9131011963
99.9172312021
99.9131011963
99.9007111788
99.9337512255
99.9337512255
100.346751809
99.9007111788
99.9337512255
99.9337512255
99.9172312021
99.9337512255
99.9172312021
99.8800611496
99.9667912722
99.9131011963
99.9502712488
99.8800611496
99.8965811729
99.9502712488
99.8841911554
99.8635411263
99.9502712488
99.8800611496
99.9131011963
99.9337512255
99.9337512255
99.9007111788
99.8965811729
99.8800611496
99.9172312021
99.9007111788
99.8965811729
99.9172312021
99.9172312021
100.363271832
99.8800611496
99.8965811729
99.9502712488
99.9337512255
99.9007111788
99.9007111788
99.9502712488
99.8965811729
99.9337512255
99.9544012547
99.9502712488
99.8841911554
99.9172312021
99.8800611496
100.313711762
99.8635411263
99.9502712488
99.9172312021
99.9172312021
99.9337512255
99.8965811729
99.8800611496
99.8841911554
99.8965811729
100.280671716
99.9131011963
99.9502712488
99.9337512255
99.8470211029
100.350881815
99.9337512255
99.9172312021
99.9502712488
99.9172312021
99.9007111788
99.9172312021

Block: 5
======================================
99.9337512255
99.8676711321
99.9007111788
99.9007111788
99.8965811729
99.9172312021
99.9172312021
99.9172312021
99.9172312021
99.9172312021
99.9131011963
100.330231786
99.9544012547
99.9337512255
99.9502712488
99.9502712488
99.8800611496
99.9172312021
99.9502712488
99.9172312021
99.9502712488
99.8965811729
99.9172312021
99.9172312021
99.9337512255
99.9337512255
99.8965811729
99.9502712488
99.9502712488
99.9172312021
99.9337512255
99.9502712488
99.9337512255
99.9337512255
99.9131011963
99.9007111788
99.9007111788
99.8965811729
99.9131011963
99.8800611496
99.8965811729
99.9502712488
100.297191739
99.9337512255
99.8965811729
99.8965811729
99.9172312021
99.8800611496
99.9172312021
99.9007111788
99.9172312021
99.9337512255
99.9131011963
99.9172312021
99.8800611496
100.27654171
99.9337512255
99.9131011963
99.8800611496
100.27654171
99.9172312021
99.9502712488
99.9667912722
99.8800611496
99.9337512255
99.8635411263
100.280671716
99.9337512255
99.8635411263
99.8965811729
99.9172312021
99.970921278
100.260021687
99.8800611496
99.9296212196

Block: 6
======================================
99.9337512255
99.9007111788
99.9502712488
99.8800611496
99.9172312021
99.9337512255
99.9131011963
99.9172312021
99.9007111788
99.9502712488
99.8635411263
99.9502712488
99.8965811729
99.8800611496
99.9337512255
99.9502712488
99.9172312021
99.8635411263
99.8965811729
99.9131011963
99.9502712488
99.9337512255
99.9337512255
99.8965811729
99.9172312021
99.9172312021
99.9007111788
99.9172312021
99.9502712488
100.330231786
99.9337512255
99.9172312021
99.9007111788
99.9337512255
99.9007111788
99.9296212196
99.9131011963
99.9131011963
99.8841911554
99.9172312021
99.9007111788
99.9172312021
99.970921278
99.8800611496
99.9502712488
99.9172312021
99.8800611496
99.9007111788
99.9007111788
99.9131011963
99.9337512255
100.317841768
99.9007111788
99.9502712488
99.9337512255
99.9667912722
99.8635411263
99.8800611496
99.9502712488
99.9172312021
99.9502712488
99.8800611496
99.8965811729
99.9296212196
99.8800611496
99.8635411263
99.9337512255
99.9502712488
99.8965811729
99.8800611496
99.9007111788
99.9172312021
99.9502712488
99.9172312021
99.8635411263

Block: 7
======================================
99.9337512255
99.9502712488
99.8470211029
99.9502712488
99.9131011963
99.9502712488
99.8965811729
99.9172312021
100.330231786
99.9172312021
99.9131011963
99.9007111788
99.9172312021
99.9172312021
99.9172312021
99.9172312021
99.9337512255
99.9131011963
99.9172312021
99.9296212196
99.9337512255
99.9502712488
99.9007111788
99.8635411263
99.9172312021
99.9337512255
99.9172312021
99.9007111788
99.8800611496
100.350881815
99.9131011963
99.5868307352
99.9172312021
99.9502712488
99.9502712488
99.8965811729
99.9172312021
99.9337512255
99.9131011963
99.8800611496
99.9172312021
99.9007111788
99.8965811729
99.9172312021
99.9007111788
99.9337512255
99.9007111788
99.9007111788
99.4629305601
100.350881815
99.9296212196
99.9131011963
99.9337512255
99.8965811729
99.9172312021
99.9172312021
99.9337512255
99.9172312021
99.9296212196
99.9337512255
99.9172312021
99.9131011963
99.9131011963
99.9172312021
99.9502712488
99.9172312021
99.9172312021
99.8965811729
99.9337512255
99.9337512255
99.9007111788
99.9337512255
99.9172312021
99.8800611496
99.9337512255

Block: 8
======================================
99.9337512255
99.9007111788
99.9337512255
99.9172312021
99.9502712488
100.280671716
100.346751809
99.8965811729
99.9172312021
99.8635411263
99.9337512255
100.280671716
99.9131011963
99.9337512255
99.8965811729
99.8965811729
99.8965811729
99.9172312021
99.9337512255
99.8841911554
99.9131011963
99.9337512255
99.9007111788
99.9337512255
99.8841911554
99.9172312021
99.9172312021
99.9172312021
99.9337512255
99.8635411263
99.9172312021
99.9502712488
99.9337512255
99.9131011963
99.9172312021
99.9502712488
99.9337512255
99.9337512255
99.8965811729
99.9337512255
99.9337512255
99.9337512255
99.8470211029
99.9337512255
99.8965811729
99.9337512255
99.8470211029
99.9172312021
99.8635411263
99.6735608578
99.9172312021
99.9296212196
99.8800611496
99.8635411263
99.8635411263
99.8635411263
99.8676711321
99.8800611496
100.243501663
99.8800611496
99.8470211029
99.8635411263
100.260021687
99.8470211029
99.8635411263
99.8470211029
99.8635411263
99.9172312021
99.8800611496
99.9007111788
99.8470211029
99.9172312021
99.8470211029
99.8635411263
99.8635411263

Block: 9
======================================
99.8428910971
99.8470211029
99.8635411263
99.8635411263
99.8841911554
99.8635411263
99.8635411263
99.8676711321
99.8676711321
99.9296212196
99.8635411263
99.8635411263
99.9337512255
99.8800611496
99.8800611496
99.9007111788
99.9172312021
99.8635411263
99.8470211029
99.9007111788
99.8841911554
99.8470211029
99.8800611496
100.297191739
99.3803304434
100.243501663
99.8635411263
99.8800611496
99.8965811729
99.8635411263
99.8635411263
99.8800611496
99.9007111788
99.8800611496
99.9131011963
99.8800611496
99.9007111788
99.8841911554
99.8635411263
99.8841911554
99.8800611496
99.8635411263
99.8800611496
99.8470211029
99.8800611496
99.8635411263
99.8470211029
99.9172312021
99.9172312021
99.8965811729
99.8965811729
99.8841911554
99.8841911554
99.8965811729
99.8800611496
99.8800611496
99.8635411263
99.9131011963
99.8965811729
99.8800611496
99.9007111788
99.8800611496
99.9172312021
99.8841911554
99.8635411263
99.8635411263
99.8841911554
99.8676711321
99.8635411263
99.9337512255
99.8470211029
99.8800611496
100.264151692
99.8800611496
99.8965811729

Block: 10
======================================
99.9172312021
99.8965811729
99.8305010796
99.8635411263
99.8800611496
100.334361792
99.8965811729
99.8841911554
99.8676711321
99.9172312021
99.8635411263
99.8841911554
99.8635411263
99.8470211029
99.8841911554
100.193941593
99.9172312021
99.9131011963
99.8635411263
99.8965811729
99.8800611496
99.8800611496
99.9172312021
99.8841911554
99.4464105368
99.8965811729
99.8841911554
99.8800611496
99.9007111788
99.8470211029
99.8635411263
99.8841911554
99.9007111788
99.9007111788
99.8635411263
99.8470211029
99.9007111788
100.313711762
99.8470211029
99.8965811729
99.9007111788
99.8635411263
99.6900808811
99.8635411263
99.8800611496
99.8635411263
99.8841911554
99.8635411263
99.9007111788
99.8635411263
99.8965811729
100.313711762
99.8635411263
99.8635411263
99.9007111788
99.8635411263
99.9131011963
99.9007111788
99.8800611496
99.8305010796
99.8800611496
99.8470211029
99.8305010796
99.8470211029
99.8800611496
99.9172312021
99.8470211029
99.8635411263
99.8841911554
99.8800611496
99.8470211029
99.8635411263
99.8800611496
99.5868307352
99.8841911554
