wait time: 5.0 ms trigger time: 10.0 micros reps: 5,,,,
Distance, Deviation,,,
50.443,0.008,,,
50.443,0.008,,,
50.861,0.026,,,
50.839,0.031,,,
50.864,0.03,,,
50.839,0.02,,,
50.839,0.023,,,
50.85,0.031,,,
50.716,0.228,,,
50.847,0.041,,,
wait time: 5.0 ms trigger time: 10.0 micros reps: 10,,,,
Distance, Deviation,,,
50.881,0.02,,,
50.875,0.023,,,
50.874,0.024,,,
50.872,0.033,,,
50.579,0.2,,,
50.743,0.198,,,
50.702,0.208,,,
50.898,0.162,,,
50.86,0.02,,,
50.7,0.214,,,
wait time: 5.0 ms trigger time: 10.0 micros reps: 25,,,,
Distance, Deviation,,,
50.793,0.174,,,
50.809,0.137,,,
50.775,0.159,,,
50.677,0.201,,,
50.674,0.251,,,
50.711,0.209,,,
50.762,0.179,,,
50.828,0.091,,,
50.806,0.139,,,
50.813,0.11,,,
wait time: 5.0 ms trigger time: 10.0 micros reps: 50,,,,
Distance, Deviation,,,
50.735,0.195,,,
50.803,0.142,,,
50.813,0.129,,,
50.817,0.115,,,
50.752,0.188,,,
50.755,0.205,,,
50.716,0.197,,,
50.778,0.168,,,
50.64,0.207,,,
50.727,0.203,,,
wait time: 5.0 ms trigger time: 10.0 micros reps: 75,,,,
Distance, Deviation,,,
50.61,0.203,,,
50.837,0.155,,,
50.834,0.107,,,
50.858,0.104,,,
50.805,0.142,,,
50.845,0.083,,,
50.824,0.126,,,
50.821,0.129,,,
50.851,0.271,,,
50.724,0.191,,,
wait time: 5.0 ms trigger time: 10.0 micros reps: 100,,,,
Distance, Deviation,,,
50.803,0.144,,,
50.82,0.146,,,
50.766,0.159,,,
50.762,0.179,,,
50.81,0.142,,,
50.796,0.146,,,
50.725,0.187,,,
50.762,0.174,,,
50.747,0.174,,,
50.805,0.125,,,
wait time: 10.0 ms trigger time: 10.0 micros reps: 5,,,,
Distance, Deviation,,,
50.432,0.01,,,
50.411,0.02,,,
50.422,0.028,,,
50.66,0.233,,,
50.666,0.217,,,
50.405,0.022,,,
50.739,0.179,,,
50.419,0.026,,,
50.498,0.18,,,
50.425,0.023,,,
wait time: 10.0 ms trigger time: 10.0 micros reps: 10,,,,
Distance, Deviation,,,
50.455,0.129,,,
50.57,0.215,,,
50.446,0.12,,,
50.483,0.176,,,
50.495,0.162,,,
50.414,0.023,,,
50.426,0.021,,,
50.413,0.019,,,
50.407,0.028,,,
50.467,0.131,,,
wait time: 10.0 ms trigger time: 10.0 micros reps: 25,,,,
Distance, Deviation,,,
50.422,0.093,,,
50.461,0.137,,,
50.51,0.185,,,
50.482,0.151,,,
50.61,0.219,,,
50.48,0.156,,,
50.498,0.175,,,
50.643,0.215,,,
50.589,0.207,,,
50.428,0.081,,,
wait time: 10.0 ms trigger time: 10.0 micros reps: 50,,,,
Distance, Deviation,,,
50.601,0.217,,,
50.572,0.203,,,
50.621,0.205,,,
50.44,0.1,,,
50.613,0.208,,,
50.642,0.215,,,
50.416,0.017,,,
50.47,0.141,,,
50.41,0.023,,,
50.525,0.193,,,
wait time: 10.0 ms trigger time: 10.0 micros reps: 75,,,,
Distance, Deviation,,,
50.419,0.02,,,
50.41,0.029,,,
50.427,0.064,,,
50.418,0.023,,,
50.439,0.107,,,
50.425,0.069,,,
50.411,0.079,,,
50.515,0.174,,,
50.419,0.049,,,
50.707,0.193,,,
wait time: 10.0 ms trigger time: 10.0 micros reps: 100,,,,
Distance, Deviation,,,
50.593,0.21,,,
50.652,0.214,,,
50.827,0.107,,,
50.816,0.134,,,
50.61,0.206,,,
50.747,0.177,,,
50.8,0.122,,,
50.805,0.139,,,
50.812,0.141,,,
50.621,0.205,,,
wait time: 15.0 ms trigger time: 10.0 micros reps: 5,,,,
Distance, Deviation,,,
50.702,0.226,,,
50.546,0.183,,,
50.613,0.221,,,
50.867,0.024,,,
50.793,0.189,,,
50.795,0.178,,,
50.636,0.214,,,
50.557,0.196,,,
50.88,0.029,,,
50.711,0.227,,,
wait time: 15.0 ms trigger time: 10.0 micros reps: 10,,,,
Distance, Deviation,,,
50.624,0.202,,,
50.649,0.22,,,
50.538,0.176,,,
50.542,0.184,,,
50.539,0.18,,,
50.503,0.131,,,
50.633,0.217,,,
50.539,0.17,,,
50.581,0.202,,,
50.448,0.023,,,
wait time: 15.0 ms trigger time: 10.0 micros reps: 25,,,,
Distance, Deviation,,,
50.436,0.101,,,
50.528,0.161,,,
50.526,0.153,,,
50.579,0.183,,,
50.67,0.211,,,
50.763,0.223,,,
50.504,0.14,,,
50.523,0.326,,,
50.664,0.213,,,
50.765,0.179,,,
wait time: 15.0 ms trigger time: 10.0 micros reps: 50,,,,
Distance, Deviation,,,
50.608,0.211,,,
50.686,0.207,,,
50.85,0.089,,,
50.678,0.213,,,
50.794,0.136,,,
50.852,0.088,,,
50.838,0.132,,,
50.903,0.551,,,
50.714,0.256,,,
50.841,0.096,,,
wait time: 15.0 ms trigger time: 10.0 micros reps: 75,,,,
Distance, Deviation,,,
50.816,0.13,,,
50.821,0.168,,,
50.812,0.129,,,
50.844,0.093,,,
50.702,0.208,,,
50.761,0.208,,,
50.752,0.202,,,
50.728,0.209,,,
50.81,0.137,,,
50.788,0.154,,,
wait time: 15.0 ms trigger time: 10.0 micros reps: 100,,,,
Distance, Deviation,,,
50.792,0.138,,,
50.841,0.091,,,
50.615,0.213,,,
50.47,0.172,,,
50.457,0.154,,,
50.44,0.111,,,
50.526,0.187,,,
50.789,0.144,,,
50.782,0.162,,,
50.731,0.193,,,
wait time: 20.0 ms trigger time: 10.0 micros reps: 5,,,,
Distance, Deviation,,,
50.425,0.016,,,
50.509,0.183,,,
50.576,0.224,,,
50.856,0.043,,,
50.384,0.008,,,
50.503,0.189,,,
50.564,0.226,,,
50.694,0.266,,,
50.404,0.023,,,
50.491,0.186,,,
wait time: 20.0 ms trigger time: 10.0 micros reps: 10,,,,
Distance, Deviation,,,
50.593,0.21,,,
50.577,0.217,,,
50.412,0.022,,,
50.762,0.199,,,
50.416,0.025,,,
50.535,0.193,,,
50.443,0.122,,,
50.514,0.212,,,
50.521,0.184,,,
50.575,0.223,,,
wait time: 20.0 ms trigger time: 10.0 micros reps: 25,,,,
Distance, Deviation,,,
50.499,0.178,,,
50.557,0.201,,,
50.488,0.164,,,
50.44,0.118,,,
50.691,0.201,,,
50.716,0.185,,,
50.654,0.211,,,
50.434,0.119,,,
50.487,0.165,,,
50.587,0.208,,,
wait time: 20.0 ms trigger time: 10.0 micros reps: 50,,,,
Distance, Deviation,,,
50.771,0.171,,,
50.726,0.184,,,
50.802,0.14,,,
50.623,0.211,,,
50.839,0.1,,,
50.633,0.209,,,
50.838,0.117,,,
50.859,0.078,,,
50.843,0.062,,,
50.789,0.136,,,
wait time: 20.0 ms trigger time: 10.0 micros reps: 75,,,,
Distance, Deviation,,,
50.825,0.113,,,
50.847,0.073,,,
50.797,0.158,,,
50.723,0.2,,,
50.82,0.134,,,
50.834,0.105,,,
50.844,0.092,,,
50.819,0.117,,,
50.731,0.182,,,
50.709,0.199,,,
wait time: 20.0 ms trigger time: 10.0 micros reps: 100,,,,
Distance, Deviation,,,
50.678,0.201,,,
50.826,0.128,,,
50.809,0.144,,,
50.779,0.162,,,
50.652,0.237,,,
50.647,0.216,,,
50.794,0.149,,,
50.719,0.195,,,
50.698,0.204,,,
50.795,0.162,,,
wait time: 5.0 ms trigger time: 15.0 micros reps: 5,,,,
Distance, Deviation,,,
50.791,0.187,,,
50.839,0.031,,,
50.585,0.231,,,
50.583,0.215,,,
50.643,0.249,,,
50.504,0.225,,,
50.491,0.184,,,
50.419,0.007,,,
50.646,0.229,,,
50.867,0.023,,,
wait time: 5.0 ms trigger time: 15.0 micros reps: 10,,,,
Distance, Deviation,,,
50.486,0.176,,,
50.531,0.196,,,
50.498,0.185,,,
50.865,0.018,,,
50.521,0.203,,,
50.649,0.238,,,
50.409,0.025,,,
50.414,0.025,,,
50.532,0.196,,,
50.42,0.024,,,
wait time: 5.0 ms trigger time: 15.0 micros reps: 25,,,,
Distance, Deviation,,,
50.672,0.232,,,
50.722,0.194,,,
50.668,0.216,,,
50.743,0.198,,,
50.663,0.212,,,
50.568,0.186,,,
50.588,0.196,,,
50.815,0.135,,,
50.669,0.201,,,
50.686,0.204,,,
wait time: 5.0 ms trigger time: 15.0 micros reps: 50,,,,
Distance, Deviation,,,
50.844,0.08,,,
50.791,0.148,,,
50.777,0.185,,,
50.704,0.201,,,
50.801,0.151,,,
50.751,0.196,,,
50.747,0.19,,,
50.736,0.208,,,
50.73,0.184,,,
50.543,0.201,,,
wait time: 5.0 ms trigger time: 15.0 micros reps: 75,,,,
Distance, Deviation,,,
50.797,0.11,,,
50.683,0.207,,,
50.683,0.2,,,
50.55,0.206,,,
50.763,0.163,,,
50.748,0.17,,,
50.77,0.165,,,
50.79,0.17,,,
50.793,0.165,,,
50.784,0.162,,,
wait time: 5.0 ms trigger time: 15.0 micros reps: 100,,,,
Distance, Deviation,,,
50.794,0.152,,,
50.63,0.206,,,
50.55,0.183,,,
50.526,0.162,,,
50.495,0.136,,,
50.498,0.142,,,
50.445,0.013,,,
50.527,0.167,,,
50.489,0.121,,,
50.492,0.124,,,
wait time: 10.0 ms trigger time: 15.0 micros reps: 5,,,,
Distance, Deviation,,,
50.449,0.019,,,
50.872,0.023,,,
50.778,0.17,,,
50.45,0.03,,,
50.622,0.214,,,
50.464,0.02,,,
50.55,0.19,,,
50.453,0.015,,,
50.874,0.016,,,
50.446,0.016,,,
wait time: 10.0 ms trigger time: 15.0 micros reps: 10,,,,
Distance, Deviation,,,
50.711,0.212,,,
50.864,0.022,,,
50.865,0.037,,,
50.837,0.128,,,
50.757,0.875,,,
50.874,0.025,,,
50.843,0.023,,,
50.783,0.174,,,
50.867,0.029,,,
50.615,0.216,,,
wait time: 10.0 ms trigger time: 15.0 micros reps: 25,,,,
Distance, Deviation,,,
50.622,0.214,,,
50.544,0.186,,,
50.805,0.156,,,
50.604,0.207,,,
50.831,0.115,,,
50.697,0.211,,,
50.513,0.166,,,
50.449,0.019,,,
50.628,0.213,,,
50.759,0.18,,,
wait time: 10.0 ms trigger time: 15.0 micros reps: 50,,,,
Distance, Deviation,,,
50.873,0.036,,,
50.789,0.163,,,
50.628,0.206,,,
50.629,0.206,,,
50.765,0.175,,,
50.837,0.202,,,
50.865,0.022,,,
50.838,0.098,,,
50.788,0.158,,,
50.829,0.108,,,
wait time: 10.0 ms trigger time: 15.0 micros reps: 75,,,,
Distance, Deviation,,,
50.779,0.184,,,
50.832,0.122,,,
50.79,0.163,,,
50.79,0.158,,,
50.817,0.128,,,
50.571,0.215,,,
50.849,0.052,,,
50.823,0.119,,,
50.853,0.028,,,
50.803,0.183,,,
wait time: 10.0 ms trigger time: 15.0 micros reps: 100,,,,
Distance, Deviation,,,
50.853,0.12,,,
50.83,0.091,,,
50.631,0.21,,,
50.639,0.21,,,
50.764,0.16,,,
50.783,0.137,,,
50.81,0.104,,,
50.727,0.184,,,
50.743,0.183,,,
50.809,0.138,,,
wait time: 15.0 ms trigger time: 15.0 micros reps: 5,,,,
Distance, Deviation,,,
50.842,0.019,,,
50.739,0.18,,,
50.742,0.192,,,
50.763,0.163,,,
50.57,0.228,,,
50.809,0.043,,,
50.877,0.046,,,
50.457,0.012,,,
50.87,0.022,,,
50.849,0.023,,,
wait time: 15.0 ms trigger time: 15.0 micros reps: 10,,,,
Distance, Deviation,,,
50.864,0.018,,,
50.871,0.014,,,
50.823,0.125,,,
50.838,0.037,,,
50.862,0.021,,,
50.774,0.174,,,
50.849,0.031,,,
50.833,0.038,,,
50.827,0.152,,,
50.65,0.224,,,
wait time: 15.0 ms trigger time: 15.0 micros reps: 25,,,,
Distance, Deviation,,,
50.797,0.119,,,
50.472,0.154,,,
50.802,0.154,,,
50.773,0.167,,,
50.858,0.02,,,
50.799,0.15,,,
50.719,0.203,,,
50.858,0.032,,,
50.858,0.023,,,
50.8,0.158,,,
wait time: 15.0 ms trigger time: 15.0 micros reps: 50,,,,
Distance, Deviation,,,
50.818,0.133,,,
50.757,0.182,,,
50.803,0.167,,,
50.794,0.145,,,
50.65,0.208,,,
50.481,0.212,,,
50.738,0.167,,,
50.503,0.184,,,
50.591,0.223,,,
50.438,0.123,,,
wait time: 15.0 ms trigger time: 15.0 micros reps: 75,,,,
Distance, Deviation,,,
50.407,0.048,,,
50.426,0.104,,,
50.401,0.019,,,
50.53,0.192,,,
50.722,0.19,,,
50.427,0.099,,,
50.394,0.125,,,
50.416,0.129,,,
50.451,0.137,,,
50.4,0.02,,,
wait time: 15.0 ms trigger time: 15.0 micros reps: 100,,,,
Distance, Deviation,,,
50.419,0.087,,,
50.407,0.071,,,
50.402,0.018,,,
50.401,0.092,,,
50.401,0.017,,,
50.411,0.097,,,
50.404,0.019,,,
50.404,0.039,,,
50.406,0.049,,,
50.41,0.045,,,
wait time: 20.0 ms trigger time: 15.0 micros reps: 5,,,,
Distance, Deviation,,,
50.392,0.023,,,
50.397,0.02,,,
50.43,0.014,,,
50.398,0.032,,,
50.35,0.145,,,
50.395,0.019,,,
50.398,0.016,,,
50.406,0.032,,,
50.408,0.029,,,
50.402,0.023,,,
wait time: 20.0 ms trigger time: 15.0 micros reps: 10,,,,
Distance, Deviation,,,
50.398,0.022,,,
50.565,0.22,,,
50.751,0.179,,,
50.84,0.033,,,
50.584,0.24,,,
50.665,0.215,,,
50.817,0.152,,,
50.535,0.196,,,
50.626,0.229,,,
50.815,0.135,,,
wait time: 20.0 ms trigger time: 15.0 micros reps: 25,,,,
Distance, Deviation,,,
50.788,0.141,,,
50.522,0.194,,,
50.827,0.093,,,
50.785,0.167,,,
50.758,0.162,,,
50.61,0.213,,,
50.789,0.152,,,
50.729,0.169,,,
50.409,0.019,,,
50.563,0.195,,,
wait time: 20.0 ms trigger time: 15.0 micros reps: 50,,,,
Distance, Deviation,,,
50.485,0.17,,,
50.709,0.21,,,
50.64,0.205,,,
50.74,0.238,,,
50.852,0.057,,,
50.724,0.199,,,
50.849,0.085,,,
50.613,0.216,,,
50.832,0.149,,,
50.84,0.099,,,
wait time: 20.0 ms trigger time: 15.0 micros reps: 75,,,,
Distance, Deviation,,,
50.577,0.228,,,
50.468,0.113,,,
50.188,3.388,,,
50.602,0.205,,,
50.507,0.135,,,
50.744,0.198,,,
50.505,0.194,,,
50.46,0.052,,,
50.494,0.144,,,
50.456,0.042,,,
wait time: 20.0 ms trigger time: 15.0 micros reps: 100,,,,
Distance, Deviation,,,
50.459,0.098,,,
50.81,0.157,,,
50.607,0.213,,,
50.527,0.206,,,
50.629,0.219,,,
50.475,0.175,,,
50.467,0.154,,,
50.645,0.207,,,
50.557,0.227,,,
50.557,0.216,,,
wait time: 5.0 ms trigger time: 20.0 micros reps: 5,,,,
Distance, Deviation,,,
50.401,0.014,,,
50.565,0.219,,,
50.839,0.027,,,
50.418,0.028,,,
50.407,0.037,,,
50.622,0.316,,,
50.417,0.008,,,
50.754,0.221,,,
50.501,0.209,,,
50.405,0.019,,,
wait time: 5.0 ms trigger time: 20.0 micros reps: 10,,,,
Distance, Deviation,,,
50.363,0.125,,,
50.406,0.029,,,
50.683,0.281,,,
50.647,0.208,,,
50.79,0.137,,,
50.403,0.02,,,
50.547,0.2,,,
50.49,0.17,,,
50.864,0.012,,,
50.406,0.022,,,
wait time: 5.0 ms trigger time: 20.0 micros reps: 25,,,,
Distance, Deviation,,,
50.64,0.223,,,
50.721,0.196,,,
50.652,0.225,,,
51,1.246,,,
50.724,0.191,,,
50.806,0.153,,,
50.654,0.227,,,
50.642,0.232,,,
50.477,0.156,,,
50.679,0.215,,,
wait time: 5.0 ms trigger time: 20.0 micros reps: 50,,,,
Distance, Deviation,,,
50.647,0.209,,,
50.8,0.139,,,
50.837,0.099,,,
50.658,0.208,,,
50.748,0.268,,,
50.767,0.281,,,
50.545,0.174,,,
50.592,0.192,,,
50.568,0.192,,,
50.538,0.178,,,
wait time: 5.0 ms trigger time: 20.0 micros reps: 75,,,,
Distance, Deviation,,,
50.603,0.202,,,
50.559,0.185,,,
50.522,0.163,,,
50.471,0.107,,,
50.471,0.096,,,
50.452,0.018,,,
50.448,0.023,,,
50.499,0.139,,,
50.491,0.131,,,
50.526,0.168,,,
wait time: 5.0 ms trigger time: 20.0 micros reps: 100,,,,
Distance, Deviation,,,
50.508,0.146,,,
50.639,0.207,,,
50.75,0.189,,,
50.582,0.193,,,
50.522,0.167,,,
50.481,0.111,,,
50.575,0.197,,,
50.533,0.184,,,
50.784,0.162,,,
50.562,0.188,,,
wait time: 10.0 ms trigger time: 20.0 micros reps: 5,,,,
Distance, Deviation,,,
50.569,0.214,,,
50.702,0.469,,,
50.846,0.04,,,
50.858,0.023,,,
50.75,0.183,,,
50.663,0.238,,,
50.836,0.029,,,
50.822,0.02,,,
50.404,0.013,,,
50.432,0.015,,,
wait time: 10.0 ms trigger time: 20.0 micros reps: 10,,,,
Distance, Deviation,,,
50.692,0.2,,,
50.839,0.037,,,
50.8,0.135,,,
50.653,0.231,,,
50.833,0.127,,,
50.535,0.177,,,
50.86,0.024,,,
50.765,0.197,,,
50.837,0.039,,,
50.625,0.212,,,
wait time: 10.0 ms trigger time: 20.0 micros reps: 25,,,,
Distance, Deviation,,,
50.857,0.025,,,
50.565,0.22,,,
50.852,0.033,,,
50.712,0.187,,,
50.444,0.112,,,
50.817,0.112,,,
50.83,0.116,,,
50.86,0.039,,,
50.831,0.113,,,
50.636,0.214,,,
wait time: 10.0 ms trigger time: 20.0 micros reps: 50,,,,
Distance, Deviation,,,
50.592,0.204,,,
50.452,0.017,,,
50.51,0.142,,,
50.477,0.111,,,
50.834,0.118,,,
50.761,0.212,,,
50.51,0.149,,,
50.514,0.151,,,
50.538,0.169,,,
50.709,0.261,,,
wait time: 10.0 ms trigger time: 20.0 micros reps: 75,,,,
Distance, Deviation,,,
50.773,0.177,,,
50.588,0.193,,,
50.761,0.18,,,
50.868,0.137,,,
50.84,0.083,,,
50.689,0.226,,,
50.797,0.162,,,
50.84,0.095,,,
50.851,0.058,,,
50.842,0.081,,,
wait time: 10.0 ms trigger time: 20.0 micros reps: 100,,,,
Distance, Deviation,,,
50.796,0.112,,,
50.529,0.211,,,
50.694,0.196,,,
50.84,0.051,,,
50.821,0.125,,,
50.793,0.168,,,
50.615,0.204,,,
50.617,0.223,,,
50.818,0.166,,,
50.62,0.206,,,
wait time: 15.0 ms trigger time: 20.0 micros reps: 5,,,,
Distance, Deviation,,,
50.877,0.022,,,
50.853,0.053,,,
50.861,0.068,,,
50.846,0.049,,,
50.877,0.024,,,
50.881,0.008,,,
50.858,0.038,,,
50.821,0.031,,,
50.823,0.023,,,
50.588,0.235,,,
wait time: 15.0 ms trigger time: 20.0 micros reps: 10,,,,
Distance, Deviation,,,
50.835,0.017,,,
50.861,0.022,,,
50.85,0.029,,,
50.702,0.208,,,
50.653,0.223,,,
50.858,0.029,,,
50.843,0.044,,,
50.618,0.228,,,
50.863,0.038,,,
50.819,0.122,,,
wait time: 15.0 ms trigger time: 20.0 micros reps: 25,,,,
Distance, Deviation,,,
50.884,0.288,,,
50.779,0.174,,,
50.843,0.078,,,
50.842,0.152,,,
50.791,0.162,,,
50.87,0.019,,,
50.816,0.145,,,
50.739,0.231,,,
50.669,0.209,,,
50.486,0.182,,,
wait time: 15.0 ms trigger time: 20.0 micros reps: 50,,,,
Distance, Deviation,,,
50.612,0.204,,,
50.596,0.196,,,
50.82,0.088,,,
50.58,0.21,,,
50.824,0.11,,,
50.807,0.122,,,
50.828,0.113,,,
50.806,0.1,,,
50.836,0.07,,,
50.815,0.135,,,
wait time: 15.0 ms trigger time: 20.0 micros reps: 75,,,,
Distance, Deviation,,,
50.851,0.084,,,
50.824,0.131,,,
50.846,0.152,,,
50.844,0.031,,,
50.751,0.215,,,
50.647,0.206,,,
50.789,0.147,,,
50.749,0.234,,,
50.755,0.166,,,
50.65,0.205,,,
wait time: 15.0 ms trigger time: 20.0 micros reps: 100,,,,
Distance, Deviation,,,
50.817,0.104,,,
50.84,0.102,,,
50.775,0.174,,,
50.717,0.212,,,
50.755,0.162,,,
50.757,0.164,,,
50.504,0.199,,,
50.438,0.109,,,
50.557,0.201,,,
50.589,0.216,,,
wait time: 20.0 ms trigger time: 20.0 micros reps: 5,,,,
Distance, Deviation,,,
50.409,0.023,,,
50.501,0.19,,,
50.408,0.015,,,
50.588,0.235,,,
50.489,0.185,,,
50.423,0.027,,,
50.412,0.03,,,
50.601,0.222,,,
50.407,0.015,,,
50.429,0.016,,,
wait time: 20.0 ms trigger time: 20.0 micros reps: 10,,,,
Distance, Deviation,,,
50.72,0.209,,,
50.618,0.219,,,
50.537,0.204,,,
50.662,0.217,,,
50.584,0.203,,,
50.427,0.024,,,
50.397,0.062,,,
50.418,0.021,,,
50.618,0.223,,,
50.415,0.028,,,
wait time: 20.0 ms trigger time: 20.0 micros reps: 25,,,,
Distance, Deviation,,,
50.533,0.181,,,
50.769,0.15,,,
50.529,0.193,,,
50.672,0.208,,,
50.65,0.208,,,
50.634,0.22,,,
50.812,0.125,,,
50.721,0.191,,,
50.815,0.27,,,
50.384,0.194,,,
wait time: 20.0 ms trigger time: 20.0 micros reps: 50,,,,
Distance, Deviation,,,
50.854,0.085,,,
50.659,0.213,,,
50.695,0.205,,,
50.68,0.225,,,
50.54,0.186,,,
50.539,0.194,,,
50.594,0.207,,,
50.468,0.139,,,
50.459,0.151,,,
50.556,0.193,,,
wait time: 20.0 ms trigger time: 20.0 micros reps: 75,,,,
Distance, Deviation,,,
50.427,0.1,,,
50.448,0.099,,,
50.467,0.14,,,
50.421,0.018,,,
50.414,0.086,,,
50.441,0.144,,,
50.428,0.05,,,
50.423,0.023,,,
50.428,0.062,,,
50.422,0.02,,,
wait time: 20.0 ms trigger time: 20.0 micros reps: 100,,,,
Distance, Deviation,,,
50.427,0.038,,,
50.445,0.119,,,
50.427,0.063,,,
50.42,0.05,,,
50.413,0.058,,,
50.421,0.059,,,
50.427,0.067,,,
50.417,0.031,,,
50.485,0.151,,,
50.444,0.095,,,
,,,,
,,,,
