
Block: 1
======================================
200.080049825
200.963720083
201.000370002
200.984081149
200.043399906
200.027111053
200.5361377
200.963720083
200.947431231
200.980008936
200.075977612
200.963720083
200.503559995
200.075977612
200.984081149
200.075977612
201.000370002
200.963720083
200.963720083
200.984081149
200.980008936
200.519848847
200.980008936
200.947431231
201.000370002

Average distance is : 200.702 cm
Average deviation is : 0.395 cm
Block: 2
======================================
200.519848847
200.967792296
200.963720083
200.996297789
200.519848847
200.503559995
200.980008936
200.996297789
200.984081149
200.967792296
200.996297789
200.996297789
200.963720083
200.5361377
200.540209913
200.963720083
200.984081149
200.984081149
200.519848847
200.503559995
200.092266464
200.980008936
200.075977612
200.996297789
200.519848847

Average distance is : 200.762 cm
Average deviation is : 0.297 cm
Block: 3
======================================
200.568715405
200.092266464
200.108555317
201.016658854
201.000370002
200.096338677
200.080049825
200.096338677
200.092266464
201.000370002
200.11262753
200.092266464
200.963720083
200.092266464
200.092266464
200.092266464
200.11262753
200.092266464
200.092266464
200.059688759
200.096338677
200.980008936
200.092266464
200.075977612
200.075977612

Average distance is : 200.291 cm
Average deviation is : 0.370 cm
Block: 4
======================================
200.075977612
201.000370002
199.701334
200.11262753
200.128916383
200.092266464
200.075977612
200.108555317
200.108555317
200.092266464
200.589076471
200.092266464
200.096338677
200.572787619
200.092266464
200.108555317
200.108555317
199.648395228
200.128916383
201.016658854
200.984081149
200.128916383
200.092266464
200.12484417
200.096338677

Average distance is : 200.215 cm
Average deviation is : 0.350 cm
Block: 5
======================================
200.572787619
200.5361377
200.108555317
200.963720083
200.11262753
200.075977612
200.096338677
200.092266464
200.552426553
200.075977612
201.032947707
200.108555317
200.556498766
200.075977612
200.075977612
200.075977612
200.075977612
200.092266464
200.092266464
200.5361377
200.519848847
200.075977612
200.092266464
200.128916383
200.128916383

Average distance is : 200.274 cm
Average deviation is : 0.293 cm
Block: 6
======================================
200.980008936
200.092266464
200.059688759
200.108555317
200.075977612
200.075977612
200.096338677
200.075977612
200.059688759
200.075977612
200.108555317
200.059688759
200.11262753
200.075977612
200.552426553
200.075977612
200.523921061
200.075977612
200.092266464
200.092266464
200.096338677
200.075977612
200.572787619
200.552426553
200.5361377

Average distance is : 200.212 cm
Average deviation is : 0.248 cm
Block: 7
======================================
200.059688759
200.503559995
200.11262753
200.059688759
200.11262753
200.092266464
200.552426553
200.092266464
200.075977612
200.092266464
200.556498766
200.519848847
200.552426553
200.092266464
200.096338677
200.096338677
200.092266464
200.092266464
200.092266464
200.108555317
200.12484417
200.108555317
200.092266464
200.11262753
200.572787619

Average distance is : 200.203 cm
Average deviation is : 0.196 cm
Block: 8
======================================
201.016658854
200.523921061
200.128916383
201.032947707
200.5361377
200.092266464
200.075977612
200.552426553
200.075977612
200.075977612
200.092266464
200.075977612
200.128916383
200.556498766
200.963720083
200.572787619
200.108555317
200.096338677
200.092266464
200.075977612
200.568715405
200.092266464
200.075977612
200.075977612
200.11262753

Average distance is : 200.312 cm
Average deviation is : 0.327 cm
Block: 9
======================================
200.075977612
200.519848847
200.075977612
200.059688759
200.128916383
200.947431231
200.519848847
200.980008936
200.963720083
200.11262753
200.092266464
200.556498766
200.092266464
200.984081149
200.984081149
201.000370002
200.996297789
199.615817523
200.092266464
200.11262753
200.519848847
199.632106376
200.096338677
200.092266464
200.556498766

Average distance is : 200.392 cm
Average deviation is : 0.442 cm
Block: 10
======================================
200.984081149
200.503559995
200.5361377
200.963720083
199.664684081
200.096338677
200.096338677
199.615817523
200.075977612
200.128916383
200.540209913
200.5361377
200.092266464
200.096338677
200.092266464
200.092266464
200.075977612
200.096338677
200.572787619
200.996297789
200.980008936
200.128916383
200.075977612
200.963720083
200.980008936

Average distance is : 200.359 cm
Average deviation is : 0.425 cm