
Block: 1
======================================
398.974289298
398.958116031
399.435227418
398.974289298
398.958116031
399.026852417
398.974289298
399.01067915
398.958116031
398.941942763
398.990462565
398.974289298
398.974289298
398.958116031
398.974289298
398.990462565
398.974289298
398.941942763
398.990462565
398.468874693
398.974289298
398.958116031
398.941942763
398.941942763
398.941942763
398.958116031
398.909596229
398.958116031
398.501221228
398.958116031
398.941942763
398.925769496
398.958116031
398.921726179
398.958116031
398.958116031
398.48504796
398.974289298
398.533567762
398.501221228
398.990462565
398.974289298
398.941942763
398.941942763
398.517394495
398.941942763
398.517394495
398.978332615
398.994505882
398.978332615
398.990462565
398.990462565
398.533567762
398.54974103
398.582087564
398.569957614
398.638694
398.618477416
399.043025684
398.565914297
399.026852417
399.026852417
399.0228091
398.54974103
398.990462565
398.54974103
399.026852417
399.01067915
398.533567762
399.01067915
399.026852417
399.01067915
399.043025684
398.990462565
398.974289298

Block: 2
======================================
399.419054151
398.990462565
399.043025684
399.419054151
399.01067915
399.01067915
399.043025684
399.026852417
398.990462565
399.01067915
399.0228091
399.026852417
399.006635833
399.026852417
398.569957614
399.01067915
399.006635833
399.059198952
399.006635833
399.043025684
399.006635833
399.01067915
399.01067915
399.026852417
399.0228091
398.974289298
398.994505882
399.026852417
399.043025684
399.026852417
398.994505882
399.01067915
398.994505882
398.517394495
398.54974103
398.974289298
398.941942763
398.958116031
398.937899446
398.958116031
398.958116031
399.382664299
398.48504796
398.925769496
398.921726179
399.350317764
398.772123456
399.382664299
398.941942763
398.464831376
398.941942763
399.362447715
398.958116031
398.921726179
398.958116031
398.941942763
398.481004643
398.921726179
398.941942763
398.941942763
398.452701426
398.921726179
398.501221228
398.925769496
398.464831376
398.974289298
398.958116031
398.941942763
398.905552912
398.941942763
398.958116031
398.937899446
398.941942763
398.925769496
398.941942763

Block: 3
======================================
399.431184101
398.925769496
399.350317764
399.398837566
399.398837566
399.362447715
399.366491032
398.941942763
398.958116031
398.941942763
399.346274447
399.366491032
398.909596229
399.366491032
398.941942763
398.941942763
399.350317764
398.941942763
398.974289298
398.958116031
398.925769496
399.362447715
398.941942763
399.006635833
398.974289298
398.958116031
398.958116031
398.994505882
399.026852417
398.974289298
399.0228091
399.431184101
399.026852417
399.01067915
398.990462565
398.958116031
398.958116031
398.974289298
399.415010834
398.958116031
399.398837566
399.415010834
399.398837566
398.978332615
399.382664299
399.415010834
398.990462565
399.435227418
399.01067915
399.0228091
398.994505882
399.026852417
399.415010834
398.974289298
399.026852417
398.990462565
399.026852417
398.994505882
399.01067915
399.026852417
399.0228091
399.043025684
399.043025684
399.043025684
399.026852417
399.006635833
399.043025684
398.582087564
399.026852417
399.075372219
399.026852417
399.026852417
398.586130881
399.043025684
399.043025684

Block: 4
======================================
399.01067915
399.01067915
399.499920487
399.499920487
398.990462565
399.467573953
399.435227418
399.467573953
399.516093755
399.48374722
399.079415536
399.006635833
399.043025684
399.075372219
399.026852417
398.618477416
399.006635833
399.026852417
399.006635833
399.006635833
399.063242269
399.043025684
398.618477416
399.043025684
399.467573953
399.0228091
399.006635833
399.026852417
399.059198952
399.48374722
398.990462565
399.043025684
399.075372219
399.026852417
399.043025684
399.0228091
399.059198952
399.075372219
399.01067915
399.079415536
399.079415536
398.569957614
399.006635833
398.586130881
398.618477416
399.0228091
398.602304149
399.006635833
399.026852417
399.026852417
399.043025684
398.569957614
399.026852417
398.582087564
399.075372219
399.043025684
399.026852417
398.586130881
399.059198952
399.026852417
399.01067915
398.586130881
398.618477416
398.586130881
399.026852417
398.602304149
398.602304149
398.565914297
398.602304149
398.602304149
399.026852417
399.026852417
398.565914297
399.043025684
399.026852417

Block: 5
======================================
399.447357368
399.026852417
399.447357368
399.026852417
399.01067915
399.059198952
399.026852417
399.026852417
399.447357368
399.026852417
399.451400685
399.48374722
399.463530636
399.48374722
399.043025684
399.091545486
399.059198952
399.48374722
399.48374722
399.503963804
399.48374722
399.059198952
399.043025684
399.499920487
399.043025684
399.503963804
399.063242269
398.618477416
398.618477416
399.043025684
399.059198952
399.043025684
398.602304149
399.075372219
399.091545486
399.026852417
399.026852417
399.0228091
399.075372219
399.451400685
399.503963804
399.487790537
399.467573953
399.447357368
399.01067915
399.451400685
399.431184101
399.499920487
399.467573953
399.48374722
399.467573953
399.0228091
398.994505882
399.451400685
399.01067915
399.431184101
399.463530636
398.990462565
399.398837566
398.974289298
399.382664299
399.435227418
398.958116031
399.431184101
399.447357368
399.431184101
398.974289298
398.974289298
399.01067915
398.958116031
398.937899446
398.958116031
398.958116031
398.941942763
398.978332615

Block: 6
======================================
398.974289298
398.569957614
398.978332615
399.006635833
398.553784347
398.54974103
398.565914297
398.565914297
398.565914297
398.076672959
398.553784347
398.537611079
398.54974103
398.533567762
398.54974103
398.113062811
398.092846227
398.565914297
398.109019494
398.109019494
398.517394495
398.54974103
398.533567762
398.109019494
398.533567762
398.54974103
398.109019494
398.553784347
398.618477416
398.582087564
398.076672959
398.582087564
398.582087564
398.586130881
398.565914297
398.565914297
398.565914297
398.618477416
399.0228091
398.974289298
398.54974103
398.565914297
399.026852417
398.569957614
398.54974103
398.553784347
399.01067915
398.990462565
398.586130881
398.569957614
399.01067915
398.582087564
398.586130881
398.54974103
398.958116031
398.994505882
398.994505882
399.01067915
398.517394495
398.990462565
399.043025684
399.026852417
399.01067915
398.978332615
399.026852417
399.043025684
398.994505882
399.075372219
399.043025684
399.059198952
399.043025684
398.990462565
399.043025684
399.48374722
399.059198952

Block: 7
======================================
398.941942763
398.978332615
398.48504796
399.01067915
398.958116031
398.517394495
398.941942763
398.501221228
398.958116031
398.569957614
398.937899446
398.533567762
398.501221228
398.501221228
398.958116031
398.958116031
398.974289298
398.941942763
398.517394495
398.497177911
398.974289298
398.994505882
398.994505882
398.533567762
398.501221228
398.958116031
398.925769496
398.974289298
398.925769496
398.974289298
398.990462565
398.958116031
398.978332615
398.958116031
398.978332615
398.974289298
398.517394495
398.974289298
398.925769496
398.941942763
398.48504796
398.941942763
398.909596229
398.921726179
398.497177911
398.517394495
398.909596229
398.958116031
398.501221228
398.464831376
398.905552912
398.481004643
398.893422961
398.517394495
398.481004643
398.54974103
398.517394495
398.513351178
398.517394495
398.060499692
398.501221228
398.040283108
398.481004643
398.481004643
398.076672959
398.076672959
398.060499692
398.076672959
398.076672959
398.076672959
398.092846227
398.044326425
398.076672959
398.076672959
398.092846227

Block: 8
======================================
398.481004643
398.044326425
398.48504796
398.007936573
398.517394495
398.481004643
398.044326425
398.028153157
398.48504796
398.464831376
398.48504796
398.464831376
398.044326425
398.517394495
398.501221228
398.501221228
398.01197989
398.481004643
398.040283108
398.48504796
398.501221228
398.533567762
398.497177911
398.533567762
398.481004643
398.060499692
398.48504796
398.517394495
398.501221228
398.517394495
398.076672959
398.501221228
398.141366029
398.076672959
398.125192761
398.092846227
398.129236078
398.129236078
398.125192761
398.145409346
398.141366029
398.161582613
398.125192761
398.109019494
398.17775588
398.157539296
398.145409346
398.145409346
398.145409346
397.684471226
398.125192761
398.141366029
398.129236078
398.145409346
398.161582613
398.161582613
398.141366029
397.700644493
398.193929148
398.17775588
397.700644493
398.109019494
398.125192761
398.17775588
398.17775588
397.688514543
398.17775588
398.125192761
398.145409346
398.161582613
398.129236078
398.17775588
398.17775588
398.125192761
398.161582613

Block: 9
======================================
398.161582613
398.193929148
398.17775588
398.17775588
398.17775588
398.181799197
398.145409346
398.214145732
398.145409346
398.145409346
398.161582613
398.157539296
398.145409346
398.145409346
398.129236078
398.565914297
398.565914297
398.125192761
398.145409346
398.161582613
398.565914297
398.517394495
398.569957614
398.533567762
398.092846227
398.517394495
398.109019494
398.54974103
398.537611079
398.533567762
398.586130881
398.54974103
398.533567762
398.586130881
398.533567762
398.565914297
398.537611079
398.569957614
398.513351178
398.533567762
398.517394495
398.569957614
398.501221228
398.54974103
398.974289298
398.517394495
398.517394495
398.517394495
398.533567762
398.533567762
398.54974103
398.586130881
398.565914297
398.517394495
398.533567762
398.533567762
398.517394495
398.569957614
398.569957614
398.537611079
398.076672959
398.598260832
398.565914297
398.586130881
398.533567762
398.533567762
398.109019494
398.109019494
398.533567762
398.092846227
398.145409346
398.113062811
398.125192761
398.141366029
398.145409346

Block: 10
======================================
398.586130881
398.533567762
398.092846227
398.109019494
398.533567762
398.553784347
398.109019494
398.517394495
398.582087564
398.517394495
398.533567762
398.109019494
398.533567762
398.537611079
398.517394495
398.109019494
398.092846227
398.533567762
398.161582613
398.129236078
398.141366029
398.533567762
398.092846227
398.565914297
398.569957614
398.533567762
398.602304149
398.092846227
398.125192761
398.145409346
398.109019494
398.582087564
398.569957614
398.54974103
398.517394495
398.109019494
398.533567762
398.582087564
398.125192761
398.569957614
398.54974103
398.569957614
398.109019494
398.586130881
398.517394495
398.54974103
398.076672959
398.569957614
398.54974103
398.113062811
398.092846227
398.586130881
398.533567762
398.092846227
398.533567762
398.501221228
398.553784347
398.533567762
398.569957614
398.533567762
398.501221228
398.076672959
398.076672959
398.533567762
398.076672959
398.533567762
398.517394495
398.076672959
398.517394495
398.517394495
398.517394495
398.533567762
398.076672959
398.076672959
398.533567762
