
Block: 1
======================================
100.400441885
100.003961325
100.784532428
100.784532428
101.247093081
100.780402422
100.400441885
100.383921862
100.784532428
100.404571891
100.763882399
100.801052451
100.784532428
100.367401838
100.367401838
100.817572474
100.763882399
100.400441885
100.801052451
100.383921862
100.383921862
100.801052451
100.768012404
100.780402422
100.801052451
100.780402422
100.367401838
100.383921862
100.400441885
100.801052451
100.383921862
100.367401838
100.363271832
100.780402422
100.784532428
100.801052451
100.363271832
100.784532428
100.367401838
100.784532428
100.784532428
100.801052451
100.383921862
100.817572474
100.801052451
100.367401838
100.416961908
101.230573058
100.780402422
100.801052451
100.801052451
100.763882399
100.784532428
100.796922445
100.784532428
100.801052451
100.367401838
100.796922445
100.383921862
100.400441885
100.796922445
100.780402422
101.251223087
100.763882399
100.817572474
100.784532428
100.763882399
100.801052451
100.780402422
100.780402422
100.383921862
100.383921862
100.367401838
100.404571891
100.780402422
100.796922445
100.780402422
100.780402422
100.763882399
100.784532428
100.367401838
100.834092498
100.367401838
100.350881815
100.367401838
100.367401838
100.383921862
100.796922445
100.363271832
100.801052451
100.801052451
100.817572474
100.763882399
100.780402422
100.796922445
100.383921862
100.383921862
100.763882399
100.784532428
100.367401838

Block: 2
======================================
101.284263134
100.416961908
100.383921862
100.367401838
100.801052451
100.784532428
100.383921862
100.367401838
100.817572474
100.383921862
100.383921862
100.437611938
100.383921862
100.383921862
100.400441885
100.801052451
100.780402422
100.813442469
100.796922445
100.363271832
100.817572474
100.796922445
100.367401838
100.400441885
100.400441885
100.367401838
100.817572474
100.383921862
100.400441885
100.796922445
100.363271832
100.817572474
100.801052451
100.801052451
100.813442469
100.350881815
100.400441885
100.416961908
100.400441885
100.784532428
100.796922445
100.780402422
100.817572474
100.801052451
100.383921862
100.383921862
100.801052451
100.784532428
100.383921862
100.801052451
100.416961908
100.400441885
100.400441885
100.801052451
100.801052451
100.763882399
100.784532428
100.801052451
100.817572474
100.363271832
100.801052451
100.367401838
100.817572474
100.801052451
100.383921862
100.817572474
100.780402422
100.363271832
100.763882399
100.367401838
100.383921862
100.383921862
100.780402422
100.817572474
100.801052451
100.367401838
100.383921862
100.796922445
100.350881815
100.383921862
100.367401838
100.367401838
100.813442469
100.383921862
100.817572474
100.400441885
100.784532428
100.768012404
100.763882399
100.346751809
100.817572474
100.796922445
100.801052451
100.801052451
100.784532428
100.817572474
100.383921862
100.346751809
100.383921862
100.400441885

Block: 3
======================================
100.404571891
100.416961908
100.763882399
100.400441885
100.383921862
100.768012404
100.801052451
100.796922445
100.400441885
100.400441885
100.383921862
100.383921862
100.780402422
100.796922445
100.784532428
100.784532428
100.784532428
100.780402422
100.784532428
100.801052451
100.383921862
100.346751809
100.416961908
100.416961908
100.780402422
100.801052451
100.400441885
100.801052451
100.796922445
100.780402422
100.367401838
100.813442469
100.383921862
100.367401838
100.383921862
100.796922445
101.457723379
100.383921862
100.780402422
100.763882399
100.768012404
100.796922445
100.367401838
100.400441885
100.383921862
100.367401838
100.796922445
100.817572474
100.813442469
100.383921862
100.400441885
100.383921862
100.416961908
100.850612521
100.801052451
100.834092498
100.383921862
100.817572474
100.383921862
100.404571891
100.801052451
100.801052451
100.400441885
100.367401838
100.383921862
100.817572474
100.367401838
100.400441885
100.363271832
100.404571891
100.817572474
100.383921862
100.404571891
101.230573058
100.796922445
100.400441885
100.780402422
100.367401838
100.801052451
100.784532428
100.763882399
100.796922445
100.383921862
100.383921862
100.367401838
100.346751809
100.367401838
100.421091914
100.421091914
100.367401838
100.400441885
100.383921862
100.383921862
100.363271832
100.801052451
100.763882399
100.796922445
100.817572474
100.796922445
100.383921862

Block: 4
======================================
100.367401838
100.350881815
100.801052451
101.251223087
101.234703064
100.363271832
100.796922445
100.367401838
100.367401838
100.383921862
100.796922445
100.763882399
100.801052451
100.383921862
100.784532428
100.801052451
100.367401838
100.383921862
100.404571891
100.383921862
100.383921862
100.400441885
100.400441885
100.813442469
100.784532428
100.400441885
100.383921862
100.763882399
100.367401838
100.817572474
100.400441885
100.367401838
101.251223087
100.367401838
100.437611938
100.780402422
100.801052451
100.421091914
100.801052451
100.367401838
100.400441885
100.363271832
100.383921862
100.796922445
100.400441885
100.383921862
100.421091914
100.400441885
100.421091914
100.817572474
100.367401838
100.383921862
100.796922445
100.350881815
100.400441885
100.801052451
100.363271832
100.834092498
100.367401838
100.400441885
100.367401838
100.400441885
100.780402422
100.383921862
100.796922445
100.801052451
100.363271832
100.801052451
100.400441885
100.404571891
100.383921862
100.780402422
100.780402422
100.404571891
101.251223087
101.251223087
100.768012404
101.251223087
100.796922445
100.383921862
100.363271832
100.383921862
100.421091914
100.383921862
100.383921862
100.784532428
100.780402422
100.780402422
100.784532428
100.383921862
100.784532428
100.400441885
100.416961908
100.383921862
100.383921862
100.367401838
100.383921862
100.834092498
99.7768110037
100.780402422

Block: 5
======================================
100.383921862
100.768012404
100.817572474
100.330231786
100.400441885
100.763882399
100.784532428
100.367401838
100.784532428
100.763882399
100.796922445
100.801052451
100.367401838
100.801052451
100.763882399
100.780402422
100.367401838
100.383921862
100.383921862
100.416961908
100.400441885
100.400441885
100.383921862
100.400441885
100.796922445
100.796922445
100.796922445
100.784532428
100.796922445
100.801052451
100.801052451
100.383921862
100.400441885
100.400441885
100.363271832
100.400441885
100.367401838
100.400441885
100.813442469
100.763882399
100.400441885
100.367401838
100.780402422
100.817572474
100.780402422
100.383921862
100.801052451
100.400441885
100.367401838
100.400441885
100.487172008
100.817572474
100.784532428
100.780402422
100.784532428
100.763882399
100.801052451
100.763882399
100.400441885
100.416961908
100.346751809
100.363271832
100.796922445
100.780402422
100.796922445
100.784532428
100.763882399
100.834092498
100.404571891
100.383921862
100.383921862
100.383921862
100.817572474
100.801052451
100.400441885
100.367401838
100.763882399
100.367401838
100.796922445
101.247093081
100.784532428
100.421091914
101.247093081
100.780402422
100.383921862
100.780402422
100.383921862
100.400441885
100.346751809
100.400441885
100.817572474
100.379791856
100.801052451
100.363271832
100.796922445
100.383921862
100.383921862
100.383921862
100.763882399
100.784532428

Block: 6
======================================
100.801052451
100.416961908
100.784532428
100.780402422
100.796922445
100.817572474
100.404571891
100.801052451
100.834092498
100.801052451
100.780402422
100.367401838
100.693672299
100.817572474
100.817572474
100.784532428
100.416961908
100.817572474
100.383921862
100.801052451
100.817572474
100.796922445
100.780402422
100.763882399
100.801052451
100.763882399
100.383921862
100.383921862
100.784532428
100.817572474
100.416961908
100.780402422
100.801052451
100.796922445
100.801052451
100.801052451
100.780402422
100.796922445
100.801052451
100.780402422
100.780402422
100.383921862
100.383921862
100.383921862
100.367401838
100.404571891
100.383921862
100.817572474
100.400441885
100.400441885
100.801052451
100.784532428
100.796922445
100.780402422
100.383921862
100.780402422
100.801052451
100.817572474
100.383921862
100.784532428
100.801052451
100.763882399
100.784532428
100.780402422
100.780402422
100.780402422
100.801052451
100.801052451
100.784532428
100.801052451
100.367401838
100.416961908
100.383921862
100.763882399
100.784532428
100.763882399
100.801052451
100.780402422
100.763882399
100.796922445
100.801052451
100.784532428
100.796922445
100.763882399
100.383921862
100.763882399
100.763882399
100.763882399
100.801052451
100.801052451
100.350881815
100.383921862
100.383921862
100.350881815
100.780402422
100.400441885
100.367401838
100.817572474
100.350881815
100.796922445

Block: 7
======================================
100.400441885
100.383921862
100.747362375
100.404571891
100.421091914
100.780402422
100.784532428
100.817572474
100.677152276
100.383921862
100.363271832
100.801052451
100.784532428
100.796922445
100.780402422
100.416961908
100.817572474
100.796922445
100.383921862
100.763882399
100.400441885
100.383921862
100.784532428
100.780402422
100.346751809
100.363271832
100.367401838
100.454131961
100.367401838
100.763882399
100.780402422
100.801052451
100.768012404
100.796922445
100.817572474
100.383921862
100.383921862
100.404571891
100.404571891
100.346751809
100.817572474
100.400441885
100.383921862
100.367401838
100.383921862
100.383921862
100.693672299
100.383921862
100.801052451
100.780402422
100.367401838
100.763882399
100.784532428
100.796922445
100.404571891
100.416961908
100.400441885
100.383921862
100.404571891
100.801052451
100.383921862
100.383921862
100.784532428
100.801052451
100.780402422
100.784532428
100.801052451
100.784532428
100.801052451
100.780402422
100.780402422
100.367401838
100.421091914
100.400441885
100.350881815
100.367401838
100.801052451
100.784532428
100.780402422
100.784532428
100.780402422
100.763882399
100.801052451
100.801052451
100.784532428
100.817572474
100.421091914
100.367401838
100.367401838
100.780402422
101.267743111
100.768012404
100.400441885
100.780402422
100.784532428
100.784532428
100.801052451
100.763882399
100.784532428
100.817572474

Block: 8
======================================
100.404571891
100.817572474
100.784532428
100.817572474
100.784532428
100.796922445
100.367401838
100.796922445
100.796922445
100.367401838
100.801052451
100.780402422
100.796922445
100.801052451
100.400441885
100.801052451
100.817572474
100.367401838
100.383921862
100.817572474
100.780402422
100.801052451
100.796922445
100.801052451
100.780402422
100.817572474
100.780402422
100.784532428
100.416961908
100.383921862
100.801052451
100.400441885
100.383921862
100.763882399
100.796922445
100.383921862
100.383921862
100.817572474
100.801052451
100.404571891
100.383921862
100.400441885
100.817572474
100.383921862
100.346751809
100.383921862
100.801052451
100.784532428
100.780402422
100.801052451
100.367401838
101.197533011
100.383921862
100.404571891
100.404571891
100.346751809
100.421091914
100.367401838
100.801052451
100.834092498
100.367401838
100.801052451
100.801052451
100.763882399
100.346751809
100.784532428
100.763882399
100.784532428
100.367401838
100.383921862
100.350881815
100.801052451
100.780402422
100.780402422
100.801052451
100.817572474
100.796922445
100.780402422
100.801052451
100.796922445
100.780402422
100.768012404
100.383921862
100.383921862
100.400441885
101.247093081
100.784532428
100.784532428
100.817572474
100.796922445
100.768012404
100.784532428
100.801052451
100.796922445
100.400441885
100.801052451
101.247093081
100.416961908
100.784532428
100.801052451

Block: 9
======================================
101.267743111
100.383921862
100.813442469
100.367401838
100.367401838
100.796922445
100.400441885
100.363271832
100.383921862
100.363271832
100.784532428
100.367401838
100.780402422
100.367401838
100.383921862
100.834092498
100.383921862
100.400441885
100.780402422
100.801052451
100.383921862
100.813442469
100.763882399
100.801052451
100.763882399
100.784532428
100.796922445
100.801052451
100.801052451
100.383921862
100.383921862
100.421091914
100.367401838
100.416961908
100.350881815
100.367401838
100.400441885
100.796922445
100.813442469
100.780402422
100.367401838
100.801052451
100.801052451
100.796922445
100.784532428
100.780402422
100.363271832
100.813442469
100.801052451
100.404571891
100.383921862
100.367401838
100.383921862
100.383921862
100.367401838
100.383921862
100.367401838
100.784532428
100.780402422
100.817572474
100.780402422
100.801052451
100.796922445
100.780402422
100.780402422
100.801052451
100.796922445
100.383921862
100.383921862
100.383921862
100.400441885
100.383921862
100.400441885
100.367401838
100.416961908
100.400441885
100.784532428
100.400441885
100.383921862
100.763882399
100.784532428
100.400441885
100.400441885
100.379791856
100.383921862
100.421091914
100.834092498
100.383921862
100.383921862
100.404571891
100.784532428
100.780402422
100.801052451
100.817572474
100.801052451
100.400441885
100.383921862
100.379791856
100.383921862
100.801052451

Block: 10
======================================
100.400441885
100.817572474
100.796922445
100.383921862
100.817572474
100.801052451
100.768012404
100.801052451
100.350881815
100.784532428
100.796922445
100.763882399
100.780402422
100.801052451
100.801052451
100.780402422
100.400441885
100.400441885
100.383921862
100.367401838
100.383921862
100.400441885
100.367401838
100.834092498
100.796922445
100.383921862
100.784532428
100.801052451
100.784532428
100.796922445
100.796922445
100.780402422
100.801052451
100.817572474
100.796922445
100.801052451
100.796922445
100.834092498
100.796922445
100.416961908
100.817572474
100.400441885
100.416961908
100.817572474
100.817572474
101.267743111
101.284263134
100.768012404
101.664223671
101.668353677
100.813442469
100.784532428
100.796922445
100.400441885
100.400441885
100.383921862
100.796922445
100.421091914
100.416961908
100.400441885
100.421091914
100.383921862
100.801052451
100.801052451
101.197533011
101.234703064
101.251223087
101.267743111
100.813442469
100.817572474
100.817572474
100.796922445
100.813442469
100.817572474
100.817572474
100.383921862
100.383921862
100.383921862
100.383921862
100.379791856
100.383921862
100.801052451
100.763882399
100.784532428
100.817572474
100.834092498
101.181012988
100.784532428
100.813442469
100.817572474
100.834092498
100.813442469
100.796922445
100.421091914
100.780402422
100.801052451
100.796922445
100.813442469
100.801052451
100.801052451
