
Block: 1
======================================
100.400441885
100.367401838
100.383921862
100.400441885
100.383921862
100.768012404
100.801052451
100.780402422
100.817572474
100.817572474
100.801052451
100.784532428
101.251223087
100.763882399
100.801052451
100.817572474
100.383921862
100.780402422
100.796922445
100.817572474
100.796922445
100.367401838
100.400441885
100.383921862
100.780402422
100.780402422
100.801052451
100.780402422
100.784532428
100.784532428
100.801052451
100.801052451
100.796922445
100.796922445
100.817572474
100.834092498
100.404571891
100.416961908
100.367401838
100.834092498
100.817572474
100.367401838
100.763882399
100.817572474
100.796922445
100.801052451
101.247093081
100.801052451
100.763882399
101.664223671
100.768012404
100.780402422
100.801052451
100.817572474
100.383921862
100.363271832
100.437611938
100.834092498
100.367401838
100.400441885
100.400441885
100.400441885
100.350881815
100.780402422
100.433481932
100.421091914
100.817572474
100.784532428
100.817572474
101.251223087
100.817572474
100.801052451
100.400441885
100.350881815
100.400441885

Average distance is : 100.686 cm
Average deviation is : 0.254 cm
Block: 2
======================================
100.834092498
100.367401838
100.747362375
100.796922445
100.367401838
100.383921862
100.796922445
100.796922445
100.801052451
100.404571891
100.817572474
100.780402422
100.801052451
100.817572474
100.416961908
100.796922445
100.780402422
100.367401838
100.784532428
100.796922445
101.267743111
100.768012404
101.197533011
101.267743111
100.817572474
100.801052451
100.801052451
100.383921862
100.763882399
100.421091914
100.796922445
100.796922445
100.780402422
100.801052451
100.796922445
100.801052451
100.801052451
100.801052451
100.763882399
100.817572474
100.817572474
100.363271832
100.363271832
100.350881815
101.197533011
100.780402422
101.267743111
100.437611938
100.834092498
100.404571891
100.796922445
101.218183041
101.267743111
100.817572474
100.796922445
100.801052451
100.796922445
100.801052451
100.784532428
100.784532428
100.367401838
100.416961908
100.784532428
100.780402422
100.784532428
100.796922445
100.817572474
101.181012988
101.181012988
100.801052451
100.801052451
100.801052451
100.801052451
100.780402422
100.801052451

Average distance is : 100.766 cm
Average deviation is : 0.237 cm
Block: 3
======================================
100.421091914
100.367401838
101.284263134
100.383921862
100.780402422
100.817572474
100.801052451
100.383921862
100.834092498
100.763882399
100.367401838
100.817572474
100.763882399
100.780402422
100.796922445
100.801052451
100.817572474
100.780402422
100.834092498
100.796922445
100.780402422
100.801052451
100.817572474
100.400441885
100.350881815
100.813442469
100.801052451
100.383921862
100.801052451
100.834092498
100.780402422
100.780402422
100.817572474
100.780402422
100.817572474
100.817572474
100.801052451
100.801052451
100.784532428
100.780402422
100.400441885
100.383921862
100.416961908
100.383921862
100.367401838
100.817572474
100.346751809
100.834092498
100.796922445
100.796922445
100.834092498
100.801052451
100.383921862
100.383921862
100.383921862
100.796922445
100.817572474
100.801052451
100.817572474
100.817572474
100.817572474
100.834092498
101.701393723
100.383921862
100.834092498
100.817572474
100.801052451
100.400441885
100.367401838
100.801052451
100.763882399
100.780402422
100.796922445
100.817572474
100.801052451

Average distance is : 100.710 cm
Average deviation is : 0.231 cm
Block: 4
======================================
100.367401838
100.404571891
101.230573058
100.383921862
100.416961908
101.664223671
100.780402422
100.817572474
100.780402422
100.784532428
100.817572474
100.796922445
100.400441885
100.383921862
100.801052451
100.801052451
100.780402422
100.801052451
101.230573058
100.801052451
101.251223087
100.780402422
100.813442469
100.780402422
100.780402422
100.383921862
100.801052451
100.404571891
100.404571891
100.817572474
100.801052451
100.801052451
100.784532428
101.247093081
100.784532428
100.801052451
100.57390213
100.801052451
100.813442469
100.796922445
100.801052451
100.780402422
100.780402422
100.780402422
100.801052451
100.383921862
100.383921862
100.383921862
100.784532428
100.817572474
100.801052451
100.817572474
100.817572474
100.801052451
100.801052451
100.763882399
100.784532428
100.796922445
100.801052451
100.817572474
101.214053035
100.817572474
100.400441885
100.817572474
100.416961908
100.247631669
100.383921862
101.647703648
100.817572474
100.784532428
100.801052451
100.817572474
100.817572474
100.801052451
101.094282866

Average distance is : 100.763 cm
Average deviation is : 0.266 cm
Block: 5
======================================
100.817572474
100.416961908
100.801052451
100.437611938
100.834092498
101.267743111
100.780402422
100.763882399
100.416961908
100.834092498
100.768012404
100.780402422
100.817572474
100.437611938
100.416961908
100.796922445
100.784532428
100.801052451
100.817572474
100.780402422
101.04059279
100.796922445
100.796922445
100.801052451
100.813442469
100.834092498
100.416961908
100.817572474
100.400441885
101.197533011
100.801052451
100.817572474
101.251223087
100.801052451
100.780402422
100.813442469
100.801052451
100.784532428
100.817572474
100.801052451
100.817572474
100.801052451
100.780402422
100.834092498
100.363271832
100.383921862
100.400441885
100.350881815
100.801052451
100.796922445
101.251223087
100.817572474
101.664223671
100.784532428
101.181012988
100.801052451
100.801052451
100.796922445
100.801052451
101.181012988
101.218183041
100.780402422
100.796922445
100.834092498
100.834092498
100.404571891
100.400441885
100.801052451
100.367401838
100.780402422
100.780402422
100.367401838
100.796922445
100.801052451
100.796922445

Average distance is : 100.775 cm
Average deviation is : 0.245 cm
Block: 6
======================================
100.400441885
100.796922445
100.747362375
100.367401838
100.834092498
100.801052451
100.404571891
100.421091914
100.817572474
100.784532428
100.400441885
100.763882399
100.780402422
100.796922445
100.383921862
100.796922445
100.383921862
100.780402422
100.817572474
100.796922445
100.763882399
100.780402422
100.400441885
100.817572474
100.367401838
100.383921862
100.817572474
100.383921862
100.404571891
100.383921862
100.400441885
100.383921862
100.784532428
100.383921862
100.383921862
100.801052451
100.383921862
100.383921862
100.780402422
101.214053035
100.400441885
100.644112229
100.817572474
100.367401838
100.367401838
100.367401838
100.383921862
100.404571891
100.363271832
100.367401838
100.400441885
100.817572474
100.383921862
100.780402422
100.784532428
100.784532428
100.796922445
100.817572474
100.367401838
100.383921862
101.581623554
100.796922445
100.416961908
100.400441885
100.367401838
100.367401838
100.383921862
100.383921862
100.367401838
100.383921862
100.801052451
100.784532428
100.780402422
100.768012404
100.801052451

Average distance is : 100.596 cm
Average deviation is : 0.244 cm
Block: 7
======================================
101.218183041
100.400441885
100.801052451
101.267743111
100.813442469
100.400441885
100.400441885
100.400441885
100.400441885
100.780402422
100.780402422
100.363271832
100.784532428
100.801052451
100.780402422
100.400441885
100.416961908
100.400441885
100.383921862
100.416961908
100.784532428
100.784532428
100.383921862
100.801052451
100.817572474
100.383921862
100.801052451
100.801052451
100.768012404
100.801052451
100.400441885
100.400441885
100.416961908
100.383921862
100.801052451
100.363271832
100.801052451
100.817572474
100.784532428
100.367401838
100.383921862
100.404571891
100.383921862
100.383921862
100.801052451
100.796922445
100.801052451
100.796922445
100.796922445
100.780402422
100.784532428
100.784532428
100.784532428
99.9337512255
100.796922445
100.404571891
100.400441885
101.234703064
101.218183041
100.400441885
100.416961908
100.383921862
100.780402422
100.780402422
100.383921862
100.801052451
100.780402422
100.801052451
100.784532428
101.251223087
101.247093081
100.784532428
100.796922445
100.350881815
100.367401838

Average distance is : 100.651 cm
Average deviation is : 0.271 cm
Block: 8
======================================
101.214053035
101.214053035
100.817572474
100.383921862
100.383921862
100.780402422
100.400441885
100.383921862
100.416961908
100.383921862
100.367401838
100.363271832
100.400441885
101.251223087
100.363271832
100.730842352
100.763882399
100.817572474
100.801052451
100.817572474
100.367401838
100.383921862
100.796922445
100.817572474
100.346751809
100.383921862
100.383921862
100.796922445
100.801052451
101.143842936
100.747362375
100.416961908
101.267743111
100.363271832
100.421091914
100.367401838
100.400441885
100.383921862
100.367401838
100.383921862
100.367401838
100.400441885
100.400441885
101.251223087
101.201663017
101.230573058
101.284263134
101.234703064
100.383921862
101.181012988
100.780402422
101.214053035
100.367401838
100.367401838
100.350881815
100.367401838
100.400441885
100.813442469
101.234703064
100.763882399
100.780402422
100.367401838
100.780402422
100.383921862
100.817572474
100.383921862
100.383921862
100.367401838
100.367401838
100.350881815
100.107211471
101.230573058
100.763882399
100.747362375
100.763882399

Average distance is : 100.648 cm
Average deviation is : 0.333 cm
Block: 9
======================================
100.404571891
100.350881815
100.801052451
100.383921862
101.197533011
101.197533011
100.784532428
100.383921862
100.363271832
100.383921862
100.383921862
101.234703064
101.234703064
101.610533595
101.668353677
100.784532428
100.367401838
100.383921862
100.367401838
100.383921862
100.383921862
100.801052451
100.383921862
101.230573058
101.201663017
100.730842352
101.214053035
101.234703064
100.730842352
100.730842352
100.367401838
100.383921862
100.363271832
101.214053035
100.367401838
100.363271832
101.214053035
100.383921862
100.367401838
100.367401838
100.367401838
100.367401838
100.350881815
100.350881815
101.201663017
100.747362375
101.197533011
101.197533011
100.784532428
101.197533011
101.007552743
100.780402422
100.367401838
100.383921862
100.383921862
100.421091914
100.404571891
100.383921862
101.214053035
100.383921862
101.197533011
101.234703064
101.201663017
100.784532428
100.768012404
100.763882399
100.801052451
100.763882399
100.801052451
100.974512696
100.383921862
100.400441885
100.346751809
100.379791856
100.400441885

Average distance is : 100.712 cm
Average deviation is : 0.378 cm
Block: 10
======================================
101.668353677
101.214053035
100.350881815
100.780402422
100.763882399
100.383921862
100.383921862
100.367401838
100.383921862
100.363271832
100.421091914
101.230573058
101.230573058
100.350881815
100.363271832
100.780402422
100.363271832
100.400441885
100.383921862
100.367401838
100.367401838
100.346751809
100.780402422
100.367401838
100.367401838
100.817572474
100.801052451
100.400441885
101.230573058
100.400441885
100.801052451
100.383921862
100.367401838
100.363271832
100.780402422
100.784532428
100.801052451
100.801052451
100.817572474
100.801052451
100.784532428
100.784532428
100.801052451
100.796922445
100.346751809
100.817572474
100.784532428
100.801052451
100.383921862
100.367401838
100.383921862
100.367401838
100.367401838
100.780402422
100.801052451
100.768012404
100.796922445
100.383921862
100.796922445
100.817572474
100.796922445
100.801052451
100.784532428
100.400441885
100.400441885
100.363271832
99.7974610329
100.367401838
100.383921862
100.383921862
100.383921862
100.780402422
100.817572474
100.796922445
100.801052451

Average distance is : 100.615 cm
Average deviation is : 0.294 cm
Average distance for 10x75 is : 100.692 cm
Average deviation for 10x75 is : 0.275 cm
 Percentage of values that failed: 0.000