
Block: 1
======================================
99.7602909803
100.677152276
100.726712346
100.714322329
100.231111646
100.243501663
99.7768110037
100.280671716
99.7974610329
99.8305010796
100.280671716
100.22698164
100.22698164
100.247631669
100.693672299
100.260021687
100.243501663
100.264151692
100.210461617
100.247631669
100.280671716
100.243501663
100.280671716
99.8305010796
99.7602909803
99.7974610329
100.260021687
100.243501663
100.247631669
100.22698164
99.8305010796
100.243501663
99.7768110037
100.264151692
100.243501663
99.8263710737
100.247631669
100.22698164
100.730842352
100.714322329
100.714322329
100.231111646
100.264151692
100.243501663
100.243501663
100.677152276
100.697802305
100.714322329
100.27654171
100.247631669
99.8635411263
100.693672299
99.8305010796
99.8305010796
100.243501663
99.7768110037
100.260021687
100.260021687
99.7768110037
100.260021687
100.247631669
100.243501663
100.247631669
100.243501663
100.264151692
100.247631669
100.243501663
100.264151692
100.22698164
100.22698164
100.231111646
100.243501663
100.260021687
100.22698164
100.247631669

Average distance is : 100.226 cm
Average deviation is : 0.266 cm
Block: 2
======================================
99.8470211029
100.22698164
100.280671716
100.297191739
99.8305010796
100.693672299
100.260021687
100.264151692
100.730842352
100.697802305
100.714322329
100.247631669
99.8305010796
100.710192323
100.697802305
100.264151692
100.260021687
100.247631669
99.8305010796
99.7768110037
99.7602909803
100.260021687
100.243501663
100.243501663
99.793331027
101.143842936
99.7768110037
100.747362375
100.264151692
99.8139810562
100.247631669
100.243501663
100.243501663
100.264151692
100.243501663
100.22698164
100.22698164
101.094282866
100.243501663
100.247631669
99.8098510504
100.247631669
100.243501663
100.260021687
100.264151692
100.243501663
7.76028096676
100.693672299
100.231111646
99.4629305601
100.487172008
99.793331027
99.8139810562
100.264151692
99.8098510504
99.8139810562
99.8139810562
100.264151692
99.793331027
99.7768110037
99.793331027
99.8139810562
99.8139810562
99.7809410095
100.260021687
99.7974610329
100.693672299
99.8139810562
99.793331027
99.793331027
100.247631669
99.7768110037
100.264151692
100.693672299
99.7809410095

Average distance is : 98.933 cm
Average deviation is : 10.676 cm
Block: 3
======================================
99.8139810562
99.8098510504
100.264151692
100.260021687
99.7768110037
99.7768110037
100.210461617
100.231111646
100.247631669
100.22698164
100.243501663
100.264151692
100.260021687
99.7768110037
100.247631669
99.7974610329
100.22698164
100.747362375
101.110802889
100.297191739
100.260021687
100.22698164
99.8098510504
100.350881815
99.8263710737
99.793331027
100.247631669
100.264151692
100.231111646
100.243501663
100.730842352
100.710192323
100.22698164
100.260021687
99.793331027
99.8305010796
100.247631669
100.730842352
100.22698164
100.247631669
99.8139810562
100.280671716
100.243501663
100.264151692
100.231111646
100.243501663
99.3431603909
100.214591622
99.8098510504
99.8139810562
100.243501663
100.247631669
100.243501663
100.297191739
99.8305010796
100.27654171
100.681282282
100.260021687
100.260021687
100.264151692
100.726712346
100.264151692
100.243501663
100.264151692
99.8098510504
100.243501663
100.247631669
100.264151692
99.8139810562
99.793331027
100.693672299
100.710192323
100.247631669
100.260021687
100.243501663

Average distance is : 100.194 cm
Average deviation is : 0.300 cm
Block: 4
======================================
100.210461617
100.243501663
100.231111646
99.7768110037
99.8098510504
99.793331027
99.8305010796
99.8263710737
100.210461617
99.7974610329
100.247631669
100.280671716
100.264151692
100.247631669
100.280671716
100.264151692
100.22698164
101.110802889
99.8263710737
100.710192323
100.22698164
100.697802305
100.697802305
100.264151692
99.793331027
100.677152276
99.8305010796
100.22698164
100.22698164
99.8305010796
100.243501663
100.730842352
99.8139810562
100.280671716
99.8098510504
100.247631669
99.8263710737
100.22698164
100.677152276
99.8305010796
100.231111646
100.243501663
99.7768110037
101.127322912
99.7768110037
100.606942177
100.22698164
100.264151692
100.710192323
100.280671716
100.210461617
100.22698164
99.8305010796
100.714322329
100.231111646
100.714322329
100.260021687
100.260021687
100.020481348
100.22698164
100.264151692
101.110802889
100.22698164
100.264151692
100.260021687
100.714322329
106.603710651
99.793331027
100.693672299
100.243501663
100.260021687
99.8139810562
100.264151692
100.22698164
100.27654171

Average distance is : 100.324 cm
Average deviation is : 0.808 cm
Block: 5
======================================
100.264151692
99.8098510504
100.27654171
99.7396409512
100.243501663
100.247631669
100.747362375
99.8635411263
100.210461617
100.264151692
99.7602909803
100.693672299
100.247631669
99.8305010796
99.8305010796
100.22698164
99.7768110037
100.693672299
100.730842352
100.693672299
99.8139810562
100.260021687
99.8305010796
100.730842352
100.693672299
100.730842352
100.681282282
100.747362375
100.677152276
100.280671716
100.714322329
100.22698164
100.710192323
100.710192323
99.8098510504
100.730842352
100.681282282
99.8305010796
100.714322329
100.714322329
100.697802305
100.714322329
99.8305010796
99.8098510504
99.793331027
100.710192323
100.243501663
100.247631669
100.747362375
100.22698164
100.264151692
99.8305010796
100.730842352
100.247631669
100.714322329
100.714322329
100.697802305
100.714322329
100.714322329
100.714322329
100.681282282
100.730842352
99.8305010796
99.8470211029
100.260021687
100.693672299
100.243501663
100.714322329
100.22698164
99.8139810562
100.693672299
100.747362375
100.243501663
100.677152276
100.730842352

Average distance is : 100.373 cm
Average deviation is : 0.372 cm
Block: 6
======================================
100.247631669
99.743770957
100.264151692
100.297191739
100.243501663
101.147972941
100.243501663
101.131452918
100.243501663
99.8305010796
100.243501663
99.8098510504
100.243501663
99.8470211029
99.8470211029
100.260021687
99.7602909803
100.264151692
100.260021687
100.243501663
99.7602909803
100.264151692
100.247631669
100.264151692
99.793331027
99.7974610329
100.264151692
100.243501663
100.280671716
101.127322912
100.247631669
100.231111646
100.264151692
100.714322329
100.730842352
100.264151692
100.22698164
100.247631669
100.297191739
100.264151692
99.8635411263
100.22698164
100.677152276
100.714322329
100.243501663
100.260021687
100.260021687
100.264151692
99.8139810562
100.247631669
100.22698164
100.264151692
100.714322329
100.697802305
99.8098510504
100.714322329
100.693672299
100.280671716
100.714322329
99.793331027
99.7768110037
99.8098510504
100.27654171
100.710192323
100.714322329
100.730842352
100.677152276
99.8098510504
99.8098510504
100.710192323
100.730842352
100.693672299
100.714322329
100.714322329
99.8139810562

Average distance is : 100.292 cm
Average deviation is : 0.360 cm
Block: 7
======================================
100.27654171
100.710192323
100.243501663
100.730842352
100.747362375
100.697802305
100.714322329
100.714322329
100.714322329
99.8470211029
99.8263710737
100.693672299
100.22698164
99.793331027
100.681282282
100.714322329
99.793331027
99.8305010796
100.730842352
100.714322329
100.730842352
99.8470211029
100.693672299
100.747362375
100.260021687
100.231111646
100.297191739
101.143842936
100.247631669
100.730842352
100.714322329
100.677152276
100.243501663
99.7974610329
99.8305010796
100.243501663
100.697802305
100.710192323
100.730842352
100.677152276
100.730842352
100.693672299
99.8098510504
100.730842352
99.8305010796
99.8098510504
100.400441885
100.247631669
99.8470211029
100.677152276
100.693672299
100.243501663
100.710192323
99.8263710737
99.8098510504
100.22698164
99.8305010796
100.681282282
100.714322329
100.697802305
100.693672299
100.697802305
99.7974610329
99.8139810562
99.8470211029
100.697802305
100.710192323
100.243501663
100.710192323
99.793331027
99.8139810562
100.730842352
100.714322329
99.8263710737
99.8098510504

Average distance is : 100.370 cm
Average deviation is : 0.400 cm
Block: 8
======================================
100.264151692
100.297191739
99.8098510504
100.243501663
99.8263710737
101.147972941
100.710192323
100.243501663
99.8139810562
100.243501663
100.714322329
100.210461617
100.264151692
100.22698164
100.280671716
100.22698164
99.8263710737
100.730842352
100.247631669
100.264151692
100.243501663
100.693672299
99.8098510504
100.710192323
100.730842352
100.243501663
100.247631669
100.243501663
100.243501663
100.243501663
101.160362959
99.7768110037
100.22698164
101.127322912
100.243501663
100.697802305
100.264151692
100.22698164
100.264151692
100.697802305
100.22698164
100.730842352
100.22698164
100.710192323
100.247631669
99.743770957
100.247631669
100.714322329
100.22698164
100.243501663
100.243501663
100.730842352
101.110802889
100.243501663
100.264151692
100.243501663
100.260021687
100.22698164
100.243501663
99.8263710737
100.260021687
99.8263710737
100.260021687
100.710192323
100.231111646
100.714322329
100.280671716
100.297191739
100.22698164
100.264151692
100.264151692
100.264151692
100.693672299
99.8139810562
99.8305010796

Average distance is : 100.325 cm
Average deviation is : 0.331 cm
Block: 9
======================================
99.7809410095
100.243501663
100.243501663
99.8305010796
100.264151692
100.243501663
100.280671716
100.247631669
100.22698164
100.280671716
100.693672299
99.8470211029
100.714322329
100.714322329
100.710192323
99.8470211029
99.8139810562
100.730842352
100.751492381
100.747362375
100.677152276
100.714322329
100.747362375
99.8305010796
100.714322329
100.260021687
100.710192323
100.710192323
100.697802305
100.260021687
100.247631669
100.260021687
100.747362375
100.730842352
100.714322329
100.714322329
100.710192323
100.730842352
99.8098510504
99.8098510504
100.710192323
100.730842352
100.730842352
100.747362375
99.8139810562
100.714322329
100.264151692
100.730842352
100.714322329
100.243501663
100.710192323
100.747362375
100.697802305
100.714322329
100.243501663
100.280671716
100.714322329
100.714322329
100.693672299
100.714322329
100.260021687
100.710192323
99.8263710737
100.210461617
100.730842352
99.8098510504
100.730842352
100.714322329
100.730842352
99.8470211029
100.714322329
100.697802305
100.210461617
100.693672299
100.677152276

Average distance is : 100.456 cm
Average deviation is : 0.342 cm
Block: 10
======================================
100.243501663
100.677152276
100.693672299
99.8470211029
100.693672299
99.8305010796
100.714322329
99.8470211029
100.260021687
100.714322329
100.714322329
100.693672299
99.8305010796
100.726712346
100.677152276
100.714322329
99.7974610329
100.730842352
99.8305010796
100.693672299
100.714322329
99.8098510504
99.8098510504
100.693672299
99.2770802975
99.7974610329
100.710192323
100.730842352
100.714322329
99.8305010796
100.243501663
99.8263710737
99.8470211029
100.681282282
100.747362375
100.264151692
99.8470211029
100.697802305
100.697802305
99.8139810562
99.8305010796
99.8305010796
100.710192323
99.8305010796
99.8139810562
99.8470211029
100.714322329
99.8305010796
99.8305010796
100.697802305
99.8305010796
100.677152276
100.313711762
99.8470211029
100.730842352
99.8635411263
100.693672299
100.677152276
99.793331027
99.8098510504
99.8139810562
100.693672299
99.8098510504
100.714322329
99.7768110037
99.8305010796
100.280671716
100.280671716
100.714322329
99.7768110037
99.7974610329
99.8139810562
99.8305010796
99.8139810562
99.8098510504

Average distance is : 100.222 cm
Average deviation is : 0.434 cm
Average distance for 10x75 is : 100,172 cm
Average deviation for 10x75 is : 1,429 cm
 Percentage of values that failed: 0.000