
Block: 1
======================================
99.8305010796
99.8305010796
100.747362375
99.8470211029
99.8305010796
100.297191739
99.8470211029
100.714322329
99.8305010796
99.8263710737

Average distance is : 100.060 cm
Average deviation is : 0.382 cm
Block: 2
======================================
99.8139810562
100.730842352
100.714322329
99.8305010796
100.730842352
100.747362375
99.8635411263
100.697802305
100.726712346
99.8305010796

Average distance is : 100.369 cm
Average deviation is : 0.460 cm
Block: 3
======================================
100.264151692
100.747362375
100.747362375
100.730842352
99.8470211029
99.8263710737
99.8800611496
99.8305010796
99.8305010796
99.8305010796

Average distance is : 100.153 cm
Average deviation is : 0.427 cm
Block: 4
======================================
100.747362375
99.8305010796
99.8305010796
99.8470211029
99.8470211029
99.8305010796
99.8305010796
99.8635411263
99.8305010796
99.8635411263

Average distance is : 99.932 cm
Average deviation is : 0.287 cm
Block: 5
======================================
100.747362375
99.8470211029
100.714322329
100.730842352
99.8470211029
99.8098510504
99.793331027
100.714322329
99.8305010796
99.8305010796

Average distance is : 100.187 cm
Average deviation is : 0.465 cm
Block: 6
======================================
99.8470211029
99.8263710737
100.763882399
99.8470211029
99.8635411263
99.8841911554
99.8263710737
99.8305010796
99.8139810562
99.8470211029

Average distance is : 99.935 cm
Average deviation is : 0.292 cm
Block: 7
======================================
100.264151692
100.726712346
100.297191739
99.8305010796
100.123731494
99.8139810562
99.8635411263
100.330231786
99.8098510504
99.8470211029

Average distance is : 100.091 cm
Average deviation is : 0.311 cm
Block: 8
======================================
241.646641493
100.714322329
99.8305010796
99.8098510504
99.8470211029
99.7974610329
99.8800611496
99.8428910971
99.8635411263
99.8305010796

Average distance is : 114.106 cm
Average deviation is : 44.814 cm
Block: 9
======================================
100.747362375
99.8635411263
100.383921862
100.730842352
99.8139810562
100.334361792
99.8470211029
99.8305010796
100.693672299
99.8470211029

Average distance is : 100.209 cm
Average deviation is : 0.412 cm
Block: 10
======================================
99.36381042
99.8263710737
99.8305010796
99.8305010796
100.280671716
99.8470211029
99.8841911554
99.8470211029
99.8305010796
99.8139810562

Average distance is : 99.835 cm
Average deviation is : 0.217 cm
Average distance for 10x10 is : 101,488 cm
Average deviation for 10x10 is : 4,807 cm
 Percentage of values that failed: 0.000