
Block: 1
======================================
99.8305010796
99.8305010796
100.747362375
99.8470211029
99.8305010796
100.297191739
99.8470211029
100.714322329
99.8305010796
99.8263710737

Block: 2
======================================
99.8139810562
100.730842352
100.714322329
99.8305010796
100.730842352
100.747362375
99.8635411263
100.697802305
100.726712346
99.8305010796

Block: 3
======================================
100.264151692
100.747362375
100.747362375
100.730842352
99.8470211029
99.8263710737
99.8800611496
99.8305010796
99.8305010796
99.8305010796

Block: 4
======================================
100.747362375
99.8305010796
99.8305010796
99.8470211029
99.8470211029
99.8305010796
99.8305010796
99.8635411263
99.8305010796
99.8635411263

Block: 5
======================================
100.747362375
99.8470211029
100.714322329
100.730842352
99.8470211029
99.8098510504
99.793331027
100.714322329
99.8305010796
99.8305010796

Block: 6
======================================
99.8470211029
99.8263710737
100.763882399
99.8470211029
99.8635411263
99.8841911554
99.8263710737
99.8305010796
99.8139810562
99.8470211029

Block: 7
======================================
100.264151692
100.726712346
100.297191739
99.8305010796
100.123731494
99.8139810562
99.8635411263
100.330231786
99.8098510504
99.8470211029

Block: 8
======================================
241.646641493
100.714322329
99.8305010796
99.8098510504
99.8470211029
99.7974610329
99.8800611496
99.8428910971
99.8635411263
99.8305010796

Block: 9
======================================
100.747362375
99.8635411263
100.383921862
100.730842352
99.8139810562
100.334361792
99.8470211029
99.8305010796
100.693672299
99.8470211029

Block: 10
======================================
99.36381042
99.8263710737
99.8305010796
99.8305010796
100.280671716
99.8470211029
99.8841911554
99.8470211029
99.8305010796
99.8139810562
