
Block: 1
======================================
200.247010565
200.247010565
200.707170653
200.263299417
200.263299417

Block: 2
======================================
200.230721712
201.155114102
200.690881801
200.79268713
200.226649499

Block: 3
======================================
200.727531719
200.27958827
200.711242867
200.247010565
200.690881801

Block: 4
======================================
201.155114102
200.808975983
200.727531719
201.171402955
200.299949336

Block: 5
======================================
200.674592948
200.727531719
200.670520735
200.707170653
200.690881801

Block: 6
======================================
200.690881801
200.727531719
201.151041889
200.690881801
200.723459506

Block: 7
======================================
200.723459506
200.743820572
201.134753036
200.690881801
200.711242867

Block: 8
======================================
201.134753036
200.723459506
201.171402955
200.263299417
200.727531719

Block: 9
======================================
200.263299417
200.674592948
200.299949336
200.674592948
200.711242867

Block: 10
======================================
200.690881801
200.707170653
200.263299417
200.690881801
200.743820572
