
Block: 1
======================================
200.214432859
200.247010565
200.263299417
200.263299417
200.690881801
200.251082778
200.776398277
200.776398277
200.263299417
200.283660483

Block: 2
======================================
200.27958827
200.247010565
200.263299417
200.690881801
200.267371631
200.727531719
200.247010565
200.230721712
200.690881801
200.247010565

Block: 3
======================================
200.711242867
200.690881801
200.230721712
200.226649499
200.312165976
200.226649499
200.707170653
200.283660483
200.263299417
200.230721712

Block: 4
======================================
201.167330742
200.295877123
200.690881801
200.711242867
200.247010565
200.247010565
200.332527041
201.134753036
200.316238189
201.134753036

Block: 5
======================================
200.247010565
200.690881801
201.151041889
201.151041889
201.171402955
201.098103118
200.743820572
200.690881801
200.267371631
200.230721712

Block: 6
======================================
201.199908447
200.690881801
200.723459506
200.711242867
200.723459506
200.776398277
200.247010565
200.707170653
200.707170653
200.332527041

Block: 7
======================================
200.674592948
201.151041889
201.118464184
201.134753036
200.707170653
200.739748359
200.263299417
200.263299417
200.694954014
200.690881801

Block: 8
======================================
200.658304095
200.727531719
200.707170653
200.690881801
200.723459506
200.674592948
200.727531719
200.711242867
200.690881801
200.247010565

Block: 9
======================================
200.247010565
200.723459506
200.723459506
200.707170653
200.739748359
200.707170653
200.707170653
200.230721712
200.674592948
200.711242867

Block: 10
======================================
201.134753036
200.707170653
200.760109425
200.711242867
200.707170653
200.690881801
200.332527041
200.723459506
200.690881801
200.707170653
