
Block: 1
======================================
200.247010565
200.210360646
199.733911705
200.198144007
200.247010565
200.230721712
200.230721712
200.214432859
200.214432859
200.247010565
200.226649499
200.230721712
200.263299417
200.194071794
200.230721712
200.210360646
200.247010565
200.226649499
200.247010565
200.194071794
200.247010565
200.247010565
200.210360646
200.214432859
200.194071794
200.198144007
200.226649499
200.230721712
200.214432859
200.226649499
200.214432859
200.247010565
200.230721712
200.230721712
200.267371631
200.230721712
200.226649499
200.230721712
200.247010565
200.214432859
200.263299417
200.230721712
200.263299417
200.214432859
199.754272771
200.230721712
200.177782941
199.770561624
200.194071794
200.247010565
199.750200558
200.230721712
200.230721712
200.226649499
200.214432859
200.230721712
200.230721712
199.786850476
200.263299417
200.247010565
200.194071794
200.230721712
200.198144007
200.214432859
200.210360646
200.230721712
200.230721712
200.247010565
199.786850476
200.194071794
200.210360646
199.701334
200.214432859
200.230721712
200.230721712
200.210360646
200.230721712
200.194071794
200.230721712
200.263299417
200.247010565
200.230721712
200.226649499
199.786850476
200.214432859
199.782778263
200.263299417
200.194071794
200.230721712
200.230721712
199.786850476
200.230721712
200.247010565
200.210360646
200.214432859
200.247010565
199.76648941
200.251082778
200.230721712
200.214432859

Block: 2
======================================
200.161494088
200.230721712
200.198144007
200.230721712
199.839789248
200.247010565
200.214432859
200.177782941
200.214432859
200.230721712
200.230721712
200.247010565
200.230721712
200.214432859
199.770561624
200.247010565
200.226649499
200.247010565
199.733911705
200.210360646
200.263299417
200.230721712
200.247010565
200.214432859
200.194071794
200.263299417
200.247010565
200.230721712
200.214432859
200.210360646
200.230721712
200.247010565
200.230721712
200.247010565
200.226649499
200.161494088
200.210360646
199.786850476
200.198144007
200.27958827
200.177782941
200.194071794
199.782778263
200.247010565
200.194071794
200.230721712
200.194071794
200.194071794
200.230721712
200.230721712
200.230721712
200.247010565
200.210360646
200.177782941
200.230721712
200.230721712
200.230721712
200.214432859
200.247010565
200.230721712
200.214432859
200.194071794
200.181855154
200.263299417
200.247010565
200.230721712
200.247010565
200.247010565
200.27958827
200.247010565
200.214432859
200.230721712
200.247010565
200.210360646
200.247010565
200.230721712
200.214432859
200.194071794
200.247010565
199.770561624
200.194071794
200.181855154
200.177782941
200.247010565
200.247010565
200.214432859
200.230721712
199.754272771
200.230721712
200.230721712
200.177782941
200.194071794
200.230721712
200.198144007
200.198144007
200.263299417
200.214432859
200.181855154
200.198144007
200.214432859

Block: 3
======================================
200.230721712
199.754272771
200.198144007
200.230721712
200.194071794
200.230721712
200.214432859
200.230721712
200.210360646
200.230721712
200.194071794
200.263299417
200.214432859
200.247010565
200.230721712
200.230721712
200.247010565
200.214432859
200.230721712
200.247010565
200.247010565
199.770561624
200.263299417
200.247010565
200.194071794
200.161494088
200.210360646
200.230721712
200.263299417
200.214432859
200.194071794
199.750200558
200.247010565
200.230721712
200.198144007
199.770561624
200.194071794
200.198144007
200.194071794
200.226649499
200.230721712
199.733911705
200.267371631
200.214432859
200.226649499
200.194071794
199.770561624
199.754272771
200.230721712
200.230721712
200.247010565
200.230721712
200.210360646
200.198144007
199.786850476
199.750200558
200.230721712
200.194071794
200.247010565
200.198144007
200.198144007
199.754272771
200.177782941
200.226649499
200.230721712
200.177782941
200.283660483
200.210360646
200.230721712
200.210360646
199.803139329
200.247010565
200.230721712
200.230721712
200.247010565
200.210360646
200.210360646
199.701334
200.214432859
199.770561624
200.247010565
200.177782941
200.247010565
200.230721712
200.210360646
200.198144007
200.214432859
199.733911705
200.194071794
199.76648941
200.194071794
200.214432859
199.750200558
200.177782941
200.177782941
200.214432859
200.177782941
200.194071794
200.194071794
200.247010565

Block: 4
======================================
200.177782941
200.214432859
199.733911705
200.230721712
200.214432859
158.197337341
199.786850476
200.177782941
200.230721712
200.230721712
200.194071794
200.230721712
200.198144007
200.194071794
200.194071794
200.214432859
200.230721712
200.230721712
200.214432859
200.247010565
199.76648941
200.181855154
200.230721712
200.263299417
200.230721712
200.247010565
200.198144007
200.230721712
199.803139329
200.247010565
200.263299417
200.247010565
200.267371631
200.247010565
200.210360646
200.230721712
200.210360646
200.230721712
200.198144007
159.952461219
200.247010565
200.198144007
199.76648941
200.210360646
200.194071794
200.214432859
200.177782941
200.263299417
200.214432859
200.230721712
200.194071794
200.247010565
200.247010565
200.230721712
200.247010565
199.733911705
200.194071794
200.230721712
200.226649499
200.247010565
200.198144007
200.198144007
200.230721712
200.247010565
200.198144007
200.214432859
158.197337341
200.247010565
200.214432859
200.210360646
200.198144007
199.786850476
200.247010565
200.230721712
200.247010565
200.267371631
200.194071794
200.214432859
200.230721712
200.247010565
200.194071794
200.214432859
200.247010565
199.76648941
200.198144007
200.247010565
200.214432859
200.230721712
200.194071794
200.263299417
200.230721712
200.226649499
200.230721712
200.247010565
200.214432859
200.230721712
200.214432859
200.247010565
200.210360646
200.230721712

Block: 5
======================================
200.210360646
200.214432859
200.230721712
199.803139329
200.247010565
200.210360646
200.247010565
200.214432859
200.210360646
200.210360646
200.226649499
200.247010565
200.230721712
199.803139329
200.194071794
200.267371631
200.230721712
200.198144007
200.198144007
199.750200558
200.247010565
200.247010565
200.247010565
200.230721712
200.214432859
200.230721712
200.194071794
158.877396941
200.194071794
200.247010565
200.198144007
200.230721712
200.214432859
199.754272771
200.247010565
200.214432859
199.803139329
200.230721712
200.230721712
200.226649499
200.177782941
200.230721712
200.247010565
200.263299417
200.214432859
200.247010565
200.210360646
200.214432859
200.214432859
200.230721712
200.230721712
200.230721712
200.194071794
200.214432859
200.194071794
200.177782941
200.247010565
200.267371631
200.210360646
200.230721712
200.230721712
200.247010565
200.198144007
200.226649499
200.214432859
200.263299417
200.247010565
199.782778263
199.770561624
200.214432859
200.263299417
200.194071794
200.263299417
200.226649499
200.210360646
200.230721712
200.198144007
199.717622852
199.782778263
200.214432859
199.76648941
200.214432859
200.230721712
200.214432859
200.198144007
200.230721712
200.230721712
200.247010565
200.263299417
200.230721712
200.230721712
200.230721712
200.210360646
200.230721712
200.230721712
200.214432859
200.214432859
200.226649499
200.247010565
199.770561624

Block: 6
======================================
200.198144007
200.214432859
200.263299417
200.263299417
200.267371631
200.226649499
200.230721712
200.230721712
200.247010565
200.247010565
200.247010565
200.247010565
200.226649499
200.263299417
199.754272771
200.247010565
200.247010565
200.198144007
200.299949336
200.263299417
200.247010565
200.226649499
200.247010565
200.230721712
200.230721712
200.247010565
200.247010565
200.198144007
199.76648941
200.283660483
200.230721712
200.27958827
200.247010565
200.230721712
200.214432859
159.545239902
200.230721712
200.247010565
200.194071794
200.214432859
200.230721712
200.247010565
200.27958827
200.210360646
200.198144007
200.247010565
200.247010565
200.247010565
200.230721712
200.263299417
200.214432859
200.194071794
200.263299417
200.210360646
200.263299417
200.247010565
199.823500395
200.194071794
200.247010565
200.247010565
200.230721712
200.247010565
200.263299417
200.263299417
200.247010565
199.786850476
200.230721712
199.770561624
200.247010565
200.247010565
200.210360646
199.803139329
200.198144007
200.263299417
200.263299417
200.27958827
200.247010565
200.230721712
200.247010565
200.230721712
200.214432859
200.214432859
200.263299417
200.263299417
200.198144007
200.226649499
158.673786283
200.230721712
200.230721712
200.247010565
200.247010565
199.803139329
200.247010565
199.76648941
200.226649499
200.247010565
199.786850476
200.247010565
200.230721712
200.214432859

Block: 7
======================================
200.267371631
200.230721712
200.230721712
200.247010565
200.267371631
200.214432859
200.247010565
200.230721712
200.27958827
200.247010565
200.27958827
200.263299417
200.230721712
199.803139329
199.803139329
200.214432859
200.247010565
200.263299417
200.263299417
200.247010565
200.230721712
200.263299417
200.263299417
200.230721712
200.263299417
200.263299417
200.247010565
200.247010565
200.247010565
200.214432859
200.283660483
200.283660483
200.247010565
200.263299417
200.230721712
199.835717034
200.210360646
200.295877123
200.27958827
200.247010565
200.263299417
200.263299417
200.27958827
200.230721712
200.247010565
200.263299417
200.263299417
200.230721712
200.295877123
200.247010565
200.263299417
200.283660483
200.263299417
200.263299417
200.263299417
199.799067116
200.247010565
199.803139329
200.263299417
199.819428182
200.299949336
200.247010565
200.247010565
200.230721712
200.299949336
200.247010565
200.247010565
200.251082778
200.263299417
200.247010565
200.226649499
200.247010565
200.263299417
200.299949336
199.819428182
200.263299417
200.230721712
200.263299417
200.299949336
200.27958827
200.247010565
200.263299417
200.230721712
200.247010565
200.247010565
200.247010565
200.263299417
200.247010565
200.263299417
200.263299417
200.263299417
200.27958827
199.819428182
200.226649499
200.299949336
200.263299417
200.247010565
200.263299417
200.267371631
200.226649499

Block: 8
======================================
200.263299417
199.819428182
200.226649499
200.247010565
200.267371631
200.283660483
200.295877123
200.247010565
200.283660483
200.27958827
200.27958827
200.27958827
200.267371631
200.263299417
200.263299417
200.27958827
200.247010565
199.823500395
200.283660483
200.230721712
200.247010565
200.263299417
199.770561624
200.247010565
200.226649499
200.283660483
200.263299417
200.247010565
200.247010565
200.247010565
199.770561624
200.247010565
200.295877123
200.230721712
200.226649499
200.263299417
200.230721712
200.295877123
200.283660483
199.835717034
200.267371631
200.263299417
200.263299417
200.267371631
200.247010565
200.283660483
200.247010565
199.839789248
200.283660483
200.283660483
200.247010565
199.786850476
200.247010565
200.247010565
200.27958827
200.247010565
200.247010565
200.247010565
200.263299417
200.247010565
200.230721712
200.267371631
200.263299417
200.247010565
200.247010565
199.803139329
200.263299417
200.263299417
200.27958827
159.06879096
200.230721712
200.247010565
200.283660483
200.247010565
200.295877123
200.263299417
200.263299417
200.214432859
200.27958827
199.803139329
200.263299417
200.247010565
200.283660483
200.247010565
200.27958827
200.27958827
199.819428182
200.283660483
200.27958827
200.247010565
200.299949336
200.299949336
200.263299417
200.247010565
200.267371631
200.299949336
200.263299417
199.819428182
200.263299417
200.247010565

Block: 9
======================================
200.316238189
200.299949336
200.230721712
200.226649499
200.247010565
199.819428182
200.263299417
200.251082778
200.295877123
199.786850476
200.247010565
200.263299417
199.839789248
200.263299417
200.247010565
200.263299417
200.226649499
200.263299417
200.27958827
200.299949336
200.263299417
200.637943029
200.27958827
200.299949336
200.283660483
200.27958827
200.299949336
200.247010565
200.263299417
199.819428182
200.27958827
200.295877123
200.27958827
200.27958827
200.316238189
200.316238189
200.247010565
200.247010565
200.263299417
200.299949336
200.267371631
199.395918012
200.332527041
200.312165976
200.247010565
200.27958827
199.835717034
199.803139329
199.803139329
200.299949336
200.27958827
200.316238189
200.263299417
200.27958827
200.283660483
200.267371631
200.27958827
200.283660483
199.839789248
200.247010565
200.247010565
200.263299417
200.283660483
200.299949336
200.295877123
200.316238189
200.230721712
199.835717034
200.247010565
200.263299417
200.283660483
200.263299417
200.27958827
200.226649499
200.316238189
200.247010565
200.02303884
199.839789248
200.27958827
200.316238189
200.332527041
200.283660483
200.27958827
200.283660483
200.263299417
200.283660483
200.263299417
200.332527041
200.299949336
200.263299417
199.819428182
200.295877123
199.819428182
199.803139329
200.263299417
199.819428182
200.247010565
200.267371631
200.316238189
200.316238189

Block: 10
======================================
200.316238189
200.27958827
200.263299417
200.263299417
200.299949336
200.27958827
200.295877123
199.8560781
200.283660483
199.839789248
200.263299417
200.299949336
200.316238189
200.312165976
200.283660483
200.295877123
200.295877123
200.299949336
199.835717034
200.27958827
200.263299417
200.332527041
200.295877123
200.316238189
200.348815894
200.316238189
200.332527041
200.263299417
200.316238189
200.299949336
200.299949336
200.332527041
199.819428182
200.27958827
200.263299417
200.27958827
200.263299417
200.263299417
200.27958827
200.295877123
200.263299417
200.263299417
200.299949336
200.295877123
200.27958827
200.316238189
200.316238189
200.312165976
199.819428182
200.283660483
200.299949336
200.299949336
200.283660483
200.332527041
200.263299417
200.316238189
200.299949336
200.27958827
200.27958827
200.316238189
200.283660483
200.263299417
200.27958827
199.835717034
200.27958827
199.835717034
200.299949336
200.263299417
200.27958827
200.283660483
200.27958827
200.299949336
200.312165976
199.835717034
199.835717034
200.27958827
200.299949336
200.312165976
199.8560781
200.299949336
200.316238189
200.352888107
200.27958827
200.299949336
199.835717034
200.283660483
200.27958827
199.8560781
200.312165976
200.316238189
200.295877123
200.247010565
200.27958827
200.27958827
200.27958827
200.316238189
199.803139329
200.247010565
200.295877123
200.263299417
