
Block: 1
======================================
200.27958827
199.819428182
200.27958827
200.283660483
199.872366953
200.316238189
200.332527041
200.332527041
200.316238189
199.8560781
200.332527041
200.316238189
200.316238189
200.299949336
200.332527041
200.316238189
200.27958827
200.328454828
200.27958827
200.332527041
200.316238189
200.316238189
200.348815894
200.332527041
200.27958827
200.27958827
200.27958827
200.316238189
200.316238189
200.332527041
200.312165976
200.316238189
200.348815894
200.352888107
200.348815894
200.348815894
200.332527041
200.316238189
200.316238189
200.312165976
200.332527041
200.332527041
200.348815894
200.348815894
200.283660483
200.332527041
200.283660483
200.316238189
200.332527041
200.348815894

Block: 2
======================================
200.711242867
200.332527041
199.839789248
200.299949336
200.299949336
199.888655806
200.332527041
200.283660483
200.312165976
200.332527041
200.332527041
200.316238189
200.27958827
200.316238189
200.299949336
200.299949336
200.332527041
200.332527041
200.332527041
200.295877123
200.332527041
200.299949336
200.299949336
200.332527041
200.316238189
200.316238189
200.348815894
200.283660483
200.27958827
200.348815894
200.316238189
200.299949336
200.332527041
200.299949336
200.348815894
199.8560781
200.316238189
200.316238189
200.295877123
200.332527041
200.332527041
200.316238189
200.316238189
200.332527041
200.295877123
200.316238189
200.299949336
200.332527041
200.283660483
200.316238189

Block: 3
======================================
200.312165976
200.352888107
200.27958827
200.332527041
200.316238189
199.852005887
200.348815894
200.316238189
200.27958827
200.27958827
200.283660483
200.283660483
199.888655806
200.312165976
200.316238189
200.332527041
199.835717034
200.263299417
200.316238189
200.316238189
199.819428182
200.348815894
200.299949336
200.27958827
200.332527041
200.299949336
200.332527041
200.299949336
200.299949336
200.312165976
200.283660483
200.295877123
200.316238189
200.332527041
200.348815894
200.283660483
200.299949336
200.316238189
200.267371631
200.299949336
200.316238189
200.312165976
200.348815894
200.295877123
200.316238189
200.295877123
199.888655806
200.316238189
199.823500395
200.299949336

Block: 4
======================================
200.332527041
200.316238189
200.316238189
200.299949336
200.299949336
200.348815894
200.316238189
200.316238189
200.365104747
200.283660483
200.295877123
200.316238189
200.316238189
200.316238189
199.8560781
200.299949336
200.332527041
200.332527041
200.283660483
200.316238189
200.348815894
199.888655806
200.365104747
200.316238189
200.332527041
200.27958827
200.352888107
200.312165976
200.348815894
200.316238189
200.316238189
200.299949336
200.332527041
200.36917696
200.316238189
200.316238189
200.283660483
200.348815894
200.316238189
200.27958827
200.316238189
200.299949336
199.8560781
200.332527041
199.8560781
200.316238189
200.316238189
200.348815894
200.316238189
200.27958827

Block: 5
======================================
200.348815894
200.332527041
200.332527041
200.332527041
200.332527041
200.299949336
200.299949336
200.312165976
158.266564965
200.295877123
200.27958827
199.8560781
200.316238189
200.299949336
200.332527041
200.332527041
200.332527041
200.316238189
200.348815894
200.295877123
200.332527041
200.295877123
200.332527041
200.348815894
200.348815894
200.332527041
199.86829474
200.312165976
200.348815894
200.365104747
200.332527041
200.27958827
200.348815894
200.332527041
200.316238189
200.316238189
200.332527041
200.316238189
200.348815894
199.8560781
200.299949336
200.365104747
200.365104747
200.316238189
200.36917696
200.332527041
200.316238189
200.332527041
200.316238189
200.299949336

Block: 6
======================================
200.36917696
199.839789248
200.348815894
199.904944658
200.332527041
158.229915047
199.86829474
199.909016871
200.312165976
200.332527041
200.348815894
200.316238189
200.332527041
200.348815894
200.316238189
200.312165976
200.316238189
200.385465813
200.332527041
200.316238189
200.365104747
200.348815894
200.348815894
200.348815894
200.316238189
200.365104747
200.348815894
200.36917696
200.332527041
199.872366953
200.332527041
199.852005887
200.316238189
200.365104747
200.385465813
200.299949336
200.312165976
200.348815894
200.316238189
200.385465813
200.299949336
200.332527041
200.348815894
200.365104747
200.385465813
200.348815894
200.348815894
200.332527041
200.365104747
200.332527041

Block: 7
======================================
200.348815894
200.316238189
200.299949336
200.348815894
200.348815894
200.36917696
200.332527041
200.316238189
200.316238189
200.365104747
200.348815894
199.835717034
200.348815894
200.295877123
200.348815894
200.332527041
200.348815894
200.332527041
199.872366953
200.332527041
200.36917696
200.332527041
200.316238189
200.332527041
200.332527041
200.365104747
200.348815894
200.348815894
200.332527041
200.348815894
200.332527041
200.332527041
200.332527041
200.316238189
200.332527041
200.348815894
200.348815894
200.36917696
200.332527041
200.316238189
200.348815894
200.332527041
200.316238189
200.316238189
200.348815894
200.312165976
200.348815894
200.36917696
200.36917696
199.904944658

Block: 8
======================================
200.332527041
200.295877123
200.348815894
200.332527041
199.8560781
200.332527041
200.295877123
200.316238189
200.295877123
200.348815894
200.316238189
200.348815894
200.299949336
200.316238189
200.316238189
200.332527041
200.27958827
200.316238189
200.295877123
200.316238189
199.8560781
200.299949336
200.27958827
200.312165976
200.332527041
200.332527041
200.332527041
200.295877123
200.316238189
200.299949336
200.332527041
200.27958827
200.316238189
200.283660483
200.295877123
200.283660483
200.299949336
200.352888107
160.469632292
200.316238189
200.299949336
200.316238189
157.395111346
200.348815894
200.316238189
200.27958827
200.348815894
200.332527041
200.332527041
200.295877123

Block: 9
======================================
200.295877123
200.316238189
200.348815894
200.316238189
200.316238189
200.312165976
200.332527041
200.348815894
200.348815894
199.872366953
200.316238189
200.348815894
200.348815894
200.299949336
200.295877123
200.316238189
200.352888107
200.312165976
200.332527041
200.299949336
200.295877123
200.299949336
200.316238189
200.332527041
200.295877123
200.348815894
200.316238189
200.332527041
200.316238189
200.316238189
200.348815894
200.312165976
200.316238189
200.316238189
200.332527041
200.365104747
200.312165976
200.316238189
200.36917696
200.352888107
200.348815894
200.332527041
200.332527041
200.332527041
200.348815894
200.299949336
200.365104747
200.348815894
200.332527041
199.872366953

Block: 10
======================================
199.8560781
200.332527041
200.316238189
200.332527041
200.36917696
200.348815894
200.299949336
200.316238189
200.332527041
200.332527041
200.348815894
200.3813936
200.352888107
200.36917696
200.3813936
200.312165976
200.214432859
200.348815894
200.316238189
200.312165976
200.332527041
200.348815894
200.352888107
200.316238189
200.332527041
200.743820572
200.316238189
200.365104747
200.348815894
200.397682452
200.348815894
200.348815894
200.332527041
200.316238189
200.365104747
200.385465813
200.348815894
200.348815894
199.888655806
200.332527041
200.332527041
158.673786283
199.888655806
200.312165976
200.348815894
200.332527041
200.312165976
200.348815894
200.348815894
200.316238189
