
Block: 1
======================================
199.680972934
199.717622852
200.128916383
200.145205235
199.257462764
200.108555317
199.701334
200.128916383
199.733911705
199.697261786
200.12484417
200.128916383
200.11262753
200.572787619
200.141133022
200.128916383
199.273751616
199.717622852
199.685045147
200.161494088
199.701334
199.701334
199.701334
200.589076471
199.701334
199.701334
200.141133022
199.664684081
200.161494088
199.273751616
200.128916383
200.568715405
199.701334
199.717622852
199.257462764
199.717622852
199.220812845
199.257462764
200.568715405
199.697261786
199.237101698
200.128916383
199.257462764
200.128916383
199.680972934
199.257462764
199.253390551
199.668756294
199.701334
199.237101698
201.000370002
199.257462764
199.237101698
199.701334
199.648395228
199.273751616
199.701334
200.145205235
200.128916383
200.605365324
200.161494088
199.717622852
199.701334
199.253390551
199.257462764
200.145205235
199.701334
199.257462764
200.12484417
199.273751616
199.224885058
200.128916383
201.423880172
199.680972934
199.701334
200.128916383
199.257462764
200.145205235
199.257462764
199.685045147
199.701334
199.685045147
199.685045147
199.733911705
199.253390551
199.685045147
199.685045147
199.701334
200.128916383
199.664684081
199.717622852
200.128916383
200.589076471
200.145205235
199.273751616
199.685045147
200.12484417
200.108555317
199.680972934
199.685045147

Average distance is : 199.801 cm
Average deviation is : 0.428 cm
Block: 2
======================================
199.680972934
200.108555317
199.685045147
200.128916383
200.108555317
199.241173911
200.092266464
199.668756294
200.5361377
200.108555317
200.12484417
200.589076471
199.697261786
199.685045147
199.680972934
199.668756294
199.701334
200.585004258
200.12484417
200.11262753
200.145205235
199.237101698
199.717622852
199.701334
199.701334
200.11262753
199.685045147
200.12484417
199.493651128
199.685045147
199.237101698
200.128916383
200.108555317
200.11262753
200.092266464
200.572787619
199.680972934
199.668756294
199.664684081
199.685045147
199.680972934
199.664684081
199.680972934
200.128916383
199.680972934
199.664684081
199.680972934
200.128916383
200.572787619
199.257462764
199.680972934
200.145205235
200.12484417
199.697261786
200.145205235
199.680972934
199.668756294
199.697261786
199.241173911
200.980008936
200.11262753
200.552426553
199.701334
200.108555317
200.128916383
200.572787619
199.685045147
199.680972934
200.552426553
200.108555317
200.108555317
200.11262753
200.108555317
199.220812845
200.996297789
200.128916383
200.568715405
200.128916383
200.108555317
199.701334
200.540209913
199.668756294
199.680972934
199.701334
200.572787619
200.108555317
199.680972934
199.697261786
200.556498766
199.701334
199.685045147
201.427952385
200.092266464
200.556498766
199.685045147
199.701334
200.128916383
199.701334
200.108555317
200.572787619

Average distance is : 199.970 cm
Average deviation is : 0.411 cm
Block: 3
======================================
200.572787619
200.556498766
199.680972934
200.572787619
199.701334
199.685045147
199.685045147
199.668756294
199.701334
199.685045147
199.697261786
199.237101698
200.128916383
200.12484417
199.697261786
199.685045147
199.257462764
200.556498766
199.685045147
199.701334
200.145205235
200.572787619
199.664684081
199.664684081
200.12484417
199.701334
200.108555317
199.717622852
199.685045147
200.589076471
200.128916383
199.257462764
199.664684081
200.145205235
200.12484417
199.685045147
199.685045147
200.128916383
200.161494088
199.685045147
199.257462764
199.685045147
200.12484417
200.984081149
199.257462764
199.685045147
200.589076471
199.685045147
199.701334
200.12484417
199.701334
200.128916383
200.145205235
200.145205235
199.664684081
200.5361377
199.697261786
199.701334
199.257462764
199.685045147
199.257462764
199.220812845
199.224885058
201.000370002
199.701334
199.668756294
200.145205235
199.701334
199.680972934
200.145205235
199.680972934
200.589076471
199.237101698
199.717622852
200.12484417
199.717622852
200.12484417
200.145205235
199.701334
199.701334
199.664684081
200.108555317
199.237101698
200.128916383
200.145205235
199.701334
200.141133022
199.680972934
199.241173911
199.701334
200.145205235
199.685045147
199.668756294
199.237101698
200.145205235
199.697261786
199.685045147
200.128916383
200.141133022
199.697261786

Average distance is : 199.861 cm
Average deviation is : 0.396 cm
Block: 4
======================================
200.145205235
200.145205235
200.589076471
199.701334
199.701334
199.717622852
199.685045147
200.12484417
199.701334
199.717622852
199.253390551
199.733911705
200.161494088
199.701334
199.733911705
199.701334
199.257462764
200.12484417
199.273751616
200.572787619
199.680972934
199.257462764
199.273751616
200.145205235
200.11262753
201.427952385
200.128916383
200.145205235
199.273751616
199.717622852
199.697261786
199.717622852
199.273751616
199.701334
199.701334
200.161494088
200.589076471
200.931142378
200.145205235
199.257462764
200.161494088
200.605365324
199.273751616
200.145205235
199.717622852
201.032947707
199.701334
200.589076471
200.11262753
200.145205235
200.145205235
201.456457877
200.128916383
200.145205235
199.717622852
200.145205235
199.701334
199.257462764
199.697261786
199.701334
200.145205235
200.128916383
199.685045147
200.609437537
199.701334
199.733911705
200.605365324
200.128916383
199.273751616
199.685045147
199.680972934
200.145205235
200.145205235
200.161494088
200.585004258
200.12484417
109.090518689
199.733911705
199.701334
200.141133022
199.701334
199.717622852
199.701334
199.733911705
199.290040469
200.145205235
199.241173911
200.145205235
200.12484417
199.685045147
200.589076471
200.145205235
200.177782941
200.161494088
200.12484417
199.701334
200.145205235
200.145205235
201.032947707
199.685045147

Average distance is : 199.053 cm
Average deviation is : 9.099 cm
Block: 5
======================================
199.701334
200.141133022
200.145205235
199.697261786
200.145205235
199.241173911
199.717622852
199.685045147
200.589076471
201.032947707
200.589076471
200.141133022
199.733911705
201.46053009
200.141133022
199.701334
199.717622852
200.145205235
200.181855154
200.161494088
199.257462764
199.701334
199.701334
199.717622852
199.290040469
199.685045147
199.717622852
199.697261786
199.237101698
200.145205235
200.605365324
199.685045147
199.294112682
199.733911705
200.605365324
200.605365324
200.621654177
200.128916383
199.701334
199.257462764
201.423880172
199.717622852
199.717622852
201.032947707
199.685045147
199.701334
200.161494088
199.733911705
199.717622852
199.701334
200.12484417
199.697261786
200.177782941
199.717622852
200.161494088
200.145205235
200.589076471
200.128916383
200.145205235
199.701334
199.697261786
199.273751616
199.253390551
199.680972934
200.161494088
199.701334
200.161494088
199.680972934
199.717622852
199.733911705
200.128916383
199.701334
201.032947707
200.145205235
200.145205235
200.141133022
199.701334
200.145205235
199.717622852
199.701334
200.145205235
200.145205235
199.717622852
199.733911705
200.605365324
200.145205235
200.605365324
199.717622852
199.701334
199.717622852
200.161494088
199.733911705
199.733911705
199.257462764
199.701334
200.589076471
200.572787619
199.717622852
199.717622852
200.177782941

Average distance is : 199.969 cm
Average deviation is : 0.457 cm
Block: 6
======================================
199.685045147
199.697261786
200.585004258
200.145205235
199.290040469
200.128916383
200.161494088
199.290040469
199.701334
200.145205235
200.145205235
200.198144007
200.161494088
200.62572639
199.717622852
200.145205235
200.145205235
199.717622852
200.12484417
199.701334
199.717622852
199.717622852
200.589076471
199.717622852
199.701334
199.701334
200.12484417
200.161494088
199.680972934
199.680972934
199.737983918
199.717622852
199.717622852
199.717622852
199.701334
200.141133022
199.701334
200.145205235
200.161494088
199.701334
200.161494088
199.717622852
199.697261786
199.717622852
200.589076471
200.145205235
200.161494088
200.165566301
199.701334
199.701334
199.701334
199.273751616
200.605365324
199.273751616
200.145205235
199.701334
199.717622852
201.016658854
200.128916383
200.145205235
199.273751616
200.12484417
200.141133022
199.717622852
200.161494088
200.128916383
200.075977612
200.11262753
200.145205235
199.701334
200.589076471
200.128916383
199.733911705
200.12484417
199.717622852
200.161494088
201.016658854
200.572787619
200.128916383
199.717622852
199.701334
199.701334
199.717622852
199.680972934
199.257462764
199.241173911
200.145205235
200.161494088
199.717622852
199.701334
200.145205235
199.701334
199.701334
199.224885058
200.161494088
199.701334
200.141133022
200.568715405
199.701334
199.717622852

Average distance is : 199.935 cm
Average deviation is : 0.367 cm
Block: 7
======================================
200.145205235
200.556498766
200.161494088
199.701334
200.605365324
201.000370002
199.664684081
199.697261786
199.680972934
200.589076471
199.701334
199.701334
200.572787619
200.12484417
200.589076471
199.717622852
199.685045147
200.12484417
200.572787619
199.680972934
199.685045147
199.701334
199.701334
200.12484417
199.697261786
200.11262753
199.697261786
199.680972934
200.128916383
200.108555317
199.664684081
200.145205235
199.680972934
199.717622852
199.257462764
200.128916383
199.680972934
199.668756294
199.680972934
200.128916383
200.145205235
200.145205235
200.572787619
200.108555317
199.680972934
199.257462764
199.685045147
199.685045147
200.12484417
200.568715405
200.145205235
200.128916383
199.685045147
199.701334
199.257462764
200.128916383
199.253390551
199.697261786
199.257462764
200.145205235
199.701334
199.680972934
200.128916383
199.717622852
200.572787619
200.589076471
199.668756294
200.145205235
199.701334
199.717622852
199.664684081
199.701334
199.697261786
200.145205235
199.680972934
199.257462764
199.204523993
200.145205235
199.701334
200.145205235
199.253390551
200.145205235
199.680972934
199.701334
199.685045147
199.273751616
199.237101698
199.273751616
199.685045147
200.585004258
201.423880172
200.12484417
200.128916383
199.701334
199.224885058
199.680972934
199.717622852
200.128916383
199.257462764
199.701334

Average distance is : 199.886 cm
Average deviation is : 0.422 cm
Block: 8
======================================
200.145205235
199.664684081
200.980008936
200.572787619
199.701334
199.685045147
200.12484417
200.11262753
199.685045147
199.664684081
199.273751616
200.128916383
199.648395228
199.18823514
183.591658688
200.572787619
200.589076471
200.108555317
199.664684081
199.685045147
199.668756294
200.11262753
199.237101698
200.128916383
201.411663532
200.556498766
199.241173911
200.128916383
199.685045147
200.108555317
200.128916383
199.648395228
200.11262753
200.552426553
199.668756294
200.12484417
199.664684081
200.108555317
199.680972934
199.685045147
200.092266464
199.664684081
199.685045147
200.568715405
199.648395228
200.145205235
199.241173911
199.680972934
200.096338677
200.108555317
200.552426553
199.717622852
199.701334
200.12484417
200.108555317
199.237101698
199.701334
200.11262753
199.664684081
199.241173911
199.680972934
199.685045147
199.680972934
199.680972934
199.685045147
200.096338677
200.589076471
199.664684081
199.648395228
199.697261786
200.996297789
199.701334
200.996297789
199.685045147
199.237101698
199.664684081
199.685045147
199.664684081
199.685045147
199.680972934
199.697261786
200.128916383
200.572787619
199.664684081
200.128916383
199.668756294
200.092266464
199.664684081
199.220812845
199.701334
199.237101698
199.668756294
201.012586641
199.257462764
200.12484417
200.568715405
200.128916383
199.697261786
200.556498766
199.668756294

Average distance is : 199.751 cm
Average deviation is : 1.694 cm
Block: 9
======================================
199.664684081
200.128916383
201.016658854
200.12484417
200.128916383
200.556498766
199.680972934
200.161494088
200.145205235
200.12484417
200.556498766
199.664684081
200.128916383
199.701334
199.664684081
199.701334
199.701334
200.145205235
200.980008936
199.701334
199.664684081
199.685045147
200.128916383
200.12484417
200.128916383
199.701334
200.128916383
199.685045147
199.257462764
200.589076471
199.648395228
199.257462764
200.145205235
200.12484417
199.685045147
199.224885058
199.921233511
200.108555317
200.145205235
200.128916383
200.128916383
200.556498766
200.12484417
199.668756294
199.664684081
199.241173911
200.108555317
200.108555317
200.11262753
200.11262753
199.701334
199.701334
199.685045147
200.128916383
199.664684081
199.680972934
199.685045147
199.664684081
199.680972934
199.680972934
199.685045147
200.108555317
200.12484417
200.11262753
199.224885058
199.685045147
199.697261786
200.096338677
200.092266464
200.108555317
199.668756294
200.552426553
199.685045147
199.685045147
200.092266464
199.668756294
200.128916383
199.668756294
200.128916383
199.685045147
199.668756294
200.552426553
199.224885058
200.963720083
199.648395228
200.11262753
199.701334
199.220812845
199.220812845
200.108555317
199.257462764
199.664684081
199.664684081
199.241173911
200.145205235
200.11262753
199.257462764
199.701334
199.701334
200.096338677

Average distance is : 199.894 cm
Average deviation is : 0.387 cm
Block: 10
======================================
200.572787619
199.701334
200.145205235
199.685045147
200.572787619
199.253390551
199.648395228
199.257462764
200.556498766
199.685045147
199.237101698
200.556498766
199.241173911
200.145205235
200.128916383
199.697261786
199.664684081
199.668756294
200.108555317
200.145205235
199.685045147
199.701334
199.685045147
200.11262753
200.108555317
199.668756294
199.664684081
199.668756294
200.128916383
199.664684081
199.685045147
200.108555317
200.11262753
200.128916383
200.11262753
200.12484417
200.568715405
200.108555317
199.701334
200.572787619
199.685045147
200.589076471
199.668756294
199.220812845
199.220812845
200.963720083
200.128916383
199.680972934
199.668756294
200.128916383
200.11262753
199.685045147
199.257462764
199.680972934
199.664684081
200.12484417
200.096338677
199.253390551
200.5361377
200.980008936
199.680972934
199.701334
199.664684081
200.108555317
199.680972934
199.685045147
200.092266464
200.128916383
199.253390551
200.11262753
199.664684081
199.717622852
199.685045147
199.680972934
199.685045147
199.685045147
199.257462764
199.664684081
200.128916383
200.145205235
199.648395228
199.685045147
200.108555317
200.11262753
200.12484417
199.685045147
199.241173911
200.092266464
200.108555317
199.204523993
199.680972934
199.224885058
199.680972934
199.241173911
200.503559995
199.680972934
199.685045147
199.664684081
200.11262753
200.145205235

Average distance is : 199.864 cm
Average deviation is : 0.400 cm