
Block: 1
======================================
200.145205235
199.701334
201.000370002
200.141133022
200.605365324

Average distance is : 200.319 cm
Average deviation is : 0.497 cm
Block: 2
======================================
200.161494088
200.108555317
199.701334
199.750200558
199.701334

Average distance is : 199.885 cm
Average deviation is : 0.230 cm
Block: 3
======================================
199.737983918
200.161494088
200.605365324
200.161494088
199.273751616

Average distance is : 199.988 cm
Average deviation is : 0.503 cm
Block: 4
======================================
200.605365324
199.717622852
200.589076471
199.290040469
136.007847762

Average distance is : 187.242 cm
Average deviation is : 28.646 cm
Block: 5
======================================
200.161494088
200.145205235
199.701334
199.701334
200.128916383

Average distance is : 199.968 cm
Average deviation is : 0.243 cm
Block: 6
======================================
199.733911705
200.556498766
199.685045147
199.697261786
199.701334

Average distance is : 199.875 cm
Average deviation is : 0.382 cm
Block: 7
======================================
199.680972934
199.733911705
199.733911705
200.605365324
200.145205235

Average distance is : 199.980 cm
Average deviation is : 0.397 cm
Block: 8
======================================
200.128916383
200.161494088
199.697261786
199.717622852
199.717622852

Average distance is : 199.885 cm
Average deviation is : 0.238 cm
Block: 9
======================================
199.701334
199.737983918
199.701334
200.161494088
199.701334

Average distance is : 199.801 cm
Average deviation is : 0.202 cm
Block: 10
======================================
199.701334
199.717622852
200.12484417
199.717622852
200.145205235

Average distance is : 199.881 cm
Average deviation is : 0.232 cm