
Block: 1
======================================
399.48374722
399.059198952
399.467573953
399.499920487
399.499920487
399.026852417
399.48374722
304.579014325
399.503963804
399.520137072

Average distance is : 389.912 cm
Average deviation is : 29.984 cm
Block: 2
======================================
399.091545486
399.079415536
399.467573953
399.516093755
399.095588803
398.654867268
398.671040535
399.075372219
399.499920487
399.48374722

Average distance is : 399.164 cm
Average deviation is : 0.326 cm
Block: 3
======================================
399.499920487
399.516093755
399.043025684
399.059198952
399.095588803
399.499920487
398.634650683
399.516093755
399.063242269
399.499920487

Average distance is : 399.243 cm
Average deviation is : 0.306 cm
Block: 4
======================================
399.451400685
399.059198952
399.111762071
399.059198952
399.520137072
399.043025684
399.499920487
399.499920487
399.499920487
399.463530636

Average distance is : 399.321 cm
Average deviation is : 0.219 cm
Block: 5
======================================
399.075372219
399.503963804
399.499920487
399.487790537
399.48374722
399.48374722
398.654867268
399.48374722
399.499920487
399.520137072

Average distance is : 399.369 cm
Average deviation is : 0.284 cm
Block: 6
======================================
399.48374722
399.499920487
399.536310339
399.940642023
399.111762071
399.94468534
399.48374722
145.761572123
399.536310339
399.924468756

Average distance is : 374.222 cm
Average deviation is : 80.273 cm
Block: 7
======================================
399.026852417
399.499920487
399.924468756
399.499920487
399.48374722
399.940642023
399.467573953
399.892122221
399.075372219
399.063242269

Average distance is : 399.487 cm
Average deviation is : 0.353 cm
Block: 8
======================================
399.904252172
399.908295488
399.499920487
399.940642023
399.467573953
399.48374722
399.924468756
399.499920487
399.499920487
399.48374722

Average distance is : 399.661 cm
Average deviation is : 0.223 cm
Block: 9
======================================
399.516093755
399.516093755
399.467573953
399.532267022
399.026852417
399.516093755
399.516093755
399.467573953
399.059198952
399.059198952

Average distance is : 399.368 cm
Average deviation is : 0.222 cm
Block: 10
======================================
399.536310339
399.48374722
399.552483606
399.520137072
399.48374722
399.499920487
399.520137072
399.48374722
399.516093755
399.48374722

Average distance is : 399.508 cm
Average deviation is : 0.025 cm