
Block: 1
======================================
399.499920487
399.520137072
399.536310339
399.48374722
399.48374722
399.043025684
399.48374722
399.026852417
399.48374722
399.499920487
399.079415536
399.516093755
399.075372219
399.499920487
399.095588803
399.499920487
399.499920487
399.107718754
399.516093755
399.043025684
399.48374722
399.059198952
399.043025684
399.532267022
399.499920487

Average distance is : 399.344 cm
Average deviation is : 0.216 cm
Block: 2
======================================
399.516093755
399.499920487
399.059198952
399.075372219
399.48374722
399.499920487
399.095588803
399.095588803
399.487790537
399.059198952
399.532267022
399.48374722
399.059198952
399.520137072
399.499920487
399.503963804
399.48374722
399.48374722
399.532267022
399.059198952
399.516093755
399.467573953
399.467573953
399.520137072
399.043025684

Average distance is : 399.362 cm
Average deviation is : 0.206 cm
Block: 3
======================================
399.059198952
399.520137072
399.516093755
399.48374722
399.516093755
399.499920487
217.54661932
399.059198952
399.435227418
399.499920487
399.499920487
399.467573953
399.499920487
399.043025684
399.503963804
399.536310339
398.634650683
399.499920487
399.48374722
399.059198952
399.516093755
399.499920487
399.487790537
399.532267022
399.499920487

Average distance is : 392.116 cm
Average deviation is : 36.369 cm
Block: 4
======================================
399.48374722
399.888078904
399.026852417
399.043025684
399.063242269
399.48374722
399.48374722
399.48374722
399.499920487
399.0228091
399.467573953
399.499920487
399.026852417
399.467573953
399.463530636
399.451400685
399.451400685
399.503963804
399.01067915
399.467573953
399.447357368
399.855732369
399.467573953
399.888078904
399.48374722

Average distance is : 399.417 cm
Average deviation is : 0.257 cm
Block: 5
======================================
399.940642023
399.924468756
399.924468756
399.908295488
399.924468756
399.48374722
399.48374722
399.48374722
399.908295488
399.908295488
399.875948954
399.904252172
399.467573953
399.908295488
399.435227418
400.332843757
399.940642023
399.892122221
399.908295488
399.908295488
400.349017024
399.871905637
400.300497222
399.892122221
400.332843757

Average distance is : 399.888 cm
Average deviation is : 0.263 cm
Block: 6
======================================
400.32880044
399.823385835
400.312627172
400.316670489
399.871905637
399.855732369
399.855732369
400.312627172
400.316670489
400.300497222
400.349017024
400.332843757
400.332843757
400.312627172
400.32880044
400.332843757
400.312627172
400.316670489
400.332843757
400.349017024
400.332843757
400.32880044
400.332843757
400.332843757
399.839559102

Average distance is : 400.230 cm
Average deviation is : 0.195 cm
Block: 7
======================================
399.940642023
400.349017024
400.332843757
400.312627172
399.892122221
174.861323428
399.960858607
400.349017024
399.924468756
400.349017024
399.95681529
399.888078904
399.928512073
399.924468756
399.451400685
400.332843757
400.332843757
399.940642023
399.908295488
400.312627172
400.349017024
399.908295488
399.48374722
399.908295488
399.451400685

Average distance is : 391.014 cm
Average deviation is : 45.033 cm
Block: 8
======================================
399.908295488
399.924468756
399.892122221
399.95681529
399.924468756
399.940642023
399.94468534
399.516093755
399.908295488
399.960858607
399.908295488
399.977031875
399.928512073
399.940642023
399.95681529
399.95681529
399.940642023
399.95681529
399.95681529
399.924468756
399.499920487
399.993205142
399.940642023
399.993205142
399.94468534

Average distance is : 399.908 cm
Average deviation is : 0.123 cm
Block: 9
======================================
399.520137072
399.536310339
399.552483606
399.503963804
399.584830141
399.520137072
399.520137072
399.552483606
399.079415536
399.467573953
399.516093755
399.548440289
399.588873458
399.532267022
399.552483606
399.043025684
399.075372219
399.091545486
399.552483606
399.520137072
399.568656874
399.499920487
399.536310339
399.568656874
399.499920487

Average distance is : 399.461 cm
Average deviation is : 0.176 cm
Block: 10
======================================
399.499920487
399.467573953
399.516093755
399.043025684
399.127935338
399.536310339
399.520137072
399.536310339
399.499920487
399.516093755
399.516093755
399.043025684
399.079415536
399.532267022
399.552483606
399.095588803
399.095588803
399.127935338
399.548440289
399.520137072
399.107718754
398.671040535
399.499920487
399.499920487
399.516093755

Average distance is : 399.347 cm
Average deviation is : 0.247 cm