
Block: 1
======================================
399.839559102
399.823385835
400.300497222
399.859775686
399.839559102
399.875948954
400.300497222
400.300497222
400.280280638
400.296453905
400.280280638
399.839559102
400.296453905
400.26410737
400.280280638
399.875948954
399.843602419
399.839559102
399.875948954
399.875948954
399.892122221
399.859775686
399.839559102
399.875948954
399.892122221
399.823385835
399.875948954
399.855732369
399.875948954
399.875948954
399.859775686
399.908295488
399.892122221
399.875948954
399.875948954
399.892122221
399.871905637
399.859775686
399.924468756
399.875948954
399.859775686
399.875948954
399.855732369
399.839559102
400.316670489
399.419054151
399.431184101
399.875948954
399.892122221
400.316670489
399.875948954
399.871905637
399.398837566
399.892122221
399.871905637
399.415010834
399.888078904
399.398837566
399.875948954
399.875948954
399.431184101
399.888078904
399.875948954
399.904252172
399.875948954
399.871905637
399.875948954
399.875948954
399.451400685
399.875948954
399.875948954
399.855732369
399.908295488
399.855732369
399.839559102

Block: 2
======================================
399.892122221
399.859775686
399.875948954
399.892122221
399.855732369
400.296453905
399.871905637
399.839559102
399.839559102
399.823385835
400.26410737
400.227717519
400.300497222
400.332843757
400.280280638
400.280280638
400.280280638
399.859775686
400.280280638
399.839559102
399.904252172
399.823385835
399.839559102
399.807212567
400.316670489
399.807212567
400.280280638
399.819342518
400.26410737
400.231760836
399.823385835
399.839559102
399.839559102
399.807212567
400.247934103
400.26410737
400.280280638
399.807212567
400.227717519
400.227717519
400.300497222
400.26410737
400.26410737
400.26410737
400.247934103
400.26410737
400.280280638
400.243890786
399.823385835
400.296453905
399.843602419
399.871905637
400.312627172
400.300497222
399.855732369
399.855732369
399.888078904
399.888078904
399.875948954
400.316670489
399.871905637
399.839559102
399.435227418
399.855732369
399.892122221
399.855732369
400.280280638
399.908295488
399.908295488
399.908295488
399.451400685
399.908295488
399.888078904
399.908295488
399.908295488

Block: 3
======================================
399.924468756
399.467573953
399.924468756
399.888078904
399.924468756
400.349017024
399.924468756
399.924468756
399.940642023
399.908295488
399.908295488
399.94468534
399.95681529
399.904252172
399.924468756
400.332843757
400.365190291
400.349017024
399.875948954
399.94468534
400.349017024
399.888078904
399.48374722
399.908295488
399.924468756
399.908295488
399.940642023
399.855732369
399.908295488
399.924468756
399.908295488
399.924468756
399.892122221
399.888078904
399.888078904
399.871905637
399.451400685
399.451400685
399.888078904
399.908295488
399.059198952
399.875948954
399.924468756
399.871905637
399.908295488
399.435227418
400.349017024
399.855732369
400.280280638
400.332843757
400.316670489
400.312627172
400.312627172
400.332843757
399.839559102
399.839559102
400.32880044
400.332843757
400.312627172
400.296453905
400.332843757
399.839559102
400.312627172
400.316670489
400.296453905
400.316670489
400.280280638
400.332843757
399.908295488
400.280280638
400.332843757
400.296453905
400.280280638
400.296453905
399.839559102

Block: 4
======================================
400.26410737
399.871905637
399.855732369
399.398837566
400.332843757
399.892122221
399.892122221
399.892122221
399.839559102
399.875948954
399.908295488
399.875948954
399.435227418
399.908295488
399.48374722
399.875948954
399.908295488
399.924468756
399.431184101
399.924468756
399.451400685
399.908295488
399.467573953
399.467573953
399.924468756
399.908295488
398.994505882
399.435227418
399.419054151
399.908295488
399.888078904
399.940642023
399.871905637
399.892122221
399.892122221
399.924468756
399.467573953
399.928512073
399.95681529
399.892122221
399.892122221
399.908295488
399.431184101
399.908295488
399.924468756
399.924468756
399.924468756
399.940642023
399.908295488
399.95681529
399.908295488
399.940642023
399.892122221
399.892122221
399.908295488
399.888078904
399.940642023
399.467573953
399.924468756
399.463530636
399.467573953
399.924468756
399.908295488
399.451400685
399.924468756
399.467573953
399.48374722
399.908295488
399.467573953
399.924468756
399.908295488
399.059198952
399.48374722
399.94468534
399.467573953

Block: 5
======================================
401.400279403
399.960858607
399.924468756
399.892122221
399.95681529
399.499920487
399.95681529
399.940642023
399.908295488
399.940642023
399.924468756
399.499920487
399.95681529
399.48374722
399.924468756
399.467573953
399.977031875
399.924468756
399.940642023
399.924468756
399.94468534
399.940642023
399.516093755
399.95681529
399.977031875
399.940642023
399.940642023
399.977031875
399.94468534
399.499920487
399.993205142
399.499920487
399.960858607
399.993205142
399.940642023
399.960858607
399.960858607
399.993205142
399.977031875
399.516093755
399.940642023
399.972988558
399.95681529
399.536310339
399.95681529
399.532267022
399.940642023
399.972988558
399.95681529
399.584830141
399.993205142
399.940642023
399.568656874
399.520137072
399.960858607
399.516093755
399.552483606
399.552483606
399.568656874
399.552483606
399.977031875
399.552483606
399.568656874
399.548440289
399.536310339
399.095588803
399.552483606
399.095588803
399.520137072
399.924468756
399.532267022
399.532267022
399.977031875
399.977031875
399.95681529

Block: 6
======================================
399.503963804
399.043025684
399.993205142
399.993205142
399.536310339
399.94468534
399.960858607
399.95681529
399.928512073
399.516093755
399.48374722
399.924468756
399.972988558
399.977031875
399.520137072
399.977031875
399.940642023
399.940642023
399.924468756
399.499920487
399.960858607
399.977031875
399.552483606
399.940642023
399.977031875
399.924468756
399.940642023
399.977031875
399.960858607
399.960858607
399.520137072
399.536310339
399.960858607
399.940642023
399.520137072
399.960858607
399.993205142
399.95681529
399.516093755
399.95681529
399.95681529
399.499920487
399.960858607
399.516093755
399.520137072
400.009378409
399.924468756
399.94468534
399.977031875
399.960858607
399.977031875
399.95681529
399.95681529
399.924468756
399.940642023
399.520137072
399.940642023
399.499920487
399.960858607
399.940642023
399.94468534
399.516093755
399.48374722
399.503963804
399.972988558
399.928512073
399.940642023
399.94468534
399.924468756
399.977031875
399.94468534
399.960858607
399.940642023
399.95681529
399.499920487

Block: 7
======================================
399.552483606
399.499920487
399.516093755
399.94468534
399.940642023
399.075372219
399.516093755
399.059198952
399.972988558
399.552483606
399.940642023
399.940642023
399.924468756
399.940642023
399.95681529
399.960858607
399.977031875
399.940642023
399.48374722
399.908295488
399.499920487
399.94468534
399.059198952
399.516093755
399.499920487
399.940642023
399.904252172
399.059198952
399.043025684
399.536310339
399.075372219
399.95681529
399.924468756
399.063242269
399.026852417
366.005083776
399.960858607
399.48374722
399.451400685
399.940642023
399.94468534
399.48374722
399.892122221
399.908295488
399.499920487
399.888078904
399.94468534
399.924468756
399.467573953
400.381363559
399.904252172
399.95681529
399.924468756
400.316670489
400.349017024
400.365190291
400.332843757
400.32880044
400.365190291
400.316670489
399.888078904
400.349017024
400.312627172
400.349017024
400.312627172
400.332843757
400.773565292
400.349017024
400.332843757
399.871905637
399.875948954
400.32880044
400.32880044
399.855732369
400.300497222

Block: 8
======================================
400.296453905
400.296453905
400.296453905
399.875948954
400.312627172
400.296453905
400.332843757
400.296453905
400.349017024
400.349017024
400.312627172
400.296453905
400.280280638
400.316670489
400.32880044
399.398837566
400.300497222
399.855732369
399.839559102
400.332843757
400.32880044
399.875948954
400.332843757
399.431184101
399.859775686
399.447357368
399.924468756
400.312627172
399.892122221
400.349017024
400.349017024
399.940642023
399.924468756
399.924468756
400.365190291
399.892122221
399.908295488
399.940642023
400.381363559
399.888078904
399.940642023
399.888078904
399.95681529
399.940642023
399.924468756
399.940642023
399.499920487
399.48374722
399.467573953
399.48374722
399.940642023
399.940642023
399.908295488
399.924468756
399.467573953
399.940642023
399.908295488
399.503963804
399.908295488
399.48374722
399.503963804
399.924468756
399.924468756
399.924468756
399.532267022
399.924468756
399.48374722
399.940642023
399.48374722
399.520137072
399.924468756
399.48374722
399.516093755
399.059198952
399.48374722

Block: 9
======================================
399.892122221
399.960858607
399.940642023
399.94468534
399.924468756
399.924468756
399.924468756
399.940642023
399.908295488
399.924468756
399.908295488
399.940642023
399.467573953
399.908295488
399.940642023
399.043025684
399.940642023
399.940642023
399.908295488
399.908295488
399.48374722
399.924468756
399.95681529
399.908295488
399.038982368
399.924468756
399.924468756
399.924468756
399.924468756
399.892122221
399.467573953
399.48374722
399.928512073
399.908295488
399.924468756
399.94468534
399.924468756
399.924468756
399.451400685
399.467573953
399.924468756
399.924468756
399.451400685
399.467573953
398.990462565
399.503963804
399.892122221
399.892122221
399.960858607
399.48374722
399.467573953
399.904252172
399.892122221
399.892122221
399.431184101
399.928512073
399.48374722
399.888078904
399.48374722
399.908295488
399.924468756
399.924468756
399.467573953
399.467573953
399.467573953
399.924468756
399.499920487
399.467573953
399.499920487
399.467573953
399.467573953
399.026852417
399.447357368
399.499920487
399.467573953

Block: 10
======================================
399.48374722
399.871905637
399.447357368
399.435227418
399.908295488
399.908295488
399.928512073
399.875948954
399.435227418
399.875948954
399.940642023
399.892122221
399.924468756
399.888078904
399.467573953
399.908295488
399.871905637
399.871905637
399.908295488
399.415010834
399.451400685
399.924468756
399.904252172
399.447357368
399.908295488
399.892122221
399.904252172
399.888078904
399.875948954
399.875948954
399.435227418
399.467573953
399.908295488
399.875948954
399.892122221
399.451400685
399.871905637
399.859775686
399.888078904
399.431184101
399.924468756
399.871905637
399.888078904
399.415010834
399.875948954
399.855732369
399.463530636
399.892122221
399.875948954
399.908295488
399.875948954
399.415010834
399.451400685
399.892122221
399.924468756
399.855732369
399.467573953
399.871905637
399.908295488
399.908295488
399.859775686
399.892122221
399.875948954
399.924468756
399.467573953
399.908295488
399.892122221
399.908295488
399.892122221
399.888078904
399.875948954
399.888078904
399.871905637
399.908295488
399.892122221
