
Block: 1
======================================
399.532267022
399.516093755
399.350317764
399.075372219
399.499920487

Average distance is : 399.395 cm
Average deviation is : 0.193 cm
Block: 2
======================================
399.499920487
399.95681529
166.350141478
399.940642023
399.95681529

Average distance is : 353.141 cm
Average deviation is : 104.419 cm
Block: 3
======================================
399.960858607
399.960858607
399.95681529
399.503963804
399.977031875

Average distance is : 399.872 cm
Average deviation is : 0.206 cm
Block: 4
======================================
400.365190291
400.822085094
399.95681529
399.908295488
400.369233608

Average distance is : 400.284 cm
Average deviation is : 0.371 cm
Block: 5
======================================
399.95681529
399.94468534
399.940642023
399.48374722
399.977031875

Average distance is : 399.861 cm
Average deviation is : 0.211 cm
Block: 6
======================================
399.908295488
399.94468534
399.499920487
399.908295488
399.940642023

Average distance is : 399.840 cm
Average deviation is : 0.191 cm
Block: 7
======================================
399.467573953
399.467573953
287.047192502
399.451400685
400.385406876

Average distance is : 377.164 cm
Average deviation is : 50.378 cm
Block: 8
======================================
399.924468756
399.908295488
399.48374722
399.960858607
399.924468756

Average distance is : 399.840 cm
Average deviation is : 0.200 cm
Block: 9
======================================
399.48374722
399.043025684
399.924468756
399.924468756
399.536310339

Average distance is : 399.582 cm
Average deviation is : 0.366 cm
Block: 10
======================================
399.059198952
399.451400685
399.871905637
399.467573953
399.026852417

Average distance is : 399.375 cm
Average deviation is : 0.347 cm