
Block: 1
======================================
300.979922199
300.553098345
300.675048018
301.390486097
300.520578432
300.536838388
300.979922199
301.42300601
301.406746054
301.427070999
300.979922199
300.979922199
300.504318476
300.516513443
300.520578432
300.536838388
300.520578432
301.849829865
300.536838388
300.536838388
300.979922199
301.833569908
300.520578432
300.520578432
300.536838388
300.504318476
300.947402287
300.516513443
301.42300601
301.42300601
300.963662243
300.536838388
300.536838388
300.536838388
300.553098345
301.42300601
301.849829865
301.833569908
300.979922199
300.979922199
300.536838388
301.406746054
300.536838388
300.553098345
301.42300601
300.536838388
300.979922199
301.406746054
300.536838388
300.536838388
300.536838388
300.996182156
300.34984889
300.557163334
300.536838388
300.569358301
301.000247145
300.947402287
300.70756793
300.963662243
300.963662243
300.520578432
301.443330956
301.406746054
302.276653719
300.536838388
300.536838388
301.42300601
300.963662243
300.553098345
300.57342329
300.520578432
300.536838388
301.427070999
300.979922199

Average distance is : 300.894 cm
Average deviation is : 0.443 cm
Block: 2
======================================
300.963662243
300.57342329
300.520578432
300.553098345
300.553098345
301.016507101
300.963662243
300.569358301
300.553098345
301.849829865
300.557163334
300.553098345
300.553098345
300.553098345
300.569358301
300.516513443
300.57342329
300.516513443
300.996182156
300.520578432
300.553098345
301.012442112
301.455525923
300.996182156
301.439265966
300.553098345
301.012442112
300.963662243
302.313238621
300.536838388
300.979922199
301.439265966
301.439265966
300.553098345
301.886414766
300.536838388
300.536838388
301.439265966
300.536838388
301.87015481
301.016507101
300.589683247
300.569358301
301.439265966
300.979922199
301.032767057
302.735997486
300.553098345
301.849829865
300.553098345
300.553098345
301.000247145
300.553098345
300.979922199
300.569358301
301.459590912
300.520578432
301.439265966
300.569358301
300.57342329
300.996182156
300.553098345
301.439265966
300.553098345
300.553098345
301.000247145
301.455525923
301.455525923
300.57342329
302.735997486
300.553098345
300.569358301
300.57342329
300.553098345
300.553098345

Average distance is : 300.930 cm
Average deviation is : 0.530 cm
Block: 3
======================================
301.012442112
300.536838388
301.000247145
301.439265966
300.536838388
300.57342329
300.585618258
300.569358301
300.57342329
301.443330956
300.557163334
300.963662243
301.012442112
300.983987188
300.569358301
300.589683247
301.016507101
301.443330956
300.996182156
300.57342329
300.996182156
301.000247145
301.000247145
300.569358301
301.016507101
301.455525923
301.439265966
301.012442112
300.553098345
300.553098345
301.439265966
300.979922199
300.569358301
301.459590912
301.032767057
300.996182156
301.455525923
301.455525923
300.553098345
301.443330956
300.979922199
301.016507101
301.866089821
300.589683247
300.553098345
300.553098345
300.536838388
300.557163334
301.016507101
300.553098345
300.553098345
300.553098345
300.569358301
301.849829865
301.427070999
300.536838388
300.553098345
300.553098345
300.110014534
300.553098345
301.443330956
300.979922199
300.553098345
300.553098345
300.996182156
301.42300601
300.553098345
300.569358301
300.553098345
301.439265966
300.979922199
300.553098345
301.439265966
300.979922199
300.553098345

Average distance is : 300.893 cm
Average deviation is : 0.389 cm
Block: 4
======================================
300.979922199
302.329498577
300.536838388
300.996182156
300.553098345
300.553098345
300.536838388
301.42300601
300.553098345
300.536838388
301.439265966
301.866089821
301.000247145
300.553098345
300.553098345
300.553098345
300.536838388
301.439265966
300.536838388
300.553098345
301.866089821
301.42300601
300.979922199
301.012442112
301.87015481
300.536838388
300.996182156
300.536838388
300.963662243
301.305121326
301.439265966
300.536838388
301.42300601
300.979922199
301.000247145
300.727892876
300.963662243
300.996182156
300.553098345
300.536838388
301.443330956
300.996182156
300.516513443
301.406746054
300.963662243
300.979922199
300.536838388
300.536838388
301.016507101
301.866089821
300.557163334
300.979922199
300.979922199
300.963662243
300.536838388
301.849829865
300.536838388
300.520578432
301.833569908
301.406746054
301.849829865
300.979922199
300.963662243
300.947402287
300.947402287
300.57342329
300.979922199
300.979922199
301.829504919
300.520578432
302.292913675
300.557163334
301.012442112
301.406746054
300.553098345

Average distance is : 301.007 cm
Average deviation is : 0.481 cm
Block: 5
======================================
300.516513443
300.504318476
301.406746054
300.536838388
300.963662243
301.000247145
301.42300601
300.520578432
301.406746054
300.557163334
300.536838388
300.996182156
301.406746054
300.996182156
301.42300601
300.963662243
300.557163334
300.963662243
300.979922199
300.553098345
300.553098345
301.455525923
302.292913675
300.979922199
300.979922199
300.963662243
301.866089821
301.443330956
300.536838388
300.504318476
301.42300601
300.569358301
300.536838388
300.520578432
301.866089821
300.996182156
301.406746054
300.979922199
301.455525923
301.849829865
300.536838388
300.553098345
301.42300601
300.553098345
300.520578432
300.536838388
301.439265966
300.979922199
300.979922199
300.536838388
300.553098345
301.012442112
300.996182156
300.536838388
300.996182156
300.536838388
301.439265966
300.996182156
300.553098345
300.520578432
300.553098345
300.536838388
300.553098345
300.553098345
300.536838388
300.569358301
300.979922199
301.439265966
300.536838388
300.979922199
301.012442112
300.979922199
300.979922199
301.459590912
301.406746054

Average distance is : 300.942 cm
Average deviation is : 0.425 cm
Block: 6
======================================
300.520578432
300.553098345
301.42300601
300.536838388
300.979922199
300.520578432
300.553098345
301.406746054
300.553098345
300.536838388
300.553098345
300.979922199
300.979922199
301.42300601
300.959597254
300.536838388
301.849829865
302.276653719
301.42300601
300.979922199
300.979922199
300.536838388
301.849829865
300.979922199
300.996182156
300.959597254
300.996182156
302.292913675
300.979922199
300.996182156
301.443330956
300.963662243
300.520578432
301.406746054
301.849829865
300.996182156
300.979922199
300.536838388
301.443330956
300.963662243
301.42300601
300.979922199
300.963662243
300.963662243
300.996182156
300.996182156
300.979922199
300.979922199
300.536838388
300.536838388
300.146599436
301.443330956
300.557163334
300.504318476
300.536838388
300.996182156
300.536838388
301.849829865
300.553098345
300.520578432
301.439265966
300.553098345
300.979922199
301.012442112
300.996182156
300.557163334
301.42300601
301.439265966
300.553098345
300.557163334
301.000247145
300.553098345
301.427070999
300.979922199
300.536838388

Average distance is : 300.976 cm
Average deviation is : 0.447 cm
Block: 7
======================================
300.536838388
301.42300601
300.979922199
301.439265966
300.553098345
300.520578432
300.536838388
301.42300601
300.536838388
300.536838388
300.536838388
300.516513443
301.439265966
301.439265966
300.557163334
300.979922199
301.42300601
300.553098345
301.439265966
300.536838388
301.443330956
301.439265966
300.553098345
300.979922199
300.979922199
300.553098345
300.979922199
300.553098345
301.459590912
301.443330956
301.882349777
300.536838388
300.536838388
301.42300601
300.536838388
300.557163334
300.520578432
301.849829865
301.000247145
301.849829865
300.979922199
301.439265966
300.569358301
301.406746054
300.553098345
300.569358301
300.553098345
301.427070999
300.516513443
300.569358301
300.557163334
301.42300601
301.455525923
301.42300601
300.569358301
301.439265966
301.000247145
302.292913675
300.983987188
300.979922199
300.983987188
300.536838388
301.866089821
300.536838388
300.979922199
300.516513443
300.983987188
300.569358301
301.443330956
301.42300601
300.536838388
301.42300601
300.557163334
300.57342329
300.557163334

Average distance is : 300.976 cm
Average deviation is : 0.464 cm
Block: 8
======================================
300.536838388
300.569358301
300.979922199
300.979922199
301.016507101
301.42300601
300.553098345
300.553098345
300.569358301
300.553098345
300.553098345
301.42300601
301.42300601
300.553098345
300.979922199
300.553098345
300.569358301
300.536838388
300.553098345
301.012442112
300.536838388
301.42300601
300.520578432
300.553098345
300.553098345
300.553098345
300.536838388
301.012442112
300.536838388
300.553098345
300.979922199
301.459590912
300.979922199
300.569358301
300.536838388
300.520578432
300.536838388
301.032767057
300.536838388
300.553098345
300.996182156
300.553098345
300.979922199
300.979922199
301.42300601
300.536838388
300.557163334
300.979922199
300.996182156
300.553098345
300.553098345
300.996182156
300.553098345
300.569358301
300.553098345
301.455525923
300.553098345
300.553098345
301.028702068
300.979922199
300.605943203
300.57342329
300.553098345
300.996182156
300.536838388
300.996182156
301.081546926
300.996182156
300.536838388
300.979922199
300.536838388
300.979922199
301.000247145
300.12627449
300.557163334

Average distance is : 300.770 cm
Average deviation is : 0.304 cm
Block: 9
======================================
300.996182156
301.016507101
300.536838388
300.093754578
301.849829865
300.536838388
300.520578432
300.996182156
301.833569908
300.553098345
300.553098345
301.42300601
300.536838388
300.57342329
301.42300601
300.536838388
300.536838388
301.000247145
301.406746054
300.979922199
300.996182156
300.996182156
300.536838388
300.520578432
301.000247145
300.536838388
300.553098345
301.427070999
301.439265966
301.849829865
301.42300601
300.536838388
301.406746054
301.42300601
300.520578432
300.520578432
302.292913675
300.553098345
301.42300601
302.276653719
300.553098345
301.427070999
300.963662243
300.520578432
300.557163334
301.42300601
301.42300601
300.536838388
301.443330956
300.979922199
300.963662243
300.553098345
300.536838388
301.42300601
301.012442112
301.849829865
300.963662243
301.406746054
300.963662243
300.516513443
301.42300601
300.516513443
300.979922199
300.979922199
301.443330956
300.536838388
301.866089821
301.406746054
301.406746054
300.979922199
300.979922199
300.557163334
301.406746054
301.849829865
300.536838388

Average distance is : 301.027 cm
Average deviation is : 0.492 cm
Block: 10
======================================
300.553098345
301.443330956
300.979922199
300.516513443
300.979922199
300.536838388
300.536838388
301.000247145
300.569358301
301.016507101
300.996182156
301.42300601
300.553098345
300.536838388
300.536838388
301.443330956
301.882349777
300.553098345
300.536838388
300.569358301
301.439265966
301.42300601
300.553098345
300.979922199
301.016507101
301.443330956
301.42300601
300.536838388
302.292913675
300.553098345
300.536838388
301.42300601
300.536838388
301.443330956
300.536838388
300.979922199
301.000247145
301.455525923
301.000247145
300.569358301
301.42300601
301.42300601
300.963662243
300.996182156
301.882349777
300.585618258
300.536838388
300.553098345
300.557163334
301.866089821
300.979922199
300.557163334
300.553098345
300.553098345
300.569358301
301.455525923
300.996182156
300.536838388
300.979922199
300.536838388
301.459590912
300.996182156
300.996182156
301.028702068
300.553098345
300.553098345
301.42300601
300.996182156
301.012442112
301.012442112
300.553098345
300.569358301
300.996182156
300.569358301
301.902674723

Average distance is : 300.952 cm
Average deviation is : 0.438 cm