
Block: 1
======================================
399.977031875
399.940642023
399.977031875
399.993205142
399.972988558

Average distance is : 399.972 cm
Average deviation is : 0.019 cm
Block: 2
======================================
399.48374722
399.977031875
399.48374722
399.95681529
400.365190291

Average distance is : 399.853 cm
Average deviation is : 0.375 cm
Block: 3
======================================
399.928512073
399.499920487
399.924468756
399.977031875
399.467573953

Average distance is : 399.760 cm
Average deviation is : 0.253 cm
Block: 4
======================================
399.924468756
399.48374722
399.467573953
399.48374722
399.875948954

Average distance is : 399.647 cm
Average deviation is : 0.232 cm
Block: 5
======================================
399.960858607
399.924468756
399.48374722
399.924468756
399.940642023

Average distance is : 399.847 cm
Average deviation is : 0.204 cm
Block: 6
======================================
399.960858607
399.95681529
399.48374722
399.972988558
399.908295488

Average distance is : 399.857 cm
Average deviation is : 0.210 cm
Block: 7
======================================
399.924468756
399.908295488
399.940642023
399.487790537
399.972988558

Average distance is : 399.847 cm
Average deviation is : 0.202 cm
Block: 8
======================================
399.924468756
399.043025684
399.908295488
116.540521312
72.1610756636

Average distance is : 277.515 cm
Average deviation is : 167.941 cm
Block: 9
======================================
399.928512073
399.875948954
399.892122221
399.467573953
399.928512073

Average distance is : 399.819 cm
Average deviation is : 0.198 cm
Block: 10
======================================
399.924468756
399.499920487
399.467573953
399.977031875
399.940642023

Average distance is : 399.762 cm
Average deviation is : 0.255 cm