
Block: 1
======================================
49.9696614265
50.4380114555
11.0596340179
49.9860947609
49.9696614265
49.9532280922
49.9696614265
49.9902030945
50.0025280952
49.9573364258
49.9902030945
50.4051447868
49.9737697601
50.3887114525
50.3887114525
49.9737697601
50.3681697845
12.045634079
50.3846031189
50.3846031189
49.9532280922
50.3846031189
49.9532280922
49.9532280922
50.3681697845

Block: 2
======================================
50.3681697845
50.3846031189
49.9532280922
50.3681697845
49.9696614265
49.9902030945
14.4777675629
50.0066364288
50.4174697876
49.9737697601
49.9860947609
50.4215781212
49.9532280922
50.4010364532
50.0025280952
50.3846031189
50.3681697845
49.9696614265
50.3681697845
16.6099926949
50.3846031189
49.9696614265
50.4051447868
49.9573364258
50.3846031189

Block: 3
======================================
49.8340864182
50.3681697845
49.9737697601
50.4174697876
50.4174697876
50.3517364502
49.9532280922
50.3681697845
12.3537590981
50.3681697845
50.3846031189
50.3681697845
50.3846031189
50.3681697845
50.3681697845
50.3846031189
50.3681697845
50.3846031189
50.3681697845
49.9696614265
50.4051447868
13.8040008545
50.3681697845
50.4010364532
50.3846031189

Block: 4
======================================
50.3681697845
50.3517364502
50.4051447868
50.3681697845
49.9860947609
50.3681697845
50.3517364502
50.3887114525
50.4174697876
50.0066364288
12.5263091087
50.3887114525
50.3846031189
50.3517364502
50.3887114525
50.3681697845
50.3846031189
49.9532280922
50.4051447868
49.9696614265
49.9367947578
50.4010364532
49.9737697601
16.0964509964
50.4174697876

Block: 5
======================================
50.0066364288
50.0066364288
50.3681697845
50.3517364502
50.3846031189
50.4010364532
49.9737697601
50.3476281166
50.3846031189
50.3517364502
49.9737697601
50.3846031189
13.6273425102
50.3846031189
49.9737697601
50.4010364532
50.3846031189
50.3681697845
50.4174697876
50.4051447868
50.4010364532
50.4051447868
50.3517364502
50.3681697845
50.4010364532

Block: 6
======================================
50.3681697845
15.0775842667
50.4215781212
50.4010364532
50.3846031189
50.3846031189
50.3681697845
50.3846031189
50.3681697845
49.6451030731
49.9532280922
50.3517364502
50.3517364502
49.9737697601
12.234617424
50.3681697845
50.3517364502
49.9573364258
50.3846031189
50.4215781212
50.4174697876
50.4010364532
50.3846031189
50.3846031189
50.3517364502

Block: 7
======================================
50.364061451
50.3846031189
49.9737697601
49.9203614235
49.9696614265
17.2673260689
50.3846031189
50.3887114525
50.3846031189
49.9902030945
50.3681697845
50.5900197983
49.9737697601
50.3681697845
50.3846031189
49.9696614265
50.3887114525
49.9737697601
13.8574091911
49.9696614265
49.9737697601
50.3887114525
49.9532280922
50.4010364532
49.9860947609

Block: 8
======================================
50.4010364532
50.4215781212
49.9532280922
49.9902030945
50.4010364532
50.3846031189
49.9737697601
14.6626425743
50.0066364288
50.4010364532
49.9367947578
49.9737697601
49.9367947578
50.3517364502
49.9696614265
49.9737697601
49.9532280922
49.9573364258
50.3846031189
50.3846031189
17.8178427696
50.3517364502
50.3476281166
50.3517364502
49.9367947578

Block: 9
======================================
50.3846031189
50.3887114525
50.0066364288
49.9696614265
50.3846031189
50.3681697845
50.0066364288
50.3846031189
49.9902030945
15.2172676086
50.3846031189
49.9737697601
50.3681697845
50.3681697845
50.4051447868
50.3681697845
49.9696614265
50.3681697845
50.3846031189
49.9860947609
50.3681697845
49.9573364258
16.3347343445
50.3681697845
49.9902030945

Block: 10
======================================
50.3846031189
50.4215781212
50.4174697876
50.0066364288
50.4380114555
49.9860947609
50.3517364502
50.4051447868
50.3476281166
50.4215781212
49.9696614265
13.4383591652
49.9367947578
50.4051447868
50.4010364532
50.3846031189
50.3517364502
50.3681697845
50.4215781212
50.4010364532
50.3846031189
50.3681697845
50.3846031189
50.3846031189
13.0973674774
