
Block: 1
======================================
12.3537590981
50.4051447868
49.9532280922
50.4174697876
50.4380114555

Average distance is : 42.714 cm
Average deviation is : 16.973 cm
Block: 2
======================================
50.4010364532
49.9367947578
49.9860947609
50.0066364288
49.9860947609

Average distance is : 50.063 cm
Average deviation is : 0.191 cm
Block: 3
======================================
49.9573364258
49.9696614265
49.9902030945
50.3681697845
49.9696614265

Average distance is : 50.051 cm
Average deviation is : 0.178 cm
Block: 4
======================================
50.4051447868
7.82226715088
49.9367947578
50.3846031189
49.9860947609

Average distance is : 41.707 cm
Average deviation is : 18.943 cm
Block: 5
======================================
50.4051447868
50.4174697876
50.4174697876
50.364061451
50.3846031189

Average distance is : 50.398 cm
Average deviation is : 0.023 cm
Block: 6
======================================
49.9860947609
50.4339031219
50.3681697845
49.9902030945
49.9902030945

Average distance is : 50.154 cm
Average deviation is : 0.227 cm
Block: 7
======================================
50.4215781212
50.3846031189
50.3846031189
50.4051447868
10.0120089531

Average distance is : 42.322 cm
Average deviation is : 18.062 cm
Block: 8
======================================
50.3681697845
50.4010364532
50.4010364532
50.3517364502
50.4174697876

Average distance is : 50.388 cm
Average deviation is : 0.027 cm
Block: 9
======================================
50.4010364532
50.3846031189
50.4174697876
50.3846031189
50.4051447868

Average distance is : 50.399 cm
Average deviation is : 0.014 cm
Block: 10
======================================
50.3681697845
49.9409030914
50.4215781212
50.3846031189
50.3846031189

Average distance is : 50.300 cm
Average deviation is : 0.202 cm