
Block: 1
======================================
99.8965811729
99.9337512255
55.416418314
66.6748142242
72.1801120043

Average distance is : 78.820 cm
Average deviation is : 20.183 cm
Block: 2
======================================
99.8965811729
54.9827677011
67.9881560802
70.8832901716
55.9533190727

Average distance is : 69.941 cm
Average deviation is : 18.176 cm
Block: 3
======================================
99.8635411263
100.27654171
100.297191739
99.4464105368
100.297191739

Average distance is : 100.036 cm
Average deviation is : 0.378 cm
Block: 4
======================================
99.9007111788
99.8800611496
100.280671716
99.8800611496
99.8470211029

Average distance is : 99.958 cm
Average deviation is : 0.182 cm
Block: 5
======================================
99.9007111788
99.8965811729
100.297191739
100.313711762
99.9502712488

Average distance is : 100.072 cm
Average deviation is : 0.215 cm
Block: 6
======================================
99.8800611496
100.313711762
100.243501663
100.313711762
100.297191739

Average distance is : 100.210 cm
Average deviation is : 0.186 cm
Block: 7
======================================
99.8635411263
100.297191739
100.313711762
99.9007111788
99.8800611496

Average distance is : 100.051 cm
Average deviation is : 0.233 cm
Block: 8
======================================
99.8635411263
100.330231786
100.346751809
100.280671716
53.5290056467

Average distance is : 90.870 cm
Average deviation is : 20.875 cm
Block: 9
======================================
99.9544012547
99.4505405426
100.313711762
99.8800611496
53.2316452265

Average distance is : 90.566 cm
Average deviation is : 20.873 cm
Block: 10
======================================
99.9172312021
100.400441885
100.313711762
100.350881815
52.5047641993

Average distance is : 90.697 cm
Average deviation is : 21.351 cm
Average distance for 10x5 is : 92.122 cm
Average deviation for 10x5 is : 10.265 cm
 Percentage of values that failed: 0.000