
Block: 1
======================================
99.9337512255
100.297191739
100.367401838
99.9337512255
100.280671716
99.9131011963
100.297191739
54.0452563763
66.2783336639
70.1935791969
55.0860178471
66.1544334888
69.4460481405
57.3203510046
66.8276244402
66.2742036581
56.1763393879
65.4482024908
72.7211427689
56.6595500708
64.4900411367
72.7541828156
57.5970613956
64.8534816504
71.5069210529
58.9310532808
66.9019645452
68.5457068682
60.3146052361
61.3594967127
71.8166714907
51.0510021448
69.9994689226
72.1140319109
51.8976533413
73.4975838661
68.9091473818
52.0215535164
73.1547933817
68.2483464479
53.9626562595
68.1822663546
70.7800400257
54.962117672
65.8281630278
73.4108537436
56.9238704443
64.0068304539
72.8409129381
58.4313225746

Block: 2
======================================
100.330231786
99.9172312021
100.313711762
100.350881815
53.5455256701
66.6417741776
70.4496395588
54.6564972401
64.2505007982
71.6969013214
55.7633388042
63.2097393274
71.7671114206
56.804100275
61.6527271271
73.827984333
59.988334775
60.0750648975
62.4828583002
58.8443231583
64.1266006231
57.9976719618
64.2670208216
71.6803812981
59.6909743547
61.2686365843
60.3848153353
60.4385054111
61.8261873722
71.6638612747
61.2686365843
59.6909743547
62.412648201
60.1122349501
63.4368896484
70.4000794888
60.872156024
61.3884067535
60.7358658314
61.4957869053
72.1635919809
61.0827863216
59.8685646057
63.1395292282
70.8337301016
60.3724253178
60.872156024
61.2149465084
60.6119656563
72.5807225704

Block: 3
======================================
99.8635411263
99.8965811729
100.350881815
99.8841911554
99.8800611496
53.5620456934
66.8482744694
70.0696790218
82.3853564262
69.5327782631
82.0219159126
39.5117658377
68.5457068682
81.7947655916
68.1657463312
85.2433204651
69.0123975277
84.3264591694
70.0531589985
83.3022177219
70.6767898798
82.2821062803
71.6803812981
81.2454748154
42.2169196606
70.4661595821
80.7085740566
72.667452693
80.6879240274
73.2539135218
80.5640238523
73.2539135218
80.6548839808
73.2043534517
80.1510232687
73.2373934984
80.2873134613
41.903039217
70.7759100199
82.9924672842
70.8296000957
82.5216466188
41.7626190186
70.1233690977
81.5717452765
71.8001514673
81.7452055216
71.9736117125
81.3652449846
71.9942617416

Block: 4
======================================
99.8841911554
99.8800611496
54.355006814
67.2488850355
70.5735397339
56.6967201233
66.6582942009
69.3427979946
56.7132401466
69.1528177261
68.0418461561
54.9290776253
65.8612030745
56.804100275
65.3036522865
72.1801120043
57.3368710279
63.019759059
59.5051240921
62.2887480259
72.5972425938
59.0879935026
63.6970800161
71.5771311522
60.2485251427
61.1653864384
61.3388466835
71.2302106619
62.2433179617
91.1657488346
65.2540922165
56.956910491
65.5679726601
71.2632507086
58.447842598
67.7981758118
68.0624961853
58.117442131
68.70264709
67.4223452806
57.8242117167
65.1673620939
58.2372123003
63.9696604013
72.1635919809
58.1133121252
62.7967387438
59.2573237419
72.1470719576
62.9495489597

Block: 5
======================================
99.9172312021
100.317841768
100.317841768
100.367401838
99.8800611496
54.8051774502
66.4517939091
71.3169407845
55.8996289968
68.5787469149
67.9716360569
55.2759981155
65.5638426542
71.3004207611
57.2171008587
95.6550651789
59.4514340162
63.6433899403
71.2508606911
59.331663847
62.0120376348
59.6579343081
72.1470719576
62.6067584753
58.5676127672
63.9903104305
71.8042814732
58.5304427147
63.5566598177
72.3370522261
58.4643626213
94.5110535622
59.4679540396
93.5239821672
60.3146052361
92.6236408949
62.18549788
60.3146052361
61.8220573664
72.2709721327
60.2815651894
62.2391879559
71.4573609829
60.7152158022
63.523619771
70.1729291677
61.1653864384
65.1673620939
68.0418461561
62.0987677574

Block: 6
======================================
99.8965811729
99.9172312021
100.330231786
99.9337512255
100.334361792
100.313711762
99.9172312021
54.4954270124
65.5638426542
71.2136906385
56.6595500708
62.8132587671
70.7800400257
59.331663847
93.5405021906
60.8556360006
92.0867401361
63.9366203547
57.7540016174
71.7299413681
65.2210521698
56.073089242
65.2004021406
72.5848525763
57.0436406136
63.2758194208
73.3819437027
59.0343034267
93.9411127567
58.6213028431
63.3831995726
59.2779737711
71.6266912222
63.2592993975
58.117442131
72.514642477
64.4033110142
56.4902198315
65.9314131737
71.2508606911
58.9640933275
61.7518472672
60.9258460999
71.2136906385
62.5324183702
58.7906330824
62.8958588839
71.0732704401
60.6615257263
62.7223986387

Block: 7
======================================
99.8841911554
100.280671716
99.9502712488
54.9125576019
65.4110324383
71.9240516424
56.4902198315
62.5365483761
73.0680632591
59.5051240921
60.8019459248
61.7022871971
60.9588861465
72.1512019634
61.148866415
59.761184454
62.2928780317
71.7340713739
60.7689058781
61.805537343
58.7906330824
62.5365483761
72.5600725412
60.4715454578
60.0048547983
62.1028977633
59.5216441154
62.3093980551
72.6302826405
60.2278751135
60.1989650726
62.7926087379
70.8832901716
61.2025564909
60.4715454578
61.6155570745
59.6951043606
72.6302826405
61.4586168528
59.8850846291
62.6521885395
71.9736117125
59.988334775
62.4828583002
59.6248942614
62.1689778566
72.1470719576
59.9181246758
61.0414862633
61.9996476173

Block: 8
======================================
99.9007111788
99.8676711321
100.334361792
54.3756568432
65.9272831678
54.9827677011
65.6175327301
71.6266912222
56.5934699774
63.0858391523
72.5311625004
57.4070811272
61.9418275356
73.4108537436
58.117442131
60.8019459248
74.1749048233
60.1081049442
60.9754061699
61.6155570745
71.8208014965
61.7394572496
91.6902595758
63.4534096718
89.6624267101
63.3336395025
58.8278031349
64.3537509441
70.2968293428
60.5582755804
60.9051960707
61.755977273
71.2136906385
61.9087874889
59.4679540396
72.5105124712
61.9624775648
58.9971333742
63.6599099636
71.3128107786
59.8850846291
63.573179841
70.519849658
60.7854259014
65.2706122398
68.4052866697
60.7317358255
61.9253075123
61.7724972963
60.492195487

Block: 9
======================================
99.9007111788
100.367401838
99.4670605659
54.4623869658
96.3860762119
57.1634107828
63.800330162
70.3133493662
57.79117167
61.6692471504
71.1063104868
59.0177834034
60.1948350668
73.0680632591
61.6320770979
58.9104032516
73.6916941404
62.0492076874
57.7870416641
74.1749048233
61.9294375181
58.3569824696
73.6751741171
63.1601792574
57.1634107828
73.6214840412
63.9407503605
55.9491890669
73.6214840412
64.1100805998
56.5232598782
73.7040841579
63.523619771
56.7132401466
73.6545240879
64.3041908741
55.8789789677
73.6875641346
65.1467120647
55.5692285299
66.327893734
71.4862710238
57.5103312731
63.9903104305
71.8208014965
59.5051240921
64.4735211134
69.8590487242
60.5417555571
61.7931473255

Block: 10
======================================
99.9172312021
99.9502712488
54.6523672342
65.0310719013
70.8461201191
57.5103312731
93.7841725349
99.8965811729
53.5579156876
65.3201723099
71.8001514673
55.189267993
62.8958588839
57.6672714949
62.9330289364
70.2266192436
59.988334775
61.6857671738
60.1783150434
62.412648201
71.1971706152
60.7854259014
61.0456162691
60.1617950201
73.1011033058
61.1653864384
60.9382361174
71.630821228
61.1323463917
92.2602003813
60.8349859715
92.5369107723
62.6026284695
90.096077323
62.9495489597
58.8649731874
63.3295094967
71.7340713739
60.215485096
61.0951763391
61.2190765142
71.630821228
61.4255768061
59.5546841621
62.1896278858
59.988334775
61.4420968294
61.2355965376
71.3169407845
62.363088131
