
Block: 1
======================================
301.475850868
301.459590912
301.459590912
301.032767057
301.016507101
301.459590912
300.638463116
301.06528697
300.585618258
301.016507101
301.475850868
301.012442112
301.012442112
301.032767057
300.996182156
300.996182156
300.553098345
301.032767057
300.589683247
301.475850868
300.638463116
301.016507101
300.553098345
300.57342329
301.016507101
300.553098345
301.06528697
300.996182156
300.589683247
301.475850868
301.016507101
300.996182156
301.012442112
300.622203159
300.589683247
300.585618258
301.000247145
301.012442112
300.979922199
300.638463116
300.996182156
300.536838388
301.012442112
301.016507101
300.569358301
300.569358301
301.028702068
301.455525923
301.012442112
301.012442112
301.016507101
300.585618258
300.622203159
301.028702068
301.475850868
301.012442112
301.475850868
300.996182156
301.390486097
301.439265966
300.996182156
301.455525923
301.492110825
301.012442112
301.492110825
301.000247145
300.996182156
300.569358301
301.012442112
300.553098345
300.553098345
300.979922199
300.979922199
301.000247145
300.536838388
301.016507101
300.979922199
300.996182156
300.536838388
301.028702068
300.536838388
300.553098345
301.016507101
301.012442112
300.553098345
300.979922199
301.000247145
300.996182156
300.979922199
301.081546926
301.012442112
300.553098345
300.569358301
300.553098345
301.016507101
301.049027014
300.553098345
300.557163334
301.06528697
300.536838388

Average distance is : 300.939 cm
Average deviation is : 0.298 cm
Block: 2
======================================
300.979922199
300.601878214
300.622203159
300.553098345
300.622203159
300.557163334
300.569358301
300.557163334
300.996182156
300.553098345
300.536838388
300.979922199
300.996182156
300.536838388
300.57342329
301.012442112
300.553098345
300.536838388
301.016507101
300.569358301
300.520578432
300.553098345
300.553098345
300.605943203
301.439265966
300.553098345
300.536838388
300.996182156
301.016507101
300.622203159
300.605943203
300.57342329
300.996182156
301.012442112
300.536838388
300.536838388
300.553098345
301.012442112
301.439265966
300.996182156
301.439265966
301.443330956
300.536838388
300.605943203
300.622203159
300.996182156
301.455525923
300.553098345
300.622203159
300.536838388
300.605943203
300.520578432
301.012442112
300.979922199
300.536838388
300.996182156
300.536838388
300.569358301
301.06528697
300.536838388
300.520578432
301.42300601
301.439265966
300.520578432
300.605943203
301.000247145
300.996182156
300.589683247
300.569358301
300.605943203
300.622203159
300.557163334
301.012442112
300.605943203
300.553098345
300.553098345
300.553098345
300.57342329
300.553098345
300.589683247
300.569358301
300.557163334
300.553098345
300.553098345
300.553098345
300.536838388
300.553098345
300.536838388
300.536838388
300.622203159
300.57342329
300.589683247
300.536838388
301.000247145
300.996182156
300.536838388
301.000247145
300.979922199
301.012442112
300.520578432

Average distance is : 300.735 cm
Average deviation is : 0.272 cm
Block: 3
======================================
300.520578432
300.605943203
300.536838388
300.536838388
301.012442112
300.979922199
300.979922199
300.520578432
300.553098345
300.536838388
300.536838388
300.996182156
300.979922199
300.520578432
300.557163334
300.536838388
300.557163334
300.553098345
301.06528697
300.57342329
300.979922199
300.553098345
300.605943203
301.000247145
301.42300601
300.585618258
301.443330956
300.536838388
301.42300601
300.553098345
300.553098345
300.536838388
300.536838388
301.049027014
300.57342329
300.979922199
300.536838388
300.536838388
300.622203159
301.049027014
300.605943203
301.42300601
300.520578432
300.536838388
300.536838388
300.585618258
300.605943203
300.569358301
300.553098345
300.979922199
300.536838388
301.443330956
301.475850868
300.553098345
300.605943203
300.61813817
301.459590912
300.553098345
300.605943203
300.979922199
301.06528697
301.866089821
300.553098345
300.979922199
301.439265966
301.439265966
300.553098345
300.536838388
301.508370781
300.553098345
301.42300601
300.536838388
300.536838388
301.42300601
300.622203159
300.979922199
300.622203159
301.508370781
301.439265966
301.455525923
301.42300601
300.553098345
301.42300601
301.443330956
301.06528697
300.536838388
301.439265966
300.553098345
300.536838388
300.516513443
301.866089821
300.996182156
300.979922199
300.553098345
301.012442112
300.996182156
301.06528697
300.553098345
301.439265966
300.536838388

Average distance is : 300.860 cm
Average deviation is : 0.383 cm
Block: 4
======================================
300.536838388
300.553098345
301.443330956
301.081546926
300.57342329
300.605943203
300.979922199
301.42300601
300.536838388
300.520578432
300.622203159
300.605943203
301.443330956
300.589683247
301.439265966
301.42300601
301.439265966
301.42300601
300.622203159
300.979922199
301.439265966
301.42300601
300.536838388
301.000247145
300.520578432
300.979922199
300.979922199
300.569358301
300.536838388
301.049027014
300.996182156
301.42300601
300.979922199
301.439265966
301.439265966
300.963662243
301.439265966
301.443330956
300.536838388
300.959597254
300.536838388
301.42300601
300.536838388
300.536838388
301.049027014
300.536838388
300.536838388
300.557163334
300.622203159
300.557163334
301.439265966
300.553098345
300.553098345
300.979922199
300.979922199
300.996182156
300.536838388
300.605943203
300.585618258
301.439265966
300.979922199
300.642528105
300.536838388
301.049027014
300.996182156
301.42300601
301.42300601
300.979922199
300.605943203
300.585618258
300.622203159
300.996182156
301.016507101
301.42300601
300.500253487
300.996182156
300.996182156
300.536838388
301.439265966
301.427070999
301.06528697
300.536838388
301.081546926
300.536838388
300.553098345
300.553098345
301.012442112
300.536838388
300.601878214
301.406746054
300.536838388
301.06528697
300.536838388
300.553098345
301.42300601
300.553098345
300.963662243
300.605943203
300.963662243
300.979922199

Average distance is : 300.903 cm
Average deviation is : 0.354 cm
Block: 5
======================================
300.557163334
300.520578432
300.57342329
300.622203159
300.622203159
300.536838388
301.406746054
301.443330956
300.979922199
301.439265966
300.589683247
300.536838388
300.605943203
300.979922199
300.536838388
300.536838388
301.439265966
300.553098345
300.553098345
300.569358301
300.557163334
300.996182156
300.553098345
300.553098345
300.605943203
300.553098345
300.536838388
300.996182156
300.516513443
301.06528697
300.500253487
300.943337297
300.553098345
300.553098345
300.622203159
300.605943203
300.536838388
300.605943203
300.983987188
300.996182156
300.605943203
301.439265966
300.979922199
300.516513443
301.443330956
300.979922199
301.443330956
301.439265966
300.979922199
300.979922199
300.589683247
300.979922199
300.979922199
300.557163334
300.605943203
300.963662243
300.553098345
301.42300601
300.979922199
300.979922199
300.520578432
300.979922199
300.963662243
300.996182156
300.979922199
300.536838388
301.406746054
300.605943203
301.443330956
300.979922199
300.979922199
300.536838388
300.536838388
300.553098345
300.622203159
301.443330956
300.963662243
300.536838388
300.947402287
300.589683247
300.979922199
301.443330956
300.553098345
300.536838388
300.520578432
301.439265966
301.443330956
300.963662243
300.963662243
300.947402287
300.963662243
300.963662243
300.520578432
300.500253487
300.996182156
301.42300601
300.520578432
301.42300601
300.536838388
300.536838388

Average distance is : 300.842 cm
Average deviation is : 0.329 cm
Block: 6
======================================
300.520578432
301.475850868
301.849829865
300.943337297
300.947402287
300.979922199
300.504318476
300.947402287
300.504318476
300.516513443
300.947402287
300.963662243
300.500253487
300.947402287
300.943337297
300.947402287
300.947402287
300.963662243
300.520578432
300.504318476
300.963662243
300.927077341
300.963662243
301.386421108
300.500253487
300.48399353
300.488058519
300.467733574
300.93114233
300.48399353
300.520578432
300.504318476
300.500253487
300.947402287
301.386421108
300.947402287
300.947402287
300.488058519
300.947402287
301.390486097
300.520578432
300.943337297
300.500253487
300.504318476
301.386421108
300.48399353
301.406746054
300.585618258
300.488058519
300.947402287
300.536838388
300.500253487
300.585618258
301.390486097
300.504318476
301.000247145
301.390486097
300.57342329
300.488058519
300.536838388
300.488058519
300.963662243
300.553098345
300.504318476
300.500253487
300.500253487
300.553098345
300.500253487
300.471798563
301.390486097
300.48399353
300.504318476
301.390486097
300.520578432
300.553098345
300.536838388
300.927077341
301.390486097
300.504318476
300.48399353
300.500253487
300.48399353
300.504318476
300.504318476
301.374226141
300.553098345
300.553098345
300.471798563
300.48399353
300.488058519
300.553098345
300.927077341
300.963662243
300.48399353
300.467733574
300.93114233
300.569358301
301.42300601
300.488058519
300.536838388

Average distance is : 300.758 cm
Average deviation is : 0.336 cm
Block: 7
======================================
300.943337297
300.471798563
300.569358301
300.467733574
300.504318476
300.504318476
301.016507101
300.48399353
300.488058519
300.557163334
300.979922199
300.504318476
300.504318476
300.48399353
300.504318476
300.488058519
300.488058519
300.553098345
300.553098345
300.553098345
300.467733574
300.504318476
300.520578432
301.390486097
300.500253487
300.943337297
300.488058519
300.520578432
301.012442112
300.553098345
300.488058519
300.569358301
300.569358301
300.569358301
300.467733574
300.467733574
300.504318476
300.504318476
300.927077341
300.947402287
300.48399353
300.48399353
300.48399353
300.553098345
300.910817385
301.386421108
301.370161152
300.947402287
301.016507101
300.504318476
300.943337297
300.488058519
300.927077341
300.943337297
300.959597254
301.374226141
300.504318476
300.451473618
300.93114233
300.553098345
300.504318476
300.488058519
300.467733574
300.553098345
301.012442112
300.504318476
300.48399353
300.927077341
300.48399353
301.390486097
301.357966185
300.927077341
300.48399353
300.536838388
300.520578432
301.012442112
300.927077341
300.467733574
300.927077341
300.467733574
300.536838388
300.488058519
300.48399353
300.504318476
300.927077341
300.927077341
300.504318476
300.504318476
300.93114233
300.504318476
300.488058519
300.48399353
300.488058519
300.451473618
300.48399353
300.553098345
300.57342329
300.500253487
300.947402287
300.943337297

Average distance is : 300.674 cm
Average deviation is : 0.266 cm
Block: 8
======================================
300.451473618
300.536838388
300.927077341
300.488058519
300.48399353
300.520578432
300.516513443
301.390486097
300.516513443
300.500253487
300.536838388
300.996182156
300.947402287
300.553098345
300.553098345
300.504318476
300.488058519
300.569358301
301.374226141
300.504318476
300.500253487
301.353901196
300.57342329
301.390486097
301.374226141
300.488058519
300.947402287
300.500253487
300.947402287
300.48399353
300.93114233
300.504318476
301.370161152
300.947402287
301.374226141
300.536838388
301.386421108
300.500253487
300.536838388
301.370161152
300.488058519
301.390486097
300.947402287
300.504318476
301.370161152
300.927077341
301.353901196
301.374226141
300.488058519
300.467733574
301.406746054
301.390486097
301.000247145
300.48399353
301.374226141
300.553098345
300.48399353
301.374226141
300.553098345
300.504318476
300.48399353
301.370161152
300.467733574
300.500253487
300.553098345
300.48399353
301.353901196
301.817309952
300.48399353
300.488058519
301.390486097
301.374226141
300.943337297
300.536838388
301.370161152
301.374226141
300.504318476
300.48399353
300.553098345
301.390486097
301.357966185
300.48399353
300.48399353
300.504318476
300.471798563
301.370161152
301.370161152
301.390486097
301.370161152
300.467733574
300.536838388
300.910817385
300.894557428
300.914882374
300.504318476
300.553098345
301.353901196
300.947402287
301.817309952
300.488058519

Average distance is : 300.859 cm
Average deviation is : 0.409 cm
Block: 9
======================================
301.374226141
300.536838388
301.374226141
301.406746054
300.947402287
301.000247145
300.536838388
300.914882374
300.467733574
300.471798563
301.374226141
300.979922199
301.374226141
300.488058519
300.536838388
300.894557428
300.894557428
300.910817385
300.488058519
301.353901196
300.914882374
300.910817385
300.910817385
300.467733574
300.471798563
300.979922199
300.93114233
300.914882374
300.927077341
300.894557428
300.455538607
300.894557428
301.337641239
300.93114233
300.947402287
300.914882374
300.910817385
300.435213661
300.894557428
300.894557428
300.488058519
300.894557428
300.894557428
301.353901196
300.910817385
300.431148672
300.894557428
300.451473618
301.78072505
300.451473618
300.910817385
300.894557428
300.451473618
300.910817385
300.874232483
300.910817385
301.42300601
300.93114233
300.894557428
300.435213661
301.353901196
300.910817385
300.910817385
300.894557428
300.435213661
300.927077341
300.927077341
300.927077341
300.516513443
300.48399353
300.451473618
300.894557428
301.78072505
300.910817385
300.910817385
300.914882374
300.451473618
300.894557428
300.894557428
300.451473618
300.451473618
300.910817385
300.467733574
301.353901196
301.764465094
300.451473618
300.451473618
300.93114233
301.370161152
300.914882374
300.455538607
300.910817385
300.910817385
300.943337297
300.914882374
300.488058519
300.516513443
301.353901196
300.894557428
301.353901196

Average distance is : 300.871 cm
Average deviation is : 0.331 cm
Block: 10
======================================
300.927077341
300.414888716
301.337641239
301.357966185
301.817309952
300.435213661
300.467733574
300.431148672
300.536838388
300.451473618
300.435213661
300.471798563
300.467733574
300.451473618
300.504318476
300.451473618
300.894557428
300.910817385
300.471798563
300.435213661
300.894557428
301.353901196
300.979922199
300.500253487
300.451473618
300.48399353
300.894557428
300.451473618
300.435213661
301.337641239
300.520578432
300.963662243
300.435213661
300.878297472
300.451473618
300.894557428
300.435213661
300.894557428
300.451473618
300.910817385
300.910817385
300.878297472
300.914882374
300.414888716
300.431148672
300.48399353
301.42300601
301.341706228
300.435213661
300.894557428
300.431148672
300.927077341
300.894557428
300.467733574
301.353901196
300.910817385
300.520578432
301.370161152
300.894557428
300.435213661
300.894557428
300.894557428
300.894557428
300.927077341
300.894557428
300.910817385
301.357966185
300.451473618
300.471798563
300.878297472
300.874232483
300.536838388
300.520578432
301.353901196
301.337641239
300.48399353
300.910817385
301.341706228
301.353901196
301.337641239
301.353901196
300.467733574
300.536838388
300.894557428
300.894557428
301.353901196
300.536838388
300.451473618
300.467733574
301.353901196
302.634372759
300.451473618
300.431148672
300.910817385
300.467733574
300.898622417
301.357966185
301.42300601
301.42300601
301.337641239

Average distance is : 300.829 cm
Average deviation is : 0.407 cm