
Block: 1
======================================
401.060640788
400.63609252
401.485189056
402.330242276
401.060640788
401.044467521
401.024250937
401.060640788
401.060640788
401.044467521
401.044467521
402.775007129
401.060640788
403.624103665
401.469015789
401.485189056
401.925910592
401.064684105
401.925910592
401.044467521
402.791180396
401.485189056
401.044467521
401.485189056
401.024250937

Average distance is : 401.482 cm
Average deviation is : 0.714 cm
Block: 2
======================================
401.060640788
400.603745985
401.044467521
401.044467521
401.925910592
400.656309104
400.619919252
400.619919252
400.63609252
400.619919252
400.603745985
402.775007129
400.619919252
401.485189056
401.040424204
401.040424204
401.060640788
400.619919252
400.63609252
401.080857372
400.640135837
400.63609252
401.501362324
401.076814055
400.640135837

Average distance is : 400.972 cm
Average deviation is : 0.513 cm
Block: 3
======================================
401.925910592
401.092987323
401.092987323
400.215587568
400.227717519
400.652265787
400.211544251
400.652265787
400.672482371
400.26410737
400.672482371
401.537752175
400.26410737
400.231760836
400.211544251
400.215587568
400.247934103
400.215587568
400.672482371
400.211544251
401.113203907
400.247934103
399.807212567
400.231760836
400.215587568

Average distance is : 400.524 cm
Average deviation is : 0.492 cm
Block: 4
======================================
400.652265787
401.09703064
400.640135837
400.215587568
400.227717519
401.517535591
400.672482371
400.652265787
400.656309104
400.63609252
400.640135837
400.195370984
400.211544251
400.195370984
400.227717519
400.652265787
400.195370984
400.195370984
400.640135837
400.179197717
400.619919252
400.211544251
400.195370984
400.63609252
400.640135837

Average distance is : 400.504 cm
Average deviation is : 0.330 cm
Block: 5
======================================
400.656309104
401.060640788
401.044467521
402.330242276
401.060640788
400.623962569
400.672482371
401.925910592
400.603745985
402.775007129
400.587572718
401.485189056
401.893564057
400.619919252
401.040424204
401.48114574
401.044467521
401.008077669
400.587572718
401.044467521
401.432625937
401.024250937
401.008077669
401.873347473
401.469015789

Average distance is : 401.214 cm
Average deviation is : 0.581 cm
Block: 6
======================================
401.040424204
400.619919252
401.469015789
401.024250937
401.505405641
400.603745985
401.064684105
401.060640788
401.060640788
403.215728664
401.080857372
401.946127176
401.09703064
401.469015789
401.09703064
401.080857372
400.63609252
400.619919252
401.505405641
400.652265787
400.672482371
401.080857372
401.080857372
401.060640788
401.958257127

Average distance is : 401.188 cm
Average deviation is : 0.565 cm
Block: 7
======================================
401.092987323
400.247934103
401.080857372
400.63609252
400.656309104
400.243890786
400.668439054
401.942083859
400.247934103
400.668439054
400.231760836
400.652265787
401.113203907
400.227717519
400.656309104
401.942083859
400.227717519
400.688655639
400.688655639
400.247934103
401.113203907
400.668439054
400.668439054
401.962300444
400.26410737

Average distance is : 400.754 cm
Average deviation is : 0.538 cm
Block: 8
======================================
400.704828906
400.672482371
400.26410737
400.211544251
401.113203907
400.668439054
402.386848712
400.668439054
400.672482371
400.688655639
400.652265787
400.26410737
400.688655639
400.688655639
400.247934103
401.521578908
400.668439054
400.231760836
401.533708858
400.247934103
401.533708858
400.672482371
400.652265787
400.668439054
401.092987323

Average distance is : 400.777 cm
Average deviation is : 0.514 cm
Block: 9
======================================
401.962300444
400.656309104
400.652265787
400.656309104
401.09703064
400.215587568
401.962300444
400.688655639
401.09703064
400.296453905
400.672482371
401.946127176
400.668439054
401.501362324
401.064684105
400.656309104
401.962300444
401.09703064
400.211544251
401.962300444
400.231760836
400.668439054
400.688655639
400.688655639
401.09703064

Average distance is : 400.976 cm
Average deviation is : 0.588 cm
Block: 10
======================================
401.09703064
401.09703064
401.076814055
401.09703064
400.688655639
402.382805395
400.227717519
401.10916059
400.668439054
401.521578908
400.26410737
401.129377174
400.688655639
400.672482371
401.092987323
400.652265787
401.09703064
400.231760836
400.668439054
401.946127176
400.668439054
401.958257127
401.113203907
401.521578908
401.537752175

Average distance is : 401.048 cm
Average deviation is : 0.543 cm