
Block: 1
======================================
99.9337512255
100.313711762
100.280671716
100.334361792
100.297191739
100.313711762
100.330231786
100.297191739
100.297191739
100.334361792
100.27654171
99.8965811729
100.334361792
99.8841911554
100.350881815
100.280671716
100.350881815
100.313711762
100.280671716
100.334361792
100.297191739
100.297191739
99.9337512255
100.313711762
100.367401838
100.350881815
100.264151692
100.297191739
100.313711762
100.297191739
100.330231786
100.297191739
100.313711762
100.297191739
100.334361792
100.330231786
100.330231786
100.313711762
100.317841768
100.313711762
100.346751809
100.346751809
100.297191739
100.330231786
100.297191739
100.313711762
100.350881815
100.313711762
100.297191739
100.280671716
100.313711762
100.280671716
100.346751809
100.313711762
100.313711762
100.313711762
100.313711762
100.330231786
100.346751809
100.334361792
99.8841911554
100.313711762
100.330231786
100.330231786
100.297191739
100.317841768
100.313711762
99.9337512255
100.280671716
99.9172312021
100.346751809
99.9172312021
99.9007111788
100.334361792
99.8800611496

Block: 2
======================================
100.730842352
100.297191739
100.330231786
100.350881815
100.350881815
100.350881815
100.330231786
100.280671716
100.330231786
100.330231786
100.297191739
100.313711762
100.346751809
100.297191739
100.313711762
100.330231786
100.334361792
100.317841768
100.297191739
100.313711762
100.421091914
100.297191739
100.350881815
99.9172312021
99.9007111788
100.330231786
100.330231786
100.346751809
100.346751809
100.297191739
100.313711762
100.350881815
99.9337512255
100.346751809
100.313711762
100.280671716
100.330231786
100.260021687
99.9131011963
99.9007111788
100.297191739
100.280671716
99.9007111788
100.330231786
100.334361792
100.313711762
100.313711762
100.313711762
100.313711762
100.280671716
100.313711762
100.330231786
100.297191739
99.9172312021
100.334361792
100.297191739
100.313711762
100.297191739
100.297191739
99.9337512255
100.346751809
100.334361792
100.317841768
100.313711762
99.9131011963
100.313711762
99.9131011963
100.313711762
100.334361792
100.330231786
100.313711762
100.330231786
100.317841768
100.280671716
100.297191739

Block: 3
======================================
101.147972941
100.350881815
100.334361792
100.660632253
100.313711762
100.313711762
100.350881815
100.313711762
100.297191739
100.297191739
100.346751809
100.313711762
100.313711762
100.330231786
100.346751809
99.9007111788
100.416961908
100.350881815
100.334361792
100.330231786
99.9172312021
100.317841768
100.297191739
100.297191739
100.313711762
100.297191739
100.297191739
100.334361792
100.297191739
99.8800611496
100.330231786
100.280671716
99.9007111788
100.280671716
100.346751809
100.27654171
100.297191739
100.334361792
100.330231786
100.313711762
100.17742157
100.313711762
100.334361792
100.334361792
100.297191739
100.297191739
100.297191739
100.317841768
100.334361792
99.9131011963
100.297191739
100.334361792
100.350881815
100.330231786
100.334361792
100.313711762
100.313711762
100.280671716
100.313711762
100.313711762
100.317841768
100.297191739
100.313711762
99.9172312021
100.330231786
100.330231786
100.313711762
100.313711762
100.317841768
100.334361792
100.27654171
100.334361792
100.297191739
100.313711762
100.330231786

Block: 4
======================================
100.313711762
100.297191739
100.313711762
100.330231786
100.313711762
100.297191739
99.8965811729
100.334361792
100.297191739
99.9337512255
99.8965811729
100.297191739
100.330231786
99.9007111788
100.334361792
100.346751809
100.317841768
100.334361792
100.367401838
99.9337512255
100.313711762
100.330231786
99.516620636
99.9007111788
99.9172312021
100.363271832
100.313711762
99.9337512255
100.330231786
99.9337512255
99.9337512255
100.346751809
100.330231786
100.330231786
100.313711762
100.330231786
100.334361792
100.313711762
100.297191739
99.8965811729
100.330231786
100.297191739
100.297191739
100.334361792
100.334361792
100.313711762
100.346751809
100.334361792
99.8676711321
100.350881815
100.313711762
99.9007111788
99.9337512255
100.330231786
100.317841768
100.280671716
100.264151692
100.297191739
100.313711762
99.9172312021
100.330231786
100.313711762
100.346751809
100.313711762
100.313711762
100.330231786
100.313711762
99.8965811729
100.330231786
100.313711762
100.330231786
100.334361792
100.330231786
100.313711762
100.297191739

Block: 5
======================================
99.8965811729
100.346751809
100.334361792
100.313711762
99.9337512255
100.297191739
99.9172312021
100.313711762
100.280671716
100.280671716
100.313711762
100.313711762
100.297191739
100.313711762
100.330231786
100.330231786
100.297191739
100.313711762
99.9172312021
100.297191739
100.334361792
100.346751809
100.297191739
100.297191739
100.297191739
100.297191739
100.330231786
100.297191739
100.313711762
100.334361792
100.346751809
100.350881815
100.346751809
100.317841768
100.313711762
99.9007111788
100.297191739
100.313711762
100.317841768
100.297191739
100.297191739
101.701393723
100.330231786
100.346751809
100.350881815
100.350881815
100.334361792
100.330231786
100.297191739
100.313711762
100.313711762
100.313711762
100.280671716
100.297191739
100.297191739
100.330231786
100.280671716
100.280671716
100.301321745
100.313711762
100.313711762
100.330231786
100.297191739
100.264151692
100.334361792
100.313711762
100.260021687
100.297191739
100.730842352
100.313711762
100.297191739
100.313711762
100.313711762
100.317841768
100.313711762

Block: 6
======================================
100.330231786
99.9337512255
100.330231786
100.346751809
100.297191739
100.334361792
100.330231786
100.346751809
100.297191739
100.27654171
100.297191739
100.313711762
100.313711762
100.297191739
100.313711762
100.313711762
100.297191739
100.334361792
100.313711762
100.313711762
100.297191739
100.297191739
100.297191739
100.330231786
100.297191739
100.313711762
100.317841768
100.297191739
100.297191739
100.297191739
100.330231786
100.313711762
100.313711762
100.334361792
100.297191739
100.297191739
100.334361792
100.317841768
100.317841768
100.313711762
100.313711762
100.280671716
100.330231786
100.350881815
100.330231786
100.313711762
100.350881815
100.334361792
100.313711762
100.334361792
100.334361792
100.313711762
100.297191739
100.330231786
100.330231786
100.313711762
100.313711762
100.297191739
100.297191739
100.334361792
100.350881815
100.297191739
100.317841768
100.280671716
100.280671716
100.27654171
100.313711762
100.346751809
100.297191739
100.350881815
100.313711762
100.313711762
100.313711762
100.330231786
100.297191739

Block: 7
======================================
99.9172312021
100.313711762
100.297191739
100.317841768
100.313711762
100.330231786
100.350881815
99.9007111788
100.346751809
100.334361792
100.313711762
100.297191739
100.334361792
100.330231786
100.297191739
100.297191739
99.9172312021
100.280671716
100.330231786
100.297191739
100.313711762
100.280671716
100.313711762
100.313711762
100.346751809
100.350881815
100.297191739
100.297191739
100.334361792
100.313711762
100.330231786
100.297191739
100.313711762
100.297191739
100.313711762
100.334361792
100.313711762
100.313711762
100.330231786
100.280671716
99.8965811729
100.313711762
100.330231786
99.8800611496
99.9172312021
100.330231786
100.350881815
99.9172312021
100.330231786
100.330231786
100.297191739
100.350881815
100.297191739
100.297191739
100.330231786
100.297191739
100.330231786
100.297191739
99.9337512255
100.334361792
100.297191739
100.350881815
100.313711762
99.743770957
100.313711762
100.313711762
100.301321745
100.334361792
100.330231786
100.297191739
100.280671716
100.297191739
100.297191739
100.313711762
100.313711762

Block: 8
======================================
100.330231786
100.350881815
100.27654171
100.313711762
100.313711762
100.280671716
100.297191739
100.313711762
100.317841768
100.264151692
100.350881815
100.346751809
100.346751809
100.330231786
100.297191739
100.313711762
100.313711762
100.350881815
100.313711762
100.297191739
100.313711762
100.297191739
100.297191739
100.297191739
100.330231786
100.346751809
100.334361792
100.297191739
100.297191739
100.330231786
100.313711762
100.297191739
100.330231786
100.280671716
100.297191739
100.313711762
100.297191739
100.297191739
100.330231786
100.313711762
100.350881815
100.301321745
100.330231786
100.346751809
100.313711762
100.317841768
100.297191739
100.313711762
100.27654171
100.313711762
100.297191739
100.350881815
100.313711762
100.313711762
100.330231786
100.334361792
100.297191739
100.350881815
100.297191739
100.334361792
100.313711762
100.280671716
100.330231786
100.313711762
100.297191739
100.313711762
100.297191739
100.334361792
100.297191739
100.313711762
100.297191739
100.317841768
100.297191739
100.297191739
100.330231786

Block: 9
======================================
100.313711762
100.297191739
101.197533011
100.264151692
100.747362375
100.297191739
100.330231786
100.280671716
100.160901546
100.297191739
100.280671716
100.317841768
100.280671716
100.313711762
100.334361792
100.313711762
100.330231786
100.280671716
100.317841768
100.297191739
100.297191739
100.243501663
100.313711762
100.313711762
100.334361792
100.330231786
100.334361792
100.297191739
100.297191739
100.280671716
100.317841768
100.280671716
100.313711762
100.297191739
100.334361792
100.301321745
100.297191739
100.313711762
100.330231786
100.280671716
100.313711762
100.297191739
100.346751809
100.280671716
100.317841768
100.313711762
100.317841768
100.280671716
100.330231786
100.297191739
100.297191739
100.330231786
100.313711762
100.346751809
100.346751809
100.297191739
100.317841768
100.313711762
100.280671716
100.330231786
100.297191739
99.8965811729
100.297191739
100.330231786
100.297191739
100.297191739
100.297191739
100.334361792
100.313711762
100.313711762
100.313711762
100.346751809
100.297191739
100.346751809
100.280671716

Block: 10
======================================
100.730842352
99.8965811729
100.313711762
100.346751809
100.297191739
100.330231786
100.346751809
100.330231786
100.334361792
100.297191739
100.313711762
100.313711762
100.313711762
101.197533011
100.747362375
101.164492965
100.317841768
100.334361792
100.330231786
100.280671716
100.297191739
100.280671716
100.313711762
100.313711762
100.297191739
100.334361792
100.330231786
100.297191739
100.850612521
100.297191739
100.350881815
100.313711762
100.334361792
100.313711762
100.334361792
100.317841768
100.330231786
100.334361792
100.297191739
100.280671716
100.297191739
100.334361792
100.280671716
100.297191739
100.297191739
100.313711762
100.313711762
100.280671716
100.313711762
100.313711762
100.280671716
100.317841768
100.313711762
100.334361792
100.297191739
100.317841768
100.313711762
100.313711762
100.334361792
100.334361792
100.313711762
100.330231786
100.334361792
100.297191739
100.346751809
100.313711762
100.334361792
100.280671716
100.297191739
100.346751809
100.313711762
100.27654171
100.280671716
100.297191739
100.297191739
