
Block: 1
======================================
101.147972941
100.346751809
100.330231786
100.334361792
99.9007111788

Block: 2
======================================
100.784532428
100.297191739
100.313711762
100.747362375
100.330231786

Block: 3
======================================
100.763882399
100.730842352
100.334361792
101.164492965
100.334361792

Block: 4
======================================
101.147972941
100.297191739
100.334361792
99.9172312021
100.330231786

Block: 5
======================================
100.730842352
100.714322329
100.334361792
100.383921862
100.350881815

Block: 6
======================================
100.330231786
100.350881815
100.297191739
99.9667912722
100.313711762

Block: 7
======================================
101.164492965
99.8800611496
100.334361792
100.350881815
99.8965811729

Block: 8
======================================
101.147972941
100.768012404
100.330231786
99.8800611496
100.330231786

Block: 9
======================================
100.710192323
100.747362375
100.297191739
100.297191739
100.297191739

Block: 10
======================================
101.197533011
100.730842352
99.9172312021
99.8841911554
100.313711762
