
Block: 1
======================================
198.194615126
76.3621414185
195.173032951
80.1533718824
153.39619801
120.553798771
149.877805829
124.511989975
151.95870676
124.597506452

Block: 2
======================================
198.178326273
79.4896011353
197.054395437
80.3284770489
156.181591821
120.313538194
155.342715907
121.217569518
116.554885435
159.919883513

Block: 3
======================================
197.685588479
76.7408572435
196.883362484
78.023604393
155.155394101
118.778313828
154.438684583
120.024411058
156.043136573
120.024411058

Block: 4
======================================
198.178326273
78.9439245701
197.514555526
79.4407345772
196.659390759
80.6868318081
195.413293529
81.9532901049
194.150907445
82.7880938053

Block: 5
======================================
198.149820781
76.4150801897
197.653010774
77.6123108625
154.727811718
119.222185063
153.123359728
121.148341894
155.273488283
121.233858371

Block: 6
======================================
198.16203742
78.6547974348
196.932229042
79.9823389292
156.487007809
119.511312199
156.197880673
120.260599422
156.230458379
120.276888275

Block: 7
======================================
198.16203742
77.3231837273
199.070140958
76.6919906855
197.343522573
78.2964426756
195.706492877
80.7031206608
195.78793714
81.1144141912

Block: 8
======================================
198.149820781
80.190021801
196.321397066
81.9166401863
194.594778681
82.8898991346
193.637808585
84.1685740709
191.9111902
85.4146713018

Block: 9
======================================
198.129459715
76.2277583838
196.915940189
77.4738556147
194.936844587
79.9171835184
193.702963996
81.4198301792
152.459588981
124.47941227

Block: 10
======================================
198.194615126
79.1801129341
196.899651337
80.4465712309
156.043136573
119.543889904
155.293849349
121.233858371
154.829617047
121.714379525
