
Block: 1
======================================
198.166109633
76.398791337
196.284747148
78.8909857988
194.745450568
79.6076953173
193.975802279
80.4099213123
156.983817816
118.586919808
157.036756587
119.05115211
156.605101991
119.495023346
156.53994658
119.560178757
156.112364197
120.431632376
155.240910578
120.875503612
154.369456959
122.137889695
154.027391052
122.463666749
153.669036293

Average distance is : 138.467 cm
Average deviation is : 36.913 cm
Block: 2
======================================
198.166109633
77.7344772577
196.643101907
78.2272150517
155.289777136
120.24431057
156.177519608
119.918533516
156.165302968
119.902244663
156.588813138
119.527601051
155.701070666
120.435704589
155.652204108
120.891792464
154.780750489
121.3356637
154.817400408
121.746957231
153.905224657
121.3356637
154.748172784
121.3356637
154.385745811

Average distance is : 138.626 cm
Average deviation is : 29.269 cm
Block: 3
======================================
198.145748568
77.2865338087
196.626813054
78.5692809582
195.78793714
80.2103828669
195.054938769
81.4564800978
193.723325062
82.7188661814
192.530166602
84.8201281786
191.263708305
85.654931879
190.445193458
86.526385498
189.606317544
87.3326837063
185.831375933
91.0750476122
185.008788872
91.9057790995
184.206562877
92.3170726299
183.762691641

Average distance is : 140.075 cm
Average deviation is : 54.240 cm
Block: 4
======================================
198.166109633
77.270244956
199.033491039
76.6879184723
197.359811425
78.2923704624
154.336879253
120.313538194
155.737720585
120.741120577
155.737720585
120.313538194
156.128653049
120.394982457
155.705142879
120.789987135
155.240910578
121.286797142
154.744100571
121.3356637
155.175755167
120.891792464
154.727811718
92.2193395138
184.157696319

Average distance is : 138.672 cm
Average deviation is : 36.036 cm
Block: 5
======================================
197.685588479
77.5105055332
196.899651337
78.259792757
153.872646952
120.447921228
153.603880882
121.062825418
155.395654678
121.115764189
155.786587143
121.184991813
155.293849349
120.806275988
155.289777136
121.217569518
154.866266966
121.184991813
155.326427054
120.75740943
155.77029829
120.75740943
155.289777136
121.237930584
154.882555819

Average distance is : 138.620 cm
Average deviation is : 29.115 cm
Block: 6
======================================
198.16203742
77.5634443045
197.241717243
78.4837644815
154.695234013
120.158794093
153.81970818
121.217569518
154.389818025
122.121600842
153.978524494
122.532894373
153.994813347
122.068662071
154.0111022
122.463666749
154.027391052
122.463666749
153.620169735
122.463666749
154.0111022
122.072734284
154.043679905
122.500316668
153.172226286

Average distance is : 138.611 cm
Average deviation is : 28.641 cm
Block: 7
======================================
198.125387502
77.3028226614
197.038106585
78.2435039043
155.599265337
118.70501399
153.481714487
121.111691976
154.866266966
121.575924277
154.951783442
121.132053041
155.35900476
121.132053041
155.375293612
121.152414107
154.829617047
121.233858371
154.373529172
121.746957231
153.530581045
122.569544291
152.712066197
123.815641522
151.465968966

Average distance is : 138.457 cm
Average deviation is : 28.889 cm
Block: 8
======================================
198.145748568
77.7141161919
194.236423922
81.4890578032
190.46148231
85.1947717905
187.606860876
87.8783602715
188.152537441
88.76203053
148.444386792
127.639449692
145.980697823
130.099066448
145.610126424
129.671484065
143.541442132
130.082777596
146.033636594
129.622617507
146.47750783
126.682479596
148.220415068
127.505066657
148.990063357

Average distance is : 138.170 cm
Average deviation is : 35.528 cm
Block: 9
======================================
198.166109633
78.2272150517
195.78793714
79.9008946657
153.49800334
118.810891533
152.936037922
123.986674476
152.129739714
123.575380945
153.326970387
122.378150272
154.573067617
121.93835125
154.556778765
121.950567889
154.984361148
121.522985506
155.395654678
121.099475336
155.87210362
120.211732864
156.299686003
120.623026395
156.315974855

Average distance is : 138.723 cm
Average deviation is : 28.599 cm
Block: 10
======================================
198.214976192
198.182398486
78.1620596409
195.857164764
79.8479558945
194.969422293
80.1411552429
154.33280704
120.14250524
155.941331244
120.586376476
155.941331244
120.570087624
155.957620096
120.570087624
154.727811718
121.816184855
153.428775716
123.082643151
153.481714487
123.02970438
153.123359728
123.351409221
152.353711438
123.730125046

Average distance is : 140.462 cm
Average deviation is : 34.630 cm