
Block: 1
======================================
299.68319068
299.703515625
299.68319068
299.703515625
299.687255669
299.703515625
299.719775581
299.260431814
299.719775581
299.240106869
299.699450636
299.260431814
299.699450636
299.687255669
299.719775581
299.68319068
299.687255669
299.68319068
299.699450636
299.687255669
299.223846912
299.699450636
299.256366825
299.736035538
299.666930723

Block: 2
======================================
299.715710592
299.666930723
299.687255669
299.240106869
299.68319068
299.715710592
299.223846912
299.260431814
299.256366825
299.191327
299.670995712
299.650670767
299.240106869
299.68319068
299.687255669
299.207586956
299.68319068
299.68319068
299.240106869
299.207586956
299.715710592
299.240106869
299.68319068
299.715710592
299.244171858

Block: 3
======================================
299.699450636
299.650670767
299.699450636
299.650670767
299.63441081
299.68319068
299.207586956
299.223846912
299.646605778
299.244171858
299.650670767
299.207586956
299.207586956
299.666930723
299.207586956
299.687255669
299.666930723
299.699450636
299.650670767
299.207586956
299.223846912
299.666930723
299.650670767
299.68319068
299.646605778

Block: 4
======================================
299.670995712
299.687255669
299.666930723
299.650670767
299.68319068
299.68319068
299.666930723
299.666930723
299.670995712
299.699450636
299.244171858
299.240106869
299.68319068
299.650670767
299.670995712
299.272626781
299.207586956
299.68319068
299.666930723
299.666930723
299.650670767
299.719775581
299.240106869
299.68319068
299.687255669

Block: 5
======================================
299.68319068
299.650670767
299.240106869
299.207586956
299.687255669
299.650670767
299.68319068
299.68319068
299.68319068
299.244171858
299.719775581
299.666930723
299.703515625
299.699450636
299.666930723
299.68319068
299.719775581
299.207586956
299.666930723
299.715710592
299.703515625
299.666930723
299.666930723
299.68319068
299.227911901

Block: 6
======================================
299.68319068
299.68319068
299.666930723
299.68319068
299.699450636
299.256366825
299.719775581
299.240106869
299.715710592
299.207586956
299.68319068
299.203521967
299.650670767
299.703515625
299.699450636
299.703515625
299.666930723
299.68319068
299.670995712
299.68319068
299.719775581
299.666930723
299.223846912
299.68319068
299.703515625

Block: 7
======================================
299.240106869
299.666930723
299.666930723
299.666930723
299.223846912
299.703515625
299.240106869
299.703515625
299.68319068
299.666930723
299.68319068
299.666930723
299.719775581
299.699450636
299.699450636
299.703515625
299.256366825
299.68319068
299.256366825
299.244171858
299.240106869
299.260431814
299.240106869
299.703515625
299.68319068

Block: 8
======================================
299.719775581
299.736035538
299.719775581
299.699450636
299.703515625
299.223846912
299.736035538
299.670995712
299.703515625
299.703515625
299.699450636
299.703515625
299.699450636
299.240106869
299.736035538
299.715710592
299.223846912
299.223846912
299.68319068
299.256366825
299.256366825
299.687255669
299.68319068
299.68319068
299.699450636

Block: 9
======================================
299.223846912
299.703515625
299.687255669
299.670995712
299.666930723
299.719775581
299.68319068
299.68319068
299.260431814
299.687255669
299.240106869
299.244171858
299.68319068
299.666930723
299.666930723
299.699450636
299.687255669
299.703515625
299.699450636
299.699450636
299.68319068
299.666930723
299.687255669
299.68319068
299.244171858

Block: 10
======================================
299.244171858
299.244171858
299.223846912
299.719775581
299.703515625
299.719775581
299.699450636
299.699450636
299.32547164
299.244171858
299.240106869
299.703515625
299.699450636
299.699450636
299.703515625
299.256366825
299.699450636
299.719775581
299.736035538
299.666930723
299.719775581
299.699450636
299.687255669
299.699450636
299.699450636
