
Block: 1
======================================
299.699450636
299.784815407
299.68319068
299.272626781
299.68319068
299.240106869
299.240106869
299.752295494
299.752295494
299.736035538

Block: 2
======================================
299.276691771
299.309211683
299.32547164
299.736035538
299.309211683
299.292951727
299.260431814
299.719775581
299.309211683
299.715710592

Block: 3
======================================
299.256366825
299.703515625
299.309211683
299.292951727
299.292951727
299.309211683
299.699450636
299.752295494
299.276691771
299.256366825

Block: 4
======================================
299.276691771
299.666930723
299.699450636
299.736035538
299.292951727
299.276691771
299.666930723
299.719775581
299.256366825
299.276691771

Block: 5
======================================
299.719775581
299.309211683
299.292951727
299.703515625
299.260431814
299.719775581
299.752295494
299.699450636
299.272626781
299.699450636

Block: 6
======================================
299.703515625
299.736035538
299.292951727
299.731970549
299.292951727
299.699450636
299.68319068
299.240106869
299.309211683
299.272626781

Block: 7
======================================
299.699450636
299.699450636
299.240106869
299.719775581
299.719775581
299.687255669
299.309211683
299.703515625
299.699450636
299.240106869

Block: 8
======================================
299.68319068
299.650670767
299.292951727
299.260431814
299.703515625
299.256366825
299.292951727
299.203521967
299.256366825
299.719775581

Block: 9
======================================
299.666930723
299.309211683
299.256366825
299.223846912
299.292951727
299.719775581
299.687255669
299.68319068
299.256366825
299.240106869

Block: 10
======================================
299.260431814
299.650670767
299.276691771
299.699450636
299.256366825
299.68319068
299.736035538
299.687255669
299.699450636
299.715710592
