
Block: 1
======================================
299.699450636
299.784815407
299.68319068
299.272626781
299.68319068
299.240106869
299.240106869
299.752295494
299.752295494
299.736035538

Average distance is : 299.584 cm
Average deviation is : 0.233 cm
Block: 2
======================================
299.276691771
299.309211683
299.32547164
299.736035538
299.309211683
299.292951727
299.260431814
299.719775581
299.309211683
299.715710592

Average distance is : 299.425 cm
Average deviation is : 0.207 cm
Block: 3
======================================
299.256366825
299.703515625
299.309211683
299.292951727
299.292951727
299.309211683
299.699450636
299.752295494
299.276691771
299.256366825

Average distance is : 299.415 cm
Average deviation is : 0.211 cm
Block: 4
======================================
299.276691771
299.666930723
299.699450636
299.736035538
299.292951727
299.276691771
299.666930723
299.719775581
299.256366825
299.276691771

Average distance is : 299.487 cm
Average deviation is : 0.224 cm
Block: 5
======================================
299.719775581
299.309211683
299.292951727
299.703515625
299.260431814
299.719775581
299.752295494
299.699450636
299.272626781
299.699450636

Average distance is : 299.543 cm
Average deviation is : 0.224 cm
Block: 6
======================================
299.703515625
299.736035538
299.292951727
299.731970549
299.292951727
299.699450636
299.68319068
299.240106869
299.309211683
299.272626781

Average distance is : 299.496 cm
Average deviation is : 0.227 cm
Block: 7
======================================
299.699450636
299.699450636
299.240106869
299.719775581
299.719775581
299.687255669
299.309211683
299.703515625
299.699450636
299.240106869

Average distance is : 299.572 cm
Average deviation is : 0.214 cm
Block: 8
======================================
299.68319068
299.650670767
299.292951727
299.260431814
299.703515625
299.256366825
299.292951727
299.203521967
299.256366825
299.719775581

Average distance is : 299.432 cm
Average deviation is : 0.223 cm
Block: 9
======================================
299.666930723
299.309211683
299.256366825
299.223846912
299.292951727
299.719775581
299.687255669
299.68319068
299.256366825
299.240106869

Average distance is : 299.434 cm
Average deviation is : 0.222 cm
Block: 10
======================================
299.260431814
299.650670767
299.276691771
299.699450636
299.256366825
299.68319068
299.736035538
299.687255669
299.699450636
299.715710592

Average distance is : 299.567 cm
Average deviation is : 0.210 cm