
Block: 1
======================================
300.569358301
300.553098345
300.996182156
301.439265966
300.532773399

Block: 2
======================================
301.455525923
300.536838388
301.032767057
301.049027014
300.996182156

Block: 3
======================================
300.569358301
300.569358301
301.016507101
302.329498577
300.569358301

Block: 4
======================================
300.979922199
300.996182156
300.553098345
300.57342329
300.569358301

Block: 5
======================================
301.439265966
301.459590912
300.57342329
300.557163334
300.553098345

Block: 6
======================================
301.455525923
301.471785879
300.520578432
300.553098345
301.016507101

Block: 7
======================================
300.557163334
300.553098345
300.569358301
301.439265966
301.012442112

Block: 8
======================================
300.553098345
301.439265966
300.585618258
301.882349777
301.443330956

Block: 9
======================================
301.016507101
301.886414766
300.557163334
300.589683247
301.439265966

Block: 10
======================================
300.569358301
301.459590912
301.471785879
300.589683247
300.57342329
