
Block: 1
======================================
401.161723709
401.994646978
403.248075199
400.656309104
401.978473711
400.704828906
400.26410737
401.129377174
400.688655639
400.672482371

Average distance is : 401.250 cm
Average deviation is : 0.905 cm
Block: 2
======================================
400.227717519
400.231760836
400.247934103
400.284323955
400.247934103
400.688655639
400.672482371
401.129377174
402.398978662
400.688655639

Average distance is : 400.682 cm
Average deviation is : 0.674 cm
Block: 3
======================================
401.080857372
401.09703064
402.403021979
400.668439054
400.656309104
400.656309104
401.10916059
401.092987323
402.807353663
401.517535591

Average distance is : 401.309 cm
Average deviation is : 0.740 cm
Block: 4
======================================
401.48114574
403.215728664
401.889520741
401.060640788
401.521578908
401.958257127
401.958257127
401.09703064
401.517535591
401.09703064

Average distance is : 401.680 cm
Average deviation is : 0.642 cm
Block: 5
======================================
401.060640788
401.469015789
401.464972472
401.873347473
401.485189056
401.485189056
403.18338213
401.469015789
401.448799205
401.028294253

Average distance is : 401.597 cm
Average deviation is : 0.606 cm
Block: 6
======================================
401.469015789
401.028294253
401.028294253
402.318112326
401.469015789
402.738617277
403.163165545
401.436669254
401.012120986
401.452842522

Average distance is : 401.712 cm
Average deviation is : 0.761 cm
Block: 7
======================================
401.044467521
401.044467521
401.008077669
401.080857372
401.024250937
401.044467521
401.044467521
402.330242276
401.485189056
401.044467521

Average distance is : 401.215 cm
Average deviation is : 0.416 cm
Block: 8
======================================
400.583529401
401.060640788
401.889520741
401.028294253
401.044467521
401.909737325
401.044467521
400.619919252
400.619919252
401.060640788

Average distance is : 401.086 cm
Average deviation is : 0.474 cm
Block: 9
======================================
400.979774451
400.991904402
401.873347473
401.448799205
401.873347473
403.620060349
400.995947719
401.436669254
401.893564057
401.873347473

Average distance is : 401.699 cm
Average deviation is : 0.779 cm
Block: 10
======================================
401.008077669
401.893564057
401.452842522
401.432625937
402.330242276
401.893564057
401.889520741
401.452842522
401.889520741
403.163165545

Average distance is : 401.841 cm
Average deviation is : 0.593 cm