
Block: 1
======================================
200.808975983
200.365104747
200.79268713
199.937522364
200.825264835
200.813048196
200.813048196
109.176035166
200.418043518
113.736913919
195.018288851
200.813048196
200.829337049
200.808975983
109.91310575
201.20398066
201.20398066
199.95788343
111.737457252
195.189321804
199.937522364
199.95788343
199.904944658
200.808975983
200.829337049
199.95788343
200.829337049
199.937522364
200.825264835
200.348815894
200.808975983
200.808975983
199.925305724
110.902653551
199.135296369
112.539683247
197.038106585
199.937522364
110.149294114
199.086429811
200.385465813
200.36917696
200.3813936
200.365104747
200.365104747
111.78632381
197.412750196
200.813048196
199.937522364
200.348815894
200.36917696
200.365104747
200.365104747
200.796759343
199.921233511
200.352888107
200.808975983
111.277297163
197.48197782
199.921233511
199.904944658
200.813048196
200.808975983
199.925305724
199.921233511
111.753746104
196.525007725
199.904944658
200.385465813
200.348815894
200.829337049
109.587328696
198.67513628
200.365104747
200.348815894

Average distance is : 186.959 cm
Average deviation is : 31.670 cm
Block: 2
======================================
199.921233511
201.664140749
200.813048196
200.845625901
200.825264835
200.808975983
200.796759343
200.365104747
200.365104747
199.941594577
199.941594577
201.680429602
199.941594577
200.348815894
108.699586225
198.214976192
200.829337049
199.95788343
108.801391554
199.070140958
113.431497931
195.311488199
116.351274776
191.996706676
117.165717411
191.056025434
200.397682452
200.36917696
199.941594577
199.937522364
200.808975983
199.95788343
199.941594577
199.921233511
114.298879337
193.450486779
199.941594577
111.379102492
197.396461344
114.763111639
196.060775423
200.348815894
112.983554482
195.36442697
115.463532305
193.332392597
116.351274776
192.815221524
200.808975983
199.937522364
109.636195254
199.135296369
199.941594577
200.808975983
200.808975983
200.825264835
200.36917696
199.941594577
110.528009939
198.622197509
112.727005053
195.054938769
201.236558366
200.808975983
199.95788343
112.625199723
195.177105165
114.437334585
194.354518104
199.937522364
110.984097815
198.166109633
112.250556111
197.294656014
199.95788343

Average distance is : 178.276 cm
Average deviation is : 37.057 cm
Block: 3
======================================
201.647851896
199.937522364
199.921233511
109.261551642
199.937522364
199.953811216
199.904944658
199.921233511
111.36281364
198.182398486
200.385465813
110.475071168
199.151585221
200.365104747
200.36917696
200.365104747
199.477362275
199.937522364
200.348815894
110.475071168
198.744363904
111.191780686
198.776941609
200.36917696
200.365104747
200.365104747
110.063777637
199.139368582
111.277297163
198.316781521
200.348815894
200.365104747
199.904944658
112.201689553
198.214976192
200.36917696
199.888655806
199.904944658
200.36917696
200.365104747
109.652484107
199.530301046
200.352888107
200.36917696
199.904944658
111.399463558
198.67513628
199.921233511
111.78632381
198.67513628
199.921233511
199.921233511
200.796759343
201.664140749
199.904944658
200.36917696
199.921233511
111.326163721
198.129459715
200.36917696
199.888655806
199.904944658
199.921233511
199.925305724
200.348815894
200.365104747
199.904944658
199.921233511
199.921233511
199.925305724
199.937522364
199.904944658
199.904944658
199.925305724
199.904944658

Average distance is : 185.655 cm
Average deviation is : 32.865 cm
Block: 4
======================================
200.348815894
199.904944658
200.825264835
200.3813936
200.332527041
200.348815894
200.348815894
199.904944658
201.220269513
199.888655806
201.647851896
201.256919432
200.365104747
199.904944658
200.365104747
200.365104747
199.909016871
199.904944658
200.348815894
199.921233511
199.937522364
200.36917696
200.316238189
199.904944658
199.904944658
199.904944658
199.925305724
200.36917696
200.365104747
199.921233511
199.925305724
199.921233511
199.904944658
199.888655806
200.36917696
200.352888107
200.348815894
199.904944658
199.921233511
199.904944658
199.904944658
199.904944658
201.668212962
199.941594577
199.904944658
199.904944658
199.909016871
199.921233511
199.904944658
200.385465813
199.925305724
199.888655806
199.888655806
199.904944658
200.36917696
199.86829474
199.921233511
199.921233511
199.909016871
199.904944658
199.888655806
200.348815894
199.925305724
199.904944658
199.888655806
199.904944658
199.888655806
199.921233511
199.888655806
199.921233511
199.888655806
200.3813936
199.909016871
199.904944658
199.904944658

Average distance is : 200.122 cm
Average deviation is : 0.388 cm
Block: 5
======================================
200.332527041
200.332527041
199.888655806
199.937522364
200.365104747
200.348815894
200.348815894
200.348815894
199.921233511
199.909016871
200.348815894
199.904944658
200.348815894
199.937522364
199.925305724
199.921233511
199.904944658
200.36917696
199.921233511
200.3813936
200.365104747
199.904944658
200.3813936
200.348815894
199.909016871
199.953811216
199.904944658
200.36917696
200.36917696
200.348815894
199.904944658
199.921233511
199.904944658
199.941594577
199.921233511
200.348815894
200.36917696
200.36917696
200.365104747
200.36917696
199.921233511
200.796759343
199.921233511
200.813048196
199.888655806
199.909016871
199.888655806
199.921233511
200.348815894
199.904944658
199.921233511
201.647851896
199.888655806
200.36917696
200.36917696
200.36917696
199.904944658
200.348815894
200.365104747
199.925305724
199.925305724
199.925305724
199.904944658
199.904944658
200.365104747
199.921233511
201.240630579
200.36917696
200.385465813
199.925305724
199.921233511
200.385465813
201.252847219
199.925305724
199.904944658

Average distance is : 200.182 cm
Average deviation is : 0.348 cm
Block: 6
======================================
199.921233511
199.941594577
199.937522364
199.921233511
199.953811216
199.937522364
199.921233511
199.921233511
200.829337049
199.904944658
200.813048196
200.36917696
200.825264835
200.348815894
200.365104747
200.36917696
200.36917696
200.829337049
200.808975983
200.931142378
200.808975983
200.808975983
199.941594577
199.937522364
200.3813936
199.937522364
200.808975983
199.95788343
200.808975983
200.813048196
200.808975983
199.95788343
111.326163721
198.67513628
200.813048196
200.829337049
200.401754665
200.401754665
199.921233511
199.937522364
199.921233511
199.941594577
199.974172282
199.937522364
199.937522364
199.921233511
200.397682452
199.941594577
199.925305724
199.921233511
199.937522364
199.937522364
199.937522364
199.941594577
199.925305724
200.401754665
111.379102492
198.642558575
200.418043518
111.330235934
199.171946287
199.937522364
199.941594577
199.925305724
200.401754665
110.523937726
199.583239818
110.458782315
199.566950965
199.937522364
200.3813936
109.652484107
199.530301046
200.825264835
199.941594577

Average distance is : 192.999 cm
Average deviation is : 24.414 cm
Block: 7
======================================
200.418043518
200.385465813
201.269136071
200.808975983
199.990461135
200.401754665
199.921233511
199.925305724
199.95788343
199.974172282
199.937522364
200.401754665
200.02303884
199.95788343
199.937522364
200.808975983
199.921233511
199.937522364
113.464075637
196.215519524
199.941594577
199.941594577
199.974172282
199.95788343
200.397682452
112.181328487
197.856621432
199.95788343
199.941594577
199.95788343
199.95788343
111.395391345
197.893271351
199.921233511
199.937522364
199.925305724
199.95788343
199.95788343
199.95788343
199.953811216
110.988170028
199.086429811
199.925305724
200.401754665
199.941594577
199.941594577
199.974172282
200.813048196
199.941594577
200.418043518
199.941594577
199.95788343
200.845625901
199.95788343
112.181328487
197.925849056
199.95788343
200.829337049
110.576876497
199.953811216
199.953811216
200.3813936
199.974172282
199.937522364
200.829337049
200.845625901
199.937522364
200.841553688
200.813048196
199.925305724
199.937522364
200.825264835
200.365104747
112.19761734
197.734455037

Average distance is : 191.742 cm
Average deviation is : 25.817 cm
Block: 8
======================================
201.236558366
200.365104747
199.904944658
199.941594577
200.348815894
108.919485736
199.082357597
199.921233511
109.485523367
200.776398277
111.78632381
198.744363904
200.36917696
200.813048196
200.365104747
200.332527041
200.825264835
200.808975983
199.974172282
200.813048196
200.348815894
111.892201352
197.803682661
200.79268713
200.79268713
200.813048196
200.365104747
200.3813936
201.220269513
199.904944658
200.36917696
200.36917696
201.220269513
200.332527041
199.904944658
200.352888107
199.95788343
201.236558366
200.401754665
199.904944658
200.348815894
111.020747733
199.941594577
200.3813936
200.36917696
200.829337049
200.3813936
200.365104747
199.888655806
200.808975983
200.813048196
200.348815894
199.941594577
199.904944658
199.921233511
199.904944658
199.925305724
199.921233511
200.365104747
200.808975983
200.365104747
200.352888107
200.352888107
201.236558366
200.808975983
199.941594577
200.825264835
200.348815894
200.365104747
200.365104747
199.941594577
200.365104747
200.352888107
200.79268713
200.385465813

Average distance is : 194.349 cm
Average deviation is : 22.536 cm
Block: 9
======================================
199.904944658
200.813048196
200.79268713
200.352888107
200.808975983
200.808975983
200.365104747
200.829337049
200.348815894
200.365104747
200.348815894
201.220269513
200.36917696
200.829337049
200.348815894
200.808975983
199.953811216
199.95788343
200.365104747
200.813048196
200.813048196
199.941594577
200.813048196
199.95788343
200.813048196
200.813048196
200.808975983
200.825264835
200.825264835
199.497723341
200.813048196
200.385465813
200.385465813
200.36917696
200.813048196
199.921233511
200.845625901
200.365104747
200.3813936
200.3813936
199.937522364
199.95788343
200.385465813
200.385465813
199.95788343
200.813048196
200.813048196
200.36917696
200.365104747
200.829337049
200.813048196
200.829337049
200.36917696
200.813048196
200.845625901
200.36917696
200.829337049
199.95788343
199.925305724
200.829337049
200.385465813
200.36917696
200.365104747
200.365104747
200.3813936
200.36917696
200.3813936
200.365104747
200.825264835
200.825264835
200.365104747
200.829337049
200.813048196
200.813048196
200.813048196

Average distance is : 200.504 cm
Average deviation is : 0.345 cm
Block: 10
======================================
200.845625901
200.348815894
200.36917696
200.328454828
199.904944658
199.937522364
200.348815894
199.937522364
199.925305724
199.921233511
199.904944658
200.36917696
200.365104747
200.36917696
199.888655806
199.904944658
200.365104747
200.348815894
200.332527041
199.888655806
199.904944658
199.921233511
199.904944658
199.904944658
199.921233511
111.330235934
198.247553897
199.921233511
199.904944658
199.925305724
201.647851896
199.921233511
199.925305724
199.904944658
200.348815894
199.904944658
199.904944658
200.36917696
199.904944658
199.904944658
199.888655806
200.348815894
112.96726563
197.48197782
200.348815894
206.774768281
200.776398277
200.808975983
200.348815894
200.348815894
200.348815894
199.888655806
199.904944658
200.352888107
200.348815894
200.385465813
199.904944658
199.904944658
201.647851896
199.904944658
201.647851896
201.236558366
200.352888107
200.348815894
200.348815894
199.904944658
199.888655806
199.937522364
199.904944658
200.3813936
199.904944658
200.365104747
200.352888107
200.348815894
200.348815894

Average distance is : 197.896 cm
Average deviation is : 14.321 cm