
Block: 1
======================================
48.8681317806
48.8681317806
48.8352073193
48.8845940113
48.8681317806
48.8516695499
48.8310917616
48.8681317806
48.8516695499
48.8352073193
48.8681317806
48.8516695499
48.8681317806
48.8516695499
48.8352073193
48.8681317806
48.8352073193
48.8352073193
49.300265336
48.8845940113
48.8352073193
48.8681317806
48.8845940113
48.8352073193
48.8516695499
48.8516695499
48.8681317806
48.8845940113
48.8845940113
48.8352073193
48.8352073193
48.8310917616
48.8845940113
48.8516695499
48.888709569
48.8681317806
48.888709569
48.8845940113
48.8475539923
49.300265336
48.8187450886
48.8845940113
49.3167275667
48.8310917616
48.8516695499
48.8845940113
48.8352073193
48.8516695499
48.8310917616
48.8681317806

Average distance is : 48.884 cm
Average deviation is : 0.109 cm
Block: 2
======================================
48.8681317806
48.8845940113
48.8681317806
48.8516695499
48.8352073193
48.8681317806
49.300265336
49.250878644
49.213838625
48.8681317806
49.300265336
48.8845940113
49.2838031054
49.300265336
49.3331897974
49.2838031054
48.8845940113
48.8845940113
48.8681317806
48.888709569
48.8845940113
48.8722473383
48.8845940113
49.2796875477
48.8681317806
48.8516695499
48.8681317806
48.8845940113
48.8681317806
48.8845940113
48.8516695499
48.8475539923
48.8352073193
48.8681317806
49.3331897974
48.8516695499
48.8722473383
49.3331897974
48.8516695499
48.8352073193
48.8681317806
48.8681317806
48.8516695499
49.2303008556
48.8516695499
48.8352073193
48.8681317806
48.8681317806
48.8516695499
48.8681317806

Average distance is : 48.966 cm
Average deviation is : 0.184 cm
Block: 3
======================================
48.8352073193
48.8681317806
48.8681317806
48.8845940113
48.8352073193
48.8516695499
48.6952783585
48.8475539923
48.8516695499
48.8681317806
48.8681317806
48.8352073193
48.888709569
48.8516695499
48.8516695499
48.8681317806
48.8681317806
48.8475539923
48.8845940113
48.8845940113
48.8516695499
48.8475539923
48.8516695499
48.8352073193
48.8722473383
48.8681317806
48.8722473383
48.8681317806
48.8681317806
48.8352073193
48.8845940113
48.888709569
48.8681317806
48.8681317806
48.8681317806
48.8352073193
48.8681317806
48.888709569
48.8516695499
48.8516695499
48.8516695499
48.8310917616
48.8516695499
48.8722473383
48.3866115332
48.8516695499
48.8516695499
48.8310917616
48.8681317806
48.8681317806

Average distance is : 48.847 cm
Average deviation is : 0.072 cm
Block: 4
======================================
48.8845940113
48.8681317806
48.8681317806
48.8681317806
48.8681317806
48.8146295309
48.8845940113
48.8516695499
48.8475539923
48.8516695499
48.8681317806
48.8352073193
48.8352073193
48.8310917616
48.8845940113
48.8516695499
48.8516695499
48.8516695499
48.8845940113
48.8310917616
48.8516695499
48.8516695499
48.8516695499
48.8516695499
48.8310917616
48.8681317806
48.8310917616
48.8187450886
48.8681317806
48.8352073193
48.8516695499
48.8310917616
48.8681317806
48.8681317806
48.8187450886
48.8516695499
48.8516695499
48.8310917616
48.8516695499
48.8681317806
48.8722473383
48.8310917616
48.8516695499
48.8516695499
48.8845940113
48.8187450886
48.8845940113
48.8681317806
48.8352073193
48.8845940113

Average distance is : 48.853 cm
Average deviation is : 0.020 cm
Block: 5
======================================
48.8516695499
48.8187450886
48.8516695499
48.8681317806
48.8845940113
48.8681317806
48.8845940113
48.8352073193
48.8722473383
48.8845940113
48.8845940113
48.8845940113
48.8516695499
48.8310917616
48.8352073193
48.8681317806
48.8146295309
48.8516695499
48.8681317806
48.8187450886
48.8516695499
48.8681317806
48.8681317806
48.8516695499
48.8845940113
48.8516695499
48.8681317806
48.8681317806
48.8516695499
48.8310917616
48.8681317806
48.8310917616
48.8516695499
48.8681317806
48.8516695499
48.8681317806
48.8516695499
48.8516695499
48.8516695499
48.8310917616
48.8187450886
48.8681317806
48.8681317806
48.8516695499
48.8681317806
48.8681317806
48.8681317806
48.8681317806
48.8681317806
48.8722473383

Average distance is : 48.857 cm
Average deviation is : 0.019 cm
Block: 6
======================================
48.8516695499
48.8681317806
48.8516695499
48.8516695499
48.8516695499
48.8352073193
48.8352073193
48.9051717997
48.8516695499
48.8310917616
48.8516695499
48.8681317806
48.8681317806
48.8845940113
48.8352073193
48.8681317806
48.8845940113
48.8352073193
48.8681317806
48.8681317806
48.8352073193
48.8681317806
48.8352073193
48.8681317806
48.8681317806
48.8516695499
48.8516695499
48.8516695499
48.8516695499
48.8475539923
48.8310917616
48.8516695499
48.8722473383
48.8681317806
48.8352073193
48.8516695499
48.8516695499
48.8310917616
48.8516695499
48.8722473383
48.8310917616
48.8681317806
48.8681317806
48.8146295309
48.8516695499
48.8845940113
48.8845940113
48.8722473383
48.8845940113
48.8681317806

Average distance is : 48.857 cm
Average deviation is : 0.018 cm
Block: 7
======================================
48.8475539923
48.8516695499
48.8516695499
48.8681317806
48.8352073193
48.8516695499
48.8187450886
48.8516695499
48.888709569
48.8516695499
48.888709569
48.8310917616
48.888709569
48.8845940113
48.888709569
48.8352073193
48.8475539923
48.8681317806
48.8516695499
48.8516695499
48.8845940113
48.8681317806
48.8681317806
48.8516695499
48.8516695499
48.8352073193
48.8681317806
48.8146295309
48.8681317806
48.8516695499
48.8516695499
48.8475539923
48.8845940113
48.8516695499
48.8681317806
48.8681317806
48.8516695499
48.8516695499
48.8681317806
48.8845940113
48.8681317806
48.8516695499
48.8681317806
48.8475539923
48.8310917616
48.888709569
48.8516695499
48.8681317806
48.8681317806
48.8681317806

Average distance is : 48.859 cm
Average deviation is : 0.018 cm
Block: 8
======================================
48.8681317806
48.8845940113
48.8845940113
48.8516695499
48.8681317806
48.8475539923
48.901056242
48.8516695499
48.8516695499
48.8845940113
48.8516695499
48.8516695499
48.8516695499
48.8516695499
48.8352073193
48.8352073193
48.8516695499
48.8352073193
48.8681317806
48.8681317806
48.8352073193
48.8475539923
48.8681317806
48.8681317806
48.8681317806
48.8310917616
48.8516695499
48.8681317806
48.8681317806
48.8681317806
48.8681317806
48.8187450886
48.8516695499
48.8352073193
48.8681317806
48.8352073193
48.8310917616
48.8352073193
48.8845940113
48.8681317806
48.8681317806
48.8516695499
48.8681317806
48.8352073193
48.8352073193
48.8352073193
48.8516695499
48.8681317806
48.8681317806
48.8516695499

Average distance is : 48.856 cm
Average deviation is : 0.018 cm
Block: 9
======================================
48.8516695499
48.8516695499
48.888709569
48.8681317806
48.8681317806
48.8352073193
48.8722473383
48.8516695499
48.8146295309
48.8681317806
48.8516695499
48.8146295309
48.8681317806
49.4031542778
48.8146295309
48.8352073193
48.8681317806
48.8516695499
48.8352073193
48.8722473383
48.8681317806
48.8310917616
48.8845940113
48.8681317806
48.8516695499
48.8681317806
48.8516695499
48.8516695499
48.8475539923
48.8352073193
48.8681317806
48.8845940113
48.8681317806
48.8681317806
48.8516695499
48.8516695499
48.8845940113
48.8146295309
48.8352073193
48.8516695499
48.8516695499
48.8681317806
48.8516695499
48.8681317806
48.8352073193
48.8681317806
48.888709569
48.8845940113
48.8516695499
48.8516695499

Average distance is : 48.867 cm
Average deviation is : 0.080 cm
Block: 10
======================================
48.8681317806
48.8681317806
48.888709569
48.8516695499
48.901056242
48.8352073193
48.8146295309
48.8352073193
48.9051717997
48.8310917616
48.888709569
48.8475539923
48.8681317806
48.8516695499
48.8681317806
48.8681317806
48.8516695499
48.8516695499
48.8146295309
48.8845940113
48.8146295309
48.8516695499
48.8845940113
48.8146295309
48.8681317806
48.8516695499
48.8516695499
48.8516695499
48.8475539923
48.8516695499
48.8516695499
48.8352073193
48.8681317806
48.901056242
48.8516695499
48.8516695499
48.8845940113
48.8681317806
48.8475539923
48.8681317806
48.8352073193
48.8516695499
48.8681317806
48.8352073193
48.8516695499
48.8681317806
48.8187450886
48.8681317806
48.8352073193
48.8681317806

Average distance is : 48.856 cm
Average deviation is : 0.023 cm