
Block: 1
======================================
49.213838625
49.213838625
49.2303008556
48.7981673002
49.1973763943
48.8146295309
48.8022828579
48.7981673002
49.2097230673
49.2303008556
48.8146295309
48.8146295309
49.213838625
49.2467630863
49.2303008556
49.2344164133
48.8146295309
48.7981673002
49.2344164133
48.8187450886
48.8022828579
48.8352073193
49.2303008556
49.213838625
48.7817050695
49.213838625
48.7981673002
49.2303008556
48.7817050695
48.8516695499
49.1767986059
48.7981673002
48.8187450886
48.8352073193
48.7817050695
49.213838625
49.2303008556
49.1973763943
48.7981673002
48.7817050695
48.8022828579
48.7981673002
48.8146295309
48.8146295309
48.8187450886
49.2303008556
48.8146295309
48.8187450886
48.8310917616
48.7652428389
48.7981673002
48.7981673002
48.7817050695
48.7817050695
48.7817050695
48.8022828579
48.8146295309
48.7981673002
48.8187450886
48.8022828579
48.8187450886
48.8352073193
48.7981673002
49.2303008556
48.8187450886
48.8022828579
48.8146295309
49.2344164133
49.213838625
48.7981673002
48.8146295309
48.8516695499
48.7981673002
48.7981673002
48.8022828579

Average distance is : 48.934 cm
Average deviation is : 0.193 cm
Block: 2
======================================
48.7817050695
48.8187450886
48.8310917616
48.7981673002
48.8310917616
48.8187450886
49.213838625
48.7652428389
48.8022828579
48.7981673002
48.7981673002
48.8022828579
48.8022828579
48.8187450886
48.8146295309
48.7981673002
48.7981673002
48.7981673002
48.8146295309
48.7817050695
49.1973763943
48.7817050695
48.7981673002
48.8187450886
48.8146295309
48.8187450886
48.7817050695
48.8187450886
48.7817050695
48.8187450886
48.8187450886
48.7981673002
49.1973763943
48.7817050695
48.7858206272
48.8146295309
48.7981673002
48.8146295309
48.8352073193
48.7817050695
48.8022828579
49.2303008556
48.7981673002
48.8022828579
48.7981673002
48.8022828579
48.8146295309
48.7981673002
48.8022828579
48.7817050695
49.213838625
48.7981673002
48.8022828579
49.2303008556
48.8187450886
49.213838625
48.8187450886
48.8146295309
48.7981673002
49.2344164133
48.7981673002
48.8022828579
48.7981673002
48.7981673002
48.8146295309
49.2303008556
49.2303008556
48.8146295309
48.7817050695
48.8187450886
48.8516695499
48.8022828579
49.213838625
49.2303008556
49.213838625

Average distance is : 48.876 cm
Average deviation is : 0.159 cm
Block: 3
======================================
48.8475539923
48.8681317806
48.8352073193
49.213838625
49.2673408747
49.2961497784
49.213838625
49.2344164133
49.1932608366
49.2838031054
49.2344164133
48.8516695499
48.8681317806
48.8681317806
48.8681317806
48.8681317806
48.8681317806
48.8146295309
48.8681317806
48.8681317806
48.7981673002
49.213838625
49.2344164133
49.213838625
49.2303008556
49.2838031054
49.2303008556
49.213838625
49.213838625
49.1932608366
49.213838625
49.213838625
49.213838625
49.213838625
49.2303008556
49.2344164133
48.8187450886
48.8022828579
49.2303008556
49.263225317
49.2097230673
49.2303008556
49.213838625
49.300265336
48.8516695499
49.213838625
49.213838625
49.2303008556
48.7981673002
49.2303008556
48.8187450886
49.213838625
49.2344164133
49.2303008556
49.2673408747
48.7981673002
49.2838031054
48.8516695499
49.2838031054
49.2303008556
49.2303008556
49.2796875477
49.2303008556
49.2838031054
48.8352073193
48.8516695499
48.8475539923
48.8681317806
48.8681317806
48.8516695499
48.8681317806
48.8352073193
48.8516695499
48.8681317806
48.8352073193

Average distance is : 49.075 cm
Average deviation is : 0.195 cm
Block: 4
======================================
48.8146295309
49.213838625
49.2673408747
48.8310917616
49.213838625
49.1973763943
48.7817050695
48.8516695499
48.8146295309
48.8681317806
49.2838031054
48.8352073193
48.8352073193
48.8845940113
48.8516695499
48.8681317806
48.8146295309
48.8310917616
48.8516695499
48.8352073193
49.2344164133
49.300265336
49.2303008556
49.2097230673
49.213838625
49.1973763943
48.8516695499
48.8681317806
48.8516695499
48.8722473383
48.8516695499
48.8516695499
48.8681317806
48.8516695499
48.8681317806
48.8516695499
48.8352073193
48.8516695499
48.8516695499
48.8516695499
48.8681317806
48.8722473383
48.8516695499
48.8516695499
48.8516695499
48.8681317806
48.8681317806
48.8516695499
48.8681317806
48.8681317806
48.8681317806
48.8681317806
48.8681317806
48.8516695499
48.8516695499
48.8516695499
49.263225317
49.2838031054
48.8516695499
48.8516695499
48.8475539923
48.8516695499
48.8516695499
48.8516695499
48.8352073193
48.8310917616
48.8681317806
48.8516695499
48.8310917616
48.8681317806
48.8516695499
48.8516695499
48.8681317806
48.8516695499
48.8681317806

Average distance is : 48.919 cm
Average deviation is : 0.149 cm
Block: 5
======================================
48.8352073193
48.8681317806
48.8516695499
48.8516695499
48.8516695499
48.8516695499
48.8352073193
48.9051717997
48.8845940113
48.8352073193
48.8516695499
48.8516695499
48.8516695499
48.888709569
48.8475539923
48.8845940113
48.8681317806
48.8475539923
48.8516695499
48.8516695499
48.8681317806
48.8352073193
48.8681317806
48.8722473383
48.8681317806
48.8516695499
48.8516695499
48.8681317806
48.8516695499
48.8516695499
48.8516695499
48.8475539923
48.8516695499
48.8475539923
48.8516695499
48.8516695499
48.8516695499
48.8845940113
48.8475539923
48.8516695499
48.8475539923
48.8516695499
48.8516695499
48.8516695499
48.8516695499
48.8516695499
48.8516695499
48.8681317806
48.8681317806
48.8516695499
48.8516695499
48.8310917616
48.8681317806
48.8516695499
48.8681317806
48.8681317806
48.8681317806
48.8516695499
48.8681317806
48.8681317806
48.8722473383
48.8516695499
48.8681317806
48.8516695499
48.8681317806
48.8310917616
48.8516695499
48.8352073193
48.8681317806
48.8516695499
48.8681317806
48.8516695499
48.8516695499
48.8475539923
48.8516695499

Average distance is : 48.857 cm
Average deviation is : 0.014 cm
Block: 6
======================================
48.8310917616
48.8845940113
48.8681317806
48.8516695499
48.8352073193
49.2303008556
49.3331897974
48.8516695499
49.2303008556
48.8681317806
48.8681317806
48.8516695499
48.8681317806
48.8516695499
48.8352073193
48.8516695499
48.8681317806
48.8516695499
48.8516695499
48.8310917616
48.8516695499
48.8475539923
49.300265336
48.8352073193
48.8516695499
48.8475539923
48.8516695499
48.8681317806
48.8516695499
48.8516695499
48.8516695499
48.8516695499
48.8516695499
48.8516695499
49.2838031054
49.2838031054
48.8516695499
48.8516695499
49.2838031054
48.8516695499
48.8681317806
48.8475539923
49.2796875477
48.8475539923
48.8681317806
48.8516695499
48.8681317806
48.888709569
48.8516695499
48.8352073193
48.8516695499
48.8722473383
48.8681317806
48.8516695499
48.8516695499
48.8681317806
48.8681317806
48.8516695499
48.8516695499
48.8516695499
48.8516695499
48.8310917616
48.8681317806
48.8681317806
48.8516695499
48.8516695499
48.8310917616
48.8516695499
48.8681317806
48.8352073193
48.8516695499
48.8516695499
48.8681317806
48.8352073193
48.8310917616

Average distance is : 48.899 cm
Average deviation is : 0.133 cm
Block: 7
======================================
48.8845940113
48.8310917616
48.8310917616
48.8845940113
48.8516695499
48.8516695499
48.8352073193
48.8681317806
48.8681317806
48.8352073193
48.8352073193
48.8681317806
48.8516695499
48.8516695499
48.8475539923
48.8681317806
48.8516695499
48.8516695499
48.8681317806
48.8681317806
48.8352073193
48.8681317806
48.8352073193
48.8681317806
48.8475539923
48.8681317806
48.8516695499
48.8516695499
48.8681317806
48.8516695499
48.8475539923
48.8310917616
48.8310917616
48.8516695499
48.8352073193
48.8516695499
48.8516695499
48.8681317806
48.8516695499
48.8475539923
48.8681317806
48.8516695499
48.8516695499
48.8352073193
48.8516695499
48.8516695499
48.8681317806
48.8516695499
48.8516695499
48.8516695499
48.8516695499
48.8516695499
48.8310917616
48.8516695499
48.8681317806
48.8352073193
48.8516695499
48.8352073193
48.8516695499
48.8516695499
48.8516695499
48.8352073193
48.8681317806
48.8681317806
48.8681317806
48.8516695499
48.8681317806
48.8352073193
48.8516695499
48.8516695499
48.8681317806
48.8475539923
48.8516695499
48.8352073193
48.8681317806

Average distance is : 48.853 cm
Average deviation is : 0.013 cm
Block: 8
======================================
49.2838031054
49.300265336
48.8681317806
48.7652428389
48.8352073193
48.8475539923
47.7651623249
49.2303008556
48.8516695499
48.8681317806
49.2673408747
48.8352073193
48.8516695499
48.8516695499
48.8475539923
48.8516695499
48.8516695499
48.8475539923
48.8681317806
48.8516695499
48.8681317806
48.8516695499
48.8516695499
48.8352073193
48.8681317806
48.8516695499
48.8475539923
48.8310917616
48.8516695499
48.8516695499
48.8516695499
48.8352073193
48.8681317806
48.8310917616
48.8516695499
49.2838031054
48.8516695499
48.8310917616
48.8475539923
48.8516695499
48.8352073193
48.8516695499
48.8722473383
48.8681317806
48.8516695499
48.8352073193
48.8475539923
48.8516695499
48.8516695499
48.8722473383
48.8681317806
48.8475539923
48.8352073193
48.8352073193
48.8352073193
48.8475539923
48.8516695499
48.8516695499
48.8516695499
48.8516695499
48.8681317806
48.8352073193
48.8516695499
48.8516695499
48.8681317806
48.8516695499
48.8310917616
48.8516695499
48.8516695499
48.8516695499
48.8681317806
48.8516695499
48.8516695499
48.8845940113
48.8681317806

Average distance is : 48.864 cm
Average deviation is : 0.168 cm
Block: 9
======================================
48.888709569
48.8146295309
48.8187450886
48.8516695499
48.8310917616
48.8475539923
48.8310917616
48.8187450886
48.8187450886
48.8845940113
48.8516695499
48.8516695499
48.8516695499
48.8681317806
48.8681317806
48.8516695499
48.8475539923
48.8516695499
48.8310917616
48.8310917616
48.8681317806
48.8516695499
48.8681317806
48.8475539923
48.8681317806
48.8681317806
48.8516695499
48.8516695499
48.8681317806
48.8681317806
48.8516695499
48.8516695499
48.8681317806
48.8681317806
48.8681317806
48.8681317806
48.8681317806
48.8352073193
48.8681317806
48.8352073193
48.8352073193
48.8352073193
48.8516695499
48.8516695499
48.8516695499
48.8516695499
48.8352073193
48.8352073193
48.8352073193
48.8516695499
48.8516695499
48.8475539923
48.8516695499
48.8516695499
48.8352073193
48.8516695499
48.8722473383
48.8352073193
48.8516695499
48.8516695499
48.8352073193
48.8516695499
48.8516695499
48.8516695499
48.8516695499
48.8516695499
48.8475539923
48.8516695499
48.8475539923
48.8516695499
48.8352073193
48.8516695499
48.8681317806
48.8681317806
48.8516695499

Average distance is : 48.851 cm
Average deviation is : 0.015 cm
Block: 10
======================================
49.300265336
48.8845940113
48.8722473383
48.8352073193
48.8475539923
48.8146295309
48.8475539923
48.8187450886
48.888709569
48.8352073193
48.8146295309
48.8310917616
48.8516695499
49.2673408747
49.213838625
48.8681317806
48.8022828579
48.8681317806
48.8681317806
49.2467630863
49.2838031054
48.8516695499
48.8516695499
49.2796875477
48.8722473383
48.8681317806
48.8516695499
48.8475539923
48.8681317806
48.8516695499
48.8516695499
48.8516695499
48.8681317806
48.8681317806
48.8516695499
48.8681317806
48.8516695499
48.8516695499
48.8516695499
48.8352073193
48.8310917616
48.8516695499
48.8516695499
48.8516695499
48.8516695499
49.2467630863
49.2303008556
49.2303008556
49.213838625
48.7817050695
48.8022828579
48.8146295309
48.7981673002
48.7981673002
48.7981673002
48.8022828579
48.8022828579
48.7981673002
48.8187450886
48.7817050695
49.213838625
49.213838625
48.7981673002
48.7817050695
48.7981673002
48.8146295309
48.8146295309
48.8516695499
48.7981673002
49.213838625
49.2303008556
48.7981673002
49.213838625
49.213838625
49.250878644

Average distance is : 48.927 cm
Average deviation is : 0.173 cm