
Block: 1
======================================
48.7817050695
49.3167275667
48.8681317806
49.2838031054
48.901056242
48.8516695499
48.8681317806
49.2838031054
49.300265336
49.2796875477
48.8516695499
48.888709569
48.8475539923
48.8845940113
48.8352073193
48.8516695499
48.8681317806
49.2467630863
48.888709569
48.8516695499
48.8681317806
48.8475539923
48.9175184727
48.8681317806
48.8516695499

Block: 2
======================================
48.8146295309
48.8516695499
48.8187450886
48.8722473383
48.8681317806
48.8681317806
48.8681317806
48.8516695499
48.8681317806
48.8516695499
48.8310917616
48.8681317806
48.8845940113
48.8681317806
48.8352073193
48.8681317806
48.888709569
48.8845940113
48.8310917616
48.8352073193
48.8516695499
48.8516695499
48.8310917616
48.8516695499
48.8516695499

Block: 3
======================================
48.8681317806
48.8352073193
48.8516695499
48.8722473383
48.8516695499
48.8146295309
48.8352073193
48.8681317806
48.8516695499
48.8845940113
48.8681317806
48.8475539923
48.8352073193
48.8352073193
48.8681317806
48.8681317806
48.6088516474
48.8681317806
48.8681317806
48.8516695499
48.8516695499
48.8516695499
48.8516695499
48.8516695499
48.8516695499

Block: 4
======================================
48.8352073193
48.8681317806
48.8516695499
48.8516695499
49.5760077
48.8845940113
48.8516695499
48.8516695499
48.8681317806
48.8516695499
48.8516695499
48.8516695499
48.8681317806
48.8516695499
48.8516695499
48.8722473383
48.8475539923
48.8681317806
48.8516695499
48.8845940113
48.8352073193
48.8516695499
48.8681317806
48.8516695499
48.9051717997

Block: 5
======================================
48.8352073193
48.8352073193
48.8516695499
48.8516695499
48.8516695499
48.8681317806
48.9051717997
48.8681317806
48.8681317806
48.8516695499
48.8845940113
48.8516695499
48.8845940113
48.8845940113
48.7981673002
48.8681317806
48.8516695499
48.8516695499
48.8516695499
48.8475539923
48.8516695499
48.8475539923
48.8516695499
48.8516695499
48.8681317806

Block: 6
======================================
48.8146295309
48.8352073193
48.8352073193
48.8681317806
48.8681317806
48.8681317806
48.8516695499
48.8516695499
48.8722473383
48.8845940113
48.8310917616
48.8187450886
48.8681317806
48.8516695499
48.8352073193
48.8681317806
48.8352073193
48.8516695499
48.8845940113
48.8681317806
48.8516695499
48.8516695499
48.8310917616
48.8681317806
48.8681317806

Block: 7
======================================
48.8681317806
48.8352073193
48.8681317806
48.8681317806
48.8681317806
48.8681317806
48.8516695499
48.8845940113
48.8681317806
48.8681317806
48.8681317806
49.2344164133
48.8516695499
48.8516695499
48.8516695499
48.8516695499
48.8475539923
48.8516695499
48.8475539923
48.8310917616
48.8352073193
48.8516695499
48.8516695499
48.8681317806
48.8310917616

Block: 8
======================================
48.8681317806
48.8516695499
48.8187450886
48.8681317806
48.8516695499
48.8516695499
48.8475539923
48.8516695499
48.8681317806
48.8516695499
48.8516695499
48.8845940113
48.8516695499
48.8681317806
48.8516695499
48.8310917616
48.8516695499
48.8516695499
48.8516695499
48.8681317806
48.8681317806
48.8681317806
48.8516695499
48.8516695499
48.8352073193

Block: 9
======================================
48.8352073193
48.8516695499
48.8352073193
48.8845940113
48.8845940113
48.8352073193
48.8681317806
48.8516695499
48.8681317806
48.8146295309
48.8845940113
48.8516695499
48.8475539923
48.8845940113
48.8475539923
48.8681317806
48.8516695499
48.8681317806
48.8516695499
48.8516695499
48.8681317806
48.8352073193
48.8310917616
48.8516695499
48.8681317806

Block: 10
======================================
48.8310917616
48.8722473383
48.8516695499
48.8681317806
48.8845940113
48.8187450886
48.8681317806
48.8681317806
48.8310917616
48.8681317806
48.8310917616
48.8187450886
48.8681317806
48.8516695499
48.8475539923
48.8352073193
48.8352073193
48.8352073193
48.8516695499
48.8516695499
48.8516695499
48.8516695499
48.8475539923
48.8352073193
48.8352073193
