
Block: 1
======================================
48.8352073193
49.2467630863
49.213838625
49.2796875477
48.8516695499
48.8845940113
48.8516695499
48.8681317806
49.1973763943
49.213838625

Average distance is : 49.044 cm
Average deviation is : 0.198 cm
Block: 2
======================================
48.8187450886
48.8681317806
48.8681317806
48.8475539923
48.8681317806
48.8516695499
48.8352073193
49.213838625
48.8352073193
48.8516695499

Average distance is : 48.886 cm
Average deviation is : 0.116 cm
Block: 3
======================================
48.8352073193
48.8516695499
49.300265336
48.8681317806
48.8681317806
48.7981673002
49.1767986059
49.300265336
48.8681317806
49.2344164133

Average distance is : 49.010 cm
Average deviation is : 0.213 cm
Block: 4
======================================
49.250878644
49.1644519329
49.2673408747
49.2344164133
49.1973763943
48.8310917616
49.1932608366
48.8845940113
49.2838031054
49.263225317

Average distance is : 49.157 cm
Average deviation is : 0.163 cm
Block: 5
======================================
48.888709569
48.8475539923
48.8681317806
48.8516695499
48.8681317806
48.8310917616
48.8187450886
48.8516695499
48.8516695499
48.8352073193

Average distance is : 48.851 cm
Average deviation is : 0.020 cm
Block: 6
======================================
49.300265336
49.213838625
48.8681317806
48.8845940113
48.8845940113
48.8845940113
49.2303008556
48.8516695499
48.7981673002
48.8146295309

Average distance is : 48.973 cm
Average deviation is : 0.193 cm
Block: 7
======================================
48.8022828579
49.250878644
49.213838625
49.2467630863
49.213838625
49.2838031054
49.2303008556
49.1973763943
49.1973763943
49.2344164133

Average distance is : 49.187 cm
Average deviation is : 0.138 cm
Block: 8
======================================
49.263225317
49.1973763943
49.300265336
49.2796875477
48.8475539923
48.8352073193
49.2838031054
49.3167275667
49.300265336
49.213838625

Average distance is : 49.184 cm
Average deviation is : 0.184 cm
Block: 9
======================================
49.213838625
49.3167275667
49.3167275667
49.2467630863
49.300265336
48.8681317806
49.1973763943
48.8845940113
49.2673408747
49.2344164133

Average distance is : 49.185 cm
Average deviation is : 0.168 cm
Block: 10
======================================
48.8187450886
49.2097230673
48.7652428389
48.8516695499
49.3167275667
48.8516695499
49.213838625
49.300265336
48.8022828579
48.8516695499

Average distance is : 48.998 cm
Average deviation is : 0.229 cm