
Block: 1
======================================
48.8516695499
48.8516695499
48.8352073193
48.8352073193
48.8681317806
48.8681317806
48.8681317806
48.8310917616
48.8516695499
48.8310917616
48.8352073193
48.8516695499
48.8310917616
48.8516695499
48.8516695499
48.8845940113
48.8681317806
48.8845940113
48.8310917616
48.8516695499
48.8146295309
48.8681317806
48.8475539923
48.8516695499
48.8845940113
48.8516695499
48.8681317806
48.8681317806
48.8516695499
48.8475539923
48.8722473383
48.8681317806
48.8516695499
48.8516695499
48.8681317806
48.8516695499
48.8352073193
48.8516695499
48.8681317806
48.8352073193
48.8352073193
48.8516695499
48.8516695499
48.8310917616
48.8516695499
48.8310917616
48.8516695499
48.8722473383
48.8516695499
48.8352073193
48.8352073193
48.8516695499
48.8310917616
48.8352073193
48.8681317806
48.8516695499
48.8310917616
48.8187450886
48.8146295309
48.8516695499
48.8681317806
48.8516695499
48.8475539923
48.8352073193
48.8516695499
48.8681317806
48.8352073193
48.8352073193
48.8310917616
48.8516695499
48.8516695499
48.8352073193
48.8516695499
48.8352073193
48.8516695499
48.8352073193
48.8310917616
48.8516695499
48.8516695499
48.8146295309
48.8352073193
48.8516695499
48.8681317806
48.8516695499
48.8352073193
48.8516695499
48.8352073193
48.8681317806
48.8516695499
48.8516695499
48.8352073193
48.8352073193
48.8352073193
48.8310917616
48.8187450886
48.8516695499
48.8681317806
48.8352073193
48.8516695499
48.8681317806

Average distance is : 48.848 cm
Average deviation is : 0.016 cm
Block: 2
======================================
48.8352073193
48.8310917616
48.8146295309
48.8681317806
48.8187450886
48.8516695499
48.8845940113
48.8516695499
49.3866920471
48.8681317806
48.8681317806
48.8352073193
48.8516695499
48.8146295309
48.8516695499
48.8475539923
48.8516695499
48.8475539923
48.8516695499
48.8310917616
48.8352073193
48.8681317806
48.8516695499
48.8516695499
48.8516695499
48.8845940113
48.8516695499
48.8146295309
48.8352073193
48.8681317806
48.8681317806
48.888709569
48.8352073193
48.8352073193
48.8845940113
48.8516695499
48.8681317806
48.8516695499
48.8516695499
48.8310917616
48.8681317806
48.8681317806
48.8516695499
48.8516695499
48.8516695499
48.8516695499
48.8845940113
48.8516695499
48.8681317806
48.8352073193
49.263225317
48.8516695499
48.8516695499
48.8352073193
48.8681317806
48.8516695499
48.8516695499
48.888709569
48.8352073193
48.8516695499
48.8146295309
48.8516695499
48.8475539923
48.8516695499
48.8516695499
48.8516695499
48.8681317806
48.8352073193
48.8146295309
48.8681317806
48.8352073193
48.8310917616
48.8516695499
48.8681317806
48.8516695499
48.8516695499
48.8352073193
48.8310917616
48.8516695499
48.8516695499
48.8516695499
48.8352073193
48.8516695499
48.8681317806
48.8681317806
48.8681317806
48.8845940113
48.8310917616
48.8845940113
48.8516695499
48.8516695499
48.8681317806
48.8475539923
48.8516695499
48.8845940113
48.888709569
48.8516695499
48.8681317806
48.8352073193
48.8516695499

Average distance is : 48.862 cm
Average deviation is : 0.069 cm
Block: 3
======================================
48.8845940113
48.8681317806
48.8352073193
48.8516695499
48.8845940113
48.8681317806
48.8516695499
48.8722473383
48.8681317806
48.8681317806
48.8475539923
48.8187450886
48.8310917616
48.8310917616
48.8516695499
48.8516695499
48.8187450886
48.8310917616
48.8681317806
48.8475539923
48.8516695499
48.8516695499
48.8681317806
48.8845940113
48.8516695499
48.8475539923
48.8845940113
48.8516695499
48.8516695499
48.8146295309
48.8352073193
48.8310917616
48.8516695499
48.8310917616
48.8310917616
48.8516695499
48.8352073193
48.888709569
48.8310917616
48.8516695499
48.8681317806
48.8146295309
49.2673408747
48.8516695499
48.8475539923
48.8516695499
48.8475539923
48.8352073193
48.8516695499
48.888709569
48.8187450886
48.8516695499
48.8146295309
48.8352073193
48.8681317806
48.8352073193
48.8681317806
48.8352073193
48.8516695499
48.8845940113
48.8352073193
48.8352073193
48.8516695499
48.8681317806
48.901056242
48.8187450886
48.8516695499
48.8681317806
48.8681317806
48.8516695499
48.8681317806
48.8352073193
48.8146295309
48.8516695499
48.8516695499
48.8516695499
48.8516695499
48.8516695499
48.8516695499
48.8516695499
48.8516695499
48.8352073193
48.8187450886
48.8516695499
48.8681317806
48.8845940113
48.8516695499
49.2673408747
48.8681317806
48.8310917616
48.8516695499
48.8681317806
48.8516695499
48.8310917616
48.8516695499
48.8516695499
49.2838031054
48.8681317806
49.300265336
49.2303008556

Average distance is : 48.872 cm
Average deviation is : 0.094 cm
Block: 4
======================================
49.2303008556
48.8681317806
49.2838031054
49.2344164133
49.2673408747
48.8516695499
48.8516695499
49.0739096642
48.8516695499
49.213838625
48.8352073193
48.8187450886
48.8187450886
48.8516695499
48.8681317806
48.8352073193
49.3167275667
49.2838031054
48.8516695499
48.8681317806
48.8352073193
49.213838625
49.250878644
48.888709569
48.8516695499
48.8516695499
48.8187450886
49.263225317
48.8722473383
49.300265336
48.8516695499
49.300265336
48.8516695499
49.2673408747
49.213838625
49.213838625
49.2838031054
49.2673408747
48.8681317806
48.8681317806
49.263225317
49.2838031054
49.2303008556
48.8146295309
48.8310917616
48.8681317806
48.8516695499
48.8516695499
49.2303008556
49.2303008556
48.8516695499
48.8516695499
49.300265336
48.8187450886
48.7981673002
49.2796875477
48.8516695499
48.8352073193
49.2467630863
49.2838031054
49.300265336
48.8310917616
49.213838625
49.2838031054
49.213838625
49.2673408747
48.8310917616
48.8310917616
49.2467630863
48.8352073193
48.8516695499
49.250878644
49.2838031054
49.3167275667
49.2673408747
49.2467630863
49.2838031054
49.2838031054
48.8681317806
48.8681317806
49.300265336
49.2467630863
49.2303008556
49.300265336
49.1932608366
49.213838625
48.8352073193
49.2838031054
49.1973763943
49.213838625
49.213838625
48.8681317806
49.2838031054
48.8146295309
49.2796875477
49.213838625
49.263225317
48.8516695499
49.2838031054
48.8352073193

Average distance is : 49.071 cm
Average deviation is : 0.207 cm
Block: 5
======================================
48.8516695499
48.8845940113
49.300265336
48.8352073193
48.8310917616
48.8352073193
49.250878644
48.8516695499
48.8845940113
49.1973763943
48.8516695499
49.2838031054
48.8516695499
48.8146295309
48.8352073193
48.8516695499
48.8681317806
49.3167275667
48.8516695499
48.8352073193
48.8845940113
49.263225317
48.8516695499
49.213838625
48.8352073193
48.8187450886
48.8516695499
48.8146295309
48.8310917616
49.213838625
49.213838625
49.2838031054
49.2303008556
48.8352073193
49.300265336
49.2838031054
49.263225317
48.8187450886
49.213838625
48.8146295309
49.2303008556
49.213838625
49.2673408747
48.8681317806
49.3167275667
48.8310917616
48.8722473383
49.213838625
49.213838625
48.8516695499
49.213838625
49.213838625
49.2673408747
49.250878644
49.2838031054
49.2673408747
49.2796875477
49.1973763943
49.213838625
49.213838625
49.263225317
49.2303008556
49.2467630863
49.3167275667
49.213838625
49.2303008556
49.213838625
49.213838625
49.250878644
49.213838625
49.213838625
48.8681317806
49.2467630863
49.213838625
49.1973763943
48.7817050695
49.213838625
49.213838625
49.2303008556
48.7981673002
49.2303008556
49.213838625
48.8310917616
49.2303008556
49.250878644
48.7817050695
49.2303008556
49.2303008556
49.1809141636
49.1973763943
49.213838625
49.2467630863
49.2303008556
49.1767986059
49.2303008556
48.8352073193
48.8516695499
48.8516695499
49.213838625
49.2838031054

Average distance is : 49.091 cm
Average deviation is : 0.195 cm
Block: 6
======================================
49.2303008556
49.2344164133
49.2303008556
49.213838625
48.8516695499
49.2303008556
49.2303008556
49.1767986059
49.213838625
49.213838625
49.1973763943
48.8516695499
49.213838625
48.8722473383
49.2303008556
49.2838031054
48.8310917616
48.8681317806
48.8352073193
48.8516695499
48.8516695499
48.8681317806
48.8146295309
49.250878644
49.1973763943
49.1973763943
49.213838625
49.213838625
48.8516695499
49.1932608366
48.7981673002
48.8022828579
48.8187450886
48.7981673002
48.8352073193
48.7817050695
48.7817050695
48.8022828579
48.7817050695
49.2303008556
49.250878644
49.1973763943
49.2303008556
48.7981673002
48.8352073193
49.2303008556
49.1973763943
49.1809141636
49.2303008556
49.213838625
48.7981673002
49.2673408747
49.2303008556
48.8310917616
48.8516695499
48.7981673002
48.7981673002
48.7981673002
48.7981673002
48.8022828579
49.2303008556
48.7817050695
49.1973763943
48.8146295309
48.7817050695
48.8022828579
49.2344164133
49.1973763943
48.7652428389
49.250878644
49.2838031054
49.213838625
49.2796875477
49.213838625
48.8516695499
48.7652428389
49.2673408747
49.1973763943
49.1973763943
49.300265336
49.213838625
49.2467630863
49.2838031054
49.2467630863
49.1932608366
49.1973763943
49.300265336
48.8681317806
48.8475539923
48.8516695499
49.1973763943
49.2303008556
49.2344164133
48.8516695499
49.213838625
48.8022828579
48.8516695499
49.1973763943
48.8310917616
49.2303008556

Average distance is : 49.048 cm
Average deviation is : 0.204 cm
Block: 7
======================================
48.8516695499
48.8516695499
48.8681317806
49.2303008556
49.2838031054
48.8310917616
49.300265336
48.8352073193
48.8187450886
48.8516695499
49.213838625
48.888709569
48.8681317806
48.8681317806
48.8681317806
48.8516695499
48.8352073193
49.2467630863
49.2796875477
48.8516695499
48.8681317806
48.8845940113
49.2344164133
49.213838625
49.300265336
48.8516695499
49.2838031054
49.2838031054
48.8516695499
49.2838031054
49.300265336
49.213838625
48.8681317806
48.8516695499
48.8516695499
49.250878644
49.2838031054
48.8516695499
48.8681317806
48.8187450886
48.8516695499
48.8845940113
49.2303008556
49.2838031054
49.250878644
48.8845940113
49.2673408747
49.263225317
49.2303008556
49.1973763943
49.2838031054
49.2796875477
48.8516695499
49.3208431244
48.8187450886
48.8516695499
48.8845940113
48.8681317806
49.1973763943
48.8681317806
48.8187450886
48.8352073193
48.8310917616
49.2673408747
48.8352073193
48.8516695499
49.3866920471
48.8310917616
48.888709569
48.8516695499
49.2673408747
48.8516695499
49.2796875477
48.8352073193
49.2673408747
48.8516695499
48.8516695499
48.8352073193
49.2673408747
49.1932608366
49.2467630863
48.8310917616
48.8352073193
48.8352073193
48.8352073193
48.8516695499
48.8516695499
48.8352073193
49.213838625
48.8352073193
48.8310917616
48.8516695499
49.1973763943
49.263225317
48.8681317806
49.300265336
48.8352073193
48.8475539923
49.263225317
48.8352073193

Average distance is : 49.014 cm
Average deviation is : 0.204 cm
Block: 8
======================================
48.8187450886
48.8722473383
48.8352073193
49.2838031054
49.2838031054
48.8310917616
49.2838031054
48.8681317806
48.8681317806
49.2467630863
48.8352073193
48.8187450886
48.8516695499
48.8310917616
48.8681317806
49.2838031054
48.8516695499
49.2303008556
48.8352073193
49.213838625
49.2303008556
48.8681317806
49.1973763943
49.213838625
49.213838625
49.300265336
48.8516695499
49.300265336
48.8516695499
49.2838031054
49.213838625
48.8516695499
49.2467630863
48.8516695499
49.2097230673
49.263225317
49.1973763943
49.300265336
49.213838625
49.2303008556
49.300265336
49.300265336
48.8516695499
49.263225317
49.2303008556
49.2467630863
49.2303008556
49.213838625
48.8352073193
48.8352073193
48.8681317806
49.1973763943
49.2344164133
49.2796875477
48.8187450886
49.2303008556
49.213838625
49.213838625
49.1809141636
48.7981673002
49.2303008556
48.7817050695
48.7817050695
49.2303008556
48.7652428389
48.8022828579
49.2303008556
48.7817050695
49.1932608366
49.1973763943
48.8352073193
48.7652428389
49.2303008556
48.8681317806
48.8516695499
49.213838625
49.213838625
49.2097230673
49.213838625
48.7981673002
48.7817050695
49.1973763943
48.8516695499
48.8681317806
48.8187450886
49.2303008556
49.250878644
49.1973763943
49.2303008556
49.1809141636
48.8187450886
49.1973763943
49.2344164133
49.250878644
49.2673408747
49.2303008556
49.2303008556
49.2344164133
49.213838625
49.2303008556

Average distance is : 49.078 cm
Average deviation is : 0.200 cm
Block: 9
======================================
49.1973763943
49.2838031054
49.2303008556
48.8516695499
49.1973763943
49.213838625
49.2467630863
49.2344164133
49.1973763943
49.300265336
49.213838625
49.2303008556
49.1973763943
49.213838625
48.8310917616
49.213838625
49.1973763943
49.1973763943
49.2303008556
49.263225317
49.213838625
48.7817050695
49.213838625
48.7981673002
49.2467630863
49.213838625
49.213838625
49.213838625
49.213838625
48.8681317806
48.7652428389
49.2303008556
48.7981673002
48.8146295309
48.7817050695
49.2303008556
48.7981673002
48.8516695499
49.1767986059
48.7981673002
48.8022828579
48.8516695499
48.8187450886
49.213838625
49.2344164133
48.8022828579
49.2303008556
49.1973763943
49.300265336
48.8187450886
48.8516695499
49.1973763943
48.8681317806
48.8146295309
48.7981673002
49.1932608366
49.213838625
49.2303008556
48.8516695499
48.8352073193
48.7981673002
49.1809141636
49.2303008556
48.8146295309
48.8681317806
49.2303008556
49.1973763943
49.2673408747
49.2303008556
48.8352073193
49.2303008556
49.2838031054
48.8681317806
49.213838625
49.2344164133
49.1932608366
49.213838625
49.263225317
49.213838625
49.1973763943
48.8146295309
49.263225317
49.2838031054
49.2673408747
49.2673408747
49.2303008556
49.213838625
49.213838625
48.8352073193
48.8681317806
48.8681317806
48.8352073193
49.250878644
48.8681317806
48.8352073193
48.8310917616
48.8187450886
49.300265336
49.2303008556
48.8516695499

Average distance is : 49.076 cm
Average deviation is : 0.197 cm
Block: 10
======================================
49.2344164133
48.8722473383
48.8845940113
49.213838625
48.8352073193
49.263225317
49.2303008556
49.2303008556
48.8845940113
49.2838031054
48.8516695499
49.213838625
49.213838625
48.8146295309
49.213838625
49.300265336
48.8516695499
48.888709569
49.213838625
49.2838031054
49.213838625
49.2467630863
49.300265336
49.2467630863
49.250878644
49.2303008556
49.1973763943
49.2303008556
49.2344164133
48.8022828579
49.213838625
49.1932608366
49.213838625
49.2303008556
49.213838625
49.3167275667
49.1973763943
49.250878644
49.2303008556
49.213838625
49.1932608366
48.7981673002
49.1973763943
49.2467630863
49.1973763943
49.2838031054
49.1973763943
49.2344164133
49.2303008556
49.1809141636
49.213838625
49.1809141636
49.2303008556
49.263225317
49.2673408747
49.250878644
49.1973763943
49.2303008556
49.2673408747
49.213838625
49.2467630863
49.213838625
49.2838031054
49.213838625
49.1767986059
49.263225317
49.2673408747
49.213838625
49.250878644
49.2673408747
49.213838625
49.2838031054
48.8845940113
48.8352073193
48.8352073193
49.2838031054
48.8352073193
49.2467630863
49.2838031054
49.2303008556
49.213838625
49.2838031054
49.2344164133
49.263225317
48.8516695499
48.8516695499
49.2467630863
49.2467630863
48.8310917616
48.8516695499
48.8516695499
49.300265336
49.1767986059
48.8475539923
49.2838031054
48.8352073193
49.2467630863
48.8516695499
49.263225317
49.2796875477

Average distance is : 49.152 cm
Average deviation is : 0.166 cm