
Block: 1
======================================
299.752295494
299.76855545
300.162859392
301.06528697
300.227899218
299.736035538
301.06528697
299.736035538
299.736035538
300.162859392
300.175054359
300.179119349
300.195379305
299.752295494
299.731970549
300.179119349
300.195379305
299.736035538
299.736035538
301.06528697
300.195379305
299.736035538
299.736035538
301.081546926
299.699450636
300.158794403
300.179119349
301.06528697
299.736035538
299.715710592
301.081546926
300.179119349
300.195379305
300.179119349
299.731970549
300.179119349
300.642528105
300.21570425
300.195379305
300.195379305
300.175054359
299.719775581
301.081546926
300.622203159
300.179119349
300.179119349
301.081546926
300.622203159
301.06528697
301.081546926

Block: 2
======================================
299.736035538
300.21570425
299.715710592
301.101871872
300.195379305
300.179119349
300.158794403
300.622203159
300.179119349
300.638463116
299.731970549
300.195379305
301.528695726
300.199444294
300.642528105
301.06528697
300.179119349
300.179119349
300.195379305
300.195379305
300.179119349
300.195379305
300.179119349
301.544955683
299.736035538
300.211639261
300.195379305
300.162859392
300.638463116
300.162859392
300.179119349
300.211639261
299.752295494
300.622203159
300.622203159
300.162859392
300.622203159
300.605943203
300.158794403
300.179119349
300.179119349
300.622203159
300.179119349
300.179119349
300.601878214
300.162859392
300.162859392
300.179119349
300.146599436
300.179119349

Block: 3
======================================
300.605943203
300.195379305
300.179119349
300.589683247
301.06528697
300.179119349
299.715710592
300.179119349
301.06528697
300.195379305
299.699450636
300.195379305
300.179119349
300.162859392
300.658788061
301.081546926
299.719775581
300.622203159
299.719775581
300.179119349
300.601878214
300.642528105
300.179119349
300.179119349
301.06528697
300.622203159
300.605943203
300.605943203
300.162859392
301.06528697
300.605943203
300.162859392
299.731970549
300.162859392
300.179119349
300.179119349
300.622203159
300.605943203
300.654723072
300.195379305
300.195379305
301.06528697
301.06528697
300.179119349
300.179119349
300.158794403
300.162859392
300.179119349
300.179119349
299.699450636

Block: 4
======================================
300.158794403
299.736035538
300.622203159
301.097806883
299.752295494
299.715710592
300.175054359
299.719775581
301.081546926
300.622203159
300.195379305
299.752295494
299.719775581
300.654723072
301.06528697
300.179119349
299.703515625
300.179119349
300.195379305
300.179119349
300.158794403
301.085611916
300.195379305
299.719775581
300.158794403
300.162859392
300.162859392
300.622203159
300.162859392
300.146599436
299.736035538
299.699450636
300.179119349
299.715710592
300.195379305
300.175054359
300.179119349
300.162859392
300.162859392
300.158794403
300.162859392
299.703515625
299.715710592
300.179119349
300.162859392
300.142534447
301.508370781
300.162859392
300.179119349
300.162859392

Block: 5
======================================
300.642528105
300.179119349
300.162859392
299.719775581
300.162859392
299.699450636
299.719775581
301.06528697
301.06528697
300.179119349
300.162859392
299.719775581
299.715710592
300.638463116
300.175054359
300.162859392
299.699450636
301.06528697
300.162859392
299.699450636
299.719775581
299.715710592
299.715710592
300.179119349
300.179119349
300.179119349
300.162859392
300.142534447
299.719775581
299.719775581
300.638463116
301.06528697
300.638463116
300.601878214
301.101871872
300.622203159
299.736035538
300.601878214
300.605943203
299.736035538
299.715710592
299.715710592
299.736035538
300.638463116
300.195379305
299.715710592
300.146599436
299.719775581
300.179119349
299.68319068

Block: 6
======================================
299.752295494
301.049027014
299.736035538
299.736035538
300.638463116
300.601878214
300.61813817
299.715710592
299.719775581
299.699450636
300.162859392
300.179119349
300.622203159
300.162859392
299.719775581
300.638463116
300.179119349
299.699450636
301.508370781
299.719775581
299.699450636
300.622203159
299.719775581
299.715710592
300.179119349
300.179119349
300.179119349
300.605943203
299.715710592
300.179119349
299.719775581
299.736035538
300.158794403
300.179119349
300.179119349
299.699450636
299.719775581
300.638463116
300.142534447
300.162859392
300.195379305
300.195379305
300.638463116
300.158794403
300.605943203
300.638463116
300.158794403
301.06528697
300.179119349
300.622203159

Block: 7
======================================
300.585618258
300.12627449
300.195379305
300.146599436
300.158794403
300.162859392
300.158794403
300.179119349
300.162859392
300.162859392
300.162859392
300.162859392
301.049027014
300.179119349
300.179119349
301.049027014
301.081546926
300.158794403
301.06528697
300.179119349
300.162859392
301.06528697
301.06528697
300.162859392
300.158794403
300.179119349
300.146599436
300.142534447
301.06528697
300.195379305
301.06528697
300.162859392
300.175054359
300.179119349
300.195379305
301.028702068
300.146599436
300.142534447
300.589683247
301.049027014
301.085611916
301.049027014
300.622203159
300.162859392
300.162859392
300.605943203
300.179119349
300.605943203
300.158794403
300.142534447

Block: 8
======================================
301.032767057
300.605943203
300.130339479
300.158794403
300.179119349
301.049027014
300.179119349
301.06528697
301.06528697
300.605943203
300.179119349
301.06528697
301.069351959
301.06528697
300.162859392
301.049027014
301.028702068
300.179119349
300.638463116
301.049027014
300.175054359
300.638463116
301.049027014
300.179119349
300.179119349
301.06528697
300.585618258
301.049027014
301.06528697
300.622203159
300.179119349
300.162859392
300.162859392
300.146599436
301.049027014
300.179119349
301.049027014
300.195379305
301.06528697
300.179119349
301.081546926
301.06528697
300.622203159
301.081546926
300.162859392
301.06528697
299.719775581
300.601878214
300.162859392
301.06528697

Block: 9
======================================
301.06528697
300.601878214
301.492110825
300.179119349
300.195379305
300.601878214
300.179119349
301.06528697
301.049027014
300.589683247
300.605943203
124.140701818
299.752295494
300.162859392
300.622203159
301.06528697
300.605943203
300.179119349
301.049027014
301.049027014
300.142534447
300.146599436
301.081546926
301.049027014
301.91486969
300.142534447
301.06528697
300.605943203
300.179119349
300.162859392
300.162859392
300.622203159
300.605943203
301.06528697
300.605943203
300.179119349
301.471785879
300.638463116
300.179119349
301.081546926
300.179119349
301.918934679
300.162859392
301.06528697
300.585618258
300.622203159
300.605943203
300.162859392
300.622203159
300.622203159

Block: 10
======================================
300.162859392
300.179119349
300.179119349
300.605943203
301.081546926
299.736035538
301.081546926
300.622203159
300.179119349
300.142534447
300.605943203
300.638463116
301.06528697
300.622203159
299.736035538
300.622203159
300.195379305
300.179119349
300.622203159
300.622203159
299.719775581
301.06528697
299.736035538
301.06528697
299.715710592
300.622203159
300.622203159
299.719775581
299.752295494
301.06528697
301.06528697
300.589683247
300.605943203
300.605943203
299.736035538
299.719775581
300.605943203
300.622203159
301.097806883
300.195379305
300.605943203
299.719775581
300.21570425
301.06528697
299.731970549
300.179119349
300.199444294
301.06528697
300.605943203
301.492110825
