
Block: 1
======================================
300.158794403
299.736035538
299.719775581
300.179119349
300.146599436

Average distance is : 299.988 cm
Average deviation is : 0.238 cm
Block: 2
======================================
300.622203159
299.752295494
300.199444294
300.589683247
300.195379305

Average distance is : 300.272 cm
Average deviation is : 0.355 cm
Block: 3
======================================
300.179119349
300.179119349
300.622203159
300.638463116
300.589683247

Average distance is : 300.442 cm
Average deviation is : 0.240 cm
Block: 4
======================================
301.049027014
300.622203159
300.195379305
300.162859392
300.179119349

Average distance is : 300.442 cm
Average deviation is : 0.390 cm
Block: 5
======================================
300.179119349
299.699450636
299.736035538
300.622203159
301.081546926

Average distance is : 300.264 cm
Average deviation is : 0.592 cm
Block: 6
======================================
300.179119349
301.508370781
300.158794403
300.179119349
300.622203159

Average distance is : 300.530 cm
Average deviation is : 0.581 cm
Block: 7
======================================
300.179119349
299.719775581
300.162859392
300.195379305
300.622203159

Average distance is : 300.176 cm
Average deviation is : 0.319 cm
Block: 8
======================================
300.179119349
301.081546926
299.715710592
300.622203159
299.68319068

Average distance is : 300.256 cm
Average deviation is : 0.600 cm
Block: 9
======================================
300.195379305
300.179119349
300.142534447
300.146599436
300.179119349

Average distance is : 300.169 cm
Average deviation is : 0.023 cm
Block: 10
======================================
301.049027014
299.736035538
301.049027014
299.736035538
299.752295494

Average distance is : 300.264 cm
Average deviation is : 0.716 cm