
Block: 1
======================================
300.589683247
300.162859392
301.049027014
301.049027014
300.146599436
300.110014534
300.146599436
300.12627449
300.589683247
300.110014534
300.142534447
301.049027014
300.162859392
300.146599436
300.162859392
301.032767057
300.622203159
300.158794403
300.146599436
300.585618258
301.471785879
301.06528697
301.032767057
300.146599436
300.12627449
300.158794403
300.142534447
300.142534447
300.179119349
300.589683247
300.146599436
300.585618258
300.162859392
300.589683247
300.162859392
300.158794403
300.142534447
300.146599436
300.158794403
300.142534447
300.158794403
300.622203159
300.162859392
299.703515625
300.622203159
300.146599436
300.12627449
300.605943203
300.57342329
300.146599436
300.162859392
299.719775581
300.146599436
301.049027014
300.158794403
300.142534447
300.638463116
300.162859392
299.699450636
300.130339479
301.049027014
299.68319068
300.162859392
300.162859392
300.12627449
301.081546926
300.142534447
300.162859392
300.589683247
300.605943203
300.179119349
300.622203159
300.605943203
300.162859392
300.146599436
300.622203159
299.699450636
300.142534447
300.162859392
299.703515625
300.162859392
300.142534447
300.142534447
300.146599436
300.605943203
300.12627449
300.146599436
300.179119349
300.146599436
300.12627449
299.670995712
300.162859392
300.158794403
300.158794403
299.68319068
300.179119349
301.049027014
300.162859392
300.179119349
301.049027014

Average distance is : 300.308 cm
Average deviation is : 0.370 cm
Block: 2
======================================
300.585618258
300.195379305
301.049027014
300.605943203
300.158794403
300.179119349
300.158794403
300.142534447
300.142534447
300.162859392
300.589683247
300.162859392
300.130339479
300.605943203
300.146599436
299.703515625
300.162859392
300.162859392
301.012442112
300.57342329
300.175054359
300.638463116
300.12627449
301.492110825
300.179119349
300.162859392
300.142534447
300.622203159
300.179119349
300.589683247
301.06528697
301.049027014
300.158794403
300.605943203
301.492110825
300.589683247
301.028702068
301.475850868
300.146599436
300.605943203
300.589683247
301.032767057
300.158794403
300.130339479
300.585618258
300.601878214
300.605943203
300.142534447
300.638463116
300.146599436
300.179119349
300.622203159
300.142534447
301.51243577
300.158794403
300.158794403
300.622203159
300.158794403
300.175054359
300.622203159
300.642528105
301.032767057
301.049027014
300.162859392
301.492110825
300.638463116
300.158794403
300.589683247
300.146599436
300.146599436
300.130339479
300.179119349
300.622203159
300.605943203
300.162859392
300.589683247
300.585618258
300.130339479
300.158794403
300.162859392
300.12627449
300.601878214
300.142534447
301.044962025
300.179119349
301.032767057
300.162859392
301.044962025
300.622203159
300.110014534
300.162859392
300.605943203
300.605943203
301.081546926
300.622203159
300.601878214
301.475850868
300.605943203
301.049027014
300.622203159

Average distance is : 300.500 cm
Average deviation is : 0.405 cm
Block: 3
======================================
301.049027014
300.605943203
299.736035538
302.345758533
300.146599436
300.175054359
300.605943203
300.142534447
300.162859392
300.605943203
300.622203159
300.146599436
300.605943203
300.195379305
300.601878214
300.146599436
300.146599436
300.605943203
300.146599436
300.179119349
301.06528697
301.06528697
299.736035538
300.162859392
301.049027014
299.736035538
300.179119349
301.081546926
301.06528697
300.605943203
301.044962025
300.179119349
300.179119349
299.719775581
299.703515625
300.162859392
300.179119349
299.736035538
300.605943203
301.06528697
301.049027014
299.715710592
300.605943203
301.049027014
300.589683247
300.601878214
300.601878214
299.715710592
300.195379305
299.719775581
299.719775581
301.492110825
299.719775581
299.719775581
300.605943203
300.638463116
300.179119349
301.081546926
299.703515625
299.699450636
299.703515625
301.06528697
299.719775581
300.622203159
299.731970549
300.585618258
300.179119349
301.06528697
300.589683247
299.736035538
300.142534447
301.06528697
300.179119349
300.605943203
299.719775581
299.715710592
299.736035538
301.06528697
301.081546926
301.06528697
301.081546926
299.719775581
301.081546926
300.158794403
300.605943203
301.06528697
300.162859392
300.179119349
300.179119349
299.731970549
299.736035538
301.06528697
299.719775581
299.736035538
300.195379305
301.06528697
301.049027014
301.06528697
301.044962025
300.175054359

Average distance is : 300.399 cm
Average deviation is : 0.553 cm
Block: 4
======================================
300.175054359
300.110014534
301.044962025
301.06528697
300.179119349
300.61813817
300.622203159
300.179119349
300.622203159
300.179119349
301.06528697
300.142534447
301.081546926
301.085611916
301.06528697
300.179119349
300.179119349
301.06528697
300.195379305
300.146599436
301.097806883
301.06528697
301.081546926
301.081546926
300.162859392
300.179119349
300.654723072
301.06528697
301.081546926
300.195379305
301.06528697
300.195379305
300.638463116
300.179119349
300.195379305
300.179119349
301.06528697
300.175054359
300.179119349
300.179119349
300.199444294
300.175054359
300.162859392
300.638463116
300.195379305
300.199444294
300.638463116
300.638463116
300.195379305
300.179119349
301.097806883
300.605943203
301.508370781
300.654723072
300.622203159
300.211639261
300.622203159
301.081546926
300.199444294
301.081546926
300.179119349
300.195379305
300.195379305
300.195379305
300.195379305
301.081546926
300.162859392
301.085611916
301.06528697
300.195379305
300.195379305
300.195379305
301.081546926
300.195379305
301.081546926
300.605943203
300.195379305
300.211639261
300.622203159
300.638463116
300.199444294
300.21570425
301.524630737
300.670983028
300.195379305
301.097806883
300.179119349
301.081546926
300.179119349
300.227899218
300.21570425
300.654723072
300.195379305
300.199444294
300.199444294
300.21570425
300.658788061
300.654723072
300.638463116
299.76855545

Average distance is : 300.522 cm
Average deviation is : 0.406 cm
Block: 5
======================================
300.227899218
300.687242985
300.658788061
300.670983028
300.654723072
299.752295494
301.081546926
299.752295494
299.788880396
300.227899218
300.227899218
300.231964207
300.162859392
299.784815407
300.691307974
299.736035538
299.76855545
300.675048018
300.211639261
300.195379305
300.654723072
300.195379305
300.654723072
300.654723072
300.195379305
299.752295494
299.784815407
300.675048018
299.784815407
300.638463116
300.227899218
299.752295494
300.654723072
299.752295494
299.752295494
300.70756793
300.211639261
300.227899218
301.134391785
299.76855545
300.248224163
300.211639261
300.211639261
299.76855545
301.114066839
300.658788061
299.76855545
300.211639261
300.658788061
300.654723072
300.638463116
300.658788061
299.76855545
299.76855545
300.654723072
301.097806883
301.524630737
300.211639261
300.195379305
300.675048018
301.114066839
301.097806883
300.658788061
299.784815407
300.179119349
301.118131828
299.752295494
300.211639261
301.097806883
299.788880396
300.211639261
300.179119349
301.114066839
300.658788061
300.21570425
299.736035538
300.195379305
300.638463116
300.654723072
301.101871872
300.211639261
299.752295494
300.195379305
300.195379305
300.675048018
300.179119349
300.658788061
301.097806883
300.638463116
300.179119349
300.179119349
299.736035538
300.638463116
300.211639261
300.21570425
300.642528105
300.670983028
300.195379305
300.21570425
300.211639261

Average distance is : 300.353 cm
Average deviation is : 0.441 cm
Block: 6
======================================
300.195379305
300.654723072
300.195379305
300.654723072
300.658788061
300.195379305
301.114066839
300.654723072
299.77262044
299.752295494
300.654723072
299.788880396
299.76855545
300.227899218
301.540890694
300.21570425
300.211639261
300.658788061
300.211639261
300.211639261
299.752295494
300.654723072
300.211639261
300.21570425
299.715710592
300.211639261
299.736035538
300.195379305
300.658788061
300.638463116
300.195379305
300.211639261
300.21570425
300.658788061
300.211639261
300.654723072
300.638463116
300.638463116
301.524630737
300.638463116
300.211639261
301.081546926
300.195379305
300.211639261
300.638463116
300.211639261
300.638463116
300.638463116
300.195379305
301.097806883
300.658788061
300.162859392
300.179119349
300.195379305
300.195379305
300.638463116
300.179119349
300.21570425
300.227899218
299.736035538
299.752295494
300.179119349
301.06528697
299.736035538
300.179119349
300.638463116
300.211639261
300.638463116
299.736035538
300.195379305
300.638463116
300.638463116
299.752295494
300.199444294
300.179119349
300.638463116
299.752295494
300.638463116
300.162859392
300.638463116
300.195379305
300.638463116
300.179119349
300.179119349
300.195379305
300.638463116
301.081546926
300.638463116
300.195379305
299.76855545
300.638463116
300.175054359
300.654723072
300.675048018
300.179119349
300.638463116
300.638463116
300.179119349
300.179119349
299.715710592

Average distance is : 300.354 cm
Average deviation is : 0.389 cm
Block: 7
======================================
300.179119349
300.638463116
300.199444294
299.731970549
300.179119349
301.508370781
299.719775581
300.638463116
300.638463116
300.179119349
300.179119349
300.654723072
299.736035538
300.175054359
300.162859392
300.638463116
300.179119349
299.736035538
299.736035538
300.654723072
300.195379305
300.638463116
300.179119349
300.195379305
301.049027014
301.06528697
300.195379305
300.179119349
300.658788061
300.638463116
300.179119349
300.179119349
300.675048018
299.719775581
299.736035538
300.195379305
300.605943203
300.179119349
300.175054359
299.736035538
300.179119349
300.638463116
300.175054359
300.195379305
300.179119349
299.715710592
300.179119349
300.638463116
300.179119349
300.162859392
300.195379305
299.719775581
300.179119349
300.162859392
300.179119349
300.175054359
300.179119349
299.736035538
300.162859392
301.049027014
300.162859392
301.081546926
301.049027014
300.179119349
301.049027014
300.179119349
300.179119349
300.179119349
301.508370781
300.195379305
301.06528697
301.06528697
301.06528697
300.195379305
301.06528697
300.179119349
299.703515625
300.638463116
300.179119349
301.081546926
300.622203159
300.601878214
301.101871872
300.622203159
299.736035538
299.752295494
301.081546926
299.731970549
300.622203159
300.622203159
300.601878214
301.049027014
300.589683247
300.622203159
300.622203159
300.601878214
301.471785879
299.719775581
301.081546926
299.719775581

Average distance is : 300.384 cm
Average deviation is : 0.462 cm
Block: 8
======================================
300.195379305
300.211639261
301.06528697
300.179119349
300.622203159
300.195379305
300.179119349
300.195379305
299.752295494
300.179119349
300.179119349
300.195379305
299.736035538
300.605943203
300.146599436
300.162859392
299.736035538
301.081546926
300.179119349
299.715710592
299.699450636
300.158794403
300.142534447
300.179119349
300.158794403
300.658788061
300.162859392
300.162859392
300.179119349
300.158794403
300.179119349
300.605943203
300.622203159
300.179119349
300.179119349
300.195379305
300.195379305
300.162859392
300.622203159
300.162859392
300.179119349
300.162859392
300.179119349
301.049027014
300.179119349
301.06528697
300.158794403
300.146599436
300.158794403
300.605943203
301.508370781
300.162859392
300.179119349
301.06528697
300.162859392
300.179119349
300.179119349
300.162859392
300.12627449
300.622203159
301.492110825
300.622203159
300.162859392
300.146599436
300.158794403
299.699450636
300.162859392
300.162859392
299.715710592
301.06528697
301.06528697
299.715710592
299.715710592
300.622203159
300.162859392
300.195379305
300.179119349
300.142534447
300.179119349
300.162859392
300.179119349
300.162859392
300.162859392
300.654723072
300.162859392
300.179119349
300.179119349
300.179119349
299.719775581
299.736035538
300.195379305
299.736035538
299.719775581
300.589683247
300.605943203
299.719775581
299.703515625
299.752295494
299.719775581
301.049027014

Average distance is : 300.251 cm
Average deviation is : 0.393 cm
Block: 9
======================================
301.044962025
300.57342329
300.179119349
299.68319068
300.622203159
300.622203159
300.158794403
300.179119349
300.179119349
300.162859392
299.719775581
301.081546926
300.158794403
300.199444294
301.06528697
301.049027014
300.142534447
301.508370781
300.179119349
300.162859392
300.158794403
299.719775581
300.638463116
300.158794403
300.179119349
300.195379305
300.162859392
301.06528697
299.719775581
300.146599436
300.162859392
300.658788061
300.179119349
300.195379305
300.179119349
300.605943203
300.638463116
300.622203159
300.179119349
300.622203159
300.162859392
300.622203159
300.162859392
300.622203159
301.06528697
301.06528697
300.162859392
300.179119349
301.492110825
300.162859392
300.158794403
301.488045835
300.179119349
300.195379305
300.162859392
300.642528105
300.622203159
300.622203159
300.158794403
300.622203159
300.199444294
300.142534447
300.622203159
300.142534447
300.195379305
300.142534447
300.622203159
300.179119349
300.622203159
300.195379305
300.179119349
300.195379305
300.179119349
300.179119349
300.179119349
300.642528105
300.158794403
300.179119349
300.158794403
300.162859392
300.622203159
300.622203159
299.752295494
300.622203159
300.179119349
300.61813817
301.081546926
299.752295494
301.085611916
299.752295494
301.081546926
299.752295494
299.731970549
300.622203159
300.638463116
300.195379305
300.195379305
300.227899218
300.231964207
300.179119349

Average distance is : 300.376 cm
Average deviation is : 0.402 cm
Block: 10
======================================
300.195379305
300.654723072
301.097806883
300.638463116
300.162859392
300.179119349
300.622203159
301.097806883
300.638463116
300.195379305
300.195379305
300.691307974
300.638463116
300.195379305
300.638463116
300.654723072
301.081546926
300.195379305
299.77262044
300.638463116
300.654723072
300.622203159
300.638463116
300.638463116
300.658788061
301.081546926
300.654723072
301.524630737
300.654723072
300.638463116
299.736035538
301.101871872
301.118131828
300.227899218
301.097806883
300.179119349
300.638463116
299.752295494
300.175054359
300.622203159
300.211639261
300.199444294
300.195379305
300.195379305
300.179119349
301.097806883
300.195379305
300.638463116
301.081546926
300.638463116
299.736035538
300.638463116
299.731970549
300.638463116
300.654723072
300.179119349
300.638463116
300.179119349
300.195379305
300.179119349
301.101871872
300.195379305
300.638463116
300.195379305
300.195379305
300.199444294
300.642528105
300.658788061
300.638463116
300.654723072
300.658788061
301.508370781
300.658788061
301.101871872
299.76855545
300.211639261
301.101871872
301.097806883
300.195379305
300.211639261
300.195379305
301.101871872
300.622203159
300.21570425
300.638463116
301.524630737
300.622203159
301.118131828
300.195379305
300.670983028
300.195379305
300.195379305
300.195379305
300.195379305
301.097806883
301.118131828
299.719775581
300.654723072
300.195379305
300.670983028

Average distance is : 300.528 cm
Average deviation is : 0.417 cm