
Block: 1
======================================
300.162859392
300.622203159
299.752295494
300.146599436
300.162859392
301.06528697
300.195379305
300.179119349
299.736035538
301.06528697

Average distance is : 300.309 cm
Average deviation is : 0.469 cm
Block: 2
======================================
301.06528697
300.179119349
300.601878214
300.605943203
300.622203159
300.654723072
299.731970549
300.622203159
300.211639261
299.736035538

Average distance is : 300.403 cm
Average deviation is : 0.430 cm
Block: 3
======================================
300.162859392
300.605943203
300.622203159
300.622203159
300.162859392
300.589683247
299.715710592
299.687255669
301.049027014
301.508370781

Average distance is : 300.473 cm
Average deviation is : 0.564 cm
Block: 4
======================================
301.492110825
300.179119349
300.179119349
300.162859392
300.605943203
300.622203159
300.585618258
299.752295494
301.06528697
301.06528697

Average distance is : 300.571 cm
Average deviation is : 0.525 cm
Block: 5
======================================
299.719775581
301.049027014
301.492110825
300.622203159
301.081546926
300.162859392
300.589683247
299.736035538
300.654723072
300.195379305

Average distance is : 300.530 cm
Average deviation is : 0.583 cm
Block: 6
======================================
299.719775581
300.179119349
300.622203159
300.179119349
300.179119349
300.638463116
299.736035538
300.162859392
300.605943203
300.179119349

Average distance is : 300.220 cm
Average deviation is : 0.330 cm
Block: 7
======================================
300.175054359
300.654723072
299.715710592
300.179119349
299.719775581
299.699450636
300.658788061
299.736035538
301.101871872
299.719775581

Average distance is : 300.136 cm
Average deviation is : 0.511 cm
Block: 8
======================================
300.211639261
300.179119349
299.68319068
299.736035538
299.731970549
299.719775581
299.719775581
301.081546926
300.605943203
299.68319068

Average distance is : 300.035 cm
Average deviation is : 0.483 cm
Block: 9
======================================
300.605943203
299.715710592
299.731970549
300.605943203
300.622203159
299.719775581
300.622203159
301.06528697
299.715710592
299.736035538

Average distance is : 300.214 cm
Average deviation is : 0.534 cm
Block: 10
======================================
300.622203159
299.703515625
300.130339479
299.666930723
300.142534447
300.589683247
301.130326796
299.719775581
300.142534447
300.146599436

Average distance is : 300.199 cm
Average deviation is : 0.468 cm